EESchema Schematic File Version 5
EELAYER 43 0
EELAYER END
$Descr A4 11693 8268
encoding utf-8
Sheet 1 1
Title ""
Date ""
Rev ""
Comp ""
Comment1 ""
Comment2 ""
Comment3 ""
Comment4 ""
Comment5 ""
Comment6 ""
Comment7 ""
Comment8 ""
Comment9 ""
$EndDescr
Connection ~ 600  5850
Connection ~ 800  4500
Connection ~ 800  4800
Connection ~ 1300 850 
Connection ~ 1300 2300
Connection ~ 1500 6500
Connection ~ 1575 6600
Connection ~ 1650 6800
Connection ~ 1725 7200
Connection ~ 1725 7675
Connection ~ 1750 2300
Connection ~ 1800 4200
Connection ~ 2025 6500
Connection ~ 2150 1300
Connection ~ 2150 2300
Connection ~ 2200 5600
Connection ~ 2200 6600
Connection ~ 2225 2700
Connection ~ 2225 3450
Connection ~ 2325 5600
Connection ~ 2450 3150
Connection ~ 2450 4200
Connection ~ 2500 850 
Connection ~ 2500 1300
Connection ~ 2500 2300
Connection ~ 2800 1600
Connection ~ 2875 3625
Connection ~ 2900 1300
Connection ~ 2900 1800
Connection ~ 3025 3625
Connection ~ 3200 850 
Connection ~ 3200 2300
Connection ~ 3425 3225
Connection ~ 3700 1300
Connection ~ 3700 1700
Connection ~ 4175 7750
Connection ~ 4350 1700
Connection ~ 4350 2300
Connection ~ 4850 2700
Connection ~ 4850 3475
Connection ~ 5000 5000
Connection ~ 5075 3150
Connection ~ 5075 4900
Connection ~ 5250 1200
Connection ~ 5250 1300
Connection ~ 5250 1400
Connection ~ 5250 1600
Connection ~ 5425 5900
Connection ~ 5425 6275
Connection ~ 5500 3650
Connection ~ 5550 4400
Connection ~ 5550 5600
Connection ~ 5650 3650
Connection ~ 5700 7750
Connection ~ 5850 4400
Connection ~ 5850 5600
Connection ~ 5850 6100
Connection ~ 5900 850 
Connection ~ 5900 2300
Connection ~ 5900 6275
Connection ~ 5900 6900
Connection ~ 6050 3225
Connection ~ 6125 4400
Connection ~ 6375 6900
Connection ~ 6450 1300
Connection ~ 6450 1700
Connection ~ 6650 850 
Connection ~ 6650 2300
Connection ~ 6675 7350
Connection ~ 6900 6100
Connection ~ 6900 7350
Connection ~ 7050 850 
Connection ~ 7050 2300
Connection ~ 7450 3400
Connection ~ 7450 3900
Connection ~ 7500 3075
Connection ~ 7600 4500
Connection ~ 7600 6000
Connection ~ 7750 3400
Connection ~ 7750 3900
Connection ~ 7850 2700
Connection ~ 7850 3075
Connection ~ 8050 3075
Connection ~ 8050 3400
Connection ~ 8050 3900
Connection ~ 8050 5425
Connection ~ 8500 3075
Connection ~ 8550 1075
Connection ~ 8950 4950
Connection ~ 8975 1075
Connection ~ 9125 1075
Connection ~ 9150 6300
Connection ~ 9250 4750
Connection ~ 9350 3400
Connection ~ 9425 1075
Connection ~ 9500 5800
Connection ~ 9500 6300
Connection ~ 10325 2600
Connection ~ 10375 1375
Connection ~ 10375 1800
Connection ~ 10400 2700
Connection ~ 10525 1800
Connection ~ 10550 4075
Connection ~ 10550 4500
Connection ~ 10550 4750
Connection ~ 10750 600 
Connection ~ 10750 750 
Connection ~ 10750 1075
Connection ~ 10750 1800
NoConn ~ 1200 5800
NoConn ~ 1750 5800
NoConn ~ 2700 4300
NoConn ~ 2700 4400
NoConn ~ 2700 4700
NoConn ~ 2700 4800
NoConn ~ 2700 5300
NoConn ~ 2700 5400
NoConn ~ 2700 5500
NoConn ~ 2700 5700
NoConn ~ 2700 5800
NoConn ~ 2700 5900
NoConn ~ 2700 6000
NoConn ~ 2700 6100
NoConn ~ 2700 6200
NoConn ~ 2700 6300
NoConn ~ 2700 6400
NoConn ~ 2700 6500
NoConn ~ 3375 2700
NoConn ~ 4900 4500
NoConn ~ 4900 4600
NoConn ~ 4900 5200
NoConn ~ 4900 5400
NoConn ~ 4900 5500
NoConn ~ 4900 5700
NoConn ~ 4900 5800
NoConn ~ 4900 6000
NoConn ~ 4900 6200
NoConn ~ 4900 6300
NoConn ~ 4900 6400
NoConn ~ 4900 6500
NoConn ~ 5250 7475
NoConn ~ 6000 2700
NoConn ~ 6125 7175
NoConn ~ 7700 5700
NoConn ~ 8300 5700
NoConn ~ 10550 2800
Wire Wire Line
	575  7200 575  7550
Wire Wire Line
	575  7550 1650 7550
Wire Wire Line
	600  3150 600  3300
Wire Wire Line
	600  5650 600  5850
Wire Wire Line
	600  5850 650  5850
Wire Wire Line
	600  6100 600  5850
Wire Wire Line
	650  6100 600  6100
Wire Wire Line
	650  7200 575  7200
Wire Wire Line
	650  7300 650  7450
Wire Wire Line
	650  7450 1575 7450
Wire Wire Line
	750  3100 750  3150
Wire Wire Line
	750  3150 600  3150
Wire Wire Line
	800  3200 800  3300
Wire Wire Line
	800  4200 800  4500
Wire Wire Line
	800  4200 1800 4200
Wire Wire Line
	800  4500 800  4800
Wire Wire Line
	800  4800 800  5100
Wire Wire Line
	800  4800 850  4800
Wire Wire Line
	800  5100 850  5100
Wire Wire Line
	825  6500 1100 6500
Wire Wire Line
	850  3200 800  3200
Wire Wire Line
	850  3200 850  3100
Wire Wire Line
	850  4500 800  4500
Wire Wire Line
	950  3100 950  3200
Wire Wire Line
	950  3200 1000 3200
Wire Wire Line
	1000 3200 1000 3300
Wire Wire Line
	1050 3150 1050 3100
Wire Wire Line
	1050 3150 1200 3150
Wire Wire Line
	1050 5850 1100 5850
Wire Wire Line
	1050 6100 1200 6100
Wire Wire Line
	1100 5850 1100 6000
Wire Wire Line
	1100 6000 1200 6000
Wire Wire Line
	1100 6600 825  6600
Wire Wire Line
	1100 6700 825  6700
Wire Wire Line
	1100 6800 825  6800
Wire Wire Line
	1150 850  1150 1700
Wire Wire Line
	1150 850  1300 850 
Wire Wire Line
	1150 1700 1100 1700
Wire Wire Line
	1150 1900 1100 1900
Wire Wire Line
	1150 2300 1150 1900
Wire Wire Line
	1150 2300 1300 2300
Wire Wire Line
	1150 5650 600  5650
Wire Wire Line
	1150 5650 1150 5900
Wire Wire Line
	1150 5900 1200 5900
Wire Wire Line
	1200 3150 1200 3300
Wire Wire Line
	1250 4500 2700 4500
Wire Wire Line
	1250 5100 1550 5100
Wire Wire Line
	1275 7200 1725 7200
Wire Wire Line
	1275 7300 1500 7300
Wire Wire Line
	1300 850  2500 850 
Wire Wire Line
	1300 1100 1300 850 
Wire Wire Line
	1300 1400 1300 2300
Wire Wire Line
	1300 2300 1750 2300
Wire Wire Line
	1300 6500 1500 6500
Wire Wire Line
	1300 6600 1575 6600
Wire Wire Line
	1300 6700 1725 6700
Wire Wire Line
	1300 6800 1650 6800
Wire Wire Line
	1350 1800 1100 1800
Wire Wire Line
	1500 6500 2025 6500
Wire Wire Line
	1500 7300 1500 6500
Wire Wire Line
	1525 7675 1725 7675
Wire Wire Line
	1550 4800 1250 4800
Wire Wire Line
	1550 4900 1550 4800
Wire Wire Line
	1550 4900 2700 4900
Wire Wire Line
	1550 5100 1550 5200
Wire Wire Line
	1575 6600 2200 6600
Wire Wire Line
	1575 7450 1575 6600
Wire Wire Line
	1650 6800 1650 7550
Wire Wire Line
	1650 6800 2325 6800
Wire Wire Line
	1725 7200 1725 6700
Wire Wire Line
	1725 7200 1725 7675
Wire Wire Line
	1725 7750 1725 7675
Wire Wire Line
	1725 7750 4175 7750
Wire Wire Line
	1750 1300 2150 1300
Wire Wire Line
	1750 1400 1750 1300
Wire Wire Line
	1750 1700 1750 2300
Wire Wire Line
	1750 2300 2150 2300
Wire Wire Line
	1750 6000 1850 6000
Wire Wire Line
	1800 3450 2225 3450
Wire Wire Line
	1800 4200 1800 5900
Wire Wire Line
	1800 4200 2450 4200
Wire Wire Line
	1800 5900 1750 5900
Wire Wire Line
	1825 2700 1875 2700
Wire Wire Line
	1850 4600 1850 6000
Wire Wire Line
	1850 4600 2700 4600
Wire Wire Line
	1900 5100 1900 6100
Wire Wire Line
	1900 5100 2700 5100
Wire Wire Line
	1900 6100 1750 6100
Wire Wire Line
	2025 5600 2025 5825
Wire Wire Line
	2025 6125 2025 6500
Wire Wire Line
	2025 6500 2375 6500
Wire Wire Line
	2150 1300 2500 1300
Wire Wire Line
	2150 1400 2150 1300
Wire Wire Line
	2150 1700 2150 2300
Wire Wire Line
	2150 2300 2500 2300
Wire Wire Line
	2175 2700 2225 2700
Wire Wire Line
	2200 5600 2025 5600
Wire Wire Line
	2200 5600 2200 5825
Wire Wire Line
	2200 6125 2200 6600
Wire Wire Line
	2200 6875 2200 6600
Wire Wire Line
	2200 6875 5075 6875
Wire Wire Line
	2225 2700 2475 2700
Wire Wire Line
	2225 2900 2225 2700
Wire Wire Line
	2225 3200 2225 3450
Wire Wire Line
	2325 5525 2325 5600
Wire Wire Line
	2325 5600 2200 5600
Wire Wire Line
	2325 5600 2325 6800
Wire Wire Line
	2375 6500 2375 6825
Wire Wire Line
	2375 6825 5000 6825
Wire Wire Line
	2450 2850 2450 3150
Wire Wire Line
	2450 3150 2450 3450
Wire Wire Line
	2450 3450 2225 3450
Wire Wire Line
	2450 3800 2450 4200
Wire Wire Line
	2450 4200 2700 4200
Wire Wire Line
	2450 5000 2700 5000
Wire Wire Line
	2450 6925 2450 5000
Wire Wire Line
	2450 6925 5075 6925
Wire Wire Line
	2475 2850 2450 2850
Wire Wire Line
	2500 850  2500 950 
Wire Wire Line
	2500 850  3200 850 
Wire Wire Line
	2500 1250 2500 1300
Wire Wire Line
	2500 1300 2500 1400
Wire Wire Line
	2500 1300 2650 1300
Wire Wire Line
	2500 1700 2500 2300
Wire Wire Line
	2500 2300 3200 2300
Wire Wire Line
	2550 1800 1650 1800
Wire Wire Line
	2650 1300 2650 1600
Wire Wire Line
	2650 1600 2800 1600
Wire Wire Line
	2700 5200 1550 5200
Wire Wire Line
	2700 5600 2325 5600
Wire Wire Line
	2750 3050 2750 3225
Wire Wire Line
	2750 3575 2750 3625
Wire Wire Line
	2750 3625 2875 3625
Wire Wire Line
	2800 950  2800 1600
Wire Wire Line
	2800 1600 3000 1600
Wire Wire Line
	2825 3050 2750 3050
Wire Wire Line
	2850 1800 2900 1800
Wire Wire Line
	2875 3150 2450 3150
Wire Wire Line
	2875 3225 2875 3150
Wire Wire Line
	2875 3625 2875 3575
Wire Wire Line
	2875 3625 3025 3625
Wire Wire Line
	2900 1100 2900 1300
Wire Wire Line
	2900 1300 2900 1800
Wire Wire Line
	2900 1800 3000 1800
Wire Wire Line
	3025 3225 3025 3050
Wire Wire Line
	3025 3625 3025 3575
Wire Wire Line
	3025 3625 3150 3625
Wire Wire Line
	3150 3225 3425 3225
Wire Wire Line
	3150 3625 3150 3575
Wire Wire Line
	3200 850  3200 1400
Wire Wire Line
	3200 850  5900 850 
Wire Wire Line
	3200 2300 3200 2000
Wire Wire Line
	3200 2300 4350 2300
Wire Wire Line
	3300 1100 2900 1100
Wire Wire Line
	3300 1300 2900 1300
Wire Wire Line
	3375 2850 3425 2850
Wire Wire Line
	3425 2850 3425 2875
Wire Wire Line
	3425 3175 3425 3225
Wire Wire Line
	3425 3225 3425 3450
Wire Wire Line
	3425 3450 3600 3450
Wire Wire Line
	3600 1100 3700 1100
Wire Wire Line
	3600 1700 3700 1700
Wire Wire Line
	3700 1100 3700 1300
Wire Wire Line
	3700 1300 3600 1300
Wire Wire Line
	3700 1700 3700 1300
Wire Wire Line
	3700 1700 3800 1700
Wire Wire Line
	3750 7250 3750 6800
Wire Wire Line
	3800 3900 3800 4000
Wire Wire Line
	3875 7250 3750 7250
Wire Wire Line
	3950 3950 3950 4000
Wire Wire Line
	4100 1700 4150 1700
Wire Wire Line
	4150 1300 4200 1300
Wire Wire Line
	4150 1700 4150 1300
Wire Wire Line
	4175 7750 4175 7550
Wire Wire Line
	4175 7750 5700 7750
Wire Wire Line
	4350 1550 4350 1700
Wire Wire Line
	4350 1700 4350 2300
Wire Wire Line
	4350 1700 4450 1700
Wire Wire Line
	4350 2300 5900 2300
Wire Wire Line
	4450 1700 4450 1550
Wire Wire Line
	4450 2700 4500 2700
Wire Wire Line
	4450 3475 4850 3475
Wire Wire Line
	4475 7250 4550 7250
Wire Wire Line
	4600 1200 4850 1200
Wire Wire Line
	4600 1300 4800 1300
Wire Wire Line
	4600 1400 4700 1400
Wire Wire Line
	4675 3950 3950 3950
Wire Wire Line
	4675 4025 4675 3950
Wire Wire Line
	4700 1400 4700 1600
Wire Wire Line
	4700 1600 4850 1600
Wire Wire Line
	4800 1300 4800 1400
Wire Wire Line
	4800 1400 4850 1400
Wire Wire Line
	4800 2700 4850 2700
Wire Wire Line
	4825 3900 3800 3900
Wire Wire Line
	4825 4025 4675 4025
Wire Wire Line
	4850 2700 5100 2700
Wire Wire Line
	4850 2900 4850 2700
Wire Wire Line
	4850 3200 4850 3475
Wire Wire Line
	4850 3475 5075 3475
Wire Wire Line
	4900 4300 6125 4300
Wire Wire Line
	4900 4400 5550 4400
Wire Wire Line
	4900 4700 5225 4700
Wire Wire Line
	4900 4800 5150 4800
Wire Wire Line
	4900 4900 5075 4900
Wire Wire Line
	4900 5000 5000 5000
Wire Wire Line
	4900 5300 6750 5300
Wire Wire Line
	4900 5600 5550 5600
Wire Wire Line
	4900 5900 5425 5900
Wire Wire Line
	4900 6100 5850 6100
Wire Wire Line
	5000 5000 5000 6825
Wire Wire Line
	5000 5000 5400 5000
Wire Wire Line
	5075 2850 5075 3150
Wire Wire Line
	5075 3150 5075 3475
Wire Wire Line
	5075 4900 5075 6875
Wire Wire Line
	5075 4900 5275 4900
Wire Wire Line
	5075 6925 5075 7375
Wire Wire Line
	5075 7375 5250 7375
Wire Wire Line
	5100 2850 5075 2850
Wire Wire Line
	5150 1200 5250 1200
Wire Wire Line
	5150 1600 5250 1600
Wire Wire Line
	5150 4800 5150 7275
Wire Wire Line
	5150 7275 5250 7275
Wire Wire Line
	5225 4700 5225 7175
Wire Wire Line
	5225 7175 5250 7175
Wire Wire Line
	5250 1100 5250 1200
Wire Wire Line
	5250 1200 5250 1300
Wire Wire Line
	5250 1300 5250 1400
Wire Wire Line
	5250 1400 5150 1400
Wire Wire Line
	5250 1400 5250 1600
Wire Wire Line
	5250 1600 5500 1600
Wire Wire Line
	5275 4900 5275 4100
Wire Wire Line
	5375 3025 5375 3225
Wire Wire Line
	5375 3575 5375 3650
Wire Wire Line
	5375 3650 5500 3650
Wire Wire Line
	5400 5000 5400 4100
Wire Wire Line
	5425 5900 7300 5900
Wire Wire Line
	5425 6275 5425 5900
Wire Wire Line
	5425 6275 5425 6550
Wire Wire Line
	5425 6550 5600 6550
Wire Wire Line
	5450 3025 5375 3025
Wire Wire Line
	5450 3050 5450 3025
Wire Wire Line
	5500 1600 5500 1800
Wire Wire Line
	5500 1800 5700 1800
Wire Wire Line
	5500 3150 5075 3150
Wire Wire Line
	5500 3225 5500 3150
Wire Wire Line
	5500 3650 5500 3575
Wire Wire Line
	5500 3650 5650 3650
Wire Wire Line
	5500 6275 5425 6275
Wire Wire Line
	5550 4400 5550 4675
Wire Wire Line
	5550 4400 5850 4400
Wire Wire Line
	5550 4975 5550 5600
Wire Wire Line
	5550 5600 5850 5600
Wire Wire Line
	5650 950  2800 950 
Wire Wire Line
	5650 1600 5650 950 
Wire Wire Line
	5650 3050 5650 3225
Wire Wire Line
	5650 3650 5650 3575
Wire Wire Line
	5650 3650 5775 3650
Wire Wire Line
	5700 1600 5650 1600
Wire Wire Line
	5700 6900 5700 6975
Wire Wire Line
	5700 7675 5700 7750
Wire Wire Line
	5700 7750 6900 7750
Wire Wire Line
	5775 3225 6050 3225
Wire Wire Line
	5775 3650 5775 3575
Wire Wire Line
	5800 6275 5900 6275
Wire Wire Line
	5850 4400 6125 4400
Wire Wire Line
	5850 4675 5850 4400
Wire Wire Line
	5850 4975 5850 5600
Wire Wire Line
	5850 5600 5850 6100
Wire Wire Line
	5850 6100 6900 6100
Wire Wire Line
	5900 850  5900 1400
Wire Wire Line
	5900 850  6650 850 
Wire Wire Line
	5900 2300 5900 2000
Wire Wire Line
	5900 2300 6650 2300
Wire Wire Line
	5900 6275 5900 6350
Wire Wire Line
	5900 6275 6075 6275
Wire Wire Line
	5900 6750 5900 6900
Wire Wire Line
	5900 6900 5700 6900
Wire Wire Line
	6000 2850 6050 2850
Wire Wire Line
	6000 4000 6000 4200
Wire Wire Line
	6000 4000 6250 4000
Wire Wire Line
	6000 4200 4900 4200
Wire Wire Line
	6050 1100 5250 1100
Wire Wire Line
	6050 1300 5250 1300
Wire Wire Line
	6050 2850 6050 2875
Wire Wire Line
	6050 3175 6050 3225
Wire Wire Line
	6050 3225 6050 3475
Wire Wire Line
	6050 3475 6250 3475
Wire Wire Line
	6125 4200 6250 4200
Wire Wire Line
	6125 4300 6125 4200
Wire Wire Line
	6125 4400 6125 4550
Wire Wire Line
	6125 4400 6250 4400
Wire Wire Line
	6125 4550 6900 4550
Wire Wire Line
	6125 4850 6250 4850
Wire Wire Line
	6125 5100 4900 5100
Wire Wire Line
	6125 5100 6125 4850
Wire Wire Line
	6250 3800 2450 3800
Wire Wire Line
	6300 1700 6450 1700
Wire Wire Line
	6350 1100 6450 1100
Wire Wire Line
	6350 1300 6450 1300
Wire Wire Line
	6375 6900 5900 6900
Wire Wire Line
	6375 6975 6375 6900
Wire Wire Line
	6375 7275 6375 7350
Wire Wire Line
	6450 1100 6450 1300
Wire Wire Line
	6450 1300 6450 1700
Wire Wire Line
	6450 1700 7600 1700
Wire Wire Line
	6650 850  6650 1250
Wire Wire Line
	6650 850  7050 850 
Wire Wire Line
	6650 2300 6650 1550
Wire Wire Line
	6650 2300 7050 2300
Wire Wire Line
	6675 6900 6375 6900
Wire Wire Line
	6675 6975 6675 6900
Wire Wire Line
	6675 7275 6675 7350
Wire Wire Line
	6675 7350 6375 7350
Wire Wire Line
	6675 7350 6900 7350
Wire Wire Line
	6825 5800 6825 7475
Wire Wire Line
	6825 5800 7700 5800
Wire Wire Line
	6825 7475 6125 7475
Wire Wire Line
	6900 4550 6900 5150
Wire Wire Line
	6900 6100 6900 5450
Wire Wire Line
	6900 6100 6900 7350
Wire Wire Line
	6900 7350 6900 7750
Wire Wire Line
	7050 850  7050 1250
Wire Wire Line
	7050 850  7200 850 
Wire Wire Line
	7050 1550 7050 2300
Wire Wire Line
	7050 2300 7700 2300
Wire Wire Line
	7175 3075 7500 3075
Wire Wire Line
	7175 3400 7450 3400
Wire Wire Line
	7175 3900 7450 3900
Wire Wire Line
	7200 2700 7175 2700
Wire Wire Line
	7300 5425 8050 5425
Wire Wire Line
	7300 5900 7300 5425
Wire Wire Line
	7450 3400 7450 3500
Wire Wire Line
	7450 3400 7750 3400
Wire Wire Line
	7450 3800 7450 3900
Wire Wire Line
	7475 4750 8100 4750
Wire Wire Line
	7475 5900 7475 4750
Wire Wire Line
	7500 3075 7500 3000
Wire Wire Line
	7500 3075 7850 3075
Wire Wire Line
	7600 850  7400 850 
Wire Wire Line
	7600 4500 7500 4500
Wire Wire Line
	7600 4500 7600 5050
Wire Wire Line
	7600 4500 8950 4500
Wire Wire Line
	7600 5350 7600 6000
Wire Wire Line
	7600 6000 7600 6425
Wire Wire Line
	7675 6425 7600 6425
Wire Wire Line
	7700 5900 7475 5900
Wire Wire Line
	7700 6000 7600 6000
Wire Wire Line
	7750 3400 8050 3400
Wire Wire Line
	7750 3500 7750 3400
Wire Wire Line
	7750 3900 7450 3900
Wire Wire Line
	7750 3900 7750 3800
Wire Wire Line
	7800 2700 7850 2700
Wire Wire Line
	7850 2700 8550 2700
Wire Wire Line
	7850 2725 7850 2700
Wire Wire Line
	7850 3025 7850 3075
Wire Wire Line
	7850 3075 8050 3075
Wire Wire Line
	8050 2800 8050 3075
Wire Wire Line
	8050 3075 8125 3075
Wire Wire Line
	8050 3400 8050 3500
Wire Wire Line
	8050 3400 8175 3400
Wire Wire Line
	8050 3800 8050 3900
Wire Wire Line
	8050 3900 7750 3900
Wire Wire Line
	8050 4850 7950 4850
Wire Wire Line
	8050 4975 8050 4850
Wire Wire Line
	8050 5275 8050 5425
Wire Wire Line
	8050 5425 9050 5425
Wire Wire Line
	8300 5800 8600 5800
Wire Wire Line
	8300 6000 8300 6200
Wire Wire Line
	8375 3400 8850 3400
Wire Wire Line
	8425 3075 8500 3075
Wire Wire Line
	8450 5900 8300 5900
Wire Wire Line
	8450 6050 8450 5900
Wire Wire Line
	8500 2900 8500 3075
Wire Wire Line
	8500 3075 8600 3075
Wire Wire Line
	8550 650  8550 1075
Wire Wire Line
	8550 1250 8550 1075
Wire Wire Line
	8550 1800 8550 1550
Wire Wire Line
	8550 1800 10375 1800
Wire Wire Line
	8550 2800 8050 2800
Wire Wire Line
	8550 2900 8500 2900
Wire Wire Line
	8600 4750 8400 4750
Wire Wire Line
	8600 5800 8600 6200
Wire Wire Line
	8650 650  8550 650 
Wire Wire Line
	8875 2075 8950 2075
Wire Wire Line
	8875 2275 8950 2275
Wire Wire Line
	8950 650  9075 650 
Wire Wire Line
	8950 3400 9350 3400
Wire Wire Line
	8950 4950 8950 4500
Wire Wire Line
	8950 4950 8950 5750
Wire Wire Line
	8950 6050 8950 6300
Wire Wire Line
	8950 6300 9150 6300
Wire Wire Line
	8975 1075 8550 1075
Wire Wire Line
	8975 1175 8975 1075
Wire Wire Line
	8975 1625 8975 1275
Wire Wire Line
	9050 5425 9050 5625
Wire Wire Line
	9050 5625 10700 5625
Wire Wire Line
	9125 1075 8975 1075
Wire Wire Line
	9125 1075 9125 1175
Wire Wire Line
	9125 1075 9425 1075
Wire Wire Line
	9125 1450 9125 1275
Wire Wire Line
	9150 5050 9150 6300
Wire Wire Line
	9150 6300 9500 6300
Wire Wire Line
	9175 1450 9125 1450
Wire Wire Line
	9175 1625 8975 1625
Wire Wire Line
	9175 2700 9275 2700
Wire Wire Line
	9175 2900 9275 2900
Wire Wire Line
	9250 4500 9250 4750
Wire Wire Line
	9250 4750 8900 4750
Wire Wire Line
	9250 4750 9250 5250
Wire Wire Line
	9250 4750 9700 4750
Wire Wire Line
	9250 5250 9300 5250
Wire Wire Line
	9250 5350 9250 5800
Wire Wire Line
	9250 5800 9500 5800
Wire Wire Line
	9275 3075 8900 3075
Wire Wire Line
	9300 4950 8950 4950
Wire Wire Line
	9300 5050 9150 5050
Wire Wire Line
	9300 5350 9250 5350
Wire Wire Line
	9350 3400 9600 3400
Wire Wire Line
	9350 3700 9350 3400
Wire Wire Line
	9425 1075 9525 1075
Wire Wire Line
	9425 1175 9425 1075
Wire Wire Line
	9475 1275 9475 1450
Wire Wire Line
	9475 1625 9525 1625
Wire Wire Line
	9500 5800 9500 5900
Wire Wire Line
	9500 5800 10800 5800
Wire Wire Line
	9500 6200 9500 6300
Wire Wire Line
	9500 6300 10425 6300
Wire Wire Line
	9525 1175 9425 1175
Wire Wire Line
	9525 1275 9475 1275
Wire Wire Line
	9525 1625 9525 1375
Wire Wire Line
	9600 3700 9350 3700
Wire Wire Line
	9700 4500 9250 4500
Wire Wire Line
	10000 3400 9900 3400
Wire Wire Line
	10000 3700 9900 3700
Wire Wire Line
	10000 4325 10000 4275
Wire Wire Line
	10000 4325 10550 4325
Wire Wire Line
	10000 4500 10550 4500
Wire Wire Line
	10000 4750 10550 4750
Wire Wire Line
	10075 2700 10400 2700
Wire Wire Line
	10100 2975 10325 2975
Wire Wire Line
	10225 2400 10550 2400
Wire Wire Line
	10325 1075 10750 1075
Wire Wire Line
	10325 1175 10375 1175
Wire Wire Line
	10325 1375 10375 1375
Wire Wire Line
	10325 2600 10075 2600
Wire Wire Line
	10325 2975 10325 2600
Wire Wire Line
	10375 1175 10375 1375
Wire Wire Line
	10375 1375 10375 1800
Wire Wire Line
	10375 1800 10525 1800
Wire Wire Line
	10400 2700 10400 3125
Wire Wire Line
	10400 2700 10550 2700
Wire Wire Line
	10400 3125 10100 3125
Wire Wire Line
	10400 4075 10550 4075
Wire Wire Line
	10400 4175 10550 4175
Wire Wire Line
	10500 5050 10725 5050
Wire Wire Line
	10500 5250 10800 5250
Wire Wire Line
	10500 5350 10700 5350
Wire Wire Line
	10525 1275 10325 1275
Wire Wire Line
	10525 1275 10525 1375
Wire Wire Line
	10525 1675 10525 1800
Wire Wire Line
	10525 1800 10750 1800
Wire Wire Line
	10550 600  10750 600 
Wire Wire Line
	10550 750  10750 750 
Wire Wire Line
	10550 2600 10325 2600
Wire Wire Line
	10550 4075 10725 4075
Wire Wire Line
	10550 4175 10550 4075
Wire Wire Line
	10550 4325 10550 4500
Wire Wire Line
	10550 4500 10550 4750
Wire Wire Line
	10550 4750 10550 4950
Wire Wire Line
	10550 4950 10500 4950
Wire Wire Line
	10700 5350 10700 5625
Wire Wire Line
	10725 4075 10725 5050
Wire Wire Line
	10750 600  10875 600 
Wire Wire Line
	10750 750  10750 600 
Wire Wire Line
	10750 750  10750 1075
Wire Wire Line
	10750 1075 10750 1375
Wire Wire Line
	10750 1675 10750 1800
Wire Wire Line
	10750 1800 10875 1800
Wire Wire Line
	10800 5250 10800 5800
Wire Wire Line
	10850 3000 10850 3900
Wire Wire Line
	10850 3900 8050 3900
Wire Notes Line style solid
	525  5500 1475 5500
Wire Notes Line style solid
	525  6250 525  5500
Wire Notes Line style solid
	700  700  700  2450
Wire Notes Line style solid
	700  2450 8050 2450
Wire Notes Line style solid
	1475 5500 1475 6250
Wire Notes Line style solid
	1475 6250 525  6250
Wire Notes Line style solid
	8000 5500 8675 5500
Wire Notes Line style solid
	8000 6350 8000 5500
Wire Notes Line style solid
	8050 700  700  700 
Wire Notes Line style solid
	8050 2450 8050 700 
Wire Notes Line style solid
	8675 5500 8675 6350
Wire Notes Line style solid
	8675 6350 8000 6350
Text Notes 4400 2250 0    60   ~ 0
R7 33dB (+ 0dB) 5mV->0.2V\nR6 43dB (+15dB) 5mV->0.7V\nR5 53dB (+24dB) 5mV->2.3V
Text Notes 4475 7700 0    51   ~ 0
Teensy Recorders :\n35 36 37\nD2 D1 D0\n 1  1  0 Active Recorder
Text Notes 7100 7075 0    157  ~ 31
Active Recorder SMD V0.7\nTeensy 4.1
Text Notes 7150 1100 0    60   ~ 0
Pré-ampli Micro
Text Label 1050 6500 2    60   ~ 0
SDA_E
Text Label 1050 6600 2    60   ~ 0
SCL_E
Text Label 1075 6700 2    60   ~ 0
GND_E
Text Label 1075 6800 2    60   ~ 0
VDD_E
Text Label 2475 4500 0    60   ~ 0
Up
Text Label 2475 4600 0    60   ~ 0
Rec
Text Label 2475 4900 0    60   ~ 0
Down
Text Label 2475 5100 0    60   ~ 0
Mode
Text Label 2475 5200 0    60   ~ 0
Push
Text Label 5950 5300 0    60   ~ 0
Mesure_Heterodyne
Text Label 6125 7475 0    60   ~ 0
Sortie_Audio
Text Label 8400 3400 0    60   ~ 0
+3V7_C
Text Label 10075 2600 0    60   ~ 0
D+
Text Label 10075 2700 0    60   ~ 0
D-
Text GLabel 600  3300 3    60   Input ~ 0
+BAT1
Text GLabel 800  3300 3    60   Input ~ 0
-BAT1
Text GLabel 1000 3300 3    60   Input ~ 0
+BAT2
Text GLabel 1200 3300 3    60   Input ~ 0
-BAT2
Text GLabel 1525 7675 0    60   Input ~ 0
GND
Text GLabel 1800 3450 0    60   Input ~ 0
-BAT1
Text GLabel 1825 2700 0    60   Input ~ 0
+BAT1
Text GLabel 2325 5525 1    60   Input ~ 0
+3V3
Text GLabel 3600 3450 2    60   Input ~ 0
GND
Text GLabel 4450 2700 0    60   Input ~ 0
+BAT2
Text GLabel 4450 3475 0    60   Input ~ 0
-BAT2
Text GLabel 4550 7250 2    60   Input ~ 0
VBAT
Text GLabel 4825 3900 2    60   Input ~ 0
D+
Text GLabel 4825 4025 2    60   Input ~ 0
D-
Text GLabel 5275 4100 1    60   Input ~ 0
SCL
Text GLabel 5400 4100 1    60   Input ~ 0
SDA
Text GLabel 6075 6275 2    60   Input ~ 0
+3V3
Text GLabel 6250 3475 2    60   Input ~ 0
GND
Text GLabel 6250 3800 2    60   Input ~ 0
GND
Text GLabel 6250 4000 2    60   Input ~ 0
+5V
Text GLabel 6250 4200 2    60   Input ~ 0
GND
Text GLabel 6250 4400 2    60   Input ~ 0
+3V3
Text GLabel 6250 4850 2    60   Input ~ 0
SAUDIO
Text GLabel 7175 2700 0    60   Input ~ 0
+3V3
Text GLabel 7175 3075 0    60   Input ~ 0
GND
Text GLabel 7175 3400 0    60   Input ~ 0
+5V
Text GLabel 7175 3900 0    60   Input ~ 0
GND
Text GLabel 7500 4500 0    60   Input ~ 0
+5V
Text GLabel 7600 850  2    60   Input ~ 0
+3V3
Text GLabel 7600 1700 2    60   Input ~ 0
SAUDIO
Text GLabel 7675 6425 2    60   Input ~ 0
GND
Text GLabel 7700 2300 2    60   Input ~ 0
GND
Text GLabel 7950 4850 0    60   Input ~ 0
+3V3
Text GLabel 8875 2075 0    60   Input ~ 0
GND
Text GLabel 8875 2275 0    60   Input ~ 0
GND
Text GLabel 9075 650  2    60   Input ~ 0
VUSB
Text GLabel 9275 2700 2    60   Input ~ 0
SCL
Text GLabel 9275 2900 2    60   Input ~ 0
SDA
Text GLabel 9275 3075 2    60   Input ~ 0
VBAT
Text GLabel 10000 3400 2    60   Input ~ 0
VBAT
Text GLabel 10000 3700 2    60   Input ~ 0
VUSB
Text GLabel 10100 2975 0    60   Input ~ 0
D+
Text GLabel 10100 3125 0    60   Input ~ 0
D-
Text GLabel 10225 2400 0    60   Input ~ 0
VUSB
Text GLabel 10425 6300 2    60   Input ~ 0
GND
Text GLabel 10550 600  0    60   Input ~ 0
+BAT1
Text GLabel 10550 750  0    60   Input ~ 0
+BAT2
Text GLabel 10875 600  2    60   Input ~ 0
VBAT
Text GLabel 10875 1800 2    60   Input ~ 0
GND
$Comp
L ActiveRecorder-rescue:LED-agg-kicad D4
U 1 1 5DA16035
P 8975 1275
F 0 "D4" V 9075 1450 50  0000 R CNN
F 1 "LEDG" V 9000 1550 50  0000 R CNN
F 2 "LEDs:LED_0805" H 8975 1275 50  0001 C CNN
F 3 "" H 8975 1275 50  0001 C CNN
	1    8975 1275
	0    -1   -1   0   
$EndComp
$Comp
L ActiveRecorder-rescue:LED-agg-kicad D3
U 1 1 5E1CF555
P 9125 1275
F 0 "D3" V 9221 1217 50  0000 R CNN
F 1 "LEDR" V 9130 1217 50  0000 R CNN
F 2 "LEDs:LED_0805" H 9125 1275 50  0001 C CNN
F 3 "" H 9125 1275 50  0001 C CNN
	1    9125 1275
	0    -1   -1   0   
$EndComp
$Comp
L ActiveRecorder-rescue:L_Core_Ferrite_Small-Device L2
U 1 1 5B1935FF
P 7300 850
F 0 "L2" V 7250 800 50  0000 L CNN
F 1 "100uH" V 7400 700 50  0000 L CNN
F 2 "Alimentations:L100mH" H 7300 850 50  0001 C CNN
F 3 "" H 7300 850 50  0001 C CNN
	1    7300 850 
	0    -1   -1   0   
$EndComp
$Comp
L ActiveRecorder-rescue:L_Core_Ferrite_Small-Device L1
U 1 1 5B19267D
P 8275 3400
F 0 "L1" V 8225 3350 50  0000 L CNN
F 1 "100uH" V 8375 3250 50  0000 L CNN
F 2 "Alimentations:L100mH" H 8275 3400 50  0001 C CNN
F 3 "" H 8275 3400 50  0001 C CNN
	1    8275 3400
	0    -1   -1   0   
$EndComp
$Comp
L ActiveRecorder-rescue:Jumper_NC_Small-Device JP5
U 1 1 637F3B08
P 1200 6500
F 0 "JP5" H 1325 6550 50  0000 C CNN
F 1 "Jumper_NC_Small" H 1200 6621 50  0001 C CNN
F 2 "Alimentations:Jumper2.54" H 1200 6500 50  0001 C CNN
F 3 "~" H 1200 6500 50  0001 C CNN
	1    1200 6500
	1    0    0    -1  
$EndComp
$Comp
L ActiveRecorder-rescue:Jumper_NC_Small-Device JP6
U 1 1 637F40AA
P 1200 6600
F 0 "JP6" H 1325 6650 50  0000 C CNN
F 1 "Jumper_NC_Small" H 1200 6721 50  0001 C CNN
F 2 "Alimentations:Jumper2.54" H 1200 6600 50  0001 C CNN
F 3 "~" H 1200 6600 50  0001 C CNN
	1    1200 6600
	1    0    0    -1  
$EndComp
$Comp
L ActiveRecorder-rescue:Jumper_NC_Small-Device JP7
U 1 1 637F43C2
P 1200 6700
F 0 "JP7" H 1325 6750 50  0000 C CNN
F 1 "Jumper_NC_Small" H 1200 6821 50  0001 C CNN
F 2 "Alimentations:Jumper2.54" H 1200 6700 50  0001 C CNN
F 3 "~" H 1200 6700 50  0001 C CNN
	1    1200 6700
	1    0    0    -1  
$EndComp
$Comp
L ActiveRecorder-rescue:Jumper_NC_Small-Device JP8
U 1 1 637F477A
P 1200 6800
F 0 "JP8" H 1325 6850 50  0000 C CNN
F 1 "Jumper_NC_Small" H 1200 6921 50  0001 C CNN
F 2 "Alimentations:Jumper2.54" H 1200 6800 50  0001 C CNN
F 3 "~" H 1200 6800 50  0001 C CNN
	1    1200 6800
	1    0    0    -1  
$EndComp
$Comp
L Device:R R17
U 1 1 5DCC2AC7
P 2025 2700
F 0 "R17" V 2105 2700 50  0000 C CNN
F 1 "330" V 2025 2700 50  0000 C CNN
F 2 "Resistors_SMD:R_0805" V 1955 2700 50  0001 C CNN
F 3 "" H 2025 2700 50  0001 C CNN
	1    2025 2700
	0    -1   -1   0   
$EndComp
$Comp
L Device:R R9
U 1 1 64B5D495
P 2025 5975
F 0 "R9" V 2100 5975 50  0000 C CNN
F 1 "4.7k" V 2025 5975 50  0000 C CNN
F 2 "Resistors_SMD:R_1206" V 1955 5975 50  0001 C CNN
F 3 "" H 2025 5975 50  0001 C CNN
	1    2025 5975
	-1   0    0    -1  
$EndComp
$Comp
L Device:R R10
U 1 1 64C0603E
P 2200 5975
F 0 "R10" V 2275 5975 50  0000 C CNN
F 1 "4.7k" V 2200 5975 50  0000 C CNN
F 2 "Resistors_SMD:R_1206" V 2130 5975 50  0001 C CNN
F 3 "" H 2200 5975 50  0001 C CNN
	1    2200 5975
	-1   0    0    -1  
$EndComp
$Comp
L Device:R R1
U 1 1 5AFD40CA
P 2500 1100
F 0 "R1" V 2580 1100 50  0000 C CNN
F 1 "10k" V 2500 1100 50  0000 C CNN
F 2 "Resistors_SMD:R_0805" V 2430 1100 50  0001 C CNN
F 3 "" H 2500 1100 50  0001 C CNN
	1    2500 1100
	-1   0    0    1   
$EndComp
$Comp
L Device:R R2
U 1 1 5AFD3E81
P 2500 1550
F 0 "R2" V 2580 1550 50  0000 C CNN
F 1 "10k" V 2500 1550 50  0000 C CNN
F 2 "Resistors_SMD:R_0805" V 2430 1550 50  0001 C CNN
F 3 "" H 2500 1550 50  0001 C CNN
	1    2500 1550
	-1   0    0    1   
$EndComp
$Comp
L Device:R R3
U 1 1 5AFD3DBD
P 2700 1800
F 0 "R3" V 2780 1800 50  0000 C CNN
F 1 "4k7" V 2700 1800 50  0000 C CNN
F 2 "Resistors_SMD:R_1206" V 2630 1800 50  0001 C CNN
F 3 "" H 2700 1800 50  0001 C CNN
	1    2700 1800
	0    1    1    0   
$EndComp
$Comp
L Device:R R18
U 1 1 5DC1AB1A
P 3425 3025
F 0 "R18" V 3505 3025 50  0000 C CNN
F 1 "1k" V 3425 3025 50  0000 C CNN
F 2 "Resistors_SMD:R_1206" V 3355 3025 50  0001 C CNN
F 3 "" H 3425 3025 50  0001 C CNN
	1    3425 3025
	-1   0    0    1   
$EndComp
$Comp
L Device:R R4
U 1 1 5AFD4A57
P 3450 1300
F 0 "R4" V 3530 1300 50  0000 C CNN
F 1 "100k" V 3450 1300 50  0000 C CNN
F 2 "Resistors_SMD:R_0805" V 3380 1300 50  0001 C CNN
F 3 "" H 3450 1300 50  0001 C CNN
	1    3450 1300
	0    1    1    0   
$EndComp
$Comp
L Device:R R19
U 1 1 5DEB7CE2
P 4650 2700
F 0 "R19" V 4730 2700 50  0000 C CNN
F 1 "330" V 4650 2700 50  0000 C CNN
F 2 "Resistors_SMD:R_0805" V 4580 2700 50  0001 C CNN
F 3 "" H 4650 2700 50  0001 C CNN
	1    4650 2700
	0    -1   -1   0   
$EndComp
$Comp
L Device:R R5
U 1 1 5AFD5CD9
P 5000 1200
F 0 "R5" V 5080 1200 50  0000 C CNN
F 1 "4k7" V 5000 1200 50  0000 C CNN
F 2 "Resistors_SMD:R_1206" V 4930 1200 50  0001 C CNN
F 3 "" H 5000 1200 50  0001 C CNN
	1    5000 1200
	0    1    1    0   
$EndComp
$Comp
L Device:R R6
U 1 1 5AFD5D4D
P 5000 1400
F 0 "R6" V 5080 1400 50  0000 C CNN
F 1 "15k" V 5000 1400 50  0000 C CNN
F 2 "Resistors_SMD:R_0805" V 4930 1400 50  0001 C CNN
F 3 "" H 5000 1400 50  0001 C CNN
	1    5000 1400
	0    1    1    0   
$EndComp
$Comp
L Device:R R7
U 1 1 5AFD5DB0
P 5000 1600
F 0 "R7" V 5080 1600 50  0000 C CNN
F 1 "47k" V 5000 1600 50  0000 C CNN
F 2 "Resistors_SMD:R_0805" V 4930 1600 50  0001 C CNN
F 3 "" H 5000 1600 50  0001 C CNN
	1    5000 1600
	0    1    1    0   
$EndComp
$Comp
L Device:R R26
U 1 1 62EEAFDD
P 5650 6275
F 0 "R26" V 5575 6275 50  0000 C CNN
F 1 "20k" V 5650 6275 50  0000 C CNN
F 2 "Resistor_SMD:R_0805_2012Metric" V 5580 6275 50  0001 C CNN
F 3 "" H 5650 6275 50  0001 C CNN
	1    5650 6275
	0    -1   1    0   
$EndComp
$Comp
L Device:R R20
U 1 1 5DEB7CD1
P 6050 3025
F 0 "R20" V 6130 3025 50  0000 C CNN
F 1 "1K" V 6050 3025 50  0000 C CNN
F 2 "Resistors_SMD:R_1206" V 5980 3025 50  0001 C CNN
F 3 "" H 6050 3025 50  0001 C CNN
	1    6050 3025
	-1   0    0    1   
$EndComp
$Comp
L Device:R R8
U 1 1 5AFD6E2B
P 6200 1300
F 0 "R8" V 6280 1300 50  0000 C CNN
F 1 "100k" V 6200 1300 50  0000 C CNN
F 2 "Resistors_SMD:R_0805" V 6130 1300 50  0001 C CNN
F 3 "" H 6200 1300 50  0001 C CNN
	1    6200 1300
	0    1    1    0   
$EndComp
$Comp
L Device:R R25
U 1 1 5E2E73AA
P 8050 5125
F 0 "R25" V 8130 5125 50  0000 C CNN
F 1 "100k" V 8050 5125 50  0000 C CNN
F 2 "Resistors_SMD:R_0805" V 7980 5125 50  0001 C CNN
F 3 "" H 8050 5125 50  0001 C CNN
	1    8050 5125
	-1   0    0    1   
$EndComp
$Comp
L Device:R R11
U 1 1 65ED8147
P 8275 3075
F 0 "R11" V 8175 3075 50  0000 C CNN
F 1 "100k" V 8275 3075 50  0000 C CNN
F 2 "Resistors_SMD:R_0805" V 8205 3075 50  0001 C CNN
F 3 "" H 8275 3075 50  0001 C CNN
	1    8275 3075
	0    -1   -1   0   
$EndComp
$Comp
L Device:R R12
U 1 1 65ED8997
P 8750 3075
F 0 "R12" V 8650 3075 50  0000 C CNN
F 1 "100k" V 8750 3075 50  0000 C CNN
F 2 "Resistors_SMD:R_0805" V 8680 3075 50  0001 C CNN
F 3 "" H 8750 3075 50  0001 C CNN
	1    8750 3075
	0    -1   -1   0   
$EndComp
$Comp
L Device:R R14
U 1 1 5C590271
P 8750 4750
F 0 "R14" V 8830 4750 50  0000 C CNN
F 1 "20k" V 8750 4750 50  0000 C CNN
F 2 "Resistors_SMD:R_0805" V 8680 4750 50  0001 C CNN
F 3 "" H 8750 4750 50  0001 C CNN
	1    8750 4750
	0    1    1    0   
$EndComp
$Comp
L Device:R R24
U 1 1 5DE0C68D
P 8800 650
F 0 "R24" V 8700 650 50  0000 C CNN
F 1 "0.4" V 8800 650 50  0000 C CNN
F 2 "Resistors_SMD:R_1210" V 8730 650 50  0001 C CNN
F 3 "" H 8800 650 50  0001 C CNN
	1    8800 650 
	0    -1   -1   0   
$EndComp
$Comp
L Device:R R21
U 1 1 5E1CE5F1
P 9325 1450
F 0 "R21" V 9225 1450 50  0000 C CNN
F 1 "1k" V 9325 1450 50  0000 C CNN
F 2 "Resistors_SMD:R_1206" V 9255 1450 50  0001 C CNN
F 3 "" H 9325 1450 50  0001 C CNN
	1    9325 1450
	0    1    1    0   
$EndComp
$Comp
L Device:R R23
U 1 1 5DBE186A
P 9325 1625
F 0 "R23" V 9225 1625 50  0000 C CNN
F 1 "1k" V 9325 1625 50  0000 C CNN
F 2 "Resistors_SMD:R_1206" V 9255 1625 50  0001 C CNN
F 3 "" H 9325 1625 50  0001 C CNN
	1    9325 1625
	0    -1   -1   0   
$EndComp
$Comp
L Device:R R15
U 1 1 5C58DBA2
P 9850 4750
F 0 "R15" V 9930 4750 50  0000 C CNN
F 1 "20k" V 9850 4750 50  0000 C CNN
F 2 "Resistors_SMD:R_0805" V 9780 4750 50  0001 C CNN
F 3 "" H 9850 4750 50  0001 C CNN
	1    9850 4750
	0    -1   -1   0   
$EndComp
$Comp
L Device:R R22
U 1 1 5E132145
P 10525 1525
F 0 "R22" V 10605 1525 50  0000 C CNN
F 1 "1.2k" V 10525 1525 50  0000 C CNN
F 2 "Resistors_SMD:R_0805" V 10455 1525 50  0001 C CNN
F 3 "" H 10525 1525 50  0001 C CNN
	1    10525 1525
	1    0    0    -1  
$EndComp
$Comp
L Connector_Generic:Conn_01x01 J12
U 1 1 64BA3DF3
P 9150 2075
F 0 "J12" H 9230 2117 50  0000 L CNN
F 1 "PCB A" H 9230 2026 50  0000 L CNN
F 2 "Alimentations:PCB_AR" H 9150 2075 50  0001 C CNN
F 3 "~" H 9150 2075 50  0001 C CNN
	1    9150 2075
	1    0    0    -1  
$EndComp
$Comp
L Connector_Generic:Conn_01x01 J13
U 1 1 64BE2E4F
P 9150 2275
F 0 "J13" H 9230 2317 50  0000 L CNN
F 1 "PCB B" H 9230 2226 50  0000 L CNN
F 2 "Alimentations:PCB-B_AR" H 9150 2275 50  0001 C CNN
F 3 "~" H 9150 2275 50  0001 C CNN
	1    9150 2275
	1    0    0    -1  
$EndComp
$Comp
L ActiveRecorder-rescue:CONN_01x02-agg-kicad J11
U 1 1 5D4092AD
P 9975 2600
F 0 "J11" H 9925 2700 50  0000 C CNN
F 1 "CONN_01x02" H 10075 2400 50  0000 C CNN
F 2 "Connectors_JST:JST_PH_B2B-PH-K_02x2.00mm_Straight" H 9975 2600 50  0001 C CNN
F 3 "" H 9975 2600 50  0001 C CNN
	1    9975 2600
	1    0    0    -1  
$EndComp
$Comp
L Device:D_Schottky D2
U 1 1 5BA80C94
P 9750 3400
F 0 "D2" H 9750 3500 50  0000 C CNN
F 1 "SSB44" H 9750 3300 50  0000 C CNN
F 2 "Diodes_SMD:D_SMB" H 9750 3400 50  0001 C CNN
F 3 "" H 9750 3400 50  0001 C CNN
	1    9750 3400
	1    0    0    -1  
$EndComp
$Comp
L Device:D_Schottky D1
U 1 1 5AFFC3B2
P 9750 3700
F 0 "D1" H 9750 3800 50  0000 C CNN
F 1 "SSB44" H 9750 3600 50  0000 C CNN
F 2 "Diodes_SMD:D_SMB" H 9750 3700 50  0001 C CNN
F 3 "" H 9750 3700 50  0001 C CNN
	1    9750 3700
	1    0    0    -1  
$EndComp
$Comp
L ActiveRecorder-rescue:Conn_01x02-conn J1
U 1 1 5C218635
P 8850 3600
F 0 "J1" H 8850 3700 50  0000 C CNN
F 1 "Conn_A/M" V 8950 3600 50  0000 C CNN
F 2 "Connectors_Molex:Molex_KK-6410-02_02x2.54mm_Straight" H 8850 3600 50  0001 C CNN
F 3 "" H 8850 3600 50  0001 C CNN
	1    8850 3600
	0    -1   1    0   
$EndComp
$Comp
L Device:C C9
U 1 1 5B19B08B
P 1300 1250
F 0 "C9" H 1200 1150 50  0000 L CNN
F 1 "100nF" H 1050 1350 50  0000 L CNN
F 2 "Capacitors_SMD:C_0603" H 1338 1100 50  0001 C CNN
F 3 "" H 1300 1250 50  0001 C CNN
	1    1300 1250
	-1   0    0    1   
$EndComp
$Comp
L Device:C C1
U 1 1 5AFD3D66
P 1500 1800
F 0 "C1" V 1650 1750 50  0000 L CNN
F 1 "100nF" V 1350 1700 50  0000 L CNN
F 2 "Capacitors_SMD:C_0603" H 1538 1650 50  0001 C CNN
F 3 "" H 1500 1800 50  0001 C CNN
	1    1500 1800
	0    1    1    0   
$EndComp
$Comp
L ActiveRecorder-rescue:CP-Device C2
U 1 1 5AFD4504
P 1750 1550
F 0 "C2" H 1775 1650 50  0000 L CNN
F 1 "220µF" H 1775 1450 50  0000 L CNN
F 2 "Alimentations:CP_Elec_8x6.7" H 1788 1400 50  0001 C CNN
F 3 "" H 1750 1550 50  0001 C CNN
	1    1750 1550
	1    0    0    -1  
$EndComp
$Comp
L Device:C C3
U 1 1 5AFD43A7
P 2150 1550
F 0 "C3" H 2050 1450 50  0000 L CNN
F 1 "100nF" H 1900 1650 50  0000 L CNN
F 2 "Capacitors_SMD:C_0603" H 2188 1400 50  0001 C CNN
F 3 "" H 2150 1550 50  0001 C CNN
	1    2150 1550
	-1   0    0    1   
$EndComp
$Comp
L Device:C C17
U 1 1 5DD28B27
P 2225 3050
F 0 "C17" V 2375 3000 50  0000 L CNN
F 1 "10nF" V 2075 2950 50  0000 L CNN
F 2 "Capacitors_SMD:C_0603" H 2263 2900 50  0001 C CNN
F 3 "" H 2225 3050 50  0001 C CNN
	1    2225 3050
	-1   0    0    1   
$EndComp
$Comp
L Device:C C21
U 1 1 5D8A769E
P 3450 1100
F 0 "C21" V 3500 1150 50  0000 L CNN
F 1 "12pF" V 3500 800 50  0000 L CNN
F 2 "CapacitorSMDUser:CapacitorSMD_0402" H 3488 950 50  0001 C CNN
F 3 "" H 3450 1100 50  0001 C CNN
	1    3450 1100
	0    -1   -1   0   
$EndComp
$Comp
L Device:C C4
U 1 1 5AFD566E
P 3950 1700
F 0 "C4" V 4100 1650 50  0000 L CNN
F 1 "100nF" V 3800 1600 50  0000 L CNN
F 2 "Capacitors_SMD:C_0603" H 3988 1550 50  0001 C CNN
F 3 "" H 3950 1700 50  0001 C CNN
	1    3950 1700
	0    1    1    0   
$EndComp
$Comp
L Device:C C18
U 1 1 5DEB7CEC
P 4850 3050
F 0 "C18" V 5000 3000 50  0000 L CNN
F 1 "10nF" V 4700 2950 50  0000 L CNN
F 2 "Capacitors_SMD:C_0603" H 4888 2900 50  0001 C CNN
F 3 "" H 4850 3050 50  0001 C CNN
	1    4850 3050
	-1   0    0    1   
$EndComp
$Comp
L Device:C C23
U 1 1 64927BF0
P 5550 4825
F 0 "C23" H 5400 4725 50  0000 L CNN
F 1 "100nF" H 5300 4925 50  0000 L CNN
F 2 "Capacitors_SMD:C_0603" H 5588 4675 50  0001 C CNN
F 3 "" H 5550 4825 50  0001 C CNN
	1    5550 4825
	-1   0    0    1   
$EndComp
$Comp
L ActiveRecorder-rescue:CP-Device C11
U 1 1 5D3BA146
P 5850 4825
F 0 "C11" H 5875 4925 50  0000 L CNN
F 1 "470µF" H 5875 4725 50  0000 L CNN
F 2 "Alimentations:CP_Elec_10x7.7" H 5888 4675 50  0001 C CNN
F 3 "" H 5850 4825 50  0001 C CNN
	1    5850 4825
	1    0    0    -1  
$EndComp
$Comp
L Device:C C22
U 1 1 5D94799E
P 6200 1100
F 0 "C22" V 6250 1150 50  0000 L CNN
F 1 "12pF" V 6250 800 50  0000 L CNN
F 2 "CapacitorSMDUser:CapacitorSMD_0402" H 6238 950 50  0001 C CNN
F 3 "" H 6200 1100 50  0001 C CNN
	1    6200 1100
	0    -1   -1   0   
$EndComp
$Comp
L Device:C C26
U 1 1 632011A8
P 6375 7125
F 0 "C26" H 6400 7225 50  0000 L CNN
F 1 "10µF" H 6400 7050 50  0000 L CNN
F 2 "Capacitor_SMD:C_0603_1608Metric" H 6413 6975 50  0001 C CNN
F 3 "" H 6375 7125 50  0001 C CNN
	1    6375 7125
	-1   0    0    1   
$EndComp
$Comp
L ActiveRecorder-rescue:CP-Device C5
U 1 1 5AFD8168
P 6650 1400
F 0 "C5" H 6675 1500 50  0000 L CNN
F 1 "470µF" H 6675 1300 50  0000 L CNN
F 2 "Alimentations:CP_Elec_10x7.7" H 6688 1250 50  0001 C CNN
F 3 "" H 6650 1400 50  0001 C CNN
	1    6650 1400
	1    0    0    -1  
$EndComp
$Comp
L Device:C C27
U 1 1 63201D39
P 6675 7125
F 0 "C27" H 6700 7225 50  0000 L CNN
F 1 "100nF" H 6675 7050 50  0000 L CNN
F 2 "Capacitor_SMD:C_0603_1608Metric" H 6713 6975 50  0001 C CNN
F 3 "" H 6675 7125 50  0001 C CNN
	1    6675 7125
	-1   0    0    1   
$EndComp
$Comp
L Device:C C6
U 1 1 5AFD80E8
P 7050 1400
F 0 "C6" H 6950 1300 50  0000 L CNN
F 1 "100nF" H 6800 1500 50  0000 L CNN
F 2 "Capacitors_SMD:C_0603" H 7088 1250 50  0001 C CNN
F 3 "" H 7050 1400 50  0001 C CNN
	1    7050 1400
	-1   0    0    1   
$EndComp
$Comp
L Device:C C10
U 1 1 5B2EEDDB
P 7450 3650
F 0 "C10" H 7300 3550 50  0000 L CNN
F 1 "100nF" H 7200 3750 50  0000 L CNN
F 2 "Capacitors_SMD:C_0603" H 7488 3500 50  0001 C CNN
F 3 "" H 7450 3650 50  0001 C CNN
	1    7450 3650
	-1   0    0    1   
$EndComp
$Comp
L ActiveRecorder-rescue:CP-Device C12
U 1 1 5C588020
P 7600 5200
F 0 "C12" H 7625 5300 50  0000 L CNN
F 1 "220µF" H 7625 5100 50  0000 L CNN
F 2 "Alimentations:CP_Elec_8x6.7" H 7638 5050 50  0001 C CNN
F 3 "" H 7600 5200 50  0001 C CNN
	1    7600 5200
	1    0    0    -1  
$EndComp
$Comp
L Device:C C8
U 1 1 5B17CE04
P 7750 3650
F 0 "C8" H 7650 3550 50  0000 L CNN
F 1 "100nF" H 7500 3750 50  0000 L CNN
F 2 "Capacitors_SMD:C_0603" H 7788 3500 50  0001 C CNN
F 3 "" H 7750 3650 50  0001 C CNN
	1    7750 3650
	-1   0    0    1   
$EndComp
$Comp
L Device:C C24
U 1 1 64E37539
P 7850 2875
F 0 "C24" H 7700 2775 50  0000 L CNN
F 1 "100nF" H 7850 2975 50  0000 L CNN
F 2 "Capacitors_SMD:C_0603" H 7888 2725 50  0001 C CNN
F 3 "" H 7850 2875 50  0001 C CNN
	1    7850 2875
	-1   0    0    1   
$EndComp
$Comp
L ActiveRecorder-rescue:CP-Device C7
U 1 1 5B03AB47
P 8050 3650
F 0 "C7" H 8075 3750 50  0000 L CNN
F 1 "220µF" H 8075 3550 50  0000 L CNN
F 2 "Alimentations:CP_Elec_8x6.7" H 8088 3500 50  0001 C CNN
F 3 "" H 8050 3650 50  0001 C CNN
	1    8050 3650
	1    0    0    -1  
$EndComp
$Comp
L Device:C C13
U 1 1 5CEB5B34
P 8250 4750
F 0 "C13" V 8100 4675 50  0000 L CNN
F 1 "470nF" V 8200 4800 50  0000 L CNN
F 2 "CapacitorSMDUser:CapacitorSMD_0402" H 8288 4600 50  0001 C CNN
F 3 "" H 8250 4750 50  0001 C CNN
	1    8250 4750
	0    1    1    0   
$EndComp
$Comp
L Device:C C19
U 1 1 5DEB0ADA
P 8550 1400
F 0 "C19" H 8575 1500 50  0000 L CNN
F 1 "10µF" H 8300 1500 50  0000 L CNN
F 2 "Capacitors_SMD:C_0603" H 8588 1250 50  0001 C CNN
F 3 "" H 8550 1400 50  0001 C CNN
	1    8550 1400
	-1   0    0    1   
$EndComp
$Comp
L Device:C C16
U 1 1 5CE78759
P 8950 5900
F 0 "C16" V 8900 5700 50  0000 L CNN
F 1 "470nF" V 8900 5950 50  0000 L CNN
F 2 "CapacitorSMDUser:CapacitorSMD_0402" H 8988 5750 50  0001 C CNN
F 3 "" H 8950 5900 50  0001 C CNN
	1    8950 5900
	1    0    0    -1  
$EndComp
$Comp
L Device:C C15
U 1 1 5DEB1719
P 9500 6050
F 0 "C15" H 9325 5950 50  0000 L CNN
F 1 "1µF" H 9250 6150 50  0000 L CNN
F 2 "Capacitors_SMD:C_0603" H 9538 5900 50  0001 C CNN
F 3 "" H 9500 6050 50  0001 C CNN
	1    9500 6050
	-1   0    0    1   
$EndComp
$Comp
L Device:C C14
U 1 1 5C598B2F
P 9850 4500
F 0 "C14" V 9800 4300 50  0000 L CNN
F 1 "2.2nF" V 9800 4550 50  0000 L CNN
F 2 "CapacitorSMDUser:CapacitorSMD_0402" H 9888 4350 50  0001 C CNN
F 3 "" H 9850 4500 50  0001 C CNN
	1    9850 4500
	0    -1   -1   0   
$EndComp
$Comp
L Device:C C20
U 1 1 5DEB0603
P 10750 1525
F 0 "C20" H 10575 1425 50  0000 L CNN
F 1 "10µF" H 10500 1625 50  0000 L CNN
F 2 "Capacitors_SMD:C_0603" H 10788 1375 50  0001 C CNN
F 3 "" H 10750 1525 50  0001 C CNN
	1    10750 1525
	-1   0    0    1   
$EndComp
$Comp
L ActiveRecorder-rescue:SW_Push-switches SW6
U 1 1 5C3BF2CD
P 850 5850
F 0 "SW6" H 900 5950 50  0000 L CNN
F 1 "Mode" H 850 5790 50  0000 C CNN
F 2 "Buttons_Switches_THT:SW_Tactile_SKHH_Angled" H 850 6050 50  0001 C CNN
F 3 "" H 850 6050 50  0001 C CNN
	1    850  5850
	1    0    0    -1  
$EndComp
$Comp
L ActiveRecorder-rescue:SW_Push-switches SW3
U 1 1 5C3BF3EE
P 850 6100
F 0 "SW3" H 900 6200 50  0000 L CNN
F 1 "REC" H 850 6040 50  0000 C CNN
F 2 "Buttons_Switches_THT:SW_Tactile_SKHH_Angled" H 850 6300 50  0001 C CNN
F 3 "" H 850 6300 50  0001 C CNN
	1    850  6100
	1    0    0    -1  
$EndComp
$Comp
L ActiveRecorder-rescue:SW_Push-switches SW2
U 1 1 5C1EBD21
P 1050 4500
F 0 "SW2" H 1100 4600 50  0000 L CNN
F 1 "Up" H 1050 4440 50  0000 C CNN
F 2 "Buttons_Switches_THT:SW_Tactile_SKHH_Angled" H 1050 4700 50  0001 C CNN
F 3 "" H 1050 4700 50  0001 C CNN
	1    1050 4500
	1    0    0    -1  
$EndComp
$Comp
L ActiveRecorder-rescue:SW_Push-switches SW4
U 1 1 5C1EC034
P 1050 4800
F 0 "SW4" H 1100 4900 50  0000 L CNN
F 1 "Down" H 1050 4740 50  0000 C CNN
F 2 "Buttons_Switches_THT:SW_Tactile_SKHH_Angled" H 1050 5000 50  0001 C CNN
F 3 "" H 1050 5000 50  0001 C CNN
	1    1050 4800
	1    0    0    -1  
$EndComp
$Comp
L ActiveRecorder-rescue:SW_Push-switches SW5
U 1 1 5C1EC18F
P 1050 5100
F 0 "SW5" H 1100 5200 50  0000 L CNN
F 1 "Push" H 1050 5040 50  0000 C CNN
F 2 "Buttons_Switches_THT:SW_Tactile_SKHH_Angled" H 1050 5300 50  0001 C CNN
F 3 "" H 1050 5300 50  0001 C CNN
	1    1050 5100
	1    0    0    -1  
$EndComp
$Comp
L ActiveRecorder-rescue:POT RV1
U 1 1 5C1E873C
P 6900 5300
F 0 "RV1" V 6725 5300 50  0000 C CNN
F 1 "10K" V 6800 5300 50  0000 C CNN
F 2 "PotentiometrePCB:Potentiometer_Simple_16mm_Horizontal" H 6900 5300 50  0001 C CNN
F 3 "" H 6900 5300 50  0001 C CNN
	1    6900 5300
	-1   0    0    1   
$EndComp
$Comp
L ActiveRecorder-rescue:POT RV2
U 1 1 5C2526FB
P 8450 6200
F 0 "RV2" V 8350 6200 50  0000 C CNN
F 1 "10K" V 8450 6200 50  0000 C CNN
F 2 "PotentiometrePCB:Potentiometer_Simple_16mm_Horizontal" H 8450 6200 50  0001 C CNN
F 3 "" H 8450 6200 50  0001 C CNN
	1    8450 6200
	0    1    -1   0   
$EndComp
$Comp
L ActiveRecorder-rescue:ConnM_01x03-Molex2510 J3
U 1 1 5AFD3CDD
P 900 1800
F 0 "J3" H 900 2000 50  0000 C CNN
F 1 "Micro" H 900 1600 50  0000 C CNN
F 2 "Connectors_Molex:Molex_KK-6410-03_03x2.54mm_Straight" H 900 1800 50  0001 C CNN
F 3 "" H 900 1800 50  0001 C CNN
	1    900  1800
	-1   0    0    -1  
$EndComp
$Comp
L ActiveRecorder-rescue:Audio-Jack-3-conn J9
U 1 1 5C21EA20
P 10200 4175
F 0 "J9" H 9950 4225 50  0000 C CNN
F 1 "Audio-Jack" H 10200 4375 50  0000 C CNN
F 2 "ConnectorsAli:Mini_Jack_3.5mm" H 10450 4275 50  0001 C CNN
F 3 "" H 10450 4275 50  0001 C CNN
	1    10200 4175
	1    0    0    -1  
$EndComp
$Comp
L ActiveRecorder-rescue:Conn_01x04-conn J4
U 1 1 5AFEA613
P 625 6700
F 0 "J4" H 625 6900 50  0000 C CNN
F 1 "Ecran_OLED" H 475 6375 50  0000 C CNN
F 2 "Alimentations:Oled1.3" H 625 6700 50  0001 C CNN
F 3 "" H 625 6700 50  0001 C CNN
	1    625  6700
	-1   0    0    1   
$EndComp
$Comp
L ActiveRecorder-rescue:Conn_01x04-conn J7
U 1 1 5CE7AB01
P 1400 6000
F 0 "J7" H 1400 6300 50  0000 C CNN
F 1 "LU" H 1400 5700 50  0000 C CNN
F 2 "Pin_Headers:Pin_Header_Straight_1x04_Pitch2.54mm" H 1400 6000 50  0001 C CNN
F 3 "" H 1400 6000 50  0001 C CNN
	1    1400 6000
	1    0    0    1   
$EndComp
$Comp
L ActiveRecorder-rescue:Conn_01x04-conn J5
U 1 1 5CE7AC13
P 1550 6000
F 0 "J5" H 1550 6300 50  0000 C CNN
F 1 "LD" H 1550 5700 50  0000 C CNN
F 2 "Pin_Headers:Pin_Header_Straight_1x04_Pitch2.54mm" H 1550 6000 50  0001 C CNN
F 3 "" H 1550 6000 50  0001 C CNN
	1    1550 6000
	-1   0    0    1   
$EndComp
$Comp
L ActiveRecorder-rescue:Conn_01x04-conn J6
U 1 1 5D30CE38
P 7900 5900
F 0 "J6" H 7900 6100 50  0000 C CNN
F 1 "RB" H 7900 5600 50  0000 C CNN
F 2 "Pin_Headers:Pin_Header_Straight_1x04_Pitch2.54mm" H 7900 5900 50  0001 C CNN
F 3 "" H 7900 5900 50  0001 C CNN
	1    7900 5900
	1    0    0    1   
$EndComp
$Comp
L ActiveRecorder-rescue:Conn_01x04-conn J8
U 1 1 5D2DCC06
P 8100 5900
F 0 "J8" H 8100 6100 50  0000 C CNN
F 1 "RU" H 8100 5600 50  0000 C CNN
F 2 "Pin_Headers:Pin_Header_Straight_1x04_Pitch2.54mm" H 8100 5900 50  0001 C CNN
F 3 "" H 8100 5900 50  0001 C CNN
	1    8100 5900
	-1   0    0    1   
$EndComp
$Comp
L Transistor_FET:AO3401A Q1
U 1 1 62EE8F72
P 5800 6550
F 0 "Q1" H 6025 6550 50  0000 C CNN
F 1 "AO3413" H 6075 6675 50  0000 C CNN
F 2 "Package_TO_SOT_SMD:SOT-23" H 6000 6475 50  0001 L CIN
F 3 "http://www.aosmd.com/pdfs/datasheet/AO3401A.pdf" H 5800 6550 50  0001 L CNN
	1    5800 6550
	1    0    0    1   
$EndComp
$Comp
L ActiveRecorder-rescue:2xBatteriesLiPo-Alimentations U7
U 1 1 5B147931
P 900 2850
F 0 "U7" V 875 3100 50  0000 L CNN
F 1 "2xBatteriesLiPo" V 1100 2550 50  0000 L CNN
F 2 "Alimentations:2xBatteriesLiPo" H 800 2700 50  0001 L CIN
F 3 "" H 1000 2900 50  0001 L CNN
	1    900  2850
	0    -1   -1   0   
$EndComp
$Comp
L ActiveRecorder-rescue:SW_SP3T_PCB-SwitchPCB SW1
U 1 1 5AFD5765
P 4400 1300
F 0 "SW1" H 4200 1400 50  0000 C CNN
F 1 "Gain analogique" H 4400 1500 50  0000 C CNN
F 2 "Buttons_PCB:SW_3P_PCB_Angled" H 3775 1475 50  0001 C CNN
F 3 "" H 3775 1475 50  0001 C CNN
	1    4400 1300
	1    0    0    -1  
$EndComp
$Comp
L ActiveRecorder-rescue:DMG9926USD-Alimentations U12
U 1 1 5DA5552F
P 2950 3425
F 0 "U12" H 3400 3425 60  0000 R CNN
F 1 "DMG9926USD" H 3250 3700 60  0000 R CNN
F 2 "Housings_SOIC:SOIC-8_3.9x4.9mm_Pitch1.27mm" H 3000 2975 60  0001 C CNN
F 3 "" H 3182 3427 60  0001 C CNN
	1    2950 3425
	-1   0    0    1   
$EndComp
$Comp
L ActiveRecorder-rescue:DMG9926USD-Alimentations U13
U 1 1 5DDC5772
P 5575 3425
F 0 "U13" H 6025 3425 60  0000 R CNN
F 1 "DMG9926USD" H 5875 3725 60  0000 R CNN
F 2 "Housings_SOIC:SOIC-8_3.9x4.9mm_Pitch1.27mm" H 5625 2975 60  0001 C CNN
F 3 "" H 5807 3427 60  0001 C CNN
	1    5575 3425
	-1   0    0    1   
$EndComp
$Comp
L ActiveRecorder-rescue:AHT20-Alimentations U15
U 1 1 647075EF
P 975 7200
F 0 "U15" H 1100 7425 50  0000 C CNN
F 1 "AHT20" H 875 7425 50  0000 C CNN
F 2 "Alimentations:AHT20" H 962 7448 50  0001 C CNN
F 3 "" H 975 7475 50  0001 C CNN
	1    975  7200
	1    0    0    -1  
$EndComp
$Comp
L ActiveRecorder-rescue:MCP3221-Alimentations U16
U 1 1 64D6328A
P 8875 2800
F 0 "U16" H 8600 3025 50  0000 C CNN
F 1 "MCP3221" H 8925 3025 50  0000 C CNN
F 2 "Alimentations:SOT-23-5" H 8875 3075 50  0001 C CNN
F 3 "" H 8875 3075 50  0001 C CNN
	1    8875 2800
	1    0    0    -1  
$EndComp
$Comp
L ActiveRecorder-rescue:LM1084-3.3-regul U3
U 1 1 5AFE9975
P 4175 7250
F 0 "U3" H 4075 7000 50  0000 C CNN
F 1 "MCP1702T LDO 3V" H 3825 7400 50  0000 L CNN
F 2 "TO_SOT_Packages_SMD:SOT-23" H 4175 7475 50  0001 C CIN
F 3 "" H 4175 7200 50  0001 C CNN
	1    4175 7250
	-1   0    0    -1  
$EndComp
$Comp
L ActiveRecorder-rescue:LM1084-3.3-regul U17
U 1 1 65393322
P 7500 2700
F 0 "U17" H 7350 2450 50  0000 C CNN
F 1 "MCP1702T LDO 2.8V" H 7150 2850 50  0000 L CNN
F 2 "TO_SOT_Packages_SMD:SOT-23" H 7500 2925 50  0001 C CIN
F 3 "" H 7500 2650 50  0001 C CNN
	1    7500 2700
	1    0    0    -1  
$EndComp
$Comp
L ActiveRecorder-rescue:TP4056-Alimentations U11
U 1 1 5DB1E442
P 9925 1225
F 0 "U11" H 9925 1622 60  0000 C CNN
F 1 "TP4056" H 9925 1516 60  0000 C CNN
F 2 "Alimentations:ESOP-8_150mil" H 9925 1225 60  0001 C CNN
F 3 "" H 9925 1225 60  0001 C CNN
	1    9925 1225
	1    0    0    -1  
$EndComp
$Comp
L ActiveRecorder-rescue:USB_OTG-Alimentations J2
U 1 1 5D28B150
P 10850 2600
F 0 "J2" H 10620 2589 50  0000 R CNN
F 1 "USB_OTG" H 10850 2250 50  0000 R CNN
F 2 "Alimentations:MicroUSB-H" H 11000 2550 50  0001 C CNN
F 3 "" H 11000 2550 50  0001 C CNN
	1    10850 2600
	-1   0    0    -1  
$EndComp
$Comp
L ActiveRecorder-rescue:DW01A-Alimentations U9
U 1 1 5E4000AF
P 2925 2800
F 0 "U9" H 3500 2800 60  0000 C CNN
F 1 "R5478N101CD-TR-FF" H 2925 3025 60  0000 C CNN
F 2 "Alimentations:SOT23-6L" H 2925 2800 60  0001 C CNN
F 3 "" H 2925 2800 60  0001 C CNN
	1    2925 2800
	1    0    0    -1  
$EndComp
$Comp
L ActiveRecorder-rescue:DW01A-Alimentations U10
U 1 1 5E4E90C8
P 5550 2800
F 0 "U10" H 6125 2800 60  0000 C CNN
F 1 "R5478N101CD-TR-FF" H 5550 3025 60  0000 C CNN
F 2 "Alimentations:SOT23-6L" H 5550 2800 60  0001 C CNN
F 3 "" H 5550 2800 60  0001 C CNN
	1    5550 2800
	1    0    0    -1  
$EndComp
$Comp
L ActiveRecorder-rescue:LM358-linear U2
U 1 1 5AFD39AC
P 3300 1700
F 0 "U2" H 3300 1900 50  0000 L CNN
F 1 "MCP6022" H 3300 1500 50  0000 L CNN
F 2 "Alimentations:SOIC-8_3.9x4.9mm_Pitch1.27mm" H 3300 1700 50  0001 C CNN
F 3 "" H 3300 1700 50  0001 C CNN
	1    3300 1700
	1    0    0    -1  
$EndComp
$Comp
L ActiveRecorder-rescue:LM358-linear U2
U 2 1 5AFD5C09
P 6000 1700
F 0 "U2" H 6000 1900 50  0000 L CNN
F 1 "MCP6022" H 6000 1500 50  0000 L CNN
F 2 "Alimentations:SOIC-8_3.9x4.9mm_Pitch1.27mm" H 6000 1700 50  0001 C CNN
F 3 "" H 6000 1700 50  0001 C CNN
	2    6000 1700
	1    0    0    -1  
$EndComp
$Comp
L ActiveRecorder-rescue:TPA301-agg-kicad U8
U 1 1 5C581A53
P 9900 5150
F 0 "U8" H 9400 5450 50  0000 L CNN
F 1 "8002C" H 9400 4850 50  0000 L CNN
F 2 "Housings_SOIC:SOIC-8_3.9x4.9mm_Pitch1.27mm" H 9400 4750 50  0001 L CNN
F 3 "http://www.ti.com/lit/ds/symlink/tpa301.pdf" H 9400 4650 50  0001 L CNN
F 4 "2342287" H 9400 4550 50  0001 L CNN "Farnell"
	1    9900 5150
	1    0    0    -1  
$EndComp
$Comp
L ActiveRecorder-rescue:PT8211-Alimentations U14
U 1 1 62CDAA5A
P 5700 7275
F 0 "U14" H 5400 7525 50  0000 C CNN
F 1 "PT8211" H 5875 7525 50  0000 C CNN
F 2 "Alimentations:SOIC-8_3.9x4.9mm_Pitch1.27mm" H 6500 6975 50  0001 C CNN
F 3 "" H 6500 6975 50  0001 C CNN
	1    5700 7275
	1    0    0    -1  
$EndComp
$Comp
L ActiveRecorder-rescue:Teensy4.1Min-teensy U1
U 1 1 62D2F41E
P 3950 5350
F 0 "U1" H 2975 6650 60  0000 C CNN
F 1 "Teensy4.1" H 4450 6650 60  0000 C CNN
F 2 "teensy:Teensy41Min" H 3700 4400 60  0001 C CNN
F 3 "" H 3700 4400 60  0000 C CNN
	1    3950 5350
	1    0    0    -1  
$EndComp
$EndSCHEMATC
