{
  "board": {
    "3dviewports": [],
    "design_settings": {
      "defaults": {
        "board_outline_line_width": 0.19999999999999998,
        "copper_line_width": 0.19999999999999998,
        "copper_text_italic": false,
        "copper_text_size_h": 1.5,
        "copper_text_size_v": 1.5,
        "copper_text_thickness": 0.3,
        "copper_text_upright": false,
        "courtyard_line_width": 0.049999999999999996,
        "dimension_precision": 4,
        "dimension_units": 3,
        "dimensions": {
          "arrow_length": 1270000,
          "extension_offset": 500000,
          "keep_text_aligned": true,
          "suppress_zeroes": false,
          "text_position": 0,
          "units_format": 1
        },
        "fab_line_width": 0.09999999999999999,
        "fab_text_italic": false,
        "fab_text_size_h": 1.0,
        "fab_text_size_v": 1.0,
        "fab_text_thickness": 0.15,
        "fab_text_upright": false,
        "other_line_width": 0.09999999999999999,
        "other_text_italic": false,
        "other_text_size_h": 1.0,
        "other_text_size_v": 1.0,
        "other_text_thickness": 0.15,
        "other_text_upright": false,
        "pads": {
          "drill": 0.8,
          "height": 1.6,
          "width": 1.6
        },
        "silk_line_width": 0.15,
        "silk_text_italic": false,
        "silk_text_size_h": 1.0,
        "silk_text_size_v": 1.0,
        "silk_text_thickness": 0.15,
        "silk_text_upright": false,
        "zones": {
          "min_clearance": 0.512
        }
      },
      "diff_pair_dimensions": [
        {
          "gap": 0.0,
          "via_gap": 0.0,
          "width": 0.0
        }
      ],
      "drc_exclusions": [
        "clearance|112314237|101850000|c2479c48-be5c-4c90-a664-8eac8cf4f9e6|06103b33-edf0-4cda-bf7c-0e5d6f864bee",
        "connection_width|146495975|72691479|b4c0d14c-df6d-409f-992c-30c372254873|b7750de9-946c-4e29-81cf-2172266e457e",
        "connection_width|146500000|88439764|115ce574-8abf-4be7-b042-32d2af520436|8e44a99a-5ecb-42bd-851d-122fca8dd254",
        "connection_width|147279691|106708370|06103b33-edf0-4cda-bf7c-0e5d6f864bee|00000000-0000-0000-0000-000000000000",
        "connection_width|69929926|102398940|06103b33-edf0-4cda-bf7c-0e5d6f864bee|00000000-0000-0000-0000-000000000000",
        "copper_edge_clearance|126675000|115140000|85da7740-9369-4b93-ab66-7ed34eedc862|e876aefe-9f0b-4bec-a897-6a9d1c18a1ff",
        "copper_edge_clearance|136675000|115140000|85da7740-9369-4b93-ab66-7ed34eedc862|54411c5d-18a4-4b41-bd81-8b24bdfc7f9f",
        "copper_edge_clearance|44450000|116000000|85da7740-9369-4b93-ab66-7ed34eedc862|2d98902b-597d-4ea6-8e25-3d9a5bc33ae5",
        "copper_edge_clearance|48995000|114476000|85da7740-9369-4b93-ab66-7ed34eedc862|a059fb4c-8524-4286-adee-8cba9252c0cd",
        "copper_edge_clearance|55495000|114476000|85da7740-9369-4b93-ab66-7ed34eedc862|f2bebcbc-d646-4014-9d9e-fe5e633c072a",
        "copper_edge_clearance|59690000|116000000|85da7740-9369-4b93-ab66-7ed34eedc862|71999eb8-540c-4303-a83e-62da19ac60d0",
        "padstack|102000000|55536000|bf11fc57-61c2-4b7c-bbf0-5f64a2ed3ab5|00000000-0000-0000-0000-000000000000",
        "silk_edge_clearance|100045000|115954000|85da7740-9369-4b93-ab66-7ed34eedc862|72bc5c3c-d895-4231-9155-1e2f1762c5bd",
        "silk_edge_clearance|102465000|115954000|85da7740-9369-4b93-ab66-7ed34eedc862|015c58bf-a9de-4be2-b753-fb5cd62c471f",
        "silk_edge_clearance|102465000|115954000|85da7740-9369-4b93-ab66-7ed34eedc862|3e3a4ffa-b2c6-4668-91c9-5e07eae20edd",
        "silk_edge_clearance|110205000|115954000|85da7740-9369-4b93-ab66-7ed34eedc862|d715cd51-39c3-4a51-941f-feb059a014c4",
        "silk_edge_clearance|112625000|115954000|85da7740-9369-4b93-ab66-7ed34eedc862|360173eb-fa6e-4721-b8b0-6579868b9dbc",
        "silk_edge_clearance|112625000|115954000|85da7740-9369-4b93-ab66-7ed34eedc862|8f3db9a6-22d8-439c-af7f-a8f5a97f13ed",
        "silk_edge_clearance|120365000|115954000|85da7740-9369-4b93-ab66-7ed34eedc862|5ac72049-1ed4-4ea1-b579-25a61b823958",
        "silk_edge_clearance|149500000|54000000|00000000-0000-0000-0000-00005c8c5f0c|eb8b951a-6095-43e9-bc8f-54c5449d2831",
        "silk_edge_clearance|151891834|116000000|85da7740-9369-4b93-ab66-7ed34eedc862|3132670b-86e5-4e30-b597-7fa65185135b",
        "silk_edge_clearance|164000000|116000000|5f910e69-a563-4ebe-8795-c0aaea93d1a0|6f07bde1-0774-446f-a9d9-eb5f104a3534",
        "silk_edge_clearance|164000000|54000000|00000000-0000-0000-0000-00005c8c5f0c|15a065d8-8ca6-401f-b08a-d0c8e74a6825",
        "silk_edge_clearance|164718849|115948056|5f910e69-a563-4ebe-8795-c0aaea93d1a0|5eb9f811-ab93-4852-be81-70df7ae083f0",
        "silk_edge_clearance|169000000|111000000|154e9ee3-c761-4094-a586-30aecb50c41c|3204ab3a-32af-4a8a-91ae-819235c5c7ac",
        "silk_edge_clearance|169000000|59000000|01478e86-2743-4f6a-9fc7-90d019a2baf2|540d143a-d1af-476b-bc33-70fc51055c56",
        "silk_edge_clearance|35000000|59000000|2d2633f7-8ed2-4165-9fdc-f9337dc28deb|6c41f62e-7407-458d-9064-a4e3ecbaa112",
        "silk_edge_clearance|35070000|67000000|00000000-0000-0000-0000-00005c8c5f2a|186d5870-4a02-480b-9943-f2669d4bc3f5",
        "silk_edge_clearance|40000000|116000000|85da7740-9369-4b93-ab66-7ed34eedc862|d77541be-515d-4932-8fcf-c8028eec5898",
        "silk_edge_clearance|40000000|54000000|00000000-0000-0000-0000-00005c8c5f0c|3c00d8bd-537a-4110-a007-a24081e30f35",
        "silk_edge_clearance|40000000|54000000|00000000-0000-0000-0000-00005c8c5f0c|9b3a92f3-e4d9-4411-80cc-9497cf22eb89",
        "silk_edge_clearance|43180000|116000000|85da7740-9369-4b93-ab66-7ed34eedc862|4b5cd4cd-b27a-486b-9358-75e655f4eb83",
        "silk_edge_clearance|45720000|116000000|85da7740-9369-4b93-ab66-7ed34eedc862|60c749ec-b14a-40b0-b409-5aae6f923d19",
        "silk_edge_clearance|55245000|116000000|85da7740-9369-4b93-ab66-7ed34eedc862|b84ef851-52c9-4c03-bb1f-185c7aa36be5",
        "silk_edge_clearance|58420000|116000000|85da7740-9369-4b93-ab66-7ed34eedc862|cd904481-5e6e-4dfa-a06b-16719689b1ea",
        "silk_edge_clearance|60960000|116000000|85da7740-9369-4b93-ab66-7ed34eedc862|547b6817-126b-49ce-b518-261cd9d0129b",
        "silk_edge_clearance|72500000|54000000|00000000-0000-0000-0000-00005c8c5f0c|85ccbf7c-0d91-4d09-a37a-eab13e6dd325",
        "silk_edge_clearance|92305000|115954000|85da7740-9369-4b93-ab66-7ed34eedc862|95593668-1695-474a-8e2d-16bcb90fb8aa",
        "silk_edge_clearance|92305000|115954000|85da7740-9369-4b93-ab66-7ed34eedc862|ddb61786-1fb0-4fe0-b01d-21a312554659",
        "silk_over_copper|137313737|116000000|6f07bde1-0774-446f-a9d9-eb5f104a3534|00000000-0000-0000-0000-000000000000",
        "silk_over_copper|35485000|78865672|3dd4652a-49fb-4d5a-a2a0-0e3849447eaf|00000000-0000-0000-0000-000000000000",
        "silk_overlap|100045000|115954000|72bc5c3c-d895-4231-9155-1e2f1762c5bd|6f07bde1-0774-446f-a9d9-eb5f104a3534",
        "silk_overlap|102465000|115468400|3e3a4ffa-b2c6-4668-91c9-5e07eae20edd|b8762674-b918-4f24-ac67-5169f14d6010",
        "silk_overlap|102465000|115954000|015c58bf-a9de-4be2-b753-fb5cd62c471f|6f07bde1-0774-446f-a9d9-eb5f104a3534",
        "silk_overlap|102465000|115954000|3e3a4ffa-b2c6-4668-91c9-5e07eae20edd|6f07bde1-0774-446f-a9d9-eb5f104a3534",
        "silk_overlap|110205000|115954000|d715cd51-39c3-4a51-941f-feb059a014c4|6f07bde1-0774-446f-a9d9-eb5f104a3534",
        "silk_overlap|112625000|115443000|360173eb-fa6e-4721-b8b0-6579868b9dbc|8f998296-bfb9-4223-9bbd-0e032219db91",
        "silk_overlap|112625000|116000000|6f07bde1-0774-446f-a9d9-eb5f104a3534|360173eb-fa6e-4721-b8b0-6579868b9dbc",
        "silk_overlap|112625000|116000000|6f07bde1-0774-446f-a9d9-eb5f104a3534|8f3db9a6-22d8-439c-af7f-a8f5a97f13ed",
        "silk_overlap|120365000|115445327|5ac72049-1ed4-4ea1-b579-25a61b823958|8f644a57-2fb9-4a77-80a7-2cd47534c309",
        "silk_overlap|120365000|116000000|6f07bde1-0774-446f-a9d9-eb5f104a3534|5ac72049-1ed4-4ea1-b579-25a61b823958",
        "silk_overlap|149500000|54000000|eb8b951a-6095-43e9-bc8f-54c5449d2831|3c00d8bd-537a-4110-a007-a24081e30f35",
        "silk_overlap|151891834|116000000|6f07bde1-0774-446f-a9d9-eb5f104a3534|3132670b-86e5-4e30-b597-7fa65185135b",
        "silk_overlap|164000000|116000000|6f07bde1-0774-446f-a9d9-eb5f104a3534|1658ab3d-78e2-49bc-a38c-eec7314b7ebd",
        "silk_overlap|164718849|115948056|5eb9f811-ab93-4852-be81-70df7ae083f0|3204ab3a-32af-4a8a-91ae-819235c5c7ac",
        "silk_overlap|35000000|103000000|6c41f62e-7407-458d-9064-a4e3ecbaa112|c6159fa7-db35-4daf-915b-c6bb2e1e7432",
        "silk_overlap|35000000|67000000|6c41f62e-7407-458d-9064-a4e3ecbaa112|186d5870-4a02-480b-9943-f2669d4bc3f5",
        "silk_overlap|35070000|67000000|6f642ede-f50e-4c8a-bcc5-e1cd03eee47b|6c41f62e-7407-458d-9064-a4e3ecbaa112",
        "silk_overlap|35180000|74280000|04bf0be6-89f0-4706-ad72-0f43dd5fc105|186d5870-4a02-480b-9943-f2669d4bc3f5",
        "silk_overlap|35180000|74280000|59898d7f-8e8e-4c33-8936-c2f95d23c3dc|186d5870-4a02-480b-9943-f2669d4bc3f5",
        "silk_overlap|35180000|77580000|fc52ecd0-3656-4741-a2f8-ffa8e27a80d4|186d5870-4a02-480b-9943-f2669d4bc3f5",
        "silk_overlap|43180000|116000000|4b5cd4cd-b27a-486b-9358-75e655f4eb83|6f07bde1-0774-446f-a9d9-eb5f104a3534",
        "silk_overlap|45720000|116000000|60c749ec-b14a-40b0-b409-5aae6f923d19|6f07bde1-0774-446f-a9d9-eb5f104a3534",
        "silk_overlap|55245000|116000000|b84ef851-52c9-4c03-bb1f-185c7aa36be5|6f07bde1-0774-446f-a9d9-eb5f104a3534",
        "silk_overlap|58420000|116000000|cd904481-5e6e-4dfa-a06b-16719689b1ea|6f07bde1-0774-446f-a9d9-eb5f104a3534",
        "silk_overlap|60960000|116000000|547b6817-126b-49ce-b518-261cd9d0129b|6f07bde1-0774-446f-a9d9-eb5f104a3534",
        "silk_overlap|70000000|116000000|6f07bde1-0774-446f-a9d9-eb5f104a3534|3ec18125-c56d-48f6-848c-f66b0320d9f6",
        "silk_overlap|70950000|116000000|6f07bde1-0774-446f-a9d9-eb5f104a3534|79bbb255-396c-479e-b450-7fae65dde42f",
        "silk_overlap|72500000|53923000|64d91a6b-c2a8-4e95-88bd-9ee4a8b2f00f|3c00d8bd-537a-4110-a007-a24081e30f35",
        "silk_overlap|72500000|54000000|85ccbf7c-0d91-4d09-a37a-eab13e6dd325|3c00d8bd-537a-4110-a007-a24081e30f35",
        "silk_overlap|72700000|116000000|6f07bde1-0774-446f-a9d9-eb5f104a3534|8328ef8e-7310-4107-acb5-dd3b7b641f58",
        "silk_overlap|80700000|116000000|6f07bde1-0774-446f-a9d9-eb5f104a3534|3d77e4d3-2982-4fef-b1b7-c5cf7b8ea48d",
        "silk_overlap|82450000|115900000|c0cf770b-1022-4559-b4c2-754c3c6cd71c|6f07bde1-0774-446f-a9d9-eb5f104a3534",
        "silk_overlap|83400000|116000000|6f07bde1-0774-446f-a9d9-eb5f104a3534|18792450-e35c-4d7e-97d8-ba8f1d7a0866",
        "silk_overlap|83400000|116000000|6f07bde1-0774-446f-a9d9-eb5f104a3534|3fbcdcd7-4218-4569-8577-a37b2af754b1",
        "silk_overlap|92305000|115443000|ddb61786-1fb0-4fe0-b01d-21a312554659|804dcc2a-8885-4cec-9c9c-fab8f1ae0632",
        "silk_overlap|92305000|115954000|95593668-1695-474a-8e2d-16bcb90fb8aa|6f07bde1-0774-446f-a9d9-eb5f104a3534",
        "silk_overlap|92305000|115954000|ddb61786-1fb0-4fe0-b01d-21a312554659|6f07bde1-0774-446f-a9d9-eb5f104a3534",
        "text_height|110900000|102100000|00945ab6-4758-45c0-bd9a-070df0b30216|00000000-0000-0000-0000-000000000000",
        "text_height|118964465|94565245|00000000-0000-0000-0000-00005db326a7|00000000-0000-0000-0000-000000000000",
        "text_height|145600000|88100000|1b8229da-251c-4f51-9f8c-b0e0b3be9cf9|00000000-0000-0000-0000-000000000000",
        "text_height|145700000|71300000|9783b513-919b-4798-b073-7be525b42e57|00000000-0000-0000-0000-000000000000",
        "text_height|72477337|100458487|1e787736-d8b2-48e0-b010-ea30b1be9862|00000000-0000-0000-0000-000000000000",
        "text_height|74496428|100421776|029f8038-fe4c-444e-9bce-a75aa463f4ee|00000000-0000-0000-0000-000000000000",
        "text_height|76705192|100427895|e7d5cda1-6abc-4a2d-8fe4-b9eb9eb686cc|00000000-0000-0000-0000-000000000000",
        "text_height|79240000|100272000|ae4b0b1d-064e-41ca-854b-3d7ea488234e|00000000-0000-0000-0000-000000000000",
        "text_height|81780000|100330000|38ed956a-6818-44ba-b277-395053ac2881|00000000-0000-0000-0000-000000000000",
        "text_height|89900000|101000000|8ce0ee90-b478-4f0f-928e-d04a9f99c346|00000000-0000-0000-0000-000000000000",
        "text_height|89900000|104700000|e49c78ac-688a-4da4-a0eb-53de239d7b86|00000000-0000-0000-0000-000000000000",
        "track_dangling|37084000|79248000|cbaef9ba-4c2a-44f6-84c4-9465afaa9154|00000000-0000-0000-0000-000000000000",
        "track_dangling|58420000|74380000|4828404f-6cd4-472d-8fa0-fb85c45aab42|00000000-0000-0000-0000-000000000000",
        "track_dangling|58500000|69800000|6667d05b-be00-42f6-8111-182d41ac91d4|00000000-0000-0000-0000-000000000000",
        "track_dangling|68326000|56896000|759f486e-c24a-4596-ae6c-0eb67cfceaa6|00000000-0000-0000-0000-000000000000",
        "track_dangling|71468061|99473940|4e96acfb-b028-4317-a560-5354bb7fcc87|00000000-0000-0000-0000-000000000000"
      ],
      "meta": {
        "filename": "board_design_settings.json",
        "version": 2
      },
      "rule_severities": {
        "annular_width": "error",
        "clearance": "error",
        "connection_width": "warning",
        "copper_edge_clearance": "error",
        "copper_sliver": "warning",
        "courtyards_overlap": "error",
        "diff_pair_gap_out_of_range": "error",
        "diff_pair_uncoupled_length_too_long": "error",
        "drill_out_of_range": "error",
        "duplicate_footprints": "warning",
        "extra_footprint": "warning",
        "footprint": "error",
        "footprint_type_mismatch": "ignore",
        "hole_clearance": "error",
        "hole_near_hole": "error",
        "invalid_outline": "error",
        "isolated_copper": "warning",
        "item_on_disabled_layer": "error",
        "items_not_allowed": "error",
        "length_out_of_range": "error",
        "lib_footprint_issues": "warning",
        "lib_footprint_mismatch": "warning",
        "malformed_courtyard": "error",
        "microvia_drill_out_of_range": "error",
        "missing_courtyard": "ignore",
        "missing_footprint": "warning",
        "net_conflict": "warning",
        "npth_inside_courtyard": "ignore",
        "padstack": "warning",
        "pth_inside_courtyard": "ignore",
        "shorting_items": "error",
        "silk_edge_clearance": "warning",
        "silk_over_copper": "warning",
        "silk_overlap": "warning",
        "skew_out_of_range": "error",
        "solder_mask_bridge": "error",
        "starved_thermal": "error",
        "text_height": "warning",
        "text_thickness": "warning",
        "through_hole_pad_without_hole": "error",
        "too_many_vias": "error",
        "track_dangling": "warning",
        "track_width": "error",
        "tracks_crossing": "error",
        "unconnected_items": "error",
        "unresolved_variable": "error",
        "via_dangling": "warning",
        "zones_intersect": "error"
      },
      "rule_severitieslegacy_courtyards_overlap": true,
      "rule_severitieslegacy_no_courtyard_defined": false,
      "rules": {
        "max_error": 0.005,
        "min_clearance": 0.125,
        "min_connection": 0.256,
        "min_copper_edge_clearance": 0.3,
        "min_hole_clearance": 0.25,
        "min_hole_to_hole": 0.5,
        "min_microvia_diameter": 0.25,
        "min_microvia_drill": 0.15,
        "min_resolved_spokes": 1,
        "min_silk_clearance": 0.0,
        "min_text_height": 0.7,
        "min_text_thickness": 0.08,
        "min_through_hole_diameter": 0.3,
        "min_track_width": 0.15,
        "min_via_annular_width": 0.13,
        "min_via_diameter": 0.39999999999999997,
        "solder_mask_to_copper_clearance": 0.0,
        "use_height_for_length_calcs": true
      },
      "teardrop_options": [
        {
          "td_allow_use_two_tracks": true,
          "td_curve_segcount": 5,
          "td_on_pad_in_zone": false,
          "td_onpadsmd": true,
          "td_onroundshapesonly": false,
          "td_ontrackend": false,
          "td_onviapad": true
        }
      ],
      "teardrop_parameters": [
        {
          "td_curve_segcount": 0,
          "td_height_ratio": 1.0,
          "td_length_ratio": 0.5,
          "td_maxheight": 2.0,
          "td_maxlen": 1.0,
          "td_target_name": "td_round_shape",
          "td_width_to_size_filter_ratio": 0.9
        },
        {
          "td_curve_segcount": 0,
          "td_height_ratio": 1.0,
          "td_length_ratio": 0.5,
          "td_maxheight": 2.0,
          "td_maxlen": 1.0,
          "td_target_name": "td_rect_shape",
          "td_width_to_size_filter_ratio": 0.9
        },
        {
          "td_curve_segcount": 0,
          "td_height_ratio": 1.0,
          "td_length_ratio": 0.5,
          "td_maxheight": 2.0,
          "td_maxlen": 1.0,
          "td_target_name": "td_track_end",
          "td_width_to_size_filter_ratio": 0.9
        }
      ],
      "track_widths": [
        0.0,
        0.256,
        0.3048,
        0.4064,
        0.5,
        0.6,
        0.635,
        0.8128,
        1.0,
        1.2,
        2.0,
        3.0
      ],
      "via_dimensions": [
        {
          "diameter": 0.0,
          "drill": 0.0
        },
        {
          "diameter": 0.6,
          "drill": 0.3
        },
        {
          "diameter": 0.8,
          "drill": 0.4
        },
        {
          "diameter": 0.9,
          "drill": 0.5
        },
        {
          "diameter": 1.016,
          "drill": 0.6
        },
        {
          "diameter": 1.27,
          "drill": 0.8
        },
        {
          "diameter": 1.4,
          "drill": 0.9
        },
        {
          "diameter": 1.55,
          "drill": 1.0
        },
        {
          "diameter": 1.8,
          "drill": 1.2
        },
        {
          "diameter": 2.2,
          "drill": 1.6
        }
      ],
      "zones_allow_external_fillets": false
    },
    "layer_presets": [],
    "viewports": []
  },
  "boards": [],
  "cvpcb": {
    "equivalence_files": []
  },
  "erc": {
    "erc_exclusions": [],
    "meta": {
      "version": 0
    },
    "pin_map": [
      [
        0,
        0,
        0,
        0,
        0,
        0,
        1,
        0,
        0,
        0,
        0,
        2
      ],
      [
        0,
        2,
        0,
        1,
        0,
        0,
        1,
        0,
        2,
        2,
        2,
        2
      ],
      [
        0,
        0,
        0,
        0,
        0,
        0,
        1,
        0,
        1,
        0,
        1,
        2
      ],
      [
        0,
        1,
        0,
        0,
        0,
        0,
        1,
        1,
        2,
        1,
        1,
        2
      ],
      [
        0,
        0,
        0,
        0,
        0,
        0,
        1,
        0,
        0,
        0,
        0,
        2
      ],
      [
        0,
        0,
        0,
        0,
        0,
        0,
        0,
        0,
        0,
        0,
        0,
        2
      ],
      [
        1,
        1,
        1,
        1,
        1,
        0,
        1,
        1,
        1,
        1,
        1,
        2
      ],
      [
        0,
        0,
        0,
        1,
        0,
        0,
        1,
        0,
        0,
        0,
        0,
        2
      ],
      [
        0,
        2,
        1,
        2,
        0,
        0,
        1,
        0,
        2,
        2,
        2,
        2
      ],
      [
        0,
        2,
        0,
        1,
        0,
        0,
        1,
        0,
        2,
        0,
        0,
        2
      ],
      [
        0,
        2,
        1,
        1,
        0,
        0,
        1,
        0,
        2,
        0,
        0,
        2
      ],
      [
        2,
        2,
        2,
        2,
        2,
        2,
        2,
        2,
        2,
        2,
        2,
        2
      ]
    ],
    "rule_severities": {
      "bus_definition_conflict": "error",
      "bus_entry_needed": "error",
      "bus_to_bus_conflict": "error",
      "bus_to_net_conflict": "error",
      "conflicting_netclasses": "error",
      "different_unit_footprint": "error",
      "different_unit_net": "error",
      "duplicate_reference": "error",
      "duplicate_sheet_names": "error",
      "endpoint_off_grid": "warning",
      "extra_units": "error",
      "global_label_dangling": "warning",
      "hier_label_mismatch": "error",
      "label_dangling": "error",
      "lib_symbol_issues": "warning",
      "missing_bidi_pin": "warning",
      "missing_input_pin": "warning",
      "missing_power_pin": "error",
      "missing_unit": "warning",
      "multiple_net_names": "warning",
      "net_not_bus_member": "warning",
      "no_connect_connected": "warning",
      "no_connect_dangling": "warning",
      "pin_not_connected": "error",
      "pin_not_driven": "error",
      "pin_to_pin": "warning",
      "power_pin_not_driven": "error",
      "similar_labels": "warning",
      "simulation_model_issue": "ignore",
      "unannotated": "error",
      "unit_value_mismatch": "error",
      "unresolved_variable": "error",
      "wire_dangling": "error"
    }
  },
  "libraries": {
    "pinned_footprint_libs": [],
    "pinned_symbol_libs": []
  },
  "meta": {
    "filename": "ActiveRecorder.kicad_pro",
    "version": 1
  },
  "net_settings": {
    "classes": [
      {
        "bus_width": 12,
        "clearance": 0.2,
        "diff_pair_gap": 0.25,
        "diff_pair_via_gap": 0.25,
        "diff_pair_width": 0.3,
        "line_style": 0,
        "microvia_diameter": 0.6,
        "microvia_drill": 0.3,
        "name": "Default",
        "pcb_color": "rgba(0, 0, 0, 0.000)",
        "schematic_color": "rgba(0, 0, 0, 0.000)",
        "track_width": 0.4,
        "via_diameter": 0.8,
        "via_drill": 0.4,
        "wire_width": 6
      },
      {
        "bus_width": 12,
        "clearance": 1.0,
        "diff_pair_gap": 0.25,
        "diff_pair_via_gap": 0.25,
        "diff_pair_width": 0.3,
        "line_style": 0,
        "microvia_diameter": 0.6,
        "microvia_drill": 0.3,
        "name": "Fading",
        "pcb_color": "rgba(0, 0, 0, 0.000)",
        "schematic_color": "rgba(0, 0, 0, 0.000)",
        "track_width": 0.4,
        "via_diameter": 0.8,
        "via_drill": 0.4,
        "wire_width": 6
      },
      {
        "bus_width": 12,
        "clearance": 0.2,
        "diff_pair_gap": 0.25,
        "diff_pair_via_gap": 0.25,
        "diff_pair_width": 0.3,
        "line_style": 0,
        "microvia_diameter": 1.016,
        "microvia_drill": 0.6,
        "name": "HighPower",
        "pcb_color": "rgba(0, 0, 0, 0.000)",
        "schematic_color": "rgba(0, 0, 0, 0.000)",
        "track_width": 1.0,
        "via_diameter": 1.4,
        "via_drill": 0.9,
        "wire_width": 6
      },
      {
        "bus_width": 12,
        "clearance": 0.2,
        "diff_pair_gap": 0.25,
        "diff_pair_via_gap": 0.25,
        "diff_pair_width": 0.3,
        "line_style": 0,
        "microvia_diameter": 1.27,
        "microvia_drill": 0.8,
        "name": "Large",
        "pcb_color": "rgba(0, 0, 0, 0.000)",
        "schematic_color": "rgba(0, 0, 0, 0.000)",
        "track_width": 1.2,
        "via_diameter": 1.55,
        "via_drill": 1.0,
        "wire_width": 6
      },
      {
        "bus_width": 12,
        "clearance": 0.2,
        "diff_pair_gap": 0.25,
        "diff_pair_via_gap": 0.25,
        "diff_pair_width": 0.3,
        "line_style": 0,
        "microvia_diameter": 0.6,
        "microvia_drill": 0.3,
        "name": "Power",
        "pcb_color": "rgba(0, 0, 0, 0.000)",
        "schematic_color": "rgba(0, 0, 0, 0.000)",
        "track_width": 0.4,
        "via_diameter": 0.8,
        "via_drill": 0.4,
        "wire_width": 6
      },
      {
        "bus_width": 12,
        "clearance": 0.2,
        "diff_pair_gap": 0.25,
        "diff_pair_via_gap": 0.25,
        "diff_pair_width": 0.3,
        "line_style": 0,
        "microvia_diameter": 0.6,
        "microvia_drill": 0.3,
        "name": "Signal",
        "pcb_color": "rgba(0, 0, 0, 0.000)",
        "schematic_color": "rgba(0, 0, 0, 0.000)",
        "track_width": 0.3048,
        "via_diameter": 0.8,
        "via_drill": 0.4,
        "wire_width": 6
      },
      {
        "bus_width": 12,
        "clearance": 0.2,
        "diff_pair_gap": 0.25,
        "diff_pair_via_gap": 0.25,
        "diff_pair_width": 0.3,
        "line_style": 0,
        "microvia_diameter": 0.3,
        "microvia_drill": 0.3,
        "name": "µPower",
        "pcb_color": "rgba(0, 0, 0, 0.000)",
        "schematic_color": "rgba(0, 0, 0, 0.000)",
        "track_width": 0.635,
        "via_diameter": 1.016,
        "via_drill": 0.6,
        "wire_width": 6
      },
      {
        "bus_width": 12,
        "clearance": 0.2,
        "diff_pair_gap": 0.25,
        "diff_pair_via_gap": 0.25,
        "diff_pair_width": 0.3,
        "line_style": 0,
        "microvia_diameter": 0.6,
        "microvia_drill": 0.3,
        "name": "µSignal",
        "pcb_color": "rgba(0, 0, 0, 0.000)",
        "schematic_color": "rgba(0, 0, 0, 0.000)",
        "track_width": 0.256,
        "via_diameter": 0.6,
        "via_drill": 3.0,
        "wire_width": 6
      }
    ],
    "meta": {
      "version": 3
    },
    "net_colors": null,
    "netclass_assignments": null,
    "netclass_patterns": [
      {
        "netclass": "µPower",
        "pattern": "+3V3C"
      },
      {
        "netclass": "µPower",
        "pattern": "+5V_P"
      },
      {
        "netclass": "µPower",
        "pattern": "+BAT1"
      },
      {
        "netclass": "µPower",
        "pattern": "-BAT1"
      },
      {
        "netclass": "Default",
        "pattern": "-BAT2"
      },
      {
        "netclass": "Default",
        "pattern": "/5V_Commuté"
      },
      {
        "netclass": "Default",
        "pattern": "/ESP32_ON"
      },
      {
        "netclass": "Default",
        "pattern": "/ESP32_READY"
      },
      {
        "netclass": "µPower",
        "pattern": "/GND_B"
      },
      {
        "netclass": "Default",
        "pattern": "/Mesure_12V_Externe"
      },
      {
        "netclass": "Default",
        "pattern": "/Mesure_Batteries"
      },
      {
        "netclass": "Default",
        "pattern": "/SCL_B"
      },
      {
        "netclass": "Default",
        "pattern": "/SCL_E"
      },
      {
        "netclass": "Default",
        "pattern": "/SDA_B"
      },
      {
        "netclass": "Default",
        "pattern": "/SDA_E"
      },
      {
        "netclass": "Default",
        "pattern": "/VDD_B"
      },
      {
        "netclass": "Default",
        "pattern": "CMDAMP"
      },
      {
        "netclass": "Default",
        "pattern": "Net-(B1-PadP)"
      },
      {
        "netclass": "Default",
        "pattern": "Net-(C1-Pad1)"
      },
      {
        "netclass": "Default",
        "pattern": "Net-(C1-Pad2)"
      },
      {
        "netclass": "Default",
        "pattern": "Net-(C10-Pad1)"
      },
      {
        "netclass": "Default",
        "pattern": "Net-(C10-Pad2)"
      },
      {
        "netclass": "Default",
        "pattern": "Net-(C11-Pad1)"
      },
      {
        "netclass": "Default",
        "pattern": "Net-(C12-Pad2)"
      },
      {
        "netclass": "Default",
        "pattern": "Net-(C13-Pad2)"
      },
      {
        "netclass": "Default",
        "pattern": "Net-(C15-Pad2)"
      },
      {
        "netclass": "Default",
        "pattern": "Net-(C16-Pad2)"
      },
      {
        "netclass": "Default",
        "pattern": "Net-(C17-Pad2)"
      },
      {
        "netclass": "Default",
        "pattern": "Net-(C2-Pad1)"
      },
      {
        "netclass": "Default",
        "pattern": "Net-(C24-Pad1)"
      },
      {
        "netclass": "Default",
        "pattern": "Net-(C24-Pad2)"
      },
      {
        "netclass": "Default",
        "pattern": "Net-(C25-Pad2)"
      },
      {
        "netclass": "Default",
        "pattern": "Net-(C27-Pad1)"
      },
      {
        "netclass": "Default",
        "pattern": "Net-(C27-Pad2)"
      },
      {
        "netclass": "Default",
        "pattern": "Net-(C4-Pad1)"
      },
      {
        "netclass": "Default",
        "pattern": "Net-(C4-Pad2)"
      },
      {
        "netclass": "Default",
        "pattern": "Net-(C5-Pad1)"
      },
      {
        "netclass": "Default",
        "pattern": "Net-(C6-Pad1)"
      },
      {
        "netclass": "Default",
        "pattern": "Net-(C7-Pad2)"
      },
      {
        "netclass": "Default",
        "pattern": "Net-(C8-Pad1)"
      },
      {
        "netclass": "Default",
        "pattern": "Net-(C8-Pad2)"
      },
      {
        "netclass": "Default",
        "pattern": "Net-(C9-Pad2)"
      },
      {
        "netclass": "Default",
        "pattern": "Net-(CN1-Pad1)"
      },
      {
        "netclass": "Default",
        "pattern": "Net-(CN1-Pad2)"
      },
      {
        "netclass": "Default",
        "pattern": "Net-(D4-Pad2)"
      },
      {
        "netclass": "Default",
        "pattern": "Net-(D7-Pad2)"
      },
      {
        "netclass": "Default",
        "pattern": "Net-(J10-Pad2)"
      },
      {
        "netclass": "Default",
        "pattern": "Net-(J3-Pad2)"
      },
      {
        "netclass": "Default",
        "pattern": "Net-(J3-Pad3)"
      },
      {
        "netclass": "Default",
        "pattern": "Net-(JP2-Pad1)"
      },
      {
        "netclass": "Default",
        "pattern": "Net-(JP3-Pad1)"
      },
      {
        "netclass": "Default",
        "pattern": "Net-(JP4-Pad1)"
      },
      {
        "netclass": "Default",
        "pattern": "Net-(L1-Pad2)"
      },
      {
        "netclass": "Default",
        "pattern": "Net-(Q1-Pad1)"
      },
      {
        "netclass": "Default",
        "pattern": "Net-(Q3-Pad1)"
      },
      {
        "netclass": "Default",
        "pattern": "Net-(R14-Pad1)"
      },
      {
        "netclass": "Default",
        "pattern": "Net-(R14-Pad2)"
      },
      {
        "netclass": "Default",
        "pattern": "Net-(R16-Pad2)"
      },
      {
        "netclass": "Default",
        "pattern": "Net-(R21-Pad2)"
      },
      {
        "netclass": "Default",
        "pattern": "Net-(R24-Pad2)"
      },
      {
        "netclass": "Default",
        "pattern": "Net-(R26-Pad1)"
      },
      {
        "netclass": "Default",
        "pattern": "Net-(R30-Pad2)"
      },
      {
        "netclass": "Default",
        "pattern": "Net-(SW2-Pad2)"
      },
      {
        "netclass": "Default",
        "pattern": "Net-(SW2-Pad3)"
      },
      {
        "netclass": "Default",
        "pattern": "Net-(SW2-Pad4)"
      },
      {
        "netclass": "Default",
        "pattern": "Net-(SW2-Pad5)"
      },
      {
        "netclass": "Default",
        "pattern": "Net-(SW2-Pad6)"
      },
      {
        "netclass": "Default",
        "pattern": "Net-(U1-Pad11)"
      },
      {
        "netclass": "Default",
        "pattern": "Net-(U1-Pad12)"
      },
      {
        "netclass": "Default",
        "pattern": "Net-(U1-Pad2)"
      },
      {
        "netclass": "Default",
        "pattern": "Net-(U1-Pad6)"
      },
      {
        "netclass": "Default",
        "pattern": "Net-(U4-Pad1)"
      },
      {
        "netclass": "Default",
        "pattern": "Net-(U4-Pad3)"
      },
      {
        "netclass": "Default",
        "pattern": "Net-(U5-Pad5)"
      },
      {
        "netclass": "Default",
        "pattern": "Net-(U6-Pad1)"
      },
      {
        "netclass": "Default",
        "pattern": "Net-(U6-Pad3)"
      },
      {
        "netclass": "Default",
        "pattern": "Net-(U7-Pad5)"
      },
      {
        "netclass": "Default",
        "pattern": "PLUS12V"
      },
      {
        "netclass": "Default",
        "pattern": "SAUDIO-D"
      },
      {
        "netclass": "Default",
        "pattern": "SAUDIO-G"
      },
      {
        "netclass": "Default",
        "pattern": "TOP-D"
      },
      {
        "netclass": "Default",
        "pattern": "TOP-G"
      },
      {
        "netclass": "Default",
        "pattern": "VBUS"
      },
      {
        "netclass": "µPower",
        "pattern": "+3V3"
      },
      {
        "netclass": "µPower",
        "pattern": "+5V"
      },
      {
        "netclass": "µPower",
        "pattern": "/GND_E"
      },
      {
        "netclass": "µPower",
        "pattern": "/VDD_E"
      },
      {
        "netclass": "µPower",
        "pattern": "AGND"
      },
      {
        "netclass": "µPower",
        "pattern": "GND"
      },
      {
        "netclass": "Default",
        "pattern": "D-"
      },
      {
        "netclass": "Default",
        "pattern": "D+"
      }
    ]
  },
  "pcbnew": {
    "last_paths": {
      "gencad": "",
      "idf": "",
      "netlist": "ActiveRecorder.net",
      "specctra_dsn": "",
      "step": "",
      "vrml": ""
    },
    "page_layout_descr_file": ""
  },
  "schematic": {
    "annotate_start_num": 0,
    "drawing": {
      "dashed_lines_dash_length_ratio": 12.0,
      "dashed_lines_gap_length_ratio": 3.0,
      "default_line_thickness": 6.0,
      "default_text_size": 60.0,
      "field_names": [],
      "intersheets_ref_own_page": false,
      "intersheets_ref_prefix": "",
      "intersheets_ref_short": false,
      "intersheets_ref_show": false,
      "intersheets_ref_suffix": "",
      "junction_size_choice": 3,
      "label_size_ratio": 0.25,
      "pin_symbol_size": 0.0,
      "text_offset_ratio": 0.08
    },
    "legacy_lib_dir": "",
    "legacy_lib_list": [],
    "meta": {
      "version": 1
    },
    "net_format_name": "KiCad",
    "page_layout_descr_file": "",
    "plot_directory": "PDF/",
    "spice_adjust_passive_values": false,
    "spice_current_sheet_as_root": false,
    "spice_external_command": "spice \"%I\"",
    "spice_model_current_sheet_as_root": true,
    "spice_save_all_currents": false,
    "spice_save_all_voltages": false,
    "subpart_first_id": 65,
    "subpart_id_separator": 0
  },
  "sheets": [
    [
      "331a8e42-a480-4a38-b482-525f792200d4",
      ""
    ]
  ],
  "text_variables": {}
}
