EESchema Schematic File Version 4
LIBS:ActiveRecorder-cache
EELAYER 30 0
EELAYER END
$Descr A4 11693 8268
encoding utf-8
Sheet 1 1
Title ""
Date ""
Rev ""
Comp ""
Comment1 ""
Comment2 ""
Comment3 ""
Comment4 ""
$EndDescr
$Comp
L teensy:Teensy3.6Min U1
U 1 1 5AD8B8A9
P 4450 5350
F 0 "U1" H 3600 6650 60  0000 C CNN
F 1 "Teensy3.6Min" H 4800 6650 60  0000 C CNN
F 2 "teensy:Teensy35_36Min" H 4200 5000 60  0001 C CNN
F 3 "" H 4200 4400 60  0000 C CNN
	1    4450 5350
	1    0    0    -1  
$EndComp
$Comp
L linear:LM358 U2
U 1 1 5AFD39AC
P 3300 1700
F 0 "U2" H 3300 1900 50  0000 L CNN
F 1 "MCP6022" H 3300 1500 50  0000 L CNN
F 2 "Alimentations:SOIC-8_3.9x4.9mm_Pitch1.27mm" H 3300 1700 50  0001 C CNN
F 3 "" H 3300 1700 50  0001 C CNN
	1    3300 1700
	1    0    0    -1  
$EndComp
$Comp
L Molex2510:ConnM_01x03 J3
U 1 1 5AFD3CDD
P 900 1800
F 0 "J3" H 900 2000 50  0000 C CNN
F 1 "Micro" H 900 1600 50  0000 C CNN
F 2 "Connectors_Molex:Molex_KK-6410-03_03x2.54mm_Straight" H 900 1800 50  0001 C CNN
F 3 "" H 900 1800 50  0001 C CNN
	1    900  1800
	-1   0    0    -1  
$EndComp
$Comp
L Device:C C1
U 1 1 5AFD3D66
P 1500 1800
F 0 "C1" V 1650 1750 50  0000 L CNN
F 1 "100nF" V 1350 1700 50  0000 L CNN
F 2 "Capacitors_SMD:C_0603" H 1538 1650 50  0001 C CNN
F 3 "" H 1500 1800 50  0001 C CNN
	1    1500 1800
	0    1    1    0   
$EndComp
$Comp
L Device:R R3
U 1 1 5AFD3DBD
P 2700 1800
F 0 "R3" V 2780 1800 50  0000 C CNN
F 1 "4k7" V 2700 1800 50  0000 C CNN
F 2 "Resistors_SMD:R_1206" V 2630 1800 50  0001 C CNN
F 3 "" H 2700 1800 50  0001 C CNN
	1    2700 1800
	0    1    1    0   
$EndComp
$Comp
L Device:R R2
U 1 1 5AFD3E81
P 2500 1550
F 0 "R2" V 2580 1550 50  0000 C CNN
F 1 "10k" V 2500 1550 50  0000 C CNN
F 2 "Resistors_SMD:R_0805" V 2430 1550 50  0001 C CNN
F 3 "" H 2500 1550 50  0001 C CNN
	1    2500 1550
	-1   0    0    1   
$EndComp
$Comp
L Device:R R1
U 1 1 5AFD40CA
P 2500 1100
F 0 "R1" V 2580 1100 50  0000 C CNN
F 1 "10k" V 2500 1100 50  0000 C CNN
F 2 "Resistors_SMD:R_0805" V 2430 1100 50  0001 C CNN
F 3 "" H 2500 1100 50  0001 C CNN
	1    2500 1100
	-1   0    0    1   
$EndComp
$Comp
L Device:C C3
U 1 1 5AFD43A7
P 2150 1550
F 0 "C3" H 2050 1450 50  0000 L CNN
F 1 "100nF" H 1900 1650 50  0000 L CNN
F 2 "Capacitors_SMD:C_0603" H 2188 1400 50  0001 C CNN
F 3 "" H 2150 1550 50  0001 C CNN
	1    2150 1550
	-1   0    0    1   
$EndComp
$Comp
L Device:CP C2
U 1 1 5AFD4504
P 1750 1550
F 0 "C2" H 1775 1650 50  0000 L CNN
F 1 "220µF" H 1775 1450 50  0000 L CNN
F 2 "Capacitors_SMD:CP_Elec_8x6.7" H 1788 1400 50  0001 C CNN
F 3 "" H 1750 1550 50  0001 C CNN
	1    1750 1550
	1    0    0    -1  
$EndComp
$Comp
L Device:R R4
U 1 1 5AFD4A57
P 3450 1300
F 0 "R4" V 3530 1300 50  0000 C CNN
F 1 "100k" V 3450 1300 50  0000 C CNN
F 2 "Resistors_SMD:R_0805" V 3380 1300 50  0001 C CNN
F 3 "" H 3450 1300 50  0001 C CNN
	1    3450 1300
	0    1    1    0   
$EndComp
$Comp
L Device:C C4
U 1 1 5AFD566E
P 3950 1700
F 0 "C4" V 4100 1650 50  0000 L CNN
F 1 "100nF" V 3800 1600 50  0000 L CNN
F 2 "Capacitors_SMD:C_0603" H 3988 1550 50  0001 C CNN
F 3 "" H 3950 1700 50  0001 C CNN
	1    3950 1700
	0    1    1    0   
$EndComp
$Comp
L SwitchPCB:SW_SP3T_PCB SW1
U 1 1 5AFD5765
P 4400 1300
F 0 "SW1" H 4200 1400 50  0000 C CNN
F 1 "Gain analogique" H 4400 1500 50  0000 C CNN
F 2 "Buttons_PCB:SW_3P_PCB_Angled" H 3775 1475 50  0001 C CNN
F 3 "" H 3775 1475 50  0001 C CNN
	1    4400 1300
	1    0    0    -1  
$EndComp
$Comp
L linear:LM358 U2
U 2 1 5AFD5C09
P 6000 1700
F 0 "U2" H 6000 1900 50  0000 L CNN
F 1 "MCP6022" H 6000 1500 50  0000 L CNN
F 2 "Alimentations:SOIC-8_3.9x4.9mm_Pitch1.27mm" H 6000 1700 50  0001 C CNN
F 3 "" H 6000 1700 50  0001 C CNN
	2    6000 1700
	1    0    0    -1  
$EndComp
$Comp
L Device:R R5
U 1 1 5AFD5CD9
P 5000 1200
F 0 "R5" V 5080 1200 50  0000 C CNN
F 1 "4k7" V 5000 1200 50  0000 C CNN
F 2 "Resistors_SMD:R_1206" V 4930 1200 50  0001 C CNN
F 3 "" H 5000 1200 50  0001 C CNN
	1    5000 1200
	0    1    1    0   
$EndComp
$Comp
L Device:R R6
U 1 1 5AFD5D4D
P 5000 1400
F 0 "R6" V 5080 1400 50  0000 C CNN
F 1 "15k" V 5000 1400 50  0000 C CNN
F 2 "Resistors_SMD:R_0805" V 4930 1400 50  0001 C CNN
F 3 "" H 5000 1400 50  0001 C CNN
	1    5000 1400
	0    1    1    0   
$EndComp
$Comp
L Device:R R7
U 1 1 5AFD5DB0
P 5000 1600
F 0 "R7" V 5080 1600 50  0000 C CNN
F 1 "47k" V 5000 1600 50  0000 C CNN
F 2 "Resistors_SMD:R_0805" V 4930 1600 50  0001 C CNN
F 3 "" H 5000 1600 50  0001 C CNN
	1    5000 1600
	0    1    1    0   
$EndComp
$Comp
L Device:R R8
U 1 1 5AFD6E2B
P 6200 1300
F 0 "R8" V 6280 1300 50  0000 C CNN
F 1 "100k" V 6200 1300 50  0000 C CNN
F 2 "Resistors_SMD:R_0805" V 6130 1300 50  0001 C CNN
F 3 "" H 6200 1300 50  0001 C CNN
	1    6200 1300
	0    1    1    0   
$EndComp
$Comp
L Device:C C6
U 1 1 5AFD80E8
P 7050 1400
F 0 "C6" H 6950 1300 50  0000 L CNN
F 1 "100nF" H 6800 1500 50  0000 L CNN
F 2 "Capacitors_SMD:C_0603" H 7088 1250 50  0001 C CNN
F 3 "" H 7050 1400 50  0001 C CNN
	1    7050 1400
	-1   0    0    1   
$EndComp
$Comp
L Device:CP C5
U 1 1 5AFD8168
P 6650 1400
F 0 "C5" H 6675 1500 50  0000 L CNN
F 1 "470µF" H 6675 1300 50  0000 L CNN
F 2 "Capacitors_SMD:CP_Elec_10x7.7" H 6688 1250 50  0001 C CNN
F 3 "" H 6650 1400 50  0001 C CNN
	1    6650 1400
	1    0    0    -1  
$EndComp
Text GLabel 7600 850  2    60   Input ~ 0
+3V3
Text GLabel 7700 2300 2    60   Input ~ 0
AGND
Text Notes 4400 2250 0    60   ~ 0
R7 33dB (+ 0dB) 5mV->0.2V\nR6 43dB (+15dB) 5mV->0.7V\nR5 53dB (+24dB) 5mV->2.3V
Text Notes 7150 1100 0    60   ~ 0
Pré-ampli Micro
Text GLabel 6250 4400 2    60   Input ~ 0
+3V3
Text GLabel 6250 3800 2    60   Input ~ 0
GND
Text GLabel 7000 3900 0    60   Input ~ 0
GND
Text GLabel 7000 3400 0    60   Input ~ 0
+5V
Text GLabel 5350 7250 2    60   Input ~ 0
VBAT
$Comp
L Device:R R10
U 1 1 5AFE761E
P 7200 4800
F 0 "R10" V 7280 4800 50  0000 C CNN
F 1 "100k" V 7200 4800 50  0000 C CNN
F 2 "Resistors_SMD:R_0805" V 7130 4800 50  0001 C CNN
F 3 "" H 7200 4800 50  0001 C CNN
	1    7200 4800
	-1   0    0    1   
$EndComp
$Comp
L Device:R R11
U 1 1 5AFE85C9
P 7200 6050
F 0 "R11" V 7280 6050 50  0000 C CNN
F 1 "27k" V 7200 6050 50  0000 C CNN
F 2 "Resistors_SMD:R_0805" V 7130 6050 50  0001 C CNN
F 3 "" H 7200 6050 50  0001 C CNN
	1    7200 6050
	-1   0    0    1   
$EndComp
$Comp
L regul:LM1084-3.3 U3
U 1 1 5AFE9975
P 4800 7250
F 0 "U3" H 4700 7000 50  0000 C CNN
F 1 "MCP1702T LDO 3V" H 4500 7400 50  0000 L CNN
F 2 "TO_SOT_Packages_SMD:SOT-23" H 4800 7475 50  0001 C CIN
F 3 "" H 4800 7200 50  0001 C CNN
	1    4800 7250
	-1   0    0    -1  
$EndComp
$Comp
L conn:Conn_01x04 J4
U 1 1 5AFEA613
P 750 6700
F 0 "J4" H 750 6900 50  0000 C CNN
F 1 "Ecran_OLED" H 750 6400 50  0000 C CNN
F 2 "Alimentations:Oled1.3" H 750 6700 50  0001 C CNN
F 3 "" H 750 6700 50  0001 C CNN
	1    750  6700
	-1   0    0    1   
$EndComp
Text Label 1300 6700 2    60   ~ 0
GND_E
Text Label 1300 6800 2    60   ~ 0
VDD_E
Text Label 1300 6600 2    60   ~ 0
SCL_E
Text Label 1300 6500 2    60   ~ 0
SDA_E
NoConn ~ 3200 5700
NoConn ~ 3200 5800
NoConn ~ 3200 5900
NoConn ~ 3200 6000
NoConn ~ 3200 6100
NoConn ~ 3200 6200
NoConn ~ 3200 6300
NoConn ~ 3200 6400
NoConn ~ 3200 6500
NoConn ~ 5400 6500
NoConn ~ 5400 6400
NoConn ~ 5400 6000
NoConn ~ 5400 5500
$Comp
L Device:R R12
U 1 1 5B02E0A6
P 2450 6150
F 0 "R12" V 2530 6150 50  0000 C CNN
F 1 "4k7" V 2450 6150 50  0000 C CNN
F 2 "Resistors_SMD:R_1206" V 2380 6150 50  0001 C CNN
F 3 "" H 2450 6150 50  0001 C CNN
	1    2450 6150
	-1   0    0    1   
$EndComp
$Comp
L Device:R R13
U 1 1 5B02F1F0
P 2650 6150
F 0 "R13" V 2730 6150 50  0000 C CNN
F 1 "4k7" V 2650 6150 50  0000 C CNN
F 2 "Resistors_SMD:R_1206" V 2580 6150 50  0001 C CNN
F 3 "" H 2650 6150 50  0001 C CNN
	1    2650 6150
	-1   0    0    1   
$EndComp
$Comp
L Device:CP C7
U 1 1 5B03AB47
P 7800 3650
F 0 "C7" H 7825 3750 50  0000 L CNN
F 1 "220µF" H 7825 3550 50  0000 L CNN
F 2 "Capacitors_SMD:CP_Elec_8x6.7" H 7838 3500 50  0001 C CNN
F 3 "" H 7800 3650 50  0001 C CNN
	1    7800 3650
	1    0    0    -1  
$EndComp
$Comp
L Alimentations:2xBatteriesLiPo U7
U 1 1 5B147931
P 900 2850
F 0 "U7" V 875 3100 50  0000 L CNN
F 1 "2xBatteriesLiPo" V 1100 2550 50  0000 L CNN
F 2 "Alimentations:2xBatteriesLiPo" H 800 2700 50  0001 L CIN
F 3 "" H 1000 2900 50  0001 L CNN
	1    900  2850
	0    -1   -1   0   
$EndComp
$Comp
L Device:C C8
U 1 1 5B17CE04
P 7450 3650
F 0 "C8" H 7350 3550 50  0000 L CNN
F 1 "100nF" H 7200 3750 50  0000 L CNN
F 2 "Capacitors_SMD:C_0603" H 7488 3500 50  0001 C CNN
F 3 "" H 7450 3650 50  0001 C CNN
	1    7450 3650
	-1   0    0    1   
$EndComp
$Comp
L Device:L_Core_Ferrite_Small L2
U 1 1 5B1935FF
P 7300 850
F 0 "L2" V 7250 800 50  0000 L CNN
F 1 "100uH" V 7400 700 50  0000 L CNN
F 2 "Alimentations:L100mH" H 7300 850 50  0001 C CNN
F 3 "" H 7300 850 50  0001 C CNN
	1    7300 850 
	0    -1   -1   0   
$EndComp
$Comp
L Device:C C9
U 1 1 5B19B08B
P 1300 1250
F 0 "C9" H 1200 1150 50  0000 L CNN
F 1 "100nF" H 1050 1350 50  0000 L CNN
F 2 "Capacitors_SMD:C_0603" H 1338 1100 50  0001 C CNN
F 3 "" H 1300 1250 50  0001 C CNN
	1    1300 1250
	-1   0    0    1   
$EndComp
Text Notes 7150 6900 0    157  ~ 31
Active Recorder SMD V0.2
Text GLabel 6250 4200 2    60   Input ~ 0
AGND
$Comp
L Device:C C10
U 1 1 5B2EEDDB
P 7100 3650
F 0 "C10" H 6950 3550 50  0000 L CNN
F 1 "100nF" H 6850 3750 50  0000 L CNN
F 2 "Capacitors_SMD:C_0603" H 7138 3500 50  0001 C CNN
F 3 "" H 7100 3650 50  0001 C CNN
	1    7100 3650
	-1   0    0    1   
$EndComp
Text GLabel 6250 4000 2    60   Input ~ 0
+5V
Text Label 5700 5200 0    60   ~ 0
Mesure_Batteries
Text Label 5700 5300 0    60   ~ 0
Mesure_Heterodyne
Text Notes 6000 6300 0    51   ~ 0
Teensy Recorders :\n35 36 37\nD2 D1 D0\n 1  1  0 Active Recorder (AR)
Text GLabel 6250 4850 2    60   Input ~ 0
SAUDIO
Text GLabel 7600 1700 2    60   Input ~ 0
SAUDIO
$Comp
L Device:D_Schottky D2
U 1 1 5BA80C94
P 9750 3400
F 0 "D2" H 9750 3500 50  0000 C CNN
F 1 "SSB44" H 9750 3300 50  0000 C CNN
F 2 "Diodes_SMD:D_SMB" H 9750 3400 50  0001 C CNN
F 3 "" H 9750 3400 50  0001 C CNN
	1    9750 3400
	1    0    0    -1  
$EndComp
$Comp
L Device:D_Schottky D1
U 1 1 5AFFC3B2
P 9750 3700
F 0 "D1" H 9750 3800 50  0000 C CNN
F 1 "SSB44" H 9750 3600 50  0000 C CNN
F 2 "Diodes_SMD:D_SMB" H 9750 3700 50  0001 C CNN
F 3 "" H 9750 3700 50  0001 C CNN
	1    9750 3700
	1    0    0    -1  
$EndComp
Text Label 8400 3400 0    60   ~ 0
+3V7_C
NoConn ~ 5400 4500
NoConn ~ 5400 4700
NoConn ~ 5400 4800
Text Label 2900 4500 0    60   ~ 0
Up
Text Label 2900 4600 0    60   ~ 0
Rec
Text Label 2900 4900 0    60   ~ 0
Down
Text Label 2900 5000 0    60   ~ 0
Push
Text Label 2900 5100 0    60   ~ 0
Mode
$Comp
L switches:SW_Push SW2
U 1 1 5C1EBD21
P 1050 4500
F 0 "SW2" H 1100 4600 50  0000 L CNN
F 1 "Up" H 1050 4440 50  0000 C CNN
F 2 "Buttons_Switches_THT:SW_Tactile_SKHH_Angled" H 1050 4700 50  0001 C CNN
F 3 "" H 1050 4700 50  0001 C CNN
	1    1050 4500
	1    0    0    -1  
$EndComp
$Comp
L switches:SW_Push SW4
U 1 1 5C1EC034
P 1050 4800
F 0 "SW4" H 1100 4900 50  0000 L CNN
F 1 "Down" H 1050 4740 50  0000 C CNN
F 2 "Buttons_Switches_THT:SW_Tactile_SKHH_Angled" H 1050 5000 50  0001 C CNN
F 3 "" H 1050 5000 50  0001 C CNN
	1    1050 4800
	1    0    0    -1  
$EndComp
$Comp
L switches:SW_Push SW5
U 1 1 5C1EC18F
P 1050 5100
F 0 "SW5" H 1100 5200 50  0000 L CNN
F 1 "Push" H 1050 5040 50  0000 C CNN
F 2 "Buttons_Switches_THT:SW_Tactile_SKHH_Angled" H 1050 5300 50  0001 C CNN
F 3 "" H 1050 5300 50  0001 C CNN
	1    1050 5100
	1    0    0    -1  
$EndComp
NoConn ~ 3200 5500
NoConn ~ 3200 5400
NoConn ~ 3200 5300
NoConn ~ 3200 5200
NoConn ~ 3200 4800
NoConn ~ 3200 4700
NoConn ~ 3200 4400
NoConn ~ 3200 4300
NoConn ~ 5400 4600
NoConn ~ 5400 5400
NoConn ~ 5400 6200
NoConn ~ 5400 6300
$Comp
L conn:Conn_01x02 J1
U 1 1 5C218635
P 8850 3200
F 0 "J1" H 8850 3300 50  0000 C CNN
F 1 "Conn_A/M" V 8950 3200 50  0000 C CNN
F 2 "Connectors_Molex:Molex_KK-6410-02_02x2.54mm_Straight" H 8850 3200 50  0001 C CNN
F 3 "" H 8850 3200 50  0001 C CNN
	1    8850 3200
	0    -1   -1   0   
$EndComp
$Comp
L conn:Audio-Jack-3 J9
U 1 1 5C21EA20
P 9275 4175
F 0 "J9" H 9025 4225 50  0000 C CNN
F 1 "Audio-Jack" H 9275 4375 50  0000 C CNN
F 2 "ConnectorsAli:Mini_Jack_3.5mm" H 9525 4275 50  0001 C CNN
F 3 "" H 9525 4275 50  0001 C CNN
	1    9275 4175
	1    0    0    -1  
$EndComp
Text Label 5400 5800 0    60   ~ 0
Sortie_Audio
Wire Wire Line
	2850 1800 2900 1800
Wire Wire Line
	2900 1800 3000 1800
Wire Wire Line
	2550 1800 1650 1800
Wire Wire Line
	1350 1800 1100 1800
Wire Wire Line
	2500 1250 2500 1300
Wire Wire Line
	2500 1300 2500 1400
Wire Wire Line
	2150 1400 2150 1300
Wire Wire Line
	1750 1300 2150 1300
Wire Wire Line
	2150 1300 2500 1300
Wire Wire Line
	2500 1300 2650 1300
Connection ~ 2500 1300
Wire Wire Line
	1750 1400 1750 1300
Connection ~ 2150 1300
Wire Wire Line
	3200 2300 3200 2000
Wire Wire Line
	1150 2300 1300 2300
Wire Wire Line
	1300 2300 1750 2300
Wire Wire Line
	1750 2300 2150 2300
Wire Wire Line
	2150 2300 2500 2300
Wire Wire Line
	2500 2300 3200 2300
Wire Wire Line
	3200 2300 4350 2300
Wire Wire Line
	4350 2300 5900 2300
Wire Wire Line
	5900 2300 6650 2300
Wire Wire Line
	6650 2300 7050 2300
Wire Wire Line
	7050 2300 7700 2300
Wire Wire Line
	1150 2300 1150 1900
Wire Wire Line
	1150 1900 1100 1900
Wire Wire Line
	1750 1700 1750 2300
Connection ~ 1750 2300
Wire Wire Line
	2150 1700 2150 2300
Connection ~ 2150 2300
Wire Wire Line
	2500 1700 2500 2300
Connection ~ 2500 2300
Wire Wire Line
	2650 1600 2800 1600
Wire Wire Line
	2800 1600 3000 1600
Wire Wire Line
	2650 1300 2650 1600
Wire Wire Line
	2500 850  2500 950 
Wire Wire Line
	1150 850  1150 1700
Wire Wire Line
	1150 1700 1100 1700
Wire Wire Line
	3200 850  3200 1400
Connection ~ 2500 850 
Wire Wire Line
	3300 1300 2900 1300
Wire Wire Line
	2900 1300 2900 1800
Connection ~ 2900 1800
Wire Wire Line
	3600 1700 3700 1700
Wire Wire Line
	3700 1700 3800 1700
Wire Wire Line
	3700 1700 3700 1300
Wire Wire Line
	3700 1300 3600 1300
Connection ~ 3700 1700
Wire Wire Line
	4100 1700 4150 1700
Wire Wire Line
	4150 1700 4150 1300
Wire Wire Line
	4150 1300 4200 1300
Wire Wire Line
	4350 1550 4350 1700
Wire Wire Line
	4350 1700 4350 2300
Connection ~ 3200 2300
Wire Wire Line
	4350 1700 4450 1700
Wire Wire Line
	4450 1700 4450 1550
Connection ~ 4350 1700
Wire Wire Line
	4600 1200 4850 1200
Wire Wire Line
	4600 1300 4800 1300
Wire Wire Line
	4800 1300 4800 1400
Wire Wire Line
	4800 1400 4850 1400
Wire Wire Line
	4600 1400 4700 1400
Wire Wire Line
	4700 1400 4700 1600
Wire Wire Line
	4700 1600 4850 1600
Wire Wire Line
	5150 1200 5250 1200
Wire Wire Line
	5250 1200 5250 1300
Wire Wire Line
	5250 1300 5250 1400
Wire Wire Line
	5250 1400 5250 1600
Wire Wire Line
	5500 1800 5700 1800
Wire Wire Line
	5250 1400 5150 1400
Connection ~ 5250 1400
Wire Wire Line
	5700 1600 5650 1600
Wire Wire Line
	5650 1600 5650 950 
Wire Wire Line
	5650 950  2800 950 
Wire Wire Line
	2800 950  2800 1600
Connection ~ 2800 1600
Wire Wire Line
	5900 850  5900 1400
Connection ~ 3200 850 
Wire Wire Line
	5900 2300 5900 2000
Connection ~ 4350 2300
Wire Wire Line
	6050 1300 5250 1300
Connection ~ 5250 1300
Wire Wire Line
	6350 1300 6450 1300
Wire Wire Line
	6450 1300 6450 1700
Wire Wire Line
	6300 1700 6450 1700
Wire Wire Line
	6450 1700 7600 1700
Connection ~ 5900 850 
Wire Wire Line
	6650 850  6650 1250
Connection ~ 6650 850 
Wire Wire Line
	7050 850  7050 1250
Connection ~ 7050 850 
Wire Wire Line
	6650 2300 6650 1550
Connection ~ 5900 2300
Wire Wire Line
	7050 1550 7050 2300
Connection ~ 6650 2300
Connection ~ 7050 2300
Connection ~ 6450 1700
Wire Notes Line
	8050 700  700  700 
Wire Notes Line
	700  700  700  2450
Wire Notes Line
	700  2450 8050 2450
Wire Notes Line
	8050 2450 8050 700 
Wire Wire Line
	5500 1600 5500 1800
Wire Wire Line
	5150 1600 5250 1600
Wire Wire Line
	5250 1600 5500 1600
Connection ~ 5250 1600
Wire Wire Line
	800  4200 2100 4200
Wire Wire Line
	3000 4200 3200 4200
Wire Wire Line
	1550 4900 3200 4900
Wire Wire Line
	6700 7650 6700 6450
Wire Wire Line
	6050 5100 5400 5100
Wire Wire Line
	5400 4400 5750 4400
Wire Wire Line
	5900 4400 6250 4400
Wire Wire Line
	10850 3900 7800 3900
Wire Wire Line
	7800 3900 7450 3900
Wire Wire Line
	7450 3900 7100 3900
Wire Wire Line
	7100 3900 7000 3900
Wire Wire Line
	4500 7250 4250 7250
Wire Wire Line
	4250 7250 4250 6800
Wire Wire Line
	2200 7650 4800 7650
Wire Wire Line
	4800 7650 6700 7650
Wire Wire Line
	4800 7650 4800 7550
Connection ~ 6700 6450
Wire Wire Line
	2450 5600 2650 5600
Wire Wire Line
	2650 5600 2800 5600
Wire Wire Line
	2800 5600 2800 6800
Wire Wire Line
	2200 7650 2200 7450
Connection ~ 4800 7650
Wire Wire Line
	2450 6500 3000 6500
Wire Wire Line
	2650 6600 2900 6600
Wire Wire Line
	5400 5000 5500 5000
Wire Wire Line
	3000 6800 3000 6500
Wire Wire Line
	5400 4900 5600 4900
Wire Wire Line
	5600 6900 2900 6900
Wire Wire Line
	2900 6900 2900 6600
Wire Wire Line
	2450 5600 2450 6000
Wire Wire Line
	2650 6000 2650 5600
Connection ~ 2650 5600
Wire Wire Line
	2450 6300 2450 6500
Connection ~ 2450 6500
Wire Wire Line
	2650 6300 2650 6600
Connection ~ 2650 6600
Wire Wire Line
	7800 3400 7800 3500
Connection ~ 7800 3400
Wire Wire Line
	2200 4600 3200 4600
Wire Wire Line
	7000 3400 7100 3400
Wire Wire Line
	7100 3400 7450 3400
Wire Wire Line
	7450 3400 7800 3400
Wire Wire Line
	7800 3400 8100 3400
Wire Wire Line
	7450 3500 7450 3400
Connection ~ 7450 3400
Wire Wire Line
	7600 850  7400 850 
Wire Wire Line
	1150 850  1300 850 
Wire Wire Line
	1300 850  2500 850 
Wire Wire Line
	2500 850  3200 850 
Wire Wire Line
	3200 850  5900 850 
Wire Wire Line
	5900 850  6650 850 
Wire Wire Line
	6650 850  7050 850 
Wire Wire Line
	7050 850  7200 850 
Wire Wire Line
	1300 1100 1300 850 
Connection ~ 1300 850 
Wire Wire Line
	1300 1400 1300 2300
Connection ~ 1300 2300
Wire Wire Line
	6050 5100 6050 4850
Wire Wire Line
	6050 4850 6250 4850
Wire Wire Line
	5400 4300 6100 4300
Wire Wire Line
	6100 4200 6250 4200
Wire Wire Line
	2300 5100 3200 5100
Wire Wire Line
	1550 5000 3200 5000
Wire Wire Line
	7100 3400 7100 3500
Connection ~ 7100 3400
Wire Wire Line
	7450 3900 7450 3800
Connection ~ 7450 3900
Wire Wire Line
	6000 4200 5400 4200
Wire Wire Line
	6000 4000 6250 4000
Connection ~ 5900 4400
Wire Wire Line
	850  3200 850  3100
Wire Wire Line
	5100 7250 5350 7250
Wire Wire Line
	7200 6450 7200 6200
Wire Wire Line
	7200 4950 7200 5050
Wire Wire Line
	7200 5050 7200 5900
Connection ~ 7200 5050
Wire Wire Line
	7200 4650 7200 4250
Wire Wire Line
	7200 4250 7350 4250
Wire Wire Line
	6250 3800 3000 3800
Wire Wire Line
	3000 3800 3000 4200
Connection ~ 3000 4200
Wire Wire Line
	5400 6100 5950 6100
Wire Wire Line
	5400 5600 5750 5600
Connection ~ 5950 6100
Wire Wire Line
	6100 4300 6100 4200
Wire Wire Line
	7100 3800 7100 3900
Connection ~ 7100 3900
Wire Wire Line
	8950 3400 9350 3400
Wire Wire Line
	750  3100 750  3150
Wire Wire Line
	1050 3150 1050 3100
Wire Wire Line
	7800 3800 7800 3900
Connection ~ 7800 3900
Wire Wire Line
	8300 3400 8850 3400
Wire Wire Line
	6900 6450 6900 5450
Wire Wire Line
	5900 4550 6900 4550
Wire Wire Line
	6900 4550 6900 5150
Wire Wire Line
	5400 5300 6750 5300
Wire Wire Line
	850  4500 800  4500
Wire Wire Line
	800  4200 800  4500
Wire Wire Line
	800  4800 800  5100
Connection ~ 800  4500
Wire Wire Line
	800  4800 850  4800
Wire Wire Line
	800  5100 850  5100
Connection ~ 800  4800
Wire Wire Line
	1550 4900 1550 4800
Wire Wire Line
	1550 4800 1250 4800
Wire Wire Line
	1250 5100 1550 5100
Wire Wire Line
	1550 5100 1550 5000
Wire Wire Line
	6000 4000 6000 4200
Wire Wire Line
	5900 4400 5900 4550
Wire Wire Line
	5500 5000 5500 6800
Wire Wire Line
	5600 4900 5600 6900
Wire Wire Line
	5950 5600 5950 6100
Wire Wire Line
	5950 6100 5950 6450
Wire Wire Line
	5950 6450 6700 6450
Wire Wire Line
	6900 6450 7200 6450
Wire Wire Line
	9150 6300 9500 6300
Connection ~ 6900 6450
Wire Wire Line
	7200 5050 6700 5050
Wire Wire Line
	6700 5050 6700 5200
Wire Wire Line
	6700 5200 5400 5200
$Comp
L ActiveRecorder-rescue:POT RV1
U 1 1 5C1E873C
P 6900 5300
F 0 "RV1" V 6725 5300 50  0000 C CNN
F 1 "10K" V 6800 5300 50  0000 C CNN
F 2 "PotentiometrePCB:Potentiometer_Simple_16mm_Horizontal" H 6900 5300 50  0001 C CNN
F 3 "" H 6900 5300 50  0001 C CNN
	1    6900 5300
	-1   0    0    1   
$EndComp
$Comp
L switches:SW_Push SW6
U 1 1 5C3BF2CD
P 950 5850
F 0 "SW6" H 1000 5950 50  0000 L CNN
F 1 "Mode" H 950 5790 50  0000 C CNN
F 2 "Buttons_Switches_THT:SW_Tactile_SKHH_Angled" H 950 6050 50  0001 C CNN
F 3 "" H 950 6050 50  0001 C CNN
	1    950  5850
	1    0    0    -1  
$EndComp
$Comp
L switches:SW_Push SW3
U 1 1 5C3BF3EE
P 950 6100
F 0 "SW3" H 1000 6200 50  0000 L CNN
F 1 "REC" H 950 6040 50  0000 C CNN
F 2 "Buttons_Switches_THT:SW_Tactile_SKHH_Angled" H 950 6300 50  0001 C CNN
F 3 "" H 950 6300 50  0001 C CNN
	1    950  6100
	1    0    0    -1  
$EndComp
$Comp
L agg-kicad:TPA301 U8
U 1 1 5C581A53
P 9900 5150
F 0 "U8" H 9400 5450 50  0000 L CNN
F 1 "8002C" H 9400 4850 50  0000 L CNN
F 2 "Housings_SOIC:SOIC-8_3.9x4.9mm_Pitch1.27mm" H 9400 4750 50  0001 L CNN
F 3 "http://www.ti.com/lit/ds/symlink/tpa301.pdf" H 9400 4650 50  0001 L CNN
F 4 "2342287" H 9400 4550 50  0001 L CNN "Farnell"
	1    9900 5150
	1    0    0    -1  
$EndComp
Wire Wire Line
	9300 5350 9250 5350
Wire Wire Line
	9250 5350 9250 5800
Wire Wire Line
	9250 5800 9500 5800
Wire Wire Line
	9500 5800 10800 5800
Wire Wire Line
	9500 5800 9500 5900
Wire Wire Line
	10500 5250 10800 5250
Wire Wire Line
	10800 5250 10800 5800
Connection ~ 9500 5800
Wire Wire Line
	9300 5050 9150 5050
Wire Wire Line
	10550 4750 10550 4950
Wire Wire Line
	10550 4950 10500 4950
Wire Wire Line
	10000 4750 10550 4750
Connection ~ 10550 4750
Wire Wire Line
	10500 5350 10700 5350
$Comp
L Device:CP C12
U 1 1 5C588020
P 7600 5200
F 0 "C12" H 7625 5300 50  0000 L CNN
F 1 "220µF" H 7625 5100 50  0000 L CNN
F 2 "Capacitors_SMD:CP_Elec_8x6.7" H 7638 5050 50  0001 C CNN
F 3 "" H 7600 5200 50  0001 C CNN
	1    7600 5200
	1    0    0    -1  
$EndComp
Wire Wire Line
	7600 5350 7600 6000
$Comp
L Device:R R15
U 1 1 5C58DBA2
P 9850 4750
F 0 "R15" V 9930 4750 50  0000 C CNN
F 1 "51k" V 9850 4750 50  0000 C CNN
F 2 "Resistors_SMD:R_0805" V 9780 4750 50  0001 C CNN
F 3 "" H 9850 4750 50  0001 C CNN
	1    9850 4750
	0    -1   -1   0   
$EndComp
Wire Wire Line
	9250 5250 9300 5250
Wire Wire Line
	9250 4750 9250 5250
Wire Wire Line
	9250 4750 9700 4750
$Comp
L Device:C C14
U 1 1 5C598B2F
P 9850 4500
F 0 "C14" V 9800 4300 50  0000 L CNN
F 1 "100pF" V 9800 4550 50  0000 L CNN
F 2 "Capacitors_SMD:C_0402" H 9888 4350 50  0001 C CNN
F 3 "" H 9850 4500 50  0001 C CNN
	1    9850 4500
	0    -1   -1   0   
$EndComp
Wire Wire Line
	10000 4500 10550 4500
Connection ~ 9250 4750
NoConn ~ 5400 5700
Wire Wire Line
	6700 6450 6900 6450
Wire Wire Line
	800  4500 800  4800
Wire Wire Line
	1250 4500 3200 4500
$Comp
L conn:Conn_01x04 J7
U 1 1 5CE7AB01
P 1600 6000
F 0 "J7" H 1600 6300 50  0000 C CNN
F 1 "LU" H 1600 5700 50  0000 C CNN
F 2 "Pin_Headers:Pin_Header_Straight_1x04_Pitch2.54mm" H 1600 6000 50  0001 C CNN
F 3 "" H 1600 6000 50  0001 C CNN
	1    1600 6000
	1    0    0    1   
$EndComp
$Comp
L conn:Conn_01x04 J5
U 1 1 5CE7AC13
P 1800 6000
F 0 "J5" H 1800 6300 50  0000 C CNN
F 1 "LD" H 1800 5700 50  0000 C CNN
F 2 "Pin_Headers:Pin_Header_Straight_1x04_Pitch2.54mm" H 1800 6000 50  0001 C CNN
F 3 "" H 1800 6000 50  0001 C CNN
	1    1800 6000
	-1   0    0    1   
$EndComp
Wire Wire Line
	2300 6100 2000 6100
Wire Wire Line
	2000 6000 2200 6000
Wire Wire Line
	1250 5650 700  5650
Wire Wire Line
	700  5650 700  5850
Wire Wire Line
	700  5850 750  5850
Wire Wire Line
	750  6100 700  6100
Wire Wire Line
	700  6100 700  5850
Connection ~ 700  5850
Wire Wire Line
	1150 5850 1200 5850
Wire Wire Line
	1150 6100 1400 6100
Wire Wire Line
	1200 6000 1400 6000
Wire Wire Line
	1200 5850 1200 6000
Connection ~ 2100 4200
Wire Wire Line
	2100 4200 3000 4200
Wire Notes Line
	600  5500 1700 5500
Wire Notes Line
	1700 5500 1700 6250
Wire Notes Line
	1700 6250 600  6250
Wire Notes Line
	600  6250 600  5500
$Comp
L conn:Conn_01x04 J8
U 1 1 5D2DCC06
P 8100 5900
F 0 "J8" H 8100 6100 50  0000 C CNN
F 1 "RU" H 8100 5600 50  0000 C CNN
F 2 "Pin_Headers:Pin_Header_Straight_1x04_Pitch2.54mm" H 8100 5900 50  0001 C CNN
F 3 "" H 8100 5900 50  0001 C CNN
	1    8100 5900
	-1   0    0    1   
$EndComp
$Comp
L conn:Conn_01x04 J6
U 1 1 5D30CE38
P 7900 5900
F 0 "J6" H 7900 6100 50  0000 C CNN
F 1 "RB" H 7900 5600 50  0000 C CNN
F 2 "Pin_Headers:Pin_Header_Straight_1x04_Pitch2.54mm" H 7900 5900 50  0001 C CNN
F 3 "" H 7900 5900 50  0001 C CNN
	1    7900 5900
	1    0    0    1   
$EndComp
Text GLabel 7600 6200 3    60   Input ~ 0
AGND
Wire Wire Line
	7700 6000 7600 6000
Wire Wire Line
	5400 5900 7100 5900
Connection ~ 9150 6300
Wire Wire Line
	9150 5050 9150 6300
Wire Wire Line
	9300 4950 8950 4950
Wire Wire Line
	7600 6000 7600 6200
Connection ~ 7600 6000
Wire Wire Line
	9500 6200 9500 6300
Wire Notes Line
	8000 5500 8675 5500
Wire Notes Line
	8675 5500 8675 6400
Wire Notes Line
	8675 6400 8000 6400
Wire Notes Line
	8000 6400 8000 5500
Wire Wire Line
	950  6700 2200 6700
Wire Wire Line
	950  6600 1900 6600
Wire Wire Line
	950  6800 2050 6800
Wire Wire Line
	950  6500 1750 6500
Wire Wire Line
	1250 5900 1400 5900
Wire Wire Line
	1250 5650 1250 5900
Wire Wire Line
	2200 4600 2200 6000
Wire Wire Line
	2300 5100 2300 6100
Wire Wire Line
	2100 5900 2000 5900
Wire Wire Line
	2100 4200 2100 5900
$Comp
L conn:Conn_01x04 J10
U 1 1 5CE41A6D
P 750 7450
F 0 "J10" H 750 7650 50  0000 C CNN
F 1 "Bus I2C" H 750 7150 50  0000 C CNN
F 2 "Pin_Headers:Pin_Header_Straight_1x04_Pitch2.54mm" H 750 7450 50  0001 C CNN
F 3 "" H 750 7450 50  0001 C CNN
	1    750  7450
	-1   0    0    1   
$EndComp
Wire Wire Line
	950  7550 2050 7550
Wire Wire Line
	2050 7550 2050 6800
Connection ~ 2050 6800
Wire Wire Line
	2050 6800 2800 6800
Wire Wire Line
	950  7450 2200 7450
Connection ~ 2200 7450
Wire Wire Line
	2200 7450 2200 6700
Wire Wire Line
	950  7350 1900 7350
Wire Wire Line
	1900 7350 1900 6600
Connection ~ 1900 6600
Wire Wire Line
	1900 6600 2650 6600
Wire Wire Line
	950  7250 1750 7250
Wire Wire Line
	1750 7250 1750 6500
Connection ~ 1750 6500
Wire Wire Line
	1750 6500 2450 6500
Text Label 1250 7250 2    60   ~ 0
SDA_E
Text Label 1250 7350 2    60   ~ 0
SCL_E
Text Label 1250 7450 2    60   ~ 0
GND_E
Text Label 1250 7550 2    60   ~ 0
VDD_E
Wire Wire Line
	3000 6800 5500 6800
Text GLabel 2950 5750 3    60   Input ~ 0
+3V3
Wire Wire Line
	2950 5750 2950 5600
Wire Wire Line
	2950 5600 2800 5600
Connection ~ 2800 5600
NoConn ~ 3200 5600
Text GLabel 7500 4500 0    60   Input ~ 0
+5V
Wire Wire Line
	7600 4500 7500 4500
$Comp
L Device:C C16
U 1 1 5CE78759
P 8950 5900
F 0 "C16" V 8900 5700 50  0000 L CNN
F 1 "470nF" V 8900 5950 50  0000 L CNN
F 2 "Capacitors_SMD:C_0402" H 8988 5750 50  0001 C CNN
F 3 "" H 8950 5900 50  0001 C CNN
	1    8950 5900
	1    0    0    -1  
$EndComp
Wire Wire Line
	8950 6050 8950 6300
Wire Wire Line
	8950 6300 9150 6300
$Comp
L Device:C C13
U 1 1 5CEB5B34
P 8250 4750
F 0 "C13" V 8100 4675 50  0000 L CNN
F 1 "470nF" V 8200 4800 50  0000 L CNN
F 2 "Capacitors_SMD:C_0402" H 8288 4600 50  0001 C CNN
F 3 "" H 8250 4750 50  0001 C CNN
	1    8250 4750
	0    1    1    0   
$EndComp
$Comp
L Alimentations:USB_OTG J2
U 1 1 5D28B150
P 10850 2600
F 0 "J2" H 10620 2589 50  0000 R CNN
F 1 "USB_OTG" H 10850 2250 50  0000 R CNN
F 2 "Alimentations:MicroUSB-H" H 11000 2550 50  0001 C CNN
F 3 "" H 11000 2550 50  0001 C CNN
	1    10850 2600
	-1   0    0    -1  
$EndComp
NoConn ~ 10550 2800
Wire Wire Line
	10550 2600 10200 2600
Wire Wire Line
	10200 2700 10550 2700
Text Label 10200 2600 0    60   ~ 0
D+
Text Label 10200 2700 0    60   ~ 0
D-
Text GLabel 2350 7450 2    60   Input ~ 0
GND
Wire Wire Line
	2350 7450 2200 7450
$Comp
L Device:CP C11
U 1 1 5D3BA146
P 5750 4800
F 0 "C11" H 5775 4900 50  0000 L CNN
F 1 "470µF" H 5775 4700 50  0000 L CNN
F 2 "Capacitors_SMD:CP_Elec_10x7.7" H 5788 4650 50  0001 C CNN
F 3 "" H 5750 4800 50  0001 C CNN
	1    5750 4800
	1    0    0    -1  
$EndComp
Wire Wire Line
	5750 4650 5750 4400
Connection ~ 5750 4400
Wire Wire Line
	5750 4400 5900 4400
Wire Wire Line
	5750 4950 5750 5600
Connection ~ 5750 5600
Wire Wire Line
	5750 5600 5950 5600
$Comp
L agg-kicad:CONN_01x02 J11
U 1 1 5D4092AD
P 10100 2600
F 0 "J11" H 10050 2700 50  0000 C CNN
F 1 "CONN_01x02" H 10050 2400 50  0000 C CNN
F 2 "Connectors_JST:JST_PH_B2B-PH-K_02x2.00mm_Straight" H 10100 2600 50  0001 C CNN
F 3 "" H 10100 2600 50  0001 C CNN
	1    10100 2600
	1    0    0    -1  
$EndComp
Wire Wire Line
	950  3100 950  3200
Text GLabel 600  3300 3    60   Input ~ 0
+BAT1
Wire Wire Line
	750  3150 600  3150
Wire Wire Line
	600  3150 600  3300
Text GLabel 800  3300 3    60   Input ~ 0
-BAT1
Text GLabel 1000 3300 3    60   Input ~ 0
+BAT2
Text GLabel 1200 3300 3    60   Input ~ 0
-BAT2
Wire Wire Line
	850  3200 800  3200
Wire Wire Line
	800  3200 800  3300
Wire Wire Line
	950  3200 1000 3200
Wire Wire Line
	1000 3200 1000 3300
Wire Wire Line
	1050 3150 1200 3150
Wire Wire Line
	1200 3150 1200 3300
$Comp
L Device:R R18
U 1 1 5DC1AB1A
P 3425 3025
F 0 "R18" V 3505 3025 50  0000 C CNN
F 1 "1k" V 3425 3025 50  0000 C CNN
F 2 "Resistors_SMD:R_1206" V 3355 3025 50  0001 C CNN
F 3 "" H 3425 3025 50  0001 C CNN
	1    3425 3025
	-1   0    0    1   
$EndComp
Wire Wire Line
	3375 2850 3425 2850
Wire Wire Line
	3425 2850 3425 2875
Wire Wire Line
	3425 3175 3425 3225
Wire Wire Line
	3425 3450 3600 3450
Text GLabel 3600 3450 2    60   Input ~ 0
GND
NoConn ~ 3375 2700
$Comp
L Device:R R17
U 1 1 5DCC2AC7
P 2025 2700
F 0 "R17" V 2105 2700 50  0000 C CNN
F 1 "330" V 2025 2700 50  0000 C CNN
F 2 "Resistors_SMD:R_0805" V 1955 2700 50  0001 C CNN
F 3 "" H 2025 2700 50  0001 C CNN
	1    2025 2700
	0    -1   -1   0   
$EndComp
$Comp
L Device:C C17
U 1 1 5DD28B27
P 2225 3050
F 0 "C17" V 2375 3000 50  0000 L CNN
F 1 "10nF" V 2075 2950 50  0000 L CNN
F 2 "Capacitors_SMD:C_0603" H 2263 2900 50  0001 C CNN
F 3 "" H 2225 3050 50  0001 C CNN
	1    2225 3050
	-1   0    0    1   
$EndComp
Wire Wire Line
	2175 2700 2225 2700
Wire Wire Line
	2225 2900 2225 2700
Connection ~ 2225 2700
Wire Wire Line
	2225 2700 2475 2700
Wire Wire Line
	2225 3200 2225 3450
Text GLabel 1800 3450 0    60   Input ~ 0
-BAT1
Text GLabel 1825 2700 0    60   Input ~ 0
+BAT1
Wire Wire Line
	1825 2700 1875 2700
Wire Wire Line
	1800 3450 2225 3450
$Comp
L Device:R R20
U 1 1 5DEB7CD1
P 6050 3025
F 0 "R20" V 6130 3025 50  0000 C CNN
F 1 "1K" V 6050 3025 50  0000 C CNN
F 2 "Resistors_SMD:R_1206" V 5980 3025 50  0001 C CNN
F 3 "" H 6050 3025 50  0001 C CNN
	1    6050 3025
	-1   0    0    1   
$EndComp
Wire Wire Line
	6000 2850 6050 2850
Wire Wire Line
	6050 2850 6050 2875
Wire Wire Line
	6050 3175 6050 3225
Wire Wire Line
	6050 3475 6250 3475
Text GLabel 6250 3475 2    60   Input ~ 0
GND
NoConn ~ 6000 2700
$Comp
L Device:R R19
U 1 1 5DEB7CE2
P 4650 2700
F 0 "R19" V 4730 2700 50  0000 C CNN
F 1 "330" V 4650 2700 50  0000 C CNN
F 2 "Resistors_SMD:R_0805" V 4580 2700 50  0001 C CNN
F 3 "" H 4650 2700 50  0001 C CNN
	1    4650 2700
	0    -1   -1   0   
$EndComp
$Comp
L Device:C C18
U 1 1 5DEB7CEC
P 4850 3050
F 0 "C18" V 5000 3000 50  0000 L CNN
F 1 "10nF" V 4700 2950 50  0000 L CNN
F 2 "Capacitors_SMD:C_0603" H 4888 2900 50  0001 C CNN
F 3 "" H 4850 3050 50  0001 C CNN
	1    4850 3050
	-1   0    0    1   
$EndComp
Wire Wire Line
	4800 2700 4850 2700
Wire Wire Line
	4850 2900 4850 2700
Connection ~ 4850 2700
Wire Wire Line
	4850 2700 5100 2700
Wire Wire Line
	4850 3200 4850 3475
Wire Wire Line
	4850 3475 5075 3475
Text GLabel 4450 3475 0    60   Input ~ 0
-BAT2
Text GLabel 4450 2700 0    60   Input ~ 0
+BAT2
Wire Wire Line
	4450 2700 4500 2700
Wire Wire Line
	4450 3475 4850 3475
Connection ~ 4850 3475
Text GLabel 10550 600  0    60   Input ~ 0
+BAT1
Text GLabel 10550 750  0    60   Input ~ 0
+BAT2
Text GLabel 10875 600  2    60   Input ~ 0
VBAT
Wire Wire Line
	10550 600  10750 600 
Wire Wire Line
	10750 600  10875 600 
Wire Wire Line
	10550 750  10750 750 
Wire Wire Line
	10750 750  10750 600 
Connection ~ 10750 600 
Connection ~ 10750 750 
Text GLabel 10850 1900 2    60   Input ~ 0
GND
Wire Wire Line
	9900 2400 10550 2400
$Comp
L Device:R R22
U 1 1 5E132145
P 10525 1700
F 0 "R22" V 10605 1700 50  0000 C CNN
F 1 "1.2k" V 10525 1700 50  0000 C CNN
F 2 "Resistors_SMD:R_0805" V 10455 1700 50  0001 C CNN
F 3 "" H 10525 1700 50  0001 C CNN
	1    10525 1700
	1    0    0    -1  
$EndComp
Wire Wire Line
	10525 1850 10525 1900
Connection ~ 10525 1900
Wire Wire Line
	10525 1900 10750 1900
$Comp
L Device:R R21
U 1 1 5E1CE5F1
P 9325 1450
F 0 "R21" V 9225 1450 50  0000 C CNN
F 1 "1k" V 9325 1450 50  0000 C CNN
F 2 "Resistors_SMD:R_1206" V 9255 1450 50  0001 C CNN
F 3 "" H 9325 1450 50  0001 C CNN
	1    9325 1450
	0    1    1    0   
$EndComp
$Comp
L agg-kicad:LED D3
U 1 1 5E1CF555
P 9125 1275
F 0 "D3" V 9221 1217 50  0000 R CNN
F 1 "LEDR" V 9130 1217 50  0000 R CNN
F 2 "LEDs:LED_0805" H 9125 1275 50  0001 C CNN
F 3 "" H 9125 1275 50  0001 C CNN
	1    9125 1275
	0    -1   -1   0   
$EndComp
Wire Wire Line
	9125 1450 9125 1275
Wire Wire Line
	9125 1075 9125 1175
Wire Wire Line
	10850 3000 10850 3900
Wire Wire Line
	9600 3700 9350 3700
Wire Wire Line
	9350 3700 9350 3400
Connection ~ 9350 3400
Wire Wire Line
	9350 3400 9600 3400
Text GLabel 10000 3400 2    60   Input ~ 0
VBAT
Text GLabel 10000 3700 2    60   Input ~ 0
VUSB
Wire Wire Line
	10000 3400 9900 3400
Wire Wire Line
	10000 3700 9900 3700
Text GLabel 9900 2400 0    60   Input ~ 0
VUSB
Wire Wire Line
	9125 1075 8975 1075
Connection ~ 9125 1075
Text GLabel 9075 650  2    60   Input ~ 0
VUSB
Text GLabel 7350 4250 2    60   Input ~ 0
VBAT
Wire Wire Line
	8550 1250 8550 1075
Wire Wire Line
	8550 1900 8550 1550
Wire Wire Line
	10750 1650 10750 1900
Connection ~ 10750 1900
Wire Wire Line
	10750 1900 10850 1900
$Comp
L Device:C C21
U 1 1 5D8A769E
P 3450 1100
F 0 "C21" V 3500 1150 50  0000 L CNN
F 1 "12pF" V 3500 800 50  0000 L CNN
F 2 "Capacitors_SMD:C_0402" H 3488 950 50  0001 C CNN
F 3 "" H 3450 1100 50  0001 C CNN
	1    3450 1100
	0    -1   -1   0   
$EndComp
Wire Wire Line
	3600 1100 3700 1100
Wire Wire Line
	3700 1100 3700 1300
Connection ~ 3700 1300
Wire Wire Line
	3300 1100 2900 1100
Wire Wire Line
	2900 1100 2900 1300
Connection ~ 2900 1300
$Comp
L Device:C C22
U 1 1 5D94799E
P 6200 1100
F 0 "C22" V 6250 1150 50  0000 L CNN
F 1 "12pF" V 6250 800 50  0000 L CNN
F 2 "Capacitors_SMD:C_0402" H 6238 950 50  0001 C CNN
F 3 "" H 6200 1100 50  0001 C CNN
	1    6200 1100
	0    -1   -1   0   
$EndComp
Wire Wire Line
	6350 1100 6450 1100
Wire Wire Line
	6450 1100 6450 1300
Connection ~ 6450 1300
Wire Wire Line
	6050 1100 5250 1100
Wire Wire Line
	5250 1100 5250 1200
Connection ~ 5250 1200
$Comp
L agg-kicad:LED D4
U 1 1 5DA16035
P 8975 1275
F 0 "D4" V 9075 1450 50  0000 R CNN
F 1 "LEDG" V 9000 1550 50  0000 R CNN
F 2 "LEDs:LED_0805" H 8975 1275 50  0001 C CNN
F 3 "" H 8975 1275 50  0001 C CNN
	1    8975 1275
	0    -1   -1   0   
$EndComp
Connection ~ 9500 6300
Wire Wire Line
	10750 750  10750 1075
Connection ~ 10750 1075
Wire Wire Line
	10750 1075 10750 1350
Wire Wire Line
	2450 3450 2225 3450
Connection ~ 2225 3450
Wire Wire Line
	2475 2850 2450 2850
$Comp
L Alimentations:DW01A U10
U 1 1 5E4E90C8
P 5550 2800
F 0 "U10" H 6125 2800 60  0000 C CNN
F 1 "R5478N101CD-TR-FF" H 5550 3025 60  0000 C CNN
F 2 "Alimentations:SOT23-6L" H 5550 2800 60  0001 C CNN
F 3 "" H 5550 2800 60  0001 C CNN
	1    5550 2800
	1    0    0    -1  
$EndComp
Wire Wire Line
	5100 2850 5075 2850
Wire Wire Line
	9175 1450 9125 1450
$Comp
L Device:R R23
U 1 1 5DBE186A
P 9325 1625
F 0 "R23" V 9225 1625 50  0000 C CNN
F 1 "1k" V 9325 1625 50  0000 C CNN
F 2 "Resistors_SMD:R_1206" V 9255 1625 50  0001 C CNN
F 3 "" H 9325 1625 50  0001 C CNN
	1    9325 1625
	0    -1   -1   0   
$EndComp
Wire Wire Line
	8975 1175 8975 1075
Connection ~ 8975 1075
Wire Wire Line
	8975 1075 8550 1075
Wire Wire Line
	9175 1625 8975 1625
Wire Wire Line
	8975 1625 8975 1275
Wire Wire Line
	5075 2850 5075 3150
Wire Wire Line
	9525 1275 9475 1275
Wire Wire Line
	9475 1275 9475 1450
Wire Wire Line
	9475 1625 9525 1625
Wire Wire Line
	9525 1625 9525 1375
$Comp
L Alimentations:DMG9926USD U12
U 1 1 5DA5552F
P 2950 3425
F 0 "U12" H 3400 3425 60  0000 R CNN
F 1 "DMG9926USD" H 3250 3700 60  0000 R CNN
F 2 "Alimentations:SOP-8L_4.9x3.9mm_Pitch1.27mm" H 3000 2975 60  0001 C CNN
F 3 "" H 3182 3427 60  0001 C CNN
	1    2950 3425
	-1   0    0    1   
$EndComp
$Comp
L Alimentations:DW01A U9
U 1 1 5E4000AF
P 2925 2800
F 0 "U9" H 3500 2800 60  0000 C CNN
F 1 "R5478N101CD-TR-FF" H 2925 3025 60  0000 C CNN
F 2 "Alimentations:SOT23-6L" H 2925 2800 60  0001 C CNN
F 3 "" H 2925 2800 60  0001 C CNN
	1    2925 2800
	1    0    0    -1  
$EndComp
Wire Wire Line
	3025 3225 3025 3050
Wire Wire Line
	2825 3050 2750 3050
Wire Wire Line
	2750 3050 2750 3225
Wire Wire Line
	2450 2850 2450 3150
Wire Wire Line
	2875 3225 2875 3150
Wire Wire Line
	2875 3150 2450 3150
Connection ~ 2450 3150
Wire Wire Line
	2450 3150 2450 3450
Wire Wire Line
	3150 3225 3425 3225
Connection ~ 3425 3225
Wire Wire Line
	3425 3225 3425 3450
Wire Wire Line
	2750 3575 2750 3625
Wire Wire Line
	2750 3625 2875 3625
Wire Wire Line
	2875 3625 2875 3575
Wire Wire Line
	2875 3625 3025 3625
Wire Wire Line
	3025 3625 3025 3575
Connection ~ 2875 3625
Wire Wire Line
	3025 3625 3150 3625
Wire Wire Line
	3150 3625 3150 3575
Connection ~ 3025 3625
Wire Wire Line
	5375 3575 5375 3650
Wire Wire Line
	5375 3650 5500 3650
Wire Wire Line
	5500 3650 5500 3575
Wire Wire Line
	5500 3650 5650 3650
Wire Wire Line
	5650 3650 5650 3575
Connection ~ 5500 3650
Wire Wire Line
	5650 3650 5775 3650
Wire Wire Line
	5775 3650 5775 3575
Connection ~ 5650 3650
Wire Wire Line
	5650 3050 5650 3225
Wire Wire Line
	5775 3225 6050 3225
Connection ~ 6050 3225
Wire Wire Line
	6050 3225 6050 3475
$Comp
L Alimentations:DMG9926USD U13
U 1 1 5DDC5772
P 5575 3425
F 0 "U13" H 6025 3425 60  0000 R CNN
F 1 "DMG9926USD" H 5875 3725 60  0000 R CNN
F 2 "Alimentations:SOP-8L_4.9x3.9mm_Pitch1.27mm" H 5625 2975 60  0001 C CNN
F 3 "" H 5807 3427 60  0001 C CNN
	1    5575 3425
	-1   0    0    1   
$EndComp
Wire Wire Line
	5450 3050 5450 3025
Wire Wire Line
	5450 3025 5375 3025
Wire Wire Line
	5375 3025 5375 3225
Wire Wire Line
	5500 3225 5500 3150
Wire Wire Line
	5500 3150 5075 3150
Connection ~ 5075 3150
Wire Wire Line
	5075 3150 5075 3475
$Comp
L Device:L_Core_Ferrite_Small L1
U 1 1 5B19267D
P 8200 3400
F 0 "L1" V 8150 3350 50  0000 L CNN
F 1 "100uH" V 8300 3250 50  0000 L CNN
F 2 "Alimentations:L100mH" H 8200 3400 50  0001 C CNN
F 3 "" H 8200 3400 50  0001 C CNN
	1    8200 3400
	0    -1   -1   0   
$EndComp
$Comp
L Device:C C20
U 1 1 5DEB0603
P 10750 1500
F 0 "C20" H 10575 1400 50  0000 L CNN
F 1 "10µF" H 10500 1600 50  0000 L CNN
F 2 "Capacitors_SMD:C_0603" H 10788 1350 50  0001 C CNN
F 3 "" H 10750 1500 50  0001 C CNN
	1    10750 1500
	-1   0    0    1   
$EndComp
$Comp
L Device:C C19
U 1 1 5DEB0ADA
P 8550 1400
F 0 "C19" H 8575 1500 50  0000 L CNN
F 1 "10µF" H 8300 1500 50  0000 L CNN
F 2 "Capacitors_SMD:C_0603" H 8588 1250 50  0001 C CNN
F 3 "" H 8550 1400 50  0001 C CNN
	1    8550 1400
	-1   0    0    1   
$EndComp
$Comp
L Device:C C15
U 1 1 5DEB1719
P 9500 6050
F 0 "C15" H 9325 5950 50  0000 L CNN
F 1 "1µF" H 9250 6150 50  0000 L CNN
F 2 "Capacitors_SMD:C_0603" H 9538 5900 50  0001 C CNN
F 3 "" H 9500 6050 50  0001 C CNN
	1    9500 6050
	-1   0    0    1   
$EndComp
$Comp
L Device:R R16
U 1 1 5DB09EE3
P 6325 5800
F 0 "R16" V 6405 5800 50  0000 C CNN
F 1 "62k" V 6325 5800 50  0000 C CNN
F 2 "Resistors_SMD:R_0805" V 6255 5800 50  0001 C CNN
F 3 "" H 6325 5800 50  0001 C CNN
	1    6325 5800
	0    1    -1   0   
$EndComp
Wire Wire Line
	6175 5800 5400 5800
$Comp
L Device:R R14
U 1 1 5C590271
P 8750 4750
F 0 "R14" V 8830 4750 50  0000 C CNN
F 1 "20k" V 8750 4750 50  0000 C CNN
F 2 "Resistors_SMD:R_0805" V 8680 4750 50  0001 C CNN
F 3 "" H 8750 4750 50  0001 C CNN
	1    8750 4750
	0    1    1    0   
$EndComp
Wire Wire Line
	8950 4950 8950 5750
NoConn ~ 2000 5800
NoConn ~ 1400 5800
Connection ~ 7600 4500
NoConn ~ 7700 5700
NoConn ~ 8300 5700
Wire Wire Line
	9475 4175 10550 4175
Wire Wire Line
	10550 4175 10550 4500
Connection ~ 10550 4500
Wire Wire Line
	10550 4500 10550 4750
Wire Wire Line
	9475 4075 10725 4075
Wire Wire Line
	10725 4075 10725 5050
Wire Wire Line
	10500 5050 10725 5050
Text GLabel 10425 6300 2    60   Input ~ 0
AGND
Text GLabel 9525 4325 2    60   Input ~ 0
AGND
Wire Wire Line
	9525 4325 9075 4325
Wire Wire Line
	9075 4325 9075 4275
Wire Wire Line
	7600 4500 7600 5050
Wire Wire Line
	6475 5800 7700 5800
$Comp
L ActiveRecorder-rescue:POT RV2
U 1 1 5C2526FB
P 8450 6200
F 0 "RV2" V 8350 6200 50  0000 C CNN
F 1 "10K" V 8450 6200 50  0000 C CNN
F 2 "PotentiometrePCB:Potentiometer_Simple_16mm_Horizontal" H 8450 6200 50  0001 C CNN
F 3 "" H 8450 6200 50  0001 C CNN
	1    8450 6200
	0    1    -1   0   
$EndComp
Wire Wire Line
	8300 6000 8300 6200
Wire Wire Line
	8450 6050 8450 5900
Wire Wire Line
	8450 5900 8300 5900
Wire Wire Line
	8300 5800 8600 5800
Wire Wire Line
	8600 5800 8600 6200
Wire Wire Line
	7100 5900 7100 5425
Wire Wire Line
	7100 5425 8050 5425
Wire Wire Line
	9050 5425 9050 5625
Wire Wire Line
	10700 5350 10700 5625
Wire Wire Line
	9250 4750 8900 4750
Wire Wire Line
	8600 4750 8400 4750
Wire Wire Line
	7700 5900 7375 5900
Wire Wire Line
	7375 5900 7375 4750
Wire Wire Line
	7375 4750 8100 4750
$Comp
L Alimentations:TP4056 U11
U 1 1 5DB1E442
P 9925 1225
F 0 "U11" H 9925 1622 60  0000 C CNN
F 1 "TP4056" H 9925 1516 60  0000 C CNN
F 2 "Alimentations:ESOP-8_150mil" H 9925 1225 60  0001 C CNN
F 3 "" H 9925 1225 60  0001 C CNN
	1    9925 1225
	1    0    0    -1  
$EndComp
Wire Wire Line
	9125 1075 9425 1075
Wire Wire Line
	10325 1075 10750 1075
Wire Wire Line
	8550 1900 10375 1900
Wire Wire Line
	9525 1175 9425 1175
Wire Wire Line
	9425 1175 9425 1075
Connection ~ 9425 1075
Wire Wire Line
	9425 1075 9525 1075
Wire Wire Line
	10525 1275 10325 1275
Wire Wire Line
	10525 1275 10525 1550
Wire Wire Line
	10325 1375 10375 1375
Wire Wire Line
	10375 1375 10375 1900
Connection ~ 10375 1900
Wire Wire Line
	10375 1900 10525 1900
Wire Wire Line
	10325 1175 10375 1175
Wire Wire Line
	10375 1175 10375 1375
Connection ~ 10375 1375
$Comp
L Device:R R24
U 1 1 5DE0C68D
P 8800 650
F 0 "R24" V 8700 650 50  0000 C CNN
F 1 "0.4" V 8800 650 50  0000 C CNN
F 2 "Resistors_SMD:R_1210" V 8730 650 50  0001 C CNN
F 3 "" H 8800 650 50  0001 C CNN
	1    8800 650 
	0    -1   -1   0   
$EndComp
Wire Wire Line
	8950 650  9075 650 
Wire Wire Line
	8650 650  8550 650 
Wire Wire Line
	8550 650  8550 1075
Connection ~ 8550 1075
$Comp
L Device:R R25
U 1 1 5E2E73AA
P 8050 5125
F 0 "R25" V 8130 5125 50  0000 C CNN
F 1 "100k" V 8050 5125 50  0000 C CNN
F 2 "Resistors_SMD:R_0805" V 7980 5125 50  0001 C CNN
F 3 "" H 8050 5125 50  0001 C CNN
	1    8050 5125
	-1   0    0    1   
$EndComp
Wire Wire Line
	9050 5625 10700 5625
Wire Wire Line
	9500 6300 10425 6300
Wire Wire Line
	8050 5275 8050 5425
Connection ~ 8050 5425
Wire Wire Line
	8050 5425 9050 5425
Text GLabel 7950 4850 0    60   Input ~ 0
+3V3
Wire Wire Line
	8050 4975 8050 4850
Wire Wire Line
	8050 4850 7950 4850
Wire Wire Line
	7600 4500 8950 4500
Wire Wire Line
	8950 4950 8950 4500
Connection ~ 8950 4950
Wire Wire Line
	9700 4500 9250 4500
Wire Wire Line
	9250 4500 9250 4750
$EndSCHEMATC
