(kicad_symbol_lib (version 20220914) (generator kicad_symbol_editor)
  (symbol "2xBatteriesLiPo-Alimentations" (pin_names (offset 1.016)) (in_bom yes) (on_board yes)
    (property "Reference" "U" (at -0.635 6.35 0)
      (effects (font (size 1.27 1.27)) (justify left))
    )
    (property "Value" "Alimentations_2xBatteriesLiPo" (at -6.985 -6.35 0)
      (effects (font (size 1.27 1.27)) (justify left))
    )
    (property "Footprint" "" (at -2.54 -3.81 0)
      (effects (font (size 1.27 1.27) italic) (justify left) hide)
    )
    (property "Datasheet" "" (at 2.54 1.27 0)
      (effects (font (size 1.27 1.27)) (justify left) hide)
    )
    (property "ki_fp_filters" "DIP*W7.62mm*" (at 0 0 0)
      (effects (font (size 1.27 1.27)) hide)
    )
    (symbol "2xBatteriesLiPo-Alimentations_0_1"
      (rectangle (start -3.81 5.08) (end 3.81 -5.08)
        (stroke (width 0) (type solid))
        (fill (type background))
      )
    )
    (symbol "2xBatteriesLiPo-Alimentations_1_1"
      (pin passive line (at -6.35 3.81 0) (length 2.54)
        (name "+3V7A" (effects (font (size 1.27 1.27))))
        (number "1" (effects (font (size 1.27 1.27))))
      )
      (pin passive line (at -6.35 1.27 0) (length 2.54)
        (name "-3V7A" (effects (font (size 1.27 1.27))))
        (number "2" (effects (font (size 1.27 1.27))))
      )
      (pin passive line (at -6.35 -1.27 0) (length 2.54)
        (name "+3V7B" (effects (font (size 1.27 1.27))))
        (number "3" (effects (font (size 1.27 1.27))))
      )
      (pin passive line (at -6.35 -3.81 0) (length 2.54)
        (name "-3V7B" (effects (font (size 1.27 1.27))))
        (number "4" (effects (font (size 1.27 1.27))))
      )
    )
  )
  (symbol "AHT20-Alimentations" (pin_names (offset 1.016)) (in_bom yes) (on_board yes)
    (property "Reference" "U" (at 0 5.715 0)
      (effects (font (size 1.27 1.27)))
    )
    (property "Value" "Alimentations_AHT20" (at 0 -6.35 0)
      (effects (font (size 1.27 1.27)))
    )
    (property "Footprint" "Alimentations:AHT20" (at 0 6.985 0)
      (effects (font (size 1.27 1.27)))
    )
    (property "Datasheet" "" (at 0 6.985 0)
      (effects (font (size 1.27 1.27)) hide)
    )
    (symbol "AHT20-Alimentations_0_1"
      (polyline
        (pts
          (xy -5.715 -4.445)
          (xy 5.08 -4.445)
        )
        (stroke (width 0) (type solid))
        (fill (type none))
      )
      (polyline
        (pts
          (xy -5.715 4.445)
          (xy -5.715 -4.445)
        )
        (stroke (width 0) (type solid))
        (fill (type none))
      )
      (polyline
        (pts
          (xy -5.715 4.445)
          (xy 5.08 4.445)
        )
        (stroke (width 0) (type solid))
        (fill (type none))
      )
      (polyline
        (pts
          (xy 5.08 4.445)
          (xy 5.08 -4.445)
        )
        (stroke (width 0) (type solid))
        (fill (type none))
      )
    )
    (symbol "AHT20-Alimentations_1_1"
      (pin no_connect line (at -8.255 2.54 0) (length 2.54)
        (name "NC" (effects (font (size 1.27 1.27))))
        (number "1" (effects (font (size 1.27 1.27))))
      )
      (pin power_in line (at -8.255 0 0) (length 2.54)
        (name "VDD" (effects (font (size 1.27 1.27))))
        (number "2" (effects (font (size 1.27 1.27))))
      )
      (pin bidirectional line (at -8.255 -2.54 0) (length 2.54)
        (name "SCL" (effects (font (size 1.27 1.27))))
        (number "3" (effects (font (size 1.27 1.27))))
      )
      (pin bidirectional line (at 7.62 -2.54 180) (length 2.54)
        (name "SDA" (effects (font (size 1.27 1.27))))
        (number "4" (effects (font (size 1.27 1.27))))
      )
      (pin power_in line (at 7.62 0 180) (length 2.54)
        (name "GND" (effects (font (size 1.27 1.27))))
        (number "5" (effects (font (size 1.27 1.27))))
      )
      (pin no_connect line (at 7.62 2.54 180) (length 2.54)
        (name "NC" (effects (font (size 1.27 1.27))))
        (number "6" (effects (font (size 1.27 1.27))))
      )
    )
  )
  (symbol "Audio-Jack-3-conn" (pin_names (offset 1.016)) (in_bom yes) (on_board yes)
    (property "Reference" "J" (at -1.27 4.445 0)
      (effects (font (size 1.27 1.27)))
    )
    (property "Value" "Audio-Jack-3-conn" (at 2.54 -1.778 0)
      (effects (font (size 1.27 1.27)))
    )
    (property "Footprint" "" (at 6.35 2.54 0)
      (effects (font (size 1.27 1.27)) hide)
    )
    (property "Datasheet" "" (at 6.35 2.54 0)
      (effects (font (size 1.27 1.27)) hide)
    )
    (symbol "Audio-Jack-3-conn_0_0"
      (text "1" (at -0.635 1.27 0)
        (effects (font (size 0.762 0.762)))
      )
      (text "2" (at -2.54 1.27 0)
        (effects (font (size 0.762 0.762)))
      )
    )
    (symbol "Audio-Jack-3-conn_0_1"
      (rectangle (start -4.699 3.175) (end 2.54 -0.635)
        (stroke (width 0.254) (type solid))
        (fill (type background))
      )
      (rectangle (start -4.445 0) (end -5.207 2.54)
        (stroke (width 0) (type solid))
        (fill (type outline))
      )
      (polyline
        (pts
          (xy -1.27 0)
          (xy -0.635 0.635)
          (xy 0 0)
          (xy 2.54 0)
        )
        (stroke (width 0.254) (type solid))
        (fill (type none))
      )
      (polyline
        (pts
          (xy 2.54 2.54)
          (xy -1.905 2.54)
          (xy -2.54 1.905)
          (xy -3.175 2.54)
        )
        (stroke (width 0.254) (type solid))
        (fill (type none))
      )
    )
    (symbol "Audio-Jack-3-conn_1_1"
      (pin passive line (at 5.08 0 180) (length 2.54)
        (name "~" (effects (font (size 1.27 1.27))))
        (number "1" (effects (font (size 1.27 1.27))))
      )
      (pin passive line (at 5.08 2.54 180) (length 2.54)
        (name "~" (effects (font (size 1.27 1.27))))
        (number "2" (effects (font (size 1.27 1.27))))
      )
      (pin passive line (at -5.08 -2.54 90) (length 2.54)
        (name "~" (effects (font (size 1.27 1.27))))
        (number "3" (effects (font (size 1.27 1.27))))
      )
    )
  )
  (symbol "CONN_01x02-agg-kicad" (pin_names (offset 0.0254) hide) (in_bom yes) (on_board yes)
    (property "Reference" "J" (at -1.27 2.54 0)
      (effects (font (size 1.27 1.27)) (justify left))
    )
    (property "Value" "agg-kicad_CONN_01x02" (at -1.27 -5.08 0)
      (effects (font (size 1.27 1.27)) (justify left))
    )
    (property "Footprint" "" (at 0 0 0)
      (effects (font (size 1.27 1.27)) hide)
    )
    (property "Datasheet" "" (at 0 0 0)
      (effects (font (size 1.27 1.27)) hide)
    )
    (symbol "CONN_01x02-agg-kicad_0_1"
      (rectangle (start 0 -2.413) (end -0.635 -2.667)
        (stroke (width 0) (type solid))
        (fill (type outline))
      )
      (rectangle (start 0 0.127) (end -0.635 -0.127)
        (stroke (width 0) (type solid))
        (fill (type outline))
      )
      (rectangle (start 0 1.27) (end -1.27 -3.81)
        (stroke (width 0) (type solid))
        (fill (type background))
      )
    )
    (symbol "CONN_01x02-agg-kicad_1_1"
      (pin passive line (at 2.54 0 180) (length 2.54)
        (name "1" (effects (font (size 1.27 1.27))))
        (number "1" (effects (font (size 1.27 1.27))))
      )
      (pin passive line (at 2.54 -2.54 180) (length 2.54)
        (name "2" (effects (font (size 1.27 1.27))))
        (number "2" (effects (font (size 1.27 1.27))))
      )
    )
  )
  (symbol "CP-Device" (pin_numbers hide) (pin_names (offset 0.254)) (in_bom yes) (on_board yes)
    (property "Reference" "C" (at 0.635 2.54 0)
      (effects (font (size 1.27 1.27)) (justify left))
    )
    (property "Value" "Device_CP" (at 0.635 -2.54 0)
      (effects (font (size 1.27 1.27)) (justify left))
    )
    (property "Footprint" "" (at 0.9652 -3.81 0)
      (effects (font (size 1.27 1.27)) hide)
    )
    (property "Datasheet" "" (at 0 0 0)
      (effects (font (size 1.27 1.27)) hide)
    )
    (property "ki_fp_filters" "CP_*" (at 0 0 0)
      (effects (font (size 1.27 1.27)) hide)
    )
    (symbol "CP-Device_0_1"
      (rectangle (start -2.286 0.508) (end 2.286 1.016)
        (stroke (width 0) (type solid))
        (fill (type none))
      )
      (polyline
        (pts
          (xy -1.778 2.286)
          (xy -0.762 2.286)
        )
        (stroke (width 0) (type solid))
        (fill (type none))
      )
      (polyline
        (pts
          (xy -1.27 2.794)
          (xy -1.27 1.778)
        )
        (stroke (width 0) (type solid))
        (fill (type none))
      )
      (rectangle (start 2.286 -0.508) (end -2.286 -1.016)
        (stroke (width 0) (type solid))
        (fill (type outline))
      )
    )
    (symbol "CP-Device_1_1"
      (pin passive line (at 0 3.81 270) (length 2.794)
        (name "~" (effects (font (size 1.27 1.27))))
        (number "1" (effects (font (size 1.27 1.27))))
      )
      (pin passive line (at 0 -3.81 90) (length 2.794)
        (name "~" (effects (font (size 1.27 1.27))))
        (number "2" (effects (font (size 1.27 1.27))))
      )
    )
  )
  (symbol "ConnM_01x03-Molex2510" (pin_names (offset 1.016) hide) (in_bom yes) (on_board yes)
    (property "Reference" "J" (at 0 5.08 0)
      (effects (font (size 1.27 1.27)))
    )
    (property "Value" "Molex2510_ConnM_01x03" (at 0 -5.08 0)
      (effects (font (size 1.27 1.27)))
    )
    (property "Footprint" "" (at 0 0 0)
      (effects (font (size 1.27 1.27)) hide)
    )
    (property "Datasheet" "" (at 0 0 0)
      (effects (font (size 1.27 1.27)) hide)
    )
    (property "ki_fp_filters" "Connector*:*_??x*mm* Connector*:*1x??x*mm* Pin?Header?Straight?1X* Pin?Header?Angled?1X* Socket?Strip?Straight?1X* Socket?Strip?Angled?1X*" (at 0 0 0)
      (effects (font (size 1.27 1.27)) hide)
    )
    (symbol "ConnM_01x03-Molex2510_0_0"
      (text "J" (at 1.27 0 0)
        (effects (font (size 1.524 1.524)))
      )
      (text "N" (at 1.27 -2.54 0)
        (effects (font (size 1.524 1.524)))
      )
      (text "R" (at 1.27 2.54 0)
        (effects (font (size 1.524 1.524)))
      )
    )
    (symbol "ConnM_01x03-Molex2510_0_1"
      (rectangle (start -1.27 3.81) (end 2.54 -3.81)
        (stroke (width 0) (type solid))
        (fill (type background))
      )
    )
    (symbol "ConnM_01x03-Molex2510_1_1"
      (rectangle (start -1.27 -2.413) (end 0 -2.667)
        (stroke (width 0.1524) (type solid))
        (fill (type none))
      )
      (rectangle (start -1.27 0.127) (end 0 -0.127)
        (stroke (width 0.1524) (type solid))
        (fill (type none))
      )
      (rectangle (start -1.27 2.667) (end 0 2.413)
        (stroke (width 0.1524) (type solid))
        (fill (type none))
      )
      (pin passive line (at -5.08 2.54 0) (length 3.81)
        (name "Pin_1" (effects (font (size 1.27 1.27))))
        (number "1" (effects (font (size 1.27 1.27))))
      )
      (pin passive line (at -5.08 0 0) (length 3.81)
        (name "Pin_2" (effects (font (size 1.27 1.27))))
        (number "2" (effects (font (size 1.27 1.27))))
      )
      (pin passive line (at -5.08 -2.54 0) (length 3.81)
        (name "Pin_3" (effects (font (size 1.27 1.27))))
        (number "3" (effects (font (size 1.27 1.27))))
      )
    )
  )
  (symbol "Conn_01x02-conn" (pin_names (offset 1.016) hide) (in_bom yes) (on_board yes)
    (property "Reference" "J" (at 0 2.54 0)
      (effects (font (size 1.27 1.27)))
    )
    (property "Value" "Conn_01x02-conn" (at 0 -5.08 0)
      (effects (font (size 1.27 1.27)))
    )
    (property "Footprint" "" (at 0 0 0)
      (effects (font (size 1.27 1.27)) hide)
    )
    (property "Datasheet" "" (at 0 0 0)
      (effects (font (size 1.27 1.27)) hide)
    )
    (property "ki_fp_filters" "Connector*:*_??x*mm* Connector*:*1x??x*mm* Pin?Header?Straight?1X* Pin?Header?Angled?1X* Socket?Strip?Straight?1X* Socket?Strip?Angled?1X*" (at 0 0 0)
      (effects (font (size 1.27 1.27)) hide)
    )
    (symbol "Conn_01x02-conn_1_1"
      (rectangle (start -1.27 -2.413) (end 0 -2.667)
        (stroke (width 0.1524) (type solid))
        (fill (type none))
      )
      (rectangle (start -1.27 0.127) (end 0 -0.127)
        (stroke (width 0.1524) (type solid))
        (fill (type none))
      )
      (rectangle (start -1.27 1.27) (end 1.27 -3.81)
        (stroke (width 0.254) (type solid))
        (fill (type background))
      )
      (pin passive line (at -5.08 0 0) (length 3.81)
        (name "Pin_1" (effects (font (size 1.27 1.27))))
        (number "1" (effects (font (size 1.27 1.27))))
      )
      (pin passive line (at -5.08 -2.54 0) (length 3.81)
        (name "Pin_2" (effects (font (size 1.27 1.27))))
        (number "2" (effects (font (size 1.27 1.27))))
      )
    )
  )
  (symbol "Conn_01x04-conn" (pin_names (offset 1.016) hide) (in_bom yes) (on_board yes)
    (property "Reference" "J" (at 0 5.08 0)
      (effects (font (size 1.27 1.27)))
    )
    (property "Value" "Conn_01x04-conn" (at 0 -7.62 0)
      (effects (font (size 1.27 1.27)))
    )
    (property "Footprint" "" (at 0 0 0)
      (effects (font (size 1.27 1.27)) hide)
    )
    (property "Datasheet" "" (at 0 0 0)
      (effects (font (size 1.27 1.27)) hide)
    )
    (property "ki_fp_filters" "Connector*:*_??x*mm* Connector*:*1x??x*mm* Pin?Header?Straight?1X* Pin?Header?Angled?1X* Socket?Strip?Straight?1X* Socket?Strip?Angled?1X*" (at 0 0 0)
      (effects (font (size 1.27 1.27)) hide)
    )
    (symbol "Conn_01x04-conn_1_1"
      (rectangle (start -1.27 -4.953) (end 0 -5.207)
        (stroke (width 0.1524) (type solid))
        (fill (type none))
      )
      (rectangle (start -1.27 -2.413) (end 0 -2.667)
        (stroke (width 0.1524) (type solid))
        (fill (type none))
      )
      (rectangle (start -1.27 0.127) (end 0 -0.127)
        (stroke (width 0.1524) (type solid))
        (fill (type none))
      )
      (rectangle (start -1.27 2.667) (end 0 2.413)
        (stroke (width 0.1524) (type solid))
        (fill (type none))
      )
      (rectangle (start -1.27 3.81) (end 1.27 -6.35)
        (stroke (width 0.254) (type solid))
        (fill (type background))
      )
      (pin passive line (at -5.08 2.54 0) (length 3.81)
        (name "Pin_1" (effects (font (size 1.27 1.27))))
        (number "1" (effects (font (size 1.27 1.27))))
      )
      (pin passive line (at -5.08 0 0) (length 3.81)
        (name "Pin_2" (effects (font (size 1.27 1.27))))
        (number "2" (effects (font (size 1.27 1.27))))
      )
      (pin passive line (at -5.08 -2.54 0) (length 3.81)
        (name "Pin_3" (effects (font (size 1.27 1.27))))
        (number "3" (effects (font (size 1.27 1.27))))
      )
      (pin passive line (at -5.08 -5.08 0) (length 3.81)
        (name "Pin_4" (effects (font (size 1.27 1.27))))
        (number "4" (effects (font (size 1.27 1.27))))
      )
    )
  )
  (symbol "DMG9926USD-Alimentations" (pin_names (offset 1.016)) (in_bom yes) (on_board yes)
    (property "Reference" "U" (at 7.62 1.27 0)
      (effects (font (size 1.524 1.524)))
    )
    (property "Value" "Alimentations_DMG9926USD" (at 13.97 -1.27 0)
      (effects (font (size 1.524 1.524)))
    )
    (property "Footprint" "Housings_SOIC:SOIC-8_3.9x4.9mm_Pitch1.27mm" (at 1.27 -11.43 0)
      (effects (font (size 1.524 1.524)) hide)
    )
    (property "Datasheet" "" (at 5.8928 0.0508 0)
      (effects (font (size 1.524 1.524)) hide)
    )
    (symbol "DMG9926USD-Alimentations_0_1"
      (rectangle (start -6.35 2.54) (end 6.35 -3.81)
        (stroke (width 0) (type solid))
        (fill (type none))
      )
    )
    (symbol "DMG9926USD-Alimentations_1_1"
      (polyline
        (pts
          (xy -4.064 0.889)
          (xy -1.27 0.889)
        )
        (stroke (width 0) (type solid))
        (fill (type none))
      )
      (polyline
        (pts
          (xy -4.064 1.778)
          (xy -4.064 0.889)
        )
        (stroke (width 0) (type solid))
        (fill (type none))
      )
      (polyline
        (pts
          (xy -3.6068 0.5842)
          (xy -3.6068 -0.4318)
        )
        (stroke (width 0) (type solid))
        (fill (type none))
      )
      (polyline
        (pts
          (xy -3.2258 0.5842)
          (xy -3.9878 0.5842)
        )
        (stroke (width 0) (type solid))
        (fill (type none))
      )
      (polyline
        (pts
          (xy -2.2098 0.5842)
          (xy -2.9718 0.5842)
        )
        (stroke (width 0) (type solid))
        (fill (type none))
      )
      (polyline
        (pts
          (xy -2.159 -0.889)
          (xy -2.159 -1.651)
        )
        (stroke (width 0) (type solid))
        (fill (type none))
      )
      (polyline
        (pts
          (xy -1.1938 0.5842)
          (xy -1.9558 0.5842)
        )
        (stroke (width 0) (type solid))
        (fill (type none))
      )
      (polyline
        (pts
          (xy 0.9144 0.5842)
          (xy 1.6764 0.5842)
        )
        (stroke (width 0) (type solid))
        (fill (type none))
      )
      (polyline
        (pts
          (xy 1.905 -0.889)
          (xy 1.905 -1.778)
        )
        (stroke (width 0) (type solid))
        (fill (type none))
      )
      (polyline
        (pts
          (xy 1.9304 0.5842)
          (xy 2.6924 0.5842)
        )
        (stroke (width 0) (type solid))
        (fill (type none))
      )
      (polyline
        (pts
          (xy 2.9464 0.5842)
          (xy 3.7084 0.5842)
        )
        (stroke (width 0) (type solid))
        (fill (type none))
      )
      (polyline
        (pts
          (xy 3.3274 0.5842)
          (xy 3.3274 -0.4318)
        )
        (stroke (width 0) (type solid))
        (fill (type none))
      )
      (polyline
        (pts
          (xy 3.81 0.889)
          (xy 0.889 0.889)
        )
        (stroke (width 0) (type solid))
        (fill (type none))
      )
      (polyline
        (pts
          (xy 3.81 1.778)
          (xy 3.81 0.889)
        )
        (stroke (width 0) (type solid))
        (fill (type none))
      )
      (polyline
        (pts
          (xy -2.921 -1.27)
          (xy -4.064 -1.27)
          (xy -4.064 -0.508)
        )
        (stroke (width 0) (type solid))
        (fill (type none))
      )
      (polyline
        (pts
          (xy -2.5908 0.5842)
          (xy -2.5908 -0.4318)
          (xy -5.2578 -0.4318)
        )
        (stroke (width 0) (type solid))
        (fill (type none))
      )
      (polyline
        (pts
          (xy -2.159 -1.27)
          (xy -1.016 -1.27)
          (xy -1.016 -0.5334)
        )
        (stroke (width 0) (type solid))
        (fill (type none))
      )
      (polyline
        (pts
          (xy -1.5748 0.5842)
          (xy -1.5748 -0.4318)
          (xy -0.1778 -0.4318)
        )
        (stroke (width 0) (type solid))
        (fill (type none))
      )
      (polyline
        (pts
          (xy 1.2954 0.5842)
          (xy 1.2954 -0.4318)
          (xy -0.1016 -0.4318)
        )
        (stroke (width 0) (type solid))
        (fill (type none))
      )
      (polyline
        (pts
          (xy 1.905 -1.27)
          (xy 0.889 -1.27)
          (xy 0.889 -0.508)
        )
        (stroke (width 0) (type solid))
        (fill (type none))
      )
      (polyline
        (pts
          (xy 2.3114 0.5842)
          (xy 2.3114 -0.4318)
          (xy 4.9784 -0.4318)
        )
        (stroke (width 0) (type solid))
        (fill (type none))
      )
      (polyline
        (pts
          (xy 2.54 -1.27)
          (xy 3.683 -1.27)
          (xy 3.683 -0.508)
        )
        (stroke (width 0) (type solid))
        (fill (type none))
      )
      (polyline
        (pts
          (xy -2.5908 0.5842)
          (xy -2.2098 -0.0508)
          (xy -2.9718 -0.0508)
          (xy -2.5908 0.5842)
        )
        (stroke (width 0) (type solid))
        (fill (type outline))
      )
      (polyline
        (pts
          (xy -2.159 -1.27)
          (xy -2.794 -0.889)
          (xy -2.794 -1.651)
          (xy -2.159 -1.27)
        )
        (stroke (width 0) (type solid))
        (fill (type none))
      )
      (polyline
        (pts
          (xy 1.905 -1.27)
          (xy 2.54 -0.889)
          (xy 2.54 -1.778)
          (xy 1.905 -1.27)
        )
        (stroke (width 0) (type solid))
        (fill (type none))
      )
      (polyline
        (pts
          (xy 2.3114 0.5842)
          (xy 1.9304 -0.0508)
          (xy 2.6924 -0.0508)
          (xy 2.3114 0.5842)
        )
        (stroke (width 0) (type solid))
        (fill (type outline))
      )
      (pin passive line (at -5.08 -5.08 90) (length 1.27)
        (name "S1" (effects (font (size 0.508 0.508))))
        (number "1" (effects (font (size 1.27 1.27))))
      )
      (pin input line (at -1.905 -5.08 90) (length 1.27)
        (name "G1" (effects (font (size 0.508 0.508))))
        (number "2" (effects (font (size 1.27 1.27))))
      )
      (pin passive line (at 1.905 -5.08 90) (length 1.27)
        (name "S2" (effects (font (size 0.508 0.508))))
        (number "3" (effects (font (size 1.27 1.27))))
      )
      (pin passive line (at 5.08 -5.08 90) (length 1.27)
        (name "G2" (effects (font (size 0.508 0.508))))
        (number "4" (effects (font (size 1.27 1.27))))
      )
      (pin passive line (at 5.08 3.81 270) (length 1.27)
        (name "D2" (effects (font (size 0.508 0.508))))
        (number "5" (effects (font (size 1.27 1.27))))
      )
      (pin passive line (at 1.905 3.81 270) (length 1.27)
        (name "D2" (effects (font (size 0.508 0.508))))
        (number "6" (effects (font (size 1.27 1.27))))
      )
      (pin passive line (at -1.905 3.81 270) (length 1.27)
        (name "D1" (effects (font (size 0.508 0.508))))
        (number "7" (effects (font (size 1.27 1.27))))
      )
      (pin passive line (at -5.08 3.81 270) (length 1.27)
        (name "D1" (effects (font (size 0.508 0.508))))
        (number "8" (effects (font (size 1.27 1.27))))
      )
    )
  )
  (symbol "DW01A-Alimentations" (pin_names (offset 1.016)) (in_bom yes) (on_board yes)
    (property "Reference" "U" (at 7.62 -5.08 0)
      (effects (font (size 1.524 1.524)))
    )
    (property "Value" "Alimentations_DW01A" (at 0 5.08 0)
      (effects (font (size 1.524 1.524)))
    )
    (property "Footprint" "Alimentations:SOT23-6L" (at 0 0 0)
      (effects (font (size 1.524 1.524)) hide)
    )
    (property "Datasheet" "" (at 0 0 0)
      (effects (font (size 1.524 1.524)) hide)
    )
    (symbol "DW01A-Alimentations_0_1"
      (rectangle (start -8.89 3.81) (end 8.89 -3.81)
        (stroke (width 0) (type solid))
        (fill (type none))
      )
    )
    (symbol "DW01A-Alimentations_1_1"
      (pin output line (at -2.54 -6.35 90) (length 2.54)
        (name "DO" (effects (font (size 1.27 1.27))))
        (number "1" (effects (font (size 1.27 1.27))))
      )
      (pin input line (at 11.43 -1.27 180) (length 2.54)
        (name "CS" (effects (font (size 1.27 1.27))))
        (number "2" (effects (font (size 1.27 1.27))))
      )
      (pin output line (at 2.54 -6.35 90) (length 2.54)
        (name "OC" (effects (font (size 1.27 1.27))))
        (number "3" (effects (font (size 1.27 1.27))))
      )
      (pin input line (at 11.43 2.54 180) (length 2.54)
        (name "TD" (effects (font (size 1.27 1.27))))
        (number "4" (effects (font (size 1.27 1.27))))
      )
      (pin input line (at -11.43 2.54 0) (length 2.54)
        (name "VCC" (effects (font (size 1.27 1.27))))
        (number "5" (effects (font (size 1.27 1.27))))
      )
      (pin input line (at -11.43 -1.27 0) (length 2.54)
        (name "GND" (effects (font (size 1.27 1.27))))
        (number "6" (effects (font (size 1.27 1.27))))
      )
    )
  )
  (symbol "Jumper_NC_Small-Device" (pin_numbers hide) (pin_names (offset 0.762) hide) (in_bom yes) (on_board yes)
    (property "Reference" "JP" (at 0 2.032 0)
      (effects (font (size 1.27 1.27)))
    )
    (property "Value" "Device_Jumper_NC_Small" (at 0.254 -1.524 0)
      (effects (font (size 1.27 1.27)))
    )
    (property "Footprint" "" (at 0 0 0)
      (effects (font (size 1.27 1.27)) hide)
    )
    (property "Datasheet" "" (at 0 0 0)
      (effects (font (size 1.27 1.27)) hide)
    )
    (property "ki_fp_filters" "SolderJumper*Bridged* Jumper* TestPoint*2Pads* TestPoint*Bridge*" (at 0 0 0)
      (effects (font (size 1.27 1.27)) hide)
    )
    (symbol "Jumper_NC_Small-Device_0_1"
      (circle (center -1.016 0) (radius 0.508)
        (stroke (width 0) (type solid))
        (fill (type none))
      )
      (circle (center 1.016 0) (radius 0.508)
        (stroke (width 0) (type solid))
        (fill (type none))
      )
      (arc (start 1.016 0.762) (mid 0 1.1828) (end -1.016 0.762)
        (stroke (width 0) (type solid))
        (fill (type none))
      )
      (pin passive line (at -2.54 0 0) (length 1.016)
        (name "1" (effects (font (size 1.27 1.27))))
        (number "1" (effects (font (size 1.27 1.27))))
      )
      (pin passive line (at 2.54 0 180) (length 1.016)
        (name "2" (effects (font (size 1.27 1.27))))
        (number "2" (effects (font (size 1.27 1.27))))
      )
    )
  )
  (symbol "LED-agg-kicad" (pin_numbers hide) (pin_names (offset 1.016) hide) (in_bom yes) (on_board yes)
    (property "Reference" "D" (at 0 2.54 0)
      (effects (font (size 1.27 1.27)) (justify left))
    )
    (property "Value" "agg-kicad_LED" (at 0 -1.905 0)
      (effects (font (size 1.27 1.27)) (justify left))
    )
    (property "Footprint" "" (at 0 0 0)
      (effects (font (size 1.27 1.27)) hide)
    )
    (property "Datasheet" "" (at 0 0 0)
      (effects (font (size 1.27 1.27)) hide)
    )
    (symbol "LED-agg-kicad_0_1"
      (polyline
        (pts
          (xy 0.762 0.762)
          (xy 0.762 -0.762)
        )
        (stroke (width 0) (type solid))
        (fill (type none))
      )
      (polyline
        (pts
          (xy 0.762 0)
          (xy 1.778 0.762)
          (xy 1.778 -0.762)
          (xy 0.762 0)
        )
        (stroke (width 0) (type solid))
        (fill (type outline))
      )
      (polyline
        (pts
          (xy 1.524 1.016)
          (xy 1.27 1.27)
          (xy 1.524 1.27)
          (xy 1.016 1.778)
          (xy 1.016 1.524)
          (xy 1.27 1.778)
          (xy 1.016 1.778)
        )
        (stroke (width 0) (type solid))
        (fill (type none))
      )
      (polyline
        (pts
          (xy 1.27 0.762)
          (xy 1.016 1.016)
          (xy 1.27 1.016)
          (xy 1.016 1.27)
          (xy 0.762 1.524)
          (xy 0.762 1.27)
          (xy 1.016 1.524)
          (xy 0.762 1.524)
        )
        (stroke (width 0) (type solid))
        (fill (type none))
      )
    )
    (symbol "LED-agg-kicad_1_1"
      (pin passive line (at 0 0 0) (length 0.762)
        (name "~" (effects (font (size 1.27 1.27))))
        (number "1" (effects (font (size 1.27 1.27))))
      )
      (pin passive line (at 2.54 0 180) (length 0.762)
        (name "~" (effects (font (size 1.27 1.27))))
        (number "2" (effects (font (size 1.27 1.27))))
      )
    )
  )
  (symbol "LM1084-3.3-regul" (pin_names (offset 0.254)) (in_bom yes) (on_board yes)
    (property "Reference" "U" (at -3.81 3.175 0)
      (effects (font (size 1.27 1.27)))
    )
    (property "Value" "LM1084-3.3-regul" (at 0 3.175 0)
      (effects (font (size 1.27 1.27)) (justify left))
    )
    (property "Footprint" "" (at 0 6.35 0)
      (effects (font (size 1.27 1.27) italic) hide)
    )
    (property "Datasheet" "" (at 0 0 0)
      (effects (font (size 1.27 1.27)) hide)
    )
    (property "ki_fp_filters" "TO?220* TO?263*" (at 0 0 0)
      (effects (font (size 1.27 1.27)) hide)
    )
    (symbol "LM1084-3.3-regul_0_1"
      (rectangle (start -5.08 1.905) (end 5.08 -5.08)
        (stroke (width 0.254) (type solid))
        (fill (type background))
      )
    )
    (symbol "LM1084-3.3-regul_1_1"
      (pin power_in line (at 0 -7.62 90) (length 2.54)
        (name "GND" (effects (font (size 1.27 1.27))))
        (number "1" (effects (font (size 1.27 1.27))))
      )
      (pin power_out line (at 7.62 0 180) (length 2.54)
        (name "VO" (effects (font (size 1.27 1.27))))
        (number "2" (effects (font (size 1.27 1.27))))
      )
      (pin power_in line (at -7.62 0 0) (length 2.54)
        (name "VI" (effects (font (size 1.27 1.27))))
        (number "3" (effects (font (size 1.27 1.27))))
      )
    )
  )
  (symbol "LM358-linear" (in_bom yes) (on_board yes)
    (property "Reference" "U" (at 0 5.08 0)
      (effects (font (size 1.27 1.27)) (justify left))
    )
    (property "Value" "LM358-linear" (at 0 -5.08 0)
      (effects (font (size 1.27 1.27)) (justify left))
    )
    (property "Footprint" "" (at 0 0 0)
      (effects (font (size 1.27 1.27)) hide)
    )
    (property "Datasheet" "" (at 0 0 0)
      (effects (font (size 1.27 1.27)) hide)
    )
    (property "ki_fp_filters" "SOIC*3.9x4.9mm*Pitch1.27mm* DIP*W7.62mm* TO*99* OnSemi*Micro8* TSSOP*3x3mm*Pitch0.65mm* TSSOP*4.4x3mm*Pitch0.65mm* MSOP*3x3mm*Pitch0.65mm* SSOP*3.9x4.9mm*Pitch0.635mm* LFCSP*2x2mm*Pitch0.5mm* *SIP* SOIC*5.3x6.2mm*Pitch1.27mm*" (at 0 0 0)
      (effects (font (size 1.27 1.27)) hide)
    )
    (symbol "LM358-linear_0_1"
      (polyline
        (pts
          (xy -5.08 5.08)
          (xy 5.08 0)
          (xy -5.08 -5.08)
          (xy -5.08 5.08)
        )
        (stroke (width 0.254) (type solid))
        (fill (type background))
      )
      (pin power_in line (at -2.54 -7.62 90) (length 3.81)
        (name "V-" (effects (font (size 1.27 1.27))))
        (number "4" (effects (font (size 1.27 1.27))))
      )
      (pin power_in line (at -2.54 7.62 270) (length 3.81)
        (name "V+" (effects (font (size 1.27 1.27))))
        (number "8" (effects (font (size 1.27 1.27))))
      )
    )
    (symbol "LM358-linear_1_1"
      (pin output line (at 7.62 0 180) (length 2.54)
        (name "~" (effects (font (size 1.27 1.27))))
        (number "1" (effects (font (size 1.27 1.27))))
      )
      (pin input line (at -7.62 -2.54 0) (length 2.54)
        (name "-" (effects (font (size 1.27 1.27))))
        (number "2" (effects (font (size 1.27 1.27))))
      )
      (pin input line (at -7.62 2.54 0) (length 2.54)
        (name "+" (effects (font (size 1.27 1.27))))
        (number "3" (effects (font (size 1.27 1.27))))
      )
    )
    (symbol "LM358-linear_2_1"
      (pin input line (at -7.62 2.54 0) (length 2.54)
        (name "+" (effects (font (size 1.27 1.27))))
        (number "5" (effects (font (size 1.27 1.27))))
      )
      (pin input line (at -7.62 -2.54 0) (length 2.54)
        (name "-" (effects (font (size 1.27 1.27))))
        (number "6" (effects (font (size 1.27 1.27))))
      )
      (pin output line (at 7.62 0 180) (length 2.54)
        (name "~" (effects (font (size 1.27 1.27))))
        (number "7" (effects (font (size 1.27 1.27))))
      )
    )
  )
  (symbol "L_Core_Ferrite_Small-Device" (pin_numbers hide) (pin_names (offset 0.254) hide) (in_bom yes) (on_board yes)
    (property "Reference" "L" (at 1.27 1.016 0)
      (effects (font (size 1.27 1.27)) (justify left))
    )
    (property "Value" "Device_L_Core_Ferrite_Small" (at 1.27 -1.27 0)
      (effects (font (size 1.27 1.27)) (justify left))
    )
    (property "Footprint" "" (at 0 0 0)
      (effects (font (size 1.27 1.27)) hide)
    )
    (property "Datasheet" "" (at 0 0 0)
      (effects (font (size 1.27 1.27)) hide)
    )
    (property "ki_fp_filters" "Choke_* *Coil* Inductor_* L_*" (at 0 0 0)
      (effects (font (size 1.27 1.27)) hide)
    )
    (symbol "L_Core_Ferrite_Small-Device_0_1"
      (arc (start 0 -2.032) (mid 0.5058 -1.524) (end 0 -1.016)
        (stroke (width 0) (type solid))
        (fill (type none))
      )
      (arc (start 0 -1.016) (mid 0.5058 -0.508) (end 0 0)
        (stroke (width 0) (type solid))
        (fill (type none))
      )
      (polyline
        (pts
          (xy 0.762 -1.905)
          (xy 0.762 -1.651)
        )
        (stroke (width 0) (type solid))
        (fill (type none))
      )
      (polyline
        (pts
          (xy 0.762 -1.397)
          (xy 0.762 -1.143)
        )
        (stroke (width 0) (type solid))
        (fill (type none))
      )
      (polyline
        (pts
          (xy 0.762 -0.889)
          (xy 0.762 -0.635)
        )
        (stroke (width 0) (type solid))
        (fill (type none))
      )
      (polyline
        (pts
          (xy 0.762 -0.381)
          (xy 0.762 -0.127)
        )
        (stroke (width 0) (type solid))
        (fill (type none))
      )
      (polyline
        (pts
          (xy 0.762 0.127)
          (xy 0.762 0.381)
        )
        (stroke (width 0) (type solid))
        (fill (type none))
      )
      (polyline
        (pts
          (xy 0.762 0.635)
          (xy 0.762 0.889)
        )
        (stroke (width 0) (type solid))
        (fill (type none))
      )
      (polyline
        (pts
          (xy 0.762 1.143)
          (xy 0.762 1.397)
        )
        (stroke (width 0) (type solid))
        (fill (type none))
      )
      (polyline
        (pts
          (xy 0.762 1.651)
          (xy 0.762 1.905)
        )
        (stroke (width 0) (type solid))
        (fill (type none))
      )
      (polyline
        (pts
          (xy 1.016 -1.651)
          (xy 1.016 -1.905)
        )
        (stroke (width 0) (type solid))
        (fill (type none))
      )
      (polyline
        (pts
          (xy 1.016 -1.143)
          (xy 1.016 -1.397)
        )
        (stroke (width 0) (type solid))
        (fill (type none))
      )
      (polyline
        (pts
          (xy 1.016 -0.635)
          (xy 1.016 -0.889)
        )
        (stroke (width 0) (type solid))
        (fill (type none))
      )
      (polyline
        (pts
          (xy 1.016 -0.127)
          (xy 1.016 -0.381)
        )
        (stroke (width 0) (type solid))
        (fill (type none))
      )
      (polyline
        (pts
          (xy 1.016 0.381)
          (xy 1.016 0.127)
        )
        (stroke (width 0) (type solid))
        (fill (type none))
      )
      (polyline
        (pts
          (xy 1.016 0.889)
          (xy 1.016 0.635)
        )
        (stroke (width 0) (type solid))
        (fill (type none))
      )
      (polyline
        (pts
          (xy 1.016 1.397)
          (xy 1.016 1.143)
        )
        (stroke (width 0) (type solid))
        (fill (type none))
      )
      (polyline
        (pts
          (xy 1.016 1.905)
          (xy 1.016 1.651)
        )
        (stroke (width 0) (type solid))
        (fill (type none))
      )
      (arc (start 0 0) (mid 0.5058 0.508) (end 0 1.016)
        (stroke (width 0) (type solid))
        (fill (type none))
      )
      (arc (start 0 1.016) (mid 0.5058 1.524) (end 0 2.032)
        (stroke (width 0) (type solid))
        (fill (type none))
      )
    )
    (symbol "L_Core_Ferrite_Small-Device_1_1"
      (pin passive line (at 0 2.54 270) (length 0.508)
        (name "~" (effects (font (size 1.27 1.27))))
        (number "1" (effects (font (size 1.27 1.27))))
      )
      (pin passive line (at 0 -2.54 90) (length 0.508)
        (name "~" (effects (font (size 1.27 1.27))))
        (number "2" (effects (font (size 1.27 1.27))))
      )
    )
  )
  (symbol "MCP3221-Alimentations" (pin_names (offset 1.016)) (in_bom yes) (on_board yes)
    (property "Reference" "U" (at 0 5.715 0)
      (effects (font (size 1.27 1.27)))
    )
    (property "Value" "Alimentations_MCP3221" (at 0 -6.35 0)
      (effects (font (size 1.27 1.27)))
    )
    (property "Footprint" "Alimentations:SOT-23-5" (at 0 6.985 0)
      (effects (font (size 1.27 1.27)) hide)
    )
    (property "Datasheet" "" (at 0 6.985 0)
      (effects (font (size 1.27 1.27)) hide)
    )
    (symbol "MCP3221-Alimentations_0_1"
      (polyline
        (pts
          (xy -5.715 -4.445)
          (xy 5.08 -4.445)
        )
        (stroke (width 0) (type solid))
        (fill (type none))
      )
      (polyline
        (pts
          (xy -5.715 4.445)
          (xy -5.715 -4.445)
        )
        (stroke (width 0) (type solid))
        (fill (type none))
      )
      (polyline
        (pts
          (xy -5.715 4.445)
          (xy 5.08 4.445)
        )
        (stroke (width 0) (type solid))
        (fill (type none))
      )
      (polyline
        (pts
          (xy 5.08 4.445)
          (xy 5.08 -4.445)
        )
        (stroke (width 0) (type solid))
        (fill (type none))
      )
    )
    (symbol "MCP3221-Alimentations_1_1"
      (pin power_in line (at -8.255 2.54 0) (length 2.54)
        (name "VDD" (effects (font (size 1.27 1.27))))
        (number "1" (effects (font (size 1.27 1.27))))
      )
      (pin power_in line (at -8.255 0 0) (length 2.54)
        (name "GND" (effects (font (size 1.27 1.27))))
        (number "2" (effects (font (size 1.27 1.27))))
      )
      (pin input line (at -8.255 -2.54 0) (length 2.54)
        (name "AIN" (effects (font (size 1.27 1.27))))
        (number "3" (effects (font (size 1.27 1.27))))
      )
      (pin bidirectional line (at 7.62 -2.54 180) (length 2.54)
        (name "SDA" (effects (font (size 1.27 1.27))))
        (number "4" (effects (font (size 1.27 1.27))))
      )
      (pin bidirectional line (at 7.62 2.54 180) (length 2.54)
        (name "SCL" (effects (font (size 1.27 1.27))))
        (number "5" (effects (font (size 1.27 1.27))))
      )
    )
  )
  (symbol "POT" (pin_numbers hide) (pin_names (offset 1.016) hide) (in_bom yes) (on_board yes)
    (property "Reference" "RV" (at -4.445 0 90)
      (effects (font (size 1.27 1.27)))
    )
    (property "Value" "POT" (at -2.54 0 90)
      (effects (font (size 1.27 1.27)))
    )
    (property "Footprint" "" (at 0 0 0)
      (effects (font (size 1.27 1.27)) hide)
    )
    (property "Datasheet" "" (at 0 0 0)
      (effects (font (size 1.27 1.27)) hide)
    )
    (property "ki_fp_filters" "Potentiometer*" (at 0 0 0)
      (effects (font (size 1.27 1.27)) hide)
    )
    (symbol "POT_0_1"
      (polyline
        (pts
          (xy 2.54 0)
          (xy 1.524 0)
        )
        (stroke (width 0) (type solid))
        (fill (type none))
      )
      (polyline
        (pts
          (xy 1.143 0)
          (xy 2.286 0.508)
          (xy 2.286 -0.508)
        )
        (stroke (width 0) (type solid))
        (fill (type outline))
      )
      (rectangle (start 1.016 2.54) (end -1.016 -2.54)
        (stroke (width 0.254) (type solid))
        (fill (type none))
      )
    )
    (symbol "POT_1_1"
      (pin passive line (at 0 3.81 270) (length 1.27)
        (name "1" (effects (font (size 1.27 1.27))))
        (number "1" (effects (font (size 1.27 1.27))))
      )
      (pin passive line (at 3.81 0 180) (length 1.27)
        (name "2" (effects (font (size 1.27 1.27))))
        (number "2" (effects (font (size 1.27 1.27))))
      )
      (pin passive line (at 0 -3.81 90) (length 1.27)
        (name "3" (effects (font (size 1.27 1.27))))
        (number "3" (effects (font (size 1.27 1.27))))
      )
    )
  )
  (symbol "PT8211-Alimentations" (pin_names (offset 1.016)) (in_bom yes) (on_board yes)
    (property "Reference" "U" (at -2.54 10.795 0)
      (effects (font (size 1.27 1.27)) (justify right))
    )
    (property "Value" "Alimentations_PT8211" (at -2.54 8.89 0)
      (effects (font (size 1.27 1.27)) (justify right))
    )
    (property "Footprint" "" (at 20.32 -7.62 0)
      (effects (font (size 1.27 1.27)) hide)
    )
    (property "Datasheet" "" (at 20.32 -7.62 0)
      (effects (font (size 1.27 1.27)) hide)
    )
    (property "ki_fp_filters" "DIP*W7.62mm* SOIC*3.9x4.9mm*P1.27mm* MSOP*3x3mm*P0.65mm*" (at 0 0 0)
      (effects (font (size 1.27 1.27)) hide)
    )
    (symbol "PT8211-Alimentations_0_0"
      (text "CNTRL" (at -2.032 -4.191 900)
        (effects (font (size 1.27 1.27)) (justify left bottom))
      )
      (text "DAC" (at 3.81 -2.54 0)
        (effects (font (size 1.27 1.27)))
      )
      (text "DAC" (at 3.81 0 0)
        (effects (font (size 1.27 1.27)))
      )
    )
    (symbol "PT8211-Alimentations_0_1"
      (rectangle (start -8.89 5.08) (end 8.255 -7.62)
        (stroke (width 0.254) (type solid))
        (fill (type background))
      )
      (rectangle (start -1.27 -4.445) (end -3.81 1.905)
        (stroke (width 0) (type solid))
        (fill (type none))
      )
      (polyline
        (pts
          (xy 1.27 -2.54)
          (xy -1.27 -2.54)
        )
        (stroke (width 0) (type solid))
        (fill (type none))
      )
      (polyline
        (pts
          (xy 1.27 0)
          (xy -1.27 0)
        )
        (stroke (width 0) (type solid))
        (fill (type none))
      )
      (polyline
        (pts
          (xy 6.985 -2.54)
          (xy 7.62 -2.54)
          (xy 7.62 -5.08)
          (xy 8.255 -5.08)
        )
        (stroke (width 0) (type solid))
        (fill (type none))
      )
      (polyline
        (pts
          (xy 8.255 2.54)
          (xy 7.62 2.54)
          (xy 7.62 0)
          (xy 6.985 0)
        )
        (stroke (width 0) (type solid))
        (fill (type none))
      )
      (polyline
        (pts
          (xy 6.985 -2.54)
          (xy 5.715 -1.27)
          (xy 1.27 -1.27)
          (xy 1.27 -3.81)
          (xy 5.715 -3.81)
          (xy 6.985 -2.54)
        )
        (stroke (width 0) (type solid))
        (fill (type none))
      )
      (polyline
        (pts
          (xy 6.985 0)
          (xy 5.715 1.27)
          (xy 1.27 1.27)
          (xy 1.27 -1.27)
          (xy 3.175 -1.27)
          (xy 5.715 -1.27)
          (xy 6.985 0)
        )
        (stroke (width 0) (type solid))
        (fill (type none))
      )
    )
    (symbol "PT8211-Alimentations_1_1"
      (pin input clock (at -11.43 2.54 0) (length 2.54)
        (name "BCK" (effects (font (size 1.27 1.27))))
        (number "1" (effects (font (size 1.27 1.27))))
      )
      (pin input line (at -11.43 0 0) (length 2.54)
        (name "WS" (effects (font (size 1.27 1.27))))
        (number "2" (effects (font (size 1.27 1.27))))
      )
      (pin input line (at -11.43 -2.54 0) (length 2.54)
        (name "DIN" (effects (font (size 1.27 1.27))))
        (number "3" (effects (font (size 1.27 1.27))))
      )
      (pin power_in line (at 0 -10.16 90) (length 2.54)
        (name "GND" (effects (font (size 1.27 1.27))))
        (number "4" (effects (font (size 1.27 1.27))))
      )
      (pin power_in line (at 0 7.62 270) (length 2.54)
        (name "VDD" (effects (font (size 1.27 1.27))))
        (number "5" (effects (font (size 1.27 1.27))))
      )
      (pin output line (at 10.795 2.54 180) (length 2.54)
        (name "LCH" (effects (font (size 1.27 1.27))))
        (number "6" (effects (font (size 1.27 1.27))))
      )
      (pin input line (at -11.43 -5.08 0) (length 2.54)
        (name "~" (effects (font (size 1.27 1.27))))
        (number "7" (effects (font (size 1.27 1.27))))
      )
      (pin output line (at 10.795 -5.08 180) (length 2.54)
        (name "RCH" (effects (font (size 1.27 1.27))))
        (number "8" (effects (font (size 1.27 1.27))))
      )
    )
  )
  (symbol "SW_Push-switches" (pin_numbers hide) (pin_names (offset 1.016) hide) (in_bom yes) (on_board yes)
    (property "Reference" "SW" (at 1.27 2.54 0)
      (effects (font (size 1.27 1.27)) (justify left))
    )
    (property "Value" "SW_Push-switches" (at 0 -1.524 0)
      (effects (font (size 1.27 1.27)))
    )
    (property "Footprint" "" (at 0 5.08 0)
      (effects (font (size 1.27 1.27)) hide)
    )
    (property "Datasheet" "" (at 0 5.08 0)
      (effects (font (size 1.27 1.27)) hide)
    )
    (symbol "SW_Push-switches_0_1"
      (circle (center -2.032 0) (radius 0.508)
        (stroke (width 0) (type solid))
        (fill (type none))
      )
      (polyline
        (pts
          (xy 0 1.27)
          (xy 0 3.048)
        )
        (stroke (width 0) (type solid))
        (fill (type none))
      )
      (polyline
        (pts
          (xy 2.54 1.27)
          (xy -2.54 1.27)
        )
        (stroke (width 0) (type solid))
        (fill (type none))
      )
      (circle (center 2.032 0) (radius 0.508)
        (stroke (width 0) (type solid))
        (fill (type none))
      )
      (pin passive line (at -5.08 0 0) (length 2.54)
        (name "1" (effects (font (size 1.27 1.27))))
        (number "1" (effects (font (size 1.27 1.27))))
      )
      (pin passive line (at 5.08 0 180) (length 2.54)
        (name "2" (effects (font (size 1.27 1.27))))
        (number "2" (effects (font (size 1.27 1.27))))
      )
    )
  )
  (symbol "SW_SP3T_PCB-SwitchPCB" (pin_names (offset 0) hide) (in_bom yes) (on_board yes)
    (property "Reference" "SW" (at -5.08 2.54 0)
      (effects (font (size 1.27 1.27)))
    )
    (property "Value" "SwitchPCB_SW_SP3T_PCB" (at 0 5.08 0)
      (effects (font (size 1.27 1.27)))
    )
    (property "Footprint" "" (at -15.875 4.445 0)
      (effects (font (size 1.27 1.27)) hide)
    )
    (property "Datasheet" "" (at -15.875 4.445 0)
      (effects (font (size 1.27 1.27)) hide)
    )
    (property "ki_fp_filters" "SW* SP3T*" (at 0 0 0)
      (effects (font (size 1.27 1.27)) hide)
    )
    (symbol "SW_SP3T_PCB-SwitchPCB_0_1"
      (rectangle (start -2.54 3.81) (end 2.54 -3.81)
        (stroke (width 0) (type solid))
        (fill (type background))
      )
      (circle (center -2.032 0) (radius 0.4572)
        (stroke (width 0) (type solid))
        (fill (type none))
      )
      (polyline
        (pts
          (xy -1.651 0.254)
          (xy 1.651 2.286)
        )
        (stroke (width 0) (type solid))
        (fill (type none))
      )
      (circle (center 2.032 -2.54) (radius 0.4572)
        (stroke (width 0) (type solid))
        (fill (type none))
      )
      (circle (center 2.032 0) (radius 0.4572)
        (stroke (width 0) (type solid))
        (fill (type none))
      )
      (circle (center 2.032 2.54) (radius 0.4572)
        (stroke (width 0) (type solid))
        (fill (type none))
      )
    )
    (symbol "SW_SP3T_PCB-SwitchPCB_1_1"
      (pin passive line (at -5.08 0 0) (length 2.54)
        (name "1" (effects (font (size 1.27 1.27))))
        (number "1" (effects (font (size 1.27 1.27))))
      )
      (pin passive line (at 5.08 2.54 180) (length 2.54)
        (name "2" (effects (font (size 1.27 1.27))))
        (number "2" (effects (font (size 1.27 1.27))))
      )
      (pin passive line (at 5.08 0 180) (length 2.54)
        (name "3" (effects (font (size 1.27 1.27))))
        (number "3" (effects (font (size 1.27 1.27))))
      )
      (pin passive line (at 5.08 -2.54 180) (length 2.54)
        (name "4" (effects (font (size 1.27 1.27))))
        (number "4" (effects (font (size 1.27 1.27))))
      )
      (pin passive line (at -1.27 -6.35 90) (length 2.54)
        (name "5" (effects (font (size 1.27 1.27))))
        (number "5" (effects (font (size 1.27 1.27))))
      )
      (pin passive line (at 1.27 -6.35 90) (length 2.54)
        (name "6" (effects (font (size 1.27 1.27))))
        (number "6" (effects (font (size 1.27 1.27))))
      )
    )
  )
  (symbol "TP4056-Alimentations" (pin_names (offset 1.016)) (in_bom yes) (on_board yes)
    (property "Reference" "U" (at 0 6.477 0)
      (effects (font (size 1.524 1.524)))
    )
    (property "Value" "Alimentations_TP4056" (at 0 -6.604 0)
      (effects (font (size 1.524 1.524)))
    )
    (property "Footprint" "" (at 0 0 0)
      (effects (font (size 1.524 1.524)) hide)
    )
    (property "Datasheet" "" (at 0 0 0)
      (effects (font (size 1.524 1.524)) hide)
    )
    (symbol "TP4056-Alimentations_0_1"
      (rectangle (start -7.493 5.08) (end 7.493 -5.08)
        (stroke (width 0) (type solid))
        (fill (type none))
      )
    )
    (symbol "TP4056-Alimentations_1_1"
      (pin input line (at 10.16 1.27 180) (length 2.54)
        (name "TEMP" (effects (font (size 1.27 1.27))))
        (number "1" (effects (font (size 1.27 1.27))))
      )
      (pin input line (at 10.16 -1.27 180) (length 2.54)
        (name "PROG" (effects (font (size 1.27 1.27))))
        (number "2" (effects (font (size 1.27 1.27))))
      )
      (pin input line (at 10.16 -3.81 180) (length 2.54)
        (name "GND" (effects (font (size 1.27 1.27))))
        (number "3" (effects (font (size 1.27 1.27))))
      )
      (pin input line (at -10.16 3.81 0) (length 2.54)
        (name "VCC" (effects (font (size 1.27 1.27))))
        (number "4" (effects (font (size 1.27 1.27))))
      )
      (pin output line (at 10.16 3.81 180) (length 2.54)
        (name "BAT" (effects (font (size 1.27 1.27))))
        (number "5" (effects (font (size 1.27 1.27))))
      )
      (pin output line (at -10.16 -3.81 0) (length 2.54)
        (name "STDBY" (effects (font (size 1.27 1.27))))
        (number "6" (effects (font (size 1.27 1.27))))
      )
      (pin output line (at -10.16 -1.27 0) (length 2.54)
        (name "CHRG" (effects (font (size 1.27 1.27))))
        (number "7" (effects (font (size 1.27 1.27))))
      )
      (pin input line (at -10.16 1.27 0) (length 2.54)
        (name "CE" (effects (font (size 1.27 1.27))))
        (number "8" (effects (font (size 1.27 1.27))))
      )
    )
  )
  (symbol "TPA301-agg-kicad" (pin_names (offset 1.016)) (in_bom yes) (on_board yes)
    (property "Reference" "IC" (at -12.7 7.62 0)
      (effects (font (size 1.27 1.27)) (justify left))
    )
    (property "Value" "agg-kicad_TPA301" (at -12.7 -7.62 0)
      (effects (font (size 1.27 1.27)) (justify left))
    )
    (property "Footprint" "agg:SOIC-8" (at -12.7 -10.16 0)
      (effects (font (size 1.27 1.27)) (justify left) hide)
    )
    (property "Datasheet" "http://www.ti.com/lit/ds/symlink/tpa301.pdf" (at -12.7 -12.7 0)
      (effects (font (size 1.27 1.27)) (justify left) hide)
    )
    (property "Farnell" "2342287" (at -12.7 -15.24 0)
      (effects (font (size 1.27 1.27)) (justify left) hide)
    )
    (symbol "TPA301-agg-kicad_0_0"
      (pin input line (at 15.24 -5.08 180) (length 2.54)
        (name "SHUTDOWN" (effects (font (size 1.27 1.27))))
        (number "1" (effects (font (size 1.27 1.27))))
      )
      (pin input line (at 15.24 -2.54 180) (length 2.54)
        (name "BYPASS" (effects (font (size 1.27 1.27))))
        (number "2" (effects (font (size 1.27 1.27))))
      )
      (pin input line (at -15.24 -5.08 0) (length 2.54)
        (name "IN+" (effects (font (size 1.27 1.27))))
        (number "3" (effects (font (size 1.27 1.27))))
      )
      (pin input line (at -15.24 -2.54 0) (length 2.54)
        (name "IN-" (effects (font (size 1.27 1.27))))
        (number "4" (effects (font (size 1.27 1.27))))
      )
      (pin output line (at 15.24 5.08 180) (length 2.54)
        (name "VO+" (effects (font (size 1.27 1.27))))
        (number "5" (effects (font (size 1.27 1.27))))
      )
      (pin power_in line (at -15.24 5.08 0) (length 2.54)
        (name "VDD" (effects (font (size 1.27 1.27))))
        (number "6" (effects (font (size 1.27 1.27))))
      )
      (pin power_in line (at -15.24 2.54 0) (length 2.54)
        (name "GND" (effects (font (size 1.27 1.27))))
        (number "7" (effects (font (size 1.27 1.27))))
      )
      (pin output line (at 15.24 2.54 180) (length 2.54)
        (name "VO-" (effects (font (size 1.27 1.27))))
        (number "8" (effects (font (size 1.27 1.27))))
      )
    )
    (symbol "TPA301-agg-kicad_0_1"
      (rectangle (start -12.7 6.35) (end 12.7 -6.35)
        (stroke (width 0) (type solid))
        (fill (type background))
      )
    )
  )
  (symbol "Teensy3.6Min-teensy" (pin_names (offset 1.016)) (in_bom yes) (on_board yes)
    (property "Reference" "U" (at -21.59 33.02 0)
      (effects (font (size 1.524 1.524)))
    )
    (property "Value" "Teensy3.6Min-teensy" (at 8.89 33.02 0)
      (effects (font (size 1.524 1.524)))
    )
    (property "Footprint" "" (at -6.35 -24.13 0)
      (effects (font (size 1.524 1.524)))
    )
    (property "Datasheet" "" (at -6.35 -24.13 0)
      (effects (font (size 1.524 1.524)))
    )
    (symbol "Teensy3.6Min-teensy_0_1"
      (rectangle (start -26.67 31.75) (end 19.05 -31.75)
        (stroke (width 0) (type solid))
        (fill (type none))
      )
    )
    (symbol "Teensy3.6Min-teensy_1_1"
      (pin power_in line (at -31.75 29.21 0) (length 5.08)
        (name "GND" (effects (font (size 1.27 1.27))))
        (number "1" (effects (font (size 1.27 1.27))))
      )
      (pin bidirectional line (at -31.75 6.35 0) (length 5.08)
        (name "8_TX3_miso0_sda0" (effects (font (size 1.27 1.27))))
        (number "10" (effects (font (size 1.27 1.27))))
      )
      (pin bidirectional line (at -31.75 3.81 0) (length 5.08)
        (name "9_PWM_RX2_CS0" (effects (font (size 1.27 1.27))))
        (number "11" (effects (font (size 1.27 1.27))))
      )
      (pin bidirectional line (at -31.75 1.27 0) (length 5.08)
        (name "10_PWM_TX2_CS0" (effects (font (size 1.27 1.27))))
        (number "12" (effects (font (size 1.27 1.27))))
      )
      (pin bidirectional line (at -31.75 -1.27 0) (length 5.08)
        (name "11_MOSI0" (effects (font (size 1.27 1.27))))
        (number "13" (effects (font (size 1.27 1.27))))
      )
      (pin bidirectional line (at -31.75 -3.81 0) (length 5.08)
        (name "12_MISO0" (effects (font (size 1.27 1.27))))
        (number "14" (effects (font (size 1.27 1.27))))
      )
      (pin power_in line (at -31.75 -6.35 0) (length 5.08)
        (name "3.3V" (effects (font (size 1.27 1.27))))
        (number "15" (effects (font (size 1.27 1.27))))
      )
      (pin bidirectional line (at -31.75 -8.89 0) (length 5.08)
        (name "24" (effects (font (size 1.27 1.27))))
        (number "16" (effects (font (size 1.27 1.27))))
      )
      (pin bidirectional line (at -31.75 -11.43 0) (length 5.08)
        (name "25" (effects (font (size 1.27 1.27))))
        (number "17" (effects (font (size 1.27 1.27))))
      )
      (pin bidirectional line (at -31.75 -13.97 0) (length 5.08)
        (name "26_tx1_SCL2" (effects (font (size 1.27 1.27))))
        (number "18" (effects (font (size 1.27 1.27))))
      )
      (pin bidirectional line (at -31.75 -16.51 0) (length 5.08)
        (name "27_rx1_SCK0" (effects (font (size 1.27 1.27))))
        (number "19" (effects (font (size 1.27 1.27))))
      )
      (pin bidirectional line (at -31.75 26.67 0) (length 5.08)
        (name "0_RX1_MOSI1_Touch" (effects (font (size 1.27 1.27))))
        (number "2" (effects (font (size 1.27 1.27))))
      )
      (pin bidirectional line (at -31.75 -19.05 0) (length 5.08)
        (name "28_MOSI0" (effects (font (size 1.27 1.27))))
        (number "20" (effects (font (size 1.27 1.27))))
      )
      (pin bidirectional line (at -31.75 -21.59 0) (length 5.08)
        (name "29_PWM_can0tx_Touch" (effects (font (size 1.27 1.27))))
        (number "21" (effects (font (size 1.27 1.27))))
      )
      (pin bidirectional line (at -31.75 -24.13 0) (length 5.08)
        (name "30_PWM_can0rx_Touch" (effects (font (size 1.27 1.27))))
        (number "22" (effects (font (size 1.27 1.27))))
      )
      (pin bidirectional line (at -31.75 -26.67 0) (length 5.08)
        (name "31_A12_RX4_CS1" (effects (font (size 1.27 1.27))))
        (number "23" (effects (font (size 1.27 1.27))))
      )
      (pin bidirectional line (at -31.75 -29.21 0) (length 5.08)
        (name "32_A13_TX4_SCK1" (effects (font (size 1.27 1.27))))
        (number "24" (effects (font (size 1.27 1.27))))
      )
      (pin power_in line (at -5.08 -36.83 90) (length 5.08)
        (name "VBat" (effects (font (size 1.27 1.27))))
        (number "25" (effects (font (size 1.27 1.27))))
      )
      (pin bidirectional line (at -31.75 24.13 0) (length 5.08)
        (name "1_TX1_MISO1_Touch" (effects (font (size 1.27 1.27))))
        (number "3" (effects (font (size 1.27 1.27))))
      )
      (pin bidirectional line (at 24.13 -29.21 180) (length 5.08)
        (name "33_A14_CAN1TX_scl0" (effects (font (size 1.27 1.27))))
        (number "30" (effects (font (size 1.27 1.27))))
      )
      (pin bidirectional line (at 24.13 -26.67 180) (length 5.08)
        (name "34_A15_CAN1TX_sda0" (effects (font (size 1.27 1.27))))
        (number "31" (effects (font (size 1.27 1.27))))
      )
      (pin bidirectional line (at 24.13 -24.13 180) (length 5.08)
        (name "35_A16_PWM" (effects (font (size 1.27 1.27))))
        (number "32" (effects (font (size 1.27 1.27))))
      )
      (pin bidirectional line (at 24.13 -21.59 180) (length 5.08)
        (name "36_A17_PWM" (effects (font (size 1.27 1.27))))
        (number "33" (effects (font (size 1.27 1.27))))
      )
      (pin bidirectional line (at 24.13 -19.05 180) (length 5.08)
        (name "37_A18_PWM_SCL1" (effects (font (size 1.27 1.27))))
        (number "34" (effects (font (size 1.27 1.27))))
      )
      (pin bidirectional line (at 24.13 -16.51 180) (length 5.08)
        (name "38_A19_PWM_SDA1" (effects (font (size 1.27 1.27))))
        (number "35" (effects (font (size 1.27 1.27))))
      )
      (pin bidirectional line (at 24.13 -13.97 180) (length 5.08)
        (name "39_A20" (effects (font (size 1.27 1.27))))
        (number "36" (effects (font (size 1.27 1.27))))
      )
      (pin bidirectional line (at 24.13 -11.43 180) (length 5.08)
        (name "A21_DAC0" (effects (font (size 1.27 1.27))))
        (number "37" (effects (font (size 1.27 1.27))))
      )
      (pin bidirectional line (at 24.13 -8.89 180) (length 5.08)
        (name "A22_DAC1" (effects (font (size 1.27 1.27))))
        (number "38" (effects (font (size 1.27 1.27))))
      )
      (pin power_in line (at 24.13 -6.35 180) (length 5.08)
        (name "GND" (effects (font (size 1.27 1.27))))
        (number "39" (effects (font (size 1.27 1.27))))
      )
      (pin bidirectional line (at -31.75 21.59 0) (length 5.08)
        (name "2_PWM" (effects (font (size 1.27 1.27))))
        (number "4" (effects (font (size 1.27 1.27))))
      )
      (pin bidirectional line (at 24.13 -3.81 180) (length 5.08)
        (name "13_SCK0_LED" (effects (font (size 1.27 1.27))))
        (number "40" (effects (font (size 1.27 1.27))))
      )
      (pin bidirectional line (at 24.13 -1.27 180) (length 5.08)
        (name "14_A0_PWM_sck0" (effects (font (size 1.27 1.27))))
        (number "41" (effects (font (size 1.27 1.27))))
      )
      (pin bidirectional line (at 24.13 1.27 180) (length 5.08)
        (name "15_A1_CS0_Touch" (effects (font (size 1.27 1.27))))
        (number "42" (effects (font (size 1.27 1.27))))
      )
      (pin bidirectional line (at 24.13 3.81 180) (length 5.08)
        (name "16_A2_scl0_Touch" (effects (font (size 1.27 1.27))))
        (number "43" (effects (font (size 1.27 1.27))))
      )
      (pin bidirectional line (at 24.13 6.35 180) (length 5.08)
        (name "17_A3_sda0_Touch" (effects (font (size 1.27 1.27))))
        (number "44" (effects (font (size 1.27 1.27))))
      )
      (pin bidirectional line (at 24.13 8.89 180) (length 5.08)
        (name "18_A4_SDA0_Touch" (effects (font (size 1.27 1.27))))
        (number "45" (effects (font (size 1.27 1.27))))
      )
      (pin bidirectional line (at 24.13 11.43 180) (length 5.08)
        (name "19_A5_SCL0_Touch" (effects (font (size 1.27 1.27))))
        (number "46" (effects (font (size 1.27 1.27))))
      )
      (pin bidirectional line (at 24.13 13.97 180) (length 5.08)
        (name "20_A6_PWM_CS0_sck1" (effects (font (size 1.27 1.27))))
        (number "47" (effects (font (size 1.27 1.27))))
      )
      (pin bidirectional line (at 24.13 16.51 180) (length 5.08)
        (name "21_A7_PWM_CS0_sck1" (effects (font (size 1.27 1.27))))
        (number "48" (effects (font (size 1.27 1.27))))
      )
      (pin bidirectional line (at 24.13 19.05 180) (length 5.08)
        (name "22_A8_PWM_Touch" (effects (font (size 1.27 1.27))))
        (number "49" (effects (font (size 1.27 1.27))))
      )
      (pin bidirectional line (at -31.75 19.05 0) (length 5.08)
        (name "3_PWM_CAN0TX_SCL2" (effects (font (size 1.27 1.27))))
        (number "5" (effects (font (size 1.27 1.27))))
      )
      (pin bidirectional line (at 24.13 21.59 180) (length 5.08)
        (name "23_A9_PWM_Touch" (effects (font (size 1.27 1.27))))
        (number "50" (effects (font (size 1.27 1.27))))
      )
      (pin power_in line (at 24.13 24.13 180) (length 5.08)
        (name "3.3V_max250mA" (effects (font (size 1.27 1.27))))
        (number "51" (effects (font (size 1.27 1.27))))
      )
      (pin power_in line (at 24.13 26.67 180) (length 5.08)
        (name "AGND" (effects (font (size 1.27 1.27))))
        (number "52" (effects (font (size 1.27 1.27))))
      )
      (pin power_in line (at 24.13 29.21 180) (length 5.08)
        (name "Vin" (effects (font (size 1.27 1.27))))
        (number "53" (effects (font (size 1.27 1.27))))
      )
      (pin bidirectional line (at -31.75 16.51 0) (length 5.08)
        (name "4_PWM_CAN0RX_SDA2" (effects (font (size 1.27 1.27))))
        (number "6" (effects (font (size 1.27 1.27))))
      )
      (pin bidirectional line (at -31.75 13.97 0) (length 5.08)
        (name "5_PWM_tx1_miso1" (effects (font (size 1.27 1.27))))
        (number "7" (effects (font (size 1.27 1.27))))
      )
      (pin bidirectional line (at -31.75 11.43 0) (length 5.08)
        (name "6_PWM" (effects (font (size 1.27 1.27))))
        (number "8" (effects (font (size 1.27 1.27))))
      )
      (pin bidirectional line (at -31.75 8.89 0) (length 5.08)
        (name "7_RX3_miso0_scl0" (effects (font (size 1.27 1.27))))
        (number "9" (effects (font (size 1.27 1.27))))
      )
    )
  )
  (symbol "Teensy4.1Min-teensy" (pin_names (offset 1.016)) (in_bom yes) (on_board yes)
    (property "Reference" "U" (at -21.59 33.02 0)
      (effects (font (size 1.524 1.524)))
    )
    (property "Value" "teensy_Teensy4.1Min" (at 8.89 33.02 0)
      (effects (font (size 1.524 1.524)))
    )
    (property "Footprint" "" (at -6.35 -24.13 0)
      (effects (font (size 1.524 1.524)))
    )
    (property "Datasheet" "" (at -6.35 -24.13 0)
      (effects (font (size 1.524 1.524)))
    )
    (symbol "Teensy4.1Min-teensy_0_1"
      (rectangle (start -26.67 31.75) (end 19.05 -31.75)
        (stroke (width 0) (type solid))
        (fill (type none))
      )
    )
    (symbol "Teensy4.1Min-teensy_1_1"
      (pin power_in line (at -31.75 29.21 0) (length 5.08)
        (name "GND" (effects (font (size 1.27 1.27))))
        (number "1" (effects (font (size 1.27 1.27))))
      )
      (pin bidirectional line (at -31.75 6.35 0) (length 5.08)
        (name "8_TX3_IN1_PWM" (effects (font (size 1.27 1.27))))
        (number "10" (effects (font (size 1.27 1.27))))
      )
      (pin bidirectional line (at -31.75 3.81 0) (length 5.08)
        (name "9_PWM_OUT1C" (effects (font (size 1.27 1.27))))
        (number "11" (effects (font (size 1.27 1.27))))
      )
      (pin bidirectional line (at -31.75 1.27 0) (length 5.08)
        (name "10_CS_MQSR_PWM" (effects (font (size 1.27 1.27))))
        (number "12" (effects (font (size 1.27 1.27))))
      )
      (pin bidirectional line (at -31.75 -1.27 0) (length 5.08)
        (name "11_MOSI0_CTX1_PWM" (effects (font (size 1.27 1.27))))
        (number "13" (effects (font (size 1.27 1.27))))
      )
      (pin bidirectional line (at -31.75 -3.81 0) (length 5.08)
        (name "12_MISO_MQSL_PWM" (effects (font (size 1.27 1.27))))
        (number "14" (effects (font (size 1.27 1.27))))
      )
      (pin power_in line (at -31.75 -6.35 0) (length 5.08)
        (name "3.3V" (effects (font (size 1.27 1.27))))
        (number "15" (effects (font (size 1.27 1.27))))
      )
      (pin bidirectional line (at -31.75 -8.89 0) (length 5.08)
        (name "24_A10_TX6_SCL2_PWM" (effects (font (size 1.27 1.27))))
        (number "16" (effects (font (size 1.27 1.27))))
      )
      (pin bidirectional line (at -31.75 -11.43 0) (length 5.08)
        (name "25_A11_RX6_SDA2_PWM" (effects (font (size 1.27 1.27))))
        (number "17" (effects (font (size 1.27 1.27))))
      )
      (pin bidirectional line (at -31.75 -13.97 0) (length 5.08)
        (name "26_A12_MOSI1" (effects (font (size 1.27 1.27))))
        (number "18" (effects (font (size 1.27 1.27))))
      )
      (pin bidirectional line (at -31.75 -16.51 0) (length 5.08)
        (name "27_A13_SCK1" (effects (font (size 1.27 1.27))))
        (number "19" (effects (font (size 1.27 1.27))))
      )
      (pin bidirectional line (at -31.75 26.67 0) (length 5.08)
        (name "0_RX1_CS1_CRX2_PWM" (effects (font (size 1.27 1.27))))
        (number "2" (effects (font (size 1.27 1.27))))
      )
      (pin bidirectional line (at -31.75 -19.05 0) (length 5.08)
        (name "28_RX7_PWM" (effects (font (size 1.27 1.27))))
        (number "20" (effects (font (size 1.27 1.27))))
      )
      (pin bidirectional line (at -31.75 -21.59 0) (length 5.08)
        (name "29_TX7_PWM" (effects (font (size 1.27 1.27))))
        (number "21" (effects (font (size 1.27 1.27))))
      )
      (pin bidirectional line (at -31.75 -24.13 0) (length 5.08)
        (name "30_CRX3" (effects (font (size 1.27 1.27))))
        (number "22" (effects (font (size 1.27 1.27))))
      )
      (pin bidirectional line (at -31.75 -26.67 0) (length 5.08)
        (name "31_CTX3" (effects (font (size 1.27 1.27))))
        (number "23" (effects (font (size 1.27 1.27))))
      )
      (pin bidirectional line (at -31.75 -29.21 0) (length 5.08)
        (name "32_OUT1B" (effects (font (size 1.27 1.27))))
        (number "24" (effects (font (size 1.27 1.27))))
      )
      (pin power_in line (at -5.08 -36.83 90) (length 5.08)
        (name "VBat" (effects (font (size 1.27 1.27))))
        (number "25" (effects (font (size 1.27 1.27))))
      )
      (pin bidirectional line (at -31.75 24.13 0) (length 5.08)
        (name "1_TX1_MISO1_CTX2_PWM" (effects (font (size 1.27 1.27))))
        (number "3" (effects (font (size 1.27 1.27))))
      )
      (pin bidirectional line (at 24.13 -29.21 180) (length 5.08)
        (name "33_MCLK2_PWM" (effects (font (size 1.27 1.27))))
        (number "30" (effects (font (size 1.27 1.27))))
      )
      (pin bidirectional line (at 24.13 -26.67 180) (length 5.08)
        (name "34_RX8" (effects (font (size 1.27 1.27))))
        (number "31" (effects (font (size 1.27 1.27))))
      )
      (pin bidirectional line (at 24.13 -24.13 180) (length 5.08)
        (name "35_TX8" (effects (font (size 1.27 1.27))))
        (number "32" (effects (font (size 1.27 1.27))))
      )
      (pin bidirectional line (at 24.13 -21.59 180) (length 5.08)
        (name "36_CS_PWM" (effects (font (size 1.27 1.27))))
        (number "33" (effects (font (size 1.27 1.27))))
      )
      (pin bidirectional line (at 24.13 -19.05 180) (length 5.08)
        (name "37_CS_PWM" (effects (font (size 1.27 1.27))))
        (number "34" (effects (font (size 1.27 1.27))))
      )
      (pin bidirectional line (at 24.13 -16.51 180) (length 5.08)
        (name "38_A14" (effects (font (size 1.27 1.27))))
        (number "35" (effects (font (size 1.27 1.27))))
      )
      (pin bidirectional line (at 24.13 -13.97 180) (length 5.08)
        (name "39_A15" (effects (font (size 1.27 1.27))))
        (number "36" (effects (font (size 1.27 1.27))))
      )
      (pin bidirectional line (at 24.13 -11.43 180) (length 5.08)
        (name "40_A16" (effects (font (size 1.27 1.27))))
        (number "37" (effects (font (size 1.27 1.27))))
      )
      (pin bidirectional line (at 24.13 -8.89 180) (length 5.08)
        (name "41_A17" (effects (font (size 1.27 1.27))))
        (number "38" (effects (font (size 1.27 1.27))))
      )
      (pin power_in line (at 24.13 -6.35 180) (length 5.08)
        (name "GND" (effects (font (size 1.27 1.27))))
        (number "39" (effects (font (size 1.27 1.27))))
      )
      (pin bidirectional line (at -31.75 21.59 0) (length 5.08)
        (name "2_OUT2_PWM" (effects (font (size 1.27 1.27))))
        (number "4" (effects (font (size 1.27 1.27))))
      )
      (pin bidirectional line (at 24.13 -3.81 180) (length 5.08)
        (name "13_SCK_LED" (effects (font (size 1.27 1.27))))
        (number "40" (effects (font (size 1.27 1.27))))
      )
      (pin bidirectional line (at 24.13 -1.27 180) (length 5.08)
        (name "14_A0_TX3_S/PDIFOUT" (effects (font (size 1.27 1.27))))
        (number "41" (effects (font (size 1.27 1.27))))
      )
      (pin bidirectional line (at 24.13 1.27 180) (length 5.08)
        (name "15_A1_RX3_S/PDIFIN" (effects (font (size 1.27 1.27))))
        (number "42" (effects (font (size 1.27 1.27))))
      )
      (pin bidirectional line (at 24.13 3.81 180) (length 5.08)
        (name "16_A2_RX4_SCL1" (effects (font (size 1.27 1.27))))
        (number "43" (effects (font (size 1.27 1.27))))
      )
      (pin bidirectional line (at 24.13 6.35 180) (length 5.08)
        (name "17_A3_TX4_SDA1_PWM" (effects (font (size 1.27 1.27))))
        (number "44" (effects (font (size 1.27 1.27))))
      )
      (pin bidirectional line (at 24.13 8.89 180) (length 5.08)
        (name "18_A4_SDA_PWM" (effects (font (size 1.27 1.27))))
        (number "45" (effects (font (size 1.27 1.27))))
      )
      (pin bidirectional line (at 24.13 11.43 180) (length 5.08)
        (name "19_A5_SCL_PWM" (effects (font (size 1.27 1.27))))
        (number "46" (effects (font (size 1.27 1.27))))
      )
      (pin bidirectional line (at 24.13 13.97 180) (length 5.08)
        (name "20_A6_TX5_LRCLK1" (effects (font (size 1.27 1.27))))
        (number "47" (effects (font (size 1.27 1.27))))
      )
      (pin bidirectional line (at 24.13 16.51 180) (length 5.08)
        (name "21_A7_RX5_BCLK1" (effects (font (size 1.27 1.27))))
        (number "48" (effects (font (size 1.27 1.27))))
      )
      (pin bidirectional line (at 24.13 19.05 180) (length 5.08)
        (name "22_A8_CTX1_PWM" (effects (font (size 1.27 1.27))))
        (number "49" (effects (font (size 1.27 1.27))))
      )
      (pin bidirectional line (at -31.75 19.05 0) (length 5.08)
        (name "3_LRCLK2_PWM" (effects (font (size 1.27 1.27))))
        (number "5" (effects (font (size 1.27 1.27))))
      )
      (pin bidirectional line (at 24.13 21.59 180) (length 5.08)
        (name "23_A9_CRX1_MCLK1_PWM" (effects (font (size 1.27 1.27))))
        (number "50" (effects (font (size 1.27 1.27))))
      )
      (pin power_in line (at 24.13 24.13 180) (length 5.08)
        (name "3.3V_max250mA" (effects (font (size 1.27 1.27))))
        (number "51" (effects (font (size 1.27 1.27))))
      )
      (pin power_in line (at 24.13 26.67 180) (length 5.08)
        (name "GND" (effects (font (size 1.27 1.27))))
        (number "52" (effects (font (size 1.27 1.27))))
      )
      (pin power_in line (at 24.13 29.21 180) (length 5.08)
        (name "Vin_3.6TO5.5V" (effects (font (size 1.27 1.27))))
        (number "53" (effects (font (size 1.27 1.27))))
      )
      (pin input line (at -3.81 34.29 270) (length 2.54)
        (name "D+" (effects (font (size 1.27 1.27))))
        (number "54" (effects (font (size 1.27 1.27))))
      )
      (pin input line (at 0 34.29 270) (length 2.54)
        (name "D-" (effects (font (size 1.27 1.27))))
        (number "55" (effects (font (size 1.27 1.27))))
      )
      (pin bidirectional line (at -31.75 16.51 0) (length 5.08)
        (name "4_BCLK2_PWM" (effects (font (size 1.27 1.27))))
        (number "6" (effects (font (size 1.27 1.27))))
      )
      (pin bidirectional line (at -31.75 13.97 0) (length 5.08)
        (name "5_IN2_PWM" (effects (font (size 1.27 1.27))))
        (number "7" (effects (font (size 1.27 1.27))))
      )
      (pin bidirectional line (at -31.75 11.43 0) (length 5.08)
        (name "6_PWM_OUT1D" (effects (font (size 1.27 1.27))))
        (number "8" (effects (font (size 1.27 1.27))))
      )
      (pin bidirectional line (at -31.75 8.89 0) (length 5.08)
        (name "7_RX2_OUT1A_PWM" (effects (font (size 1.27 1.27))))
        (number "9" (effects (font (size 1.27 1.27))))
      )
    )
  )
  (symbol "USB_OTG-Alimentations" (pin_names (offset 1.016)) (in_bom yes) (on_board yes)
    (property "Reference" "J" (at -5.08 11.43 0)
      (effects (font (size 1.27 1.27)) (justify left))
    )
    (property "Value" "Alimentations_USB_OTG" (at -5.08 8.89 0)
      (effects (font (size 1.27 1.27)) (justify left))
    )
    (property "Footprint" "" (at 3.81 -1.27 0)
      (effects (font (size 1.27 1.27)) hide)
    )
    (property "Datasheet" "" (at 3.81 -1.27 0)
      (effects (font (size 1.27 1.27)) hide)
    )
    (property "ki_fp_filters" "USB*" (at 0 0 0)
      (effects (font (size 1.27 1.27)) hide)
    )
    (symbol "USB_OTG-Alimentations_0_1"
      (rectangle (start -5.08 -7.62) (end 5.08 7.62)
        (stroke (width 0.254) (type solid))
        (fill (type background))
      )
      (circle (center -3.81 2.159) (radius 0.635)
        (stroke (width 0.254) (type solid))
        (fill (type outline))
      )
      (circle (center -0.635 3.429) (radius 0.381)
        (stroke (width 0.254) (type solid))
        (fill (type outline))
      )
      (rectangle (start -0.127 -7.62) (end 0.127 -6.858)
        (stroke (width 0) (type solid))
        (fill (type none))
      )
      (polyline
        (pts
          (xy -1.905 2.159)
          (xy 0.635 2.159)
        )
        (stroke (width 0.254) (type solid))
        (fill (type none))
      )
      (polyline
        (pts
          (xy -3.175 2.159)
          (xy -2.54 2.159)
          (xy -1.27 3.429)
          (xy -0.635 3.429)
        )
        (stroke (width 0.254) (type solid))
        (fill (type none))
      )
      (polyline
        (pts
          (xy -2.54 2.159)
          (xy -1.905 2.159)
          (xy -1.27 0.889)
          (xy 0 0.889)
        )
        (stroke (width 0.254) (type solid))
        (fill (type none))
      )
      (polyline
        (pts
          (xy 0.635 2.794)
          (xy 0.635 1.524)
          (xy 1.905 2.159)
          (xy 0.635 2.794)
        )
        (stroke (width 0.254) (type solid))
        (fill (type outline))
      )
      (polyline
        (pts
          (xy -4.318 5.588)
          (xy -1.778 5.588)
          (xy -2.032 4.826)
          (xy -4.064 4.826)
          (xy -4.318 5.588)
        )
        (stroke (width 0) (type solid))
        (fill (type outline))
      )
      (polyline
        (pts
          (xy -4.699 5.842)
          (xy -4.699 5.588)
          (xy -4.445 4.826)
          (xy -4.445 4.572)
          (xy -1.651 4.572)
          (xy -1.651 4.826)
          (xy -1.397 5.588)
          (xy -1.397 5.842)
          (xy -4.699 5.842)
        )
        (stroke (width 0) (type solid))
        (fill (type none))
      )
      (rectangle (start 0.254 1.27) (end -0.508 0.508)
        (stroke (width 0.254) (type solid))
        (fill (type outline))
      )
      (rectangle (start 5.08 -5.207) (end 4.318 -4.953)
        (stroke (width 0) (type solid))
        (fill (type none))
      )
      (rectangle (start 5.08 -2.667) (end 4.318 -2.413)
        (stroke (width 0) (type solid))
        (fill (type none))
      )
      (rectangle (start 5.08 -0.127) (end 4.318 0.127)
        (stroke (width 0) (type solid))
        (fill (type none))
      )
      (rectangle (start 5.08 4.953) (end 4.318 5.207)
        (stroke (width 0) (type solid))
        (fill (type none))
      )
    )
    (symbol "USB_OTG-Alimentations_1_1"
      (pin power_in line (at 7.62 5.08 180) (length 2.54)
        (name "VBUS" (effects (font (size 1.27 1.27))))
        (number "1" (effects (font (size 1.27 1.27))))
      )
      (pin passive line (at 7.62 -2.54 180) (length 2.54)
        (name "D-" (effects (font (size 1.27 1.27))))
        (number "2" (effects (font (size 1.27 1.27))))
      )
      (pin passive line (at 7.62 0 180) (length 2.54)
        (name "D+" (effects (font (size 1.27 1.27))))
        (number "3" (effects (font (size 1.27 1.27))))
      )
      (pin passive line (at 7.62 -5.08 180) (length 2.54)
        (name "ID" (effects (font (size 1.27 1.27))))
        (number "4" (effects (font (size 1.27 1.27))))
      )
      (pin power_in line (at 0 -10.16 90) (length 2.54)
        (name "GND" (effects (font (size 1.27 1.27))))
        (number "5" (effects (font (size 1.27 1.27))))
      )
    )
  )
)
