(kicad_pcb (version 4) (host pcbnew 4.0.7)

  (general
    (links 9)
    (no_connects 0)
    (area 96.364465 96.364465 103.635535 103.635535)
    (thickness 1.6)
    (drawings 4)
    (tracks 19)
    (zones 0)
    (modules 6)
    (nets 4)
  )

  (page A4)
  (layers
    (0 F.Cu signal)
    (31 B.Cu signal)
    (32 B.Adhes user)
    (33 F.Adhes user)
    (34 B.Paste user)
    (35 F.Paste user)
    (36 B.SilkS user)
    (37 F.SilkS user)
    (38 B.Mask user)
    (39 F.Mask user)
    (40 Dwgs.User user)
    (41 Cmts.User user)
    (42 Eco1.User user)
    (43 Eco2.User user)
    (44 Edge.Cuts user)
    (45 Margin user)
    (46 B.CrtYd user)
    (47 F.CrtYd user)
    (48 B.Fab user)
    (49 F.Fab user)
  )

  (setup
    (last_trace_width 0.25)
    (trace_clearance 0.2)
    (zone_clearance 0.508)
    (zone_45_only no)
    (trace_min 0.2)
    (segment_width 0.2)
    (edge_width 0.2)
    (via_size 0.6)
    (via_drill 0.4)
    (via_min_size 0.4)
    (via_min_drill 0.3)
    (uvia_size 0.3)
    (uvia_drill 0.1)
    (uvias_allowed no)
    (uvia_min_size 0.2)
    (uvia_min_drill 0.1)
    (pcb_text_width 0.3)
    (pcb_text_size 1.5 1.5)
    (mod_edge_width 0.15)
    (mod_text_size 1 1)
    (mod_text_width 0.15)
    (pad_size 1.4 1.4)
    (pad_drill 0.8)
    (pad_to_mask_clearance 0.2)
    (aux_axis_origin 0 0)
    (visible_elements 7FFFFFFF)
    (pcbplotparams
      (layerselection 0x010f0_80000001)
      (usegerberextensions false)
      (excludeedgelayer true)
      (linewidth 0.100000)
      (plotframeref false)
      (viasonmask false)
      (mode 1)
      (useauxorigin false)
      (hpglpennumber 1)
      (hpglpenspeed 20)
      (hpglpendiameter 15)
      (hpglpenoverlay 2)
      (psnegative false)
      (psa4output false)
      (plotreference true)
      (plotvalue true)
      (plotinvisibletext false)
      (padsonsilk false)
      (subtractmaskfromsilk false)
      (outputformat 1)
      (mirror false)
      (drillshape 0)
      (scaleselection 1)
      (outputdirectory ""))
  )

  (net 0 "")
  (net 1 "Net-(J1-Pad1)")
  (net 2 "Net-(C1-Pad1)")
  (net 3 "Net-(C1-Pad2)")

  (net_class Default "Ceci est la Netclass par défaut"
    (clearance 0.2)
    (trace_width 0.25)
    (via_dia 0.6)
    (via_drill 0.4)
    (uvia_dia 0.3)
    (uvia_drill 0.1)
    (add_net "Net-(C1-Pad1)")
    (add_net "Net-(C1-Pad2)")
    (add_net "Net-(J1-Pad1)")
  )

  (module MicroMEMS:C_0805_HandSoldering (layer B.Cu) (tedit 5C000C91) (tstamp 5BDB2408)
    (at 100 98 180)
    (descr "Capacitor SMD 0805, hand soldering")
    (tags "capacitor 0805")
    (path /5BDB1574)
    (attr smd)
    (fp_text reference C1 (at 0 1.75 180) (layer B.SilkS) hide
      (effects (font (size 1 1) (thickness 0.15)) (justify mirror))
    )
    (fp_text value 100nF (at -0.076 3.512 180) (layer B.SilkS) hide
      (effects (font (size 1 1) (thickness 0.15)) (justify mirror))
    )
    (fp_text user %R (at 2.972 3.512 180) (layer B.Fab) hide
      (effects (font (size 1 1) (thickness 0.15)) (justify mirror))
    )
    (fp_line (start -1 -0.62) (end -1 0.62) (layer B.SilkS) (width 0.1))
    (fp_line (start 1 -0.62) (end -1 -0.62) (layer B.SilkS) (width 0.1))
    (fp_line (start 1 0.62) (end 1 -0.62) (layer B.SilkS) (width 0.1))
    (fp_line (start -1 0.62) (end 1 0.62) (layer B.SilkS) (width 0.1))
    (fp_line (start 0.5 0.85) (end -0.5 0.85) (layer B.SilkS) (width 0.12))
    (fp_line (start -0.5 -0.85) (end 0.5 -0.85) (layer B.SilkS) (width 0.12))
    (fp_line (start -2.25 0.88) (end 2.25 0.88) (layer B.CrtYd) (width 0.05))
    (fp_line (start -2.25 0.88) (end -2.25 -0.87) (layer B.CrtYd) (width 0.05))
    (fp_line (start 2.25 -0.87) (end 2.25 0.88) (layer B.CrtYd) (width 0.05))
    (fp_line (start 2.25 -0.87) (end -2.25 -0.87) (layer B.CrtYd) (width 0.05))
    (pad 1 smd rect (at -1.25 0 180) (size 1.5 1.25) (layers B.Cu B.Paste B.Mask)
      (net 2 "Net-(C1-Pad1)"))
    (pad 2 smd rect (at 1.25 0 180) (size 1.5 1.25) (layers B.Cu B.Paste B.Mask)
      (net 3 "Net-(C1-Pad2)"))
    (model Capacitors_SMD.3dshapes/C_0805.wrl
      (at (xyz 0 0 0))
      (scale (xyz 1 1 1))
      (rotate (xyz 0 0 0))
    )
  )

  (module MicroMEMS:WirePad (layer F.Cu) (tedit 5C000DE7) (tstamp 5BDB240D)
    (at 97.282 99.822)
    (path /5B044FB7)
    (fp_text reference J1 (at 0 -2.54) (layer F.SilkS) hide
      (effects (font (size 1 1) (thickness 0.15)))
    )
    (fp_text value o (at 0 0.762) (layer F.SilkS)
      (effects (font (size 1 1) (thickness 0.15)))
    )
    (pad 1 thru_hole circle (at 0.218 -0.322) (size 1.4 1.4) (drill 0.8) (layers *.Cu *.Mask)
      (net 1 "Net-(J1-Pad1)"))
  )

  (module MicroMEMS:WirePad (layer F.Cu) (tedit 5C000DFC) (tstamp 5BDB2412)
    (at 102.616 100.076)
    (path /5B0450A0)
    (fp_text reference J2 (at 0 -2.54) (layer F.SilkS) hide
      (effects (font (size 1 1) (thickness 0.15)))
    )
    (fp_text value + (at 0 0.508) (layer F.SilkS)
      (effects (font (size 1 1) (thickness 0.15)))
    )
    (pad 1 thru_hole circle (at -0.116 -0.576) (size 1.4 1.4) (drill 0.8) (layers *.Cu *.Mask)
      (net 2 "Net-(C1-Pad1)"))
  )

  (module MicroMEMS:WirePad (layer F.Cu) (tedit 5C000DDD) (tstamp 5BDB2417)
    (at 98.552 102.108)
    (path /5B0450F1)
    (fp_text reference J3 (at 0 -2.54) (layer F.SilkS) hide
      (effects (font (size 1 1) (thickness 0.15)))
    )
    (fp_text value G (at 0 2.54) (layer F.Fab) hide
      (effects (font (size 1 1) (thickness 0.15)))
    )
    (pad 1 thru_hole circle (at -0.052 -0.108) (size 1.4 1.4) (drill 0.8) (layers *.Cu *.Mask)
      (net 3 "Net-(C1-Pad2)"))
  )

  (module MicroMEMS:WirePad (layer F.Cu) (tedit 5C000DD6) (tstamp 5BDB241C)
    (at 101.092 102.362)
    (path /5BDB1CDE)
    (fp_text reference J4 (at 0 -2.54) (layer F.SilkS) hide
      (effects (font (size 1 1) (thickness 0.15)))
    )
    (fp_text value G (at -1.27 0) (layer F.SilkS)
      (effects (font (size 1 1) (thickness 0.15)))
    )
    (pad 1 thru_hole circle (at 0.408 -0.362) (size 1.4 1.4) (drill 0.8) (layers *.Cu *.Mask)
      (net 3 "Net-(C1-Pad2)"))
  )

  (module MicroMEMS:MEMS-SPU0410LR5H (layer F.Cu) (tedit 5C000CFB) (tstamp 5C0010BE)
    (at 100 100)
    (path /5B0450C7)
    (fp_text reference U1 (at -3.81 1.397) (layer F.SilkS) hide
      (effects (font (size 1 1) (thickness 0.15)))
    )
    (fp_text value "" (at 0 -10.414) (layer F.Fab) hide
      (effects (font (size 1 1) (thickness 0.15)))
    )
    (fp_line (start -1.65 1.139) (end -1.65 -2.786) (layer F.SilkS) (width 0.15))
    (fp_line (start -1.65 -2.786) (end 1.65 -2.786) (layer F.SilkS) (width 0.15))
    (fp_line (start 1.65 -2.786) (end 1.65 1.139) (layer F.SilkS) (width 0.15))
    (fp_line (start -1.65 1.139) (end 1.65 1.139) (layer F.SilkS) (width 0.15))
    (pad 6 thru_hole circle (at 0 0) (size 1.5 1.5) (drill 1.2) (layers F.Cu F.Paste F.Mask)
      (net 3 "Net-(C1-Pad2)"))
    (pad 4 smd circle (at 0.966 -2.103) (size 0.75 0.75) (layers F.Cu F.Paste F.Mask)
      (net 2 "Net-(C1-Pad1)"))
    (pad 1 smd circle (at -0.966 -2.103) (size 0.75 0.75) (layers F.Cu F.Paste F.Mask)
      (net 1 "Net-(J1-Pad1)"))
    (pad 5 smd circle (at 0 -2.103) (size 0.65 0.65) (layers F.Cu F.Paste F.Mask)
      (net 3 "Net-(C1-Pad2)"))
    (pad 3 smd circle (at 1.015 0.634) (size 0.6 0.6) (layers F.Cu F.Paste F.Mask)
      (net 3 "Net-(C1-Pad2)"))
    (pad 2 smd circle (at -1.015 0.634) (size 0.6 0.6) (layers F.Cu F.Paste F.Mask)
      (net 3 "Net-(C1-Pad2)"))
  )

  (gr_text G (at 99.822 102.362) (layer B.SilkS)
    (effects (font (size 0.8 0.8) (thickness 0.15)))
  )
  (gr_text + (at 102.616 98.298) (layer B.SilkS)
    (effects (font (size 0.8 0.8) (thickness 0.15)))
  )
  (gr_text O (at 97.536 98.298) (layer B.SilkS)
    (effects (font (size 0.8 0.8) (thickness 0.15)))
  )
  (gr_circle (center 100 100) (end 102.5 102.5) (layer Edge.Cuts) (width 0.2))

  (segment (start 97.5 99.431) (end 97.5 99.5) (width 0.25) (layer F.Cu) (net 1))
  (segment (start 99.034 97.897) (end 97.5 99.431) (width 0.25) (layer F.Cu) (net 1))
  (segment (start 102.5 99.431) (end 102.5 99.5) (width 0.25) (layer F.Cu) (net 2))
  (segment (start 100.966 97.897) (end 102.5 99.431) (width 0.25) (layer F.Cu) (net 2))
  (segment (start 101.9503 98.9503) (end 101.25 98.9503) (width 0.25) (layer B.Cu) (net 2))
  (segment (start 102.5 99.5) (end 101.9503 98.9503) (width 0.25) (layer B.Cu) (net 2))
  (segment (start 101.25 98) (end 101.25 98.9503) (width 0.25) (layer B.Cu) (net 2))
  (segment (start 100 97.897) (end 100 100) (width 0.25) (layer F.Cu) (net 3))
  (segment (start 100.381 100) (end 101.015 100.634) (width 0.25) (layer F.Cu) (net 3))
  (segment (start 100 100) (end 100.381 100) (width 0.25) (layer F.Cu) (net 3))
  (segment (start 101.5 101.119) (end 101.5 102) (width 0.25) (layer F.Cu) (net 3))
  (segment (start 101.015 100.634) (end 101.5 101.119) (width 0.25) (layer F.Cu) (net 3))
  (segment (start 99.619 100) (end 98.985 100.634) (width 0.25) (layer F.Cu) (net 3))
  (segment (start 100 100) (end 99.619 100) (width 0.25) (layer F.Cu) (net 3))
  (segment (start 98.5 101.119) (end 98.5 102) (width 0.25) (layer F.Cu) (net 3))
  (segment (start 98.985 100.634) (end 98.5 101.119) (width 0.25) (layer F.Cu) (net 3))
  (segment (start 98.5 99.2003) (end 98.75 98.9503) (width 0.25) (layer B.Cu) (net 3))
  (segment (start 98.5 102) (end 98.5 99.2003) (width 0.25) (layer B.Cu) (net 3))
  (segment (start 98.75 98) (end 98.75 98.9503) (width 0.25) (layer B.Cu) (net 3))

)
