G04 #@! TF.FileFunction,Soldermask,Bot*
%FSLAX46Y46*%
G04 Gerber Fmt 4.6, Leading zero omitted, Abs format (unit mm)*
G04 Created by KiCad (PCBNEW 4.0.7) date 11/29/18 17:07:23*
%MOMM*%
%LPD*%
G01*
G04 APERTURE LIST*
%ADD10C,0.100000*%
%ADD11R,1.900000X1.650000*%
%ADD12C,1.800000*%
G04 APERTURE END LIST*
D10*
D11*
X101250000Y-98000000D03*
X98750000Y-98000000D03*
D12*
X97500000Y-99500000D03*
X102500000Y-99500000D03*
X98500000Y-102000000D03*
X101500000Y-102000000D03*
M02*
