G04 #@! TF.FileFunction,Legend,Top*
%FSLAX46Y46*%
G04 Gerber Fmt 4.6, Leading zero omitted, Abs format (unit mm)*
G04 Created by KiCad (PCBNEW 4.0.7) date 11/29/18 17:07:23*
%MOMM*%
%LPD*%
G01*
G04 APERTURE LIST*
%ADD10C,0.100000*%
%ADD11C,0.150000*%
G04 APERTURE END LIST*
D10*
D11*
X98350000Y-101139000D02*
X98350000Y-97214000D01*
X98350000Y-97214000D02*
X101650000Y-97214000D01*
X101650000Y-97214000D02*
X101650000Y-101139000D01*
X98350000Y-101139000D02*
X101650000Y-101139000D01*
X97210571Y-101036381D02*
X97115333Y-100988762D01*
X97067714Y-100941143D01*
X97020095Y-100845905D01*
X97020095Y-100560190D01*
X97067714Y-100464952D01*
X97115333Y-100417333D01*
X97210571Y-100369714D01*
X97353429Y-100369714D01*
X97448667Y-100417333D01*
X97496286Y-100464952D01*
X97543905Y-100560190D01*
X97543905Y-100845905D01*
X97496286Y-100941143D01*
X97448667Y-100988762D01*
X97353429Y-101036381D01*
X97210571Y-101036381D01*
X102235048Y-100655429D02*
X102996953Y-100655429D01*
X102616001Y-101036381D02*
X102616001Y-100274476D01*
X100083905Y-101862000D02*
X99988667Y-101814381D01*
X99845810Y-101814381D01*
X99702952Y-101862000D01*
X99607714Y-101957238D01*
X99560095Y-102052476D01*
X99512476Y-102242952D01*
X99512476Y-102385810D01*
X99560095Y-102576286D01*
X99607714Y-102671524D01*
X99702952Y-102766762D01*
X99845810Y-102814381D01*
X99941048Y-102814381D01*
X100083905Y-102766762D01*
X100131524Y-102719143D01*
X100131524Y-102385810D01*
X99941048Y-102385810D01*
M02*
