M48
; DRILL file {KiCad 7.0.6} date Mon Oct 14 13:19:11 2024
; FORMAT={-:-/ absolute / inch / decimal}
; #@! TF.CreationDate,2024-10-14T13:19:11+02:00
; #@! TF.GenerationSoftware,Kicad,Pcbnew,7.0.6
; #@! TF.FileFunction,Plated,1,2,PTH
FMAT,2
INCH
; #@! TA.AperFunction,Plated,PTH,ComponentDrill
T1C0.0394
; #@! TA.AperFunction,Plated,PTH,ComponentDrill
T2C0.0433
; #@! TA.AperFunction,Plated,PTH,ComponentDrill
T3C0.0512
%
G90
G05
T1
X0.1Y0.405
X0.1Y0.305
X0.1Y0.205
X0.1Y0.105
X1.1478Y0.105
X1.325Y0.105
X1.6828Y0.105
X1.86Y0.105
X2.5Y0.405
X2.5Y0.305
X2.5Y0.205
X2.5Y0.105
T2
X0.3425Y0.4353
X0.5Y0.4353
X0.6575Y0.4353
T3
X0.3031Y0.0219
X0.6969Y0.0219
X1.0986Y0.2034
X1.3742Y0.2034
X1.6336Y0.2034
X1.9092Y0.2034
T0
M30
