G04 #@! TF.GenerationSoftware,KiCad,Pcbnew,7.0.6*
G04 #@! TF.CreationDate,2024-10-14T13:19:08+02:00*
G04 #@! TF.ProjectId,AR-PCB-B,41522d50-4342-42d4-922e-6b696361645f,rev?*
G04 #@! TF.SameCoordinates,PX5125ed0PY82524e0*
G04 #@! TF.FileFunction,Copper,L2,Bot*
G04 #@! TF.FilePolarity,Positive*
%FSLAX46Y46*%
G04 Gerber Fmt 4.6, Leading zero omitted, Abs format (unit mm)*
G04 Created by KiCad (PCBNEW 7.0.6) date 2024-10-14 13:19:08*
%MOMM*%
%LPD*%
G01*
G04 APERTURE LIST*
G04 #@! TA.AperFunction,ComponentPad*
%ADD10O,5.000000X2.000000*%
G04 #@! TD*
G04 #@! TA.AperFunction,ComponentPad*
%ADD11C,3.000000*%
G04 #@! TD*
G04 #@! TA.AperFunction,ComponentPad*
%ADD12R,1.700000X1.700000*%
G04 #@! TD*
G04 #@! TA.AperFunction,ComponentPad*
%ADD13O,1.700000X1.700000*%
G04 #@! TD*
G04 #@! TA.AperFunction,WasherPad*
%ADD14C,5.000000*%
G04 #@! TD*
G04 #@! TA.AperFunction,SMDPad,CuDef*
%ADD15R,1.000000X1.000000*%
G04 #@! TD*
G04 #@! TA.AperFunction,ComponentPad*
%ADD16C,2.200000*%
G04 #@! TD*
G04 #@! TA.AperFunction,ComponentPad*
%ADD17C,1.700000*%
G04 #@! TD*
G04 #@! TA.AperFunction,Conductor*
%ADD18C,0.400000*%
G04 #@! TD*
G04 #@! TA.AperFunction,Conductor*
%ADD19C,0.406400*%
G04 #@! TD*
G04 APERTURE END LIST*
D10*
X7700000Y557000D03*
X17700000Y557000D03*
D11*
X16700000Y11057000D03*
X12700000Y11057000D03*
X8700000Y11057000D03*
D12*
X2540000Y10287000D03*
D13*
X2540000Y7747000D03*
X2540000Y5207000D03*
X2540000Y2667000D03*
D12*
X63500000Y10287000D03*
D13*
X63500000Y7747000D03*
X63500000Y5207000D03*
X63500000Y2667000D03*
D14*
X33020000Y10160000D03*
D15*
X45085000Y3429000D03*
D16*
X34905000Y5167000D03*
X27905000Y5167000D03*
D17*
X33655000Y2667000D03*
X29155000Y2667000D03*
D16*
X41494000Y5167000D03*
X48494000Y5167000D03*
D17*
X47244000Y2667000D03*
X42744000Y2667000D03*
D18*
X5842000Y5842000D02*
X23876000Y5842000D01*
D19*
X62299700Y10287000D02*
X63500000Y10287000D01*
X59034700Y13552000D02*
X62299700Y10287000D01*
X19195000Y13552000D02*
X59034700Y13552000D01*
X16700000Y11057000D02*
X19195000Y13552000D01*
X34970000Y1352000D02*
X45929000Y1352000D01*
X45929000Y1352000D02*
X47244000Y2667000D01*
X33655000Y2667000D02*
X34970000Y1352000D01*
D18*
X32340000Y1352000D02*
X33655000Y2667000D01*
X27350000Y1352000D02*
X32340000Y1352000D01*
X23622000Y5080000D02*
X27350000Y1352000D01*
X2667000Y5080000D02*
X23622000Y5080000D01*
X2540000Y5207000D02*
X2667000Y5080000D01*
X27051000Y2667000D02*
X29155000Y2667000D01*
X2540000Y7747000D02*
X3937000Y7747000D01*
X23876000Y5842000D02*
X27051000Y2667000D01*
X3937000Y7747000D02*
X5842000Y5842000D01*
X37529000Y6667000D02*
X41529000Y2667000D01*
X7811000Y6667000D02*
X37529000Y6667000D01*
X2540000Y10287000D02*
X4191000Y10287000D01*
X41529000Y2667000D02*
X42744000Y2667000D01*
X4191000Y10287000D02*
X7811000Y6667000D01*
G04 #@! TA.AperFunction,Conductor*
G36*
X65541792Y15445949D02*
G01*
X65576410Y15440466D01*
X65613901Y15428284D01*
X65636185Y15416930D01*
X65668078Y15393758D01*
X65685757Y15376079D01*
X65708929Y15344186D01*
X65720283Y15321902D01*
X65732464Y15284415D01*
X65737948Y15249798D01*
X65739500Y15230083D01*
X65739500Y517919D01*
X65737948Y498205D01*
X65732464Y463587D01*
X65720283Y426099D01*
X65708929Y403815D01*
X65685757Y371922D01*
X65668078Y354243D01*
X65636185Y331071D01*
X65613901Y319717D01*
X65576413Y307536D01*
X65541795Y302052D01*
X65522081Y300500D01*
X20749073Y300500D01*
X20740559Y303000D01*
X18298846Y303000D01*
X18323100Y354543D01*
X18353873Y515862D01*
X18343561Y679766D01*
X18300921Y811000D01*
X20688234Y811000D01*
X20688234Y811001D01*
X20682331Y859618D01*
X20682329Y859627D01*
X20614594Y1093478D01*
X20510216Y1313451D01*
X20371901Y1513833D01*
X20203242Y1689425D01*
X20008594Y1835695D01*
X19793004Y1948844D01*
X19562058Y2025945D01*
X19562050Y2025947D01*
X19321748Y2064999D01*
X19321734Y2065000D01*
X17954000Y2065000D01*
X17954000Y1159112D01*
X17941183Y1166158D01*
X17782114Y1207000D01*
X17659106Y1207000D01*
X17537067Y1191583D01*
X17446000Y1155527D01*
X17446000Y2065000D01*
X16139225Y2065000D01*
X15957317Y2050315D01*
X15720909Y1992046D01*
X15496919Y1896613D01*
X15291129Y1766480D01*
X15291128Y1766479D01*
X15108893Y1605033D01*
X15108884Y1605023D01*
X14954908Y1416437D01*
X14833165Y1205574D01*
X14833163Y1205571D01*
X14746827Y977921D01*
X14712749Y811000D01*
X17101154Y811000D01*
X17076900Y759457D01*
X17046127Y598138D01*
X17056439Y434234D01*
X17099079Y303000D01*
X14670918Y303000D01*
X14652836Y300500D01*
X10749073Y300500D01*
X10740559Y303000D01*
X8298846Y303000D01*
X8323100Y354543D01*
X8353873Y515862D01*
X8343561Y679766D01*
X8300921Y811000D01*
X10688234Y811000D01*
X10688234Y811001D01*
X10682331Y859618D01*
X10682329Y859627D01*
X10614594Y1093478D01*
X10510216Y1313451D01*
X10371901Y1513833D01*
X10203242Y1689425D01*
X10008594Y1835695D01*
X9793004Y1948844D01*
X9562058Y2025945D01*
X9562050Y2025947D01*
X9321748Y2064999D01*
X9321734Y2065000D01*
X7954000Y2065000D01*
X7954000Y1159112D01*
X7941183Y1166158D01*
X7782114Y1207000D01*
X7659106Y1207000D01*
X7537067Y1191583D01*
X7446000Y1155527D01*
X7446000Y2065000D01*
X6139225Y2065000D01*
X5957317Y2050315D01*
X5720909Y1992046D01*
X5496919Y1896613D01*
X5291129Y1766480D01*
X5291128Y1766479D01*
X5108893Y1605033D01*
X5108884Y1605023D01*
X4954908Y1416437D01*
X4833165Y1205574D01*
X4833163Y1205571D01*
X4746827Y977921D01*
X4712749Y811000D01*
X7101154Y811000D01*
X7076900Y759457D01*
X7046127Y598138D01*
X7056439Y434234D01*
X7099079Y303000D01*
X4670918Y303000D01*
X4652836Y300500D01*
X517919Y300500D01*
X498205Y302052D01*
X463586Y307536D01*
X426098Y319717D01*
X403814Y331071D01*
X371921Y354243D01*
X354242Y371922D01*
X331070Y403815D01*
X319716Y426099D01*
X307534Y463590D01*
X302051Y498208D01*
X300500Y517919D01*
X300500Y2667000D01*
X1176844Y2667000D01*
X1190029Y2507879D01*
X1195437Y2442625D01*
X1250702Y2224388D01*
X1250703Y2224387D01*
X1250704Y2224384D01*
X1313816Y2080502D01*
X1341141Y2018207D01*
X1464275Y1829735D01*
X1464279Y1829730D01*
X1616762Y1664092D01*
X1671331Y1621619D01*
X1794424Y1525811D01*
X1992426Y1418658D01*
X1992427Y1418658D01*
X1992428Y1418657D01*
X2104227Y1380277D01*
X2205365Y1345556D01*
X2427431Y1308500D01*
X2427435Y1308500D01*
X2652565Y1308500D01*
X2652569Y1308500D01*
X2874635Y1345556D01*
X3087574Y1418658D01*
X3285576Y1525811D01*
X3463240Y1664094D01*
X3615722Y1829732D01*
X3738860Y2018209D01*
X3829296Y2224384D01*
X3884564Y2442632D01*
X3903156Y2667000D01*
X3884564Y2891368D01*
X3829296Y3109616D01*
X3738860Y3315791D01*
X3732140Y3326076D01*
X3615724Y3504266D01*
X3615720Y3504271D01*
X3463237Y3669909D01*
X3365545Y3745946D01*
X3285576Y3808189D01*
X3252319Y3826187D01*
X3201929Y3876198D01*
X3186576Y3945515D01*
X3211136Y4012128D01*
X3252320Y4047814D01*
X3285576Y4065811D01*
X3463240Y4204094D01*
X3579917Y4330839D01*
X3640770Y4367409D01*
X3672618Y4371500D01*
X23276340Y4371500D01*
X23344461Y4351498D01*
X23365434Y4334595D01*
X26832533Y867497D01*
X26835119Y864751D01*
X26876727Y817785D01*
X26928348Y782154D01*
X26931379Y779924D01*
X26980774Y741225D01*
X26990063Y737045D01*
X27009932Y725839D01*
X27018321Y720049D01*
X27018321Y720048D01*
X27018323Y720048D01*
X27018325Y720046D01*
X27063418Y702945D01*
X27076974Y697804D01*
X27080478Y696353D01*
X27137671Y670612D01*
X27147703Y668774D01*
X27169659Y662653D01*
X27179199Y659035D01*
X27241494Y651471D01*
X27245198Y650908D01*
X27306907Y639599D01*
X27369502Y643386D01*
X27373302Y643500D01*
X32316685Y643500D01*
X32320488Y643386D01*
X32383093Y639598D01*
X32444812Y650909D01*
X32448525Y651474D01*
X32510801Y659035D01*
X32520330Y662650D01*
X32542304Y668774D01*
X32542320Y668777D01*
X32552329Y670611D01*
X32609552Y696366D01*
X32613009Y697798D01*
X32671675Y720046D01*
X32680066Y725839D01*
X32699922Y737039D01*
X32709226Y741225D01*
X32758636Y779937D01*
X32761621Y782133D01*
X32813273Y817785D01*
X32854896Y864769D01*
X32857449Y867481D01*
X33287497Y1297529D01*
X33349807Y1331553D01*
X33397324Y1332714D01*
X33542431Y1308500D01*
X33542436Y1308500D01*
X33767571Y1308500D01*
X33857758Y1323550D01*
X33908790Y1332066D01*
X33979273Y1323550D01*
X34018624Y1296880D01*
X34450205Y865299D01*
X34452798Y862544D01*
X34467989Y845397D01*
X34494589Y815372D01*
X34546461Y779568D01*
X34549504Y777329D01*
X34599107Y738467D01*
X34608500Y734240D01*
X34628351Y723044D01*
X34636827Y717193D01*
X34636831Y717192D01*
X34636834Y717190D01*
X34695743Y694849D01*
X34699261Y693392D01*
X34756707Y667537D01*
X34756710Y667537D01*
X34756713Y667535D01*
X34766835Y665681D01*
X34788803Y659556D01*
X34798425Y655907D01*
X34798428Y655906D01*
X34860971Y648313D01*
X34864711Y647744D01*
X34926713Y636380D01*
X34989613Y640186D01*
X34993417Y640300D01*
X45905588Y640300D01*
X45909392Y640186D01*
X45972287Y636380D01*
X46020545Y645225D01*
X46034287Y647743D01*
X46038037Y648314D01*
X46100572Y655906D01*
X46110190Y659555D01*
X46132170Y665681D01*
X46142283Y667534D01*
X46142284Y667535D01*
X46142287Y667535D01*
X46199762Y693403D01*
X46203225Y694838D01*
X46262173Y717193D01*
X46270649Y723044D01*
X46290506Y734243D01*
X46299893Y738467D01*
X46349511Y777342D01*
X46352535Y779567D01*
X46404411Y815372D01*
X46446207Y862553D01*
X46448777Y865283D01*
X46880376Y1296882D01*
X46942686Y1330906D01*
X46990208Y1332066D01*
X47131429Y1308500D01*
X47131431Y1308500D01*
X47356565Y1308500D01*
X47356569Y1308500D01*
X47578635Y1345556D01*
X47791574Y1418658D01*
X47989576Y1525811D01*
X48167240Y1664094D01*
X48319722Y1829732D01*
X48442860Y2018209D01*
X48533296Y2224384D01*
X48588564Y2442632D01*
X48607156Y2667000D01*
X62136844Y2667000D01*
X62150029Y2507879D01*
X62155437Y2442625D01*
X62210702Y2224388D01*
X62210703Y2224387D01*
X62210704Y2224384D01*
X62273816Y2080502D01*
X62301141Y2018207D01*
X62424275Y1829735D01*
X62424279Y1829730D01*
X62576762Y1664092D01*
X62631331Y1621619D01*
X62754424Y1525811D01*
X62952426Y1418658D01*
X62952427Y1418658D01*
X62952428Y1418657D01*
X63064227Y1380277D01*
X63165365Y1345556D01*
X63387431Y1308500D01*
X63387435Y1308500D01*
X63612565Y1308500D01*
X63612569Y1308500D01*
X63834635Y1345556D01*
X64047574Y1418658D01*
X64245576Y1525811D01*
X64423240Y1664094D01*
X64575722Y1829732D01*
X64698860Y2018209D01*
X64789296Y2224384D01*
X64844564Y2442632D01*
X64863156Y2667000D01*
X64844564Y2891368D01*
X64789296Y3109616D01*
X64698860Y3315791D01*
X64692140Y3326076D01*
X64575724Y3504266D01*
X64575720Y3504271D01*
X64423237Y3669909D01*
X64325545Y3745946D01*
X64245576Y3808189D01*
X64212319Y3826187D01*
X64161929Y3876198D01*
X64146576Y3945515D01*
X64171136Y4012128D01*
X64212320Y4047814D01*
X64245576Y4065811D01*
X64423240Y4204094D01*
X64575722Y4369732D01*
X64698860Y4558209D01*
X64789296Y4764384D01*
X64844564Y4982632D01*
X64863156Y5207000D01*
X64844564Y5431368D01*
X64789296Y5649616D01*
X64698860Y5855791D01*
X64670302Y5899502D01*
X64575724Y6044266D01*
X64575720Y6044271D01*
X64423237Y6209909D01*
X64297341Y6307898D01*
X64245576Y6348189D01*
X64245569Y6348193D01*
X64212318Y6366188D01*
X64161928Y6416202D01*
X64146576Y6485519D01*
X64171137Y6552131D01*
X64212315Y6587812D01*
X64245576Y6605811D01*
X64423240Y6744094D01*
X64575722Y6909732D01*
X64698860Y7098209D01*
X64789296Y7304384D01*
X64844564Y7522632D01*
X64863156Y7747000D01*
X64844564Y7971368D01*
X64789296Y8189616D01*
X64698860Y8395791D01*
X64669999Y8439966D01*
X64575724Y8584266D01*
X64575714Y8584278D01*
X64432159Y8740218D01*
X64400737Y8803883D01*
X64408723Y8874429D01*
X64453582Y8929458D01*
X64480827Y8943612D01*
X64595965Y8986556D01*
X64712904Y9074096D01*
X64800444Y9191035D01*
X64800444Y9191036D01*
X64851494Y9327907D01*
X64857999Y9388403D01*
X64858000Y9388415D01*
X64858000Y10033000D01*
X63931116Y10033000D01*
X63959493Y10077156D01*
X64000000Y10215111D01*
X64000000Y10358889D01*
X63959493Y10496844D01*
X63931116Y10541000D01*
X64858000Y10541000D01*
X64858000Y11185586D01*
X64857999Y11185598D01*
X64851494Y11246094D01*
X64800444Y11382965D01*
X64800444Y11382966D01*
X64712904Y11499905D01*
X64595965Y11587445D01*
X64459093Y11638495D01*
X64398597Y11645000D01*
X63754000Y11645000D01*
X63754000Y10720675D01*
X63642315Y10771680D01*
X63535763Y10787000D01*
X63464237Y10787000D01*
X63357685Y10771680D01*
X63246000Y10720675D01*
X63246000Y11645000D01*
X62601402Y11645000D01*
X62540906Y11638495D01*
X62404035Y11587445D01*
X62404034Y11587445D01*
X62287095Y11499905D01*
X62199555Y11382966D01*
X62199555Y11382965D01*
X62148505Y11246094D01*
X62142000Y11185598D01*
X62142000Y10541000D01*
X63068884Y10541000D01*
X63040507Y10496844D01*
X63000000Y10358889D01*
X63000000Y10215111D01*
X63040507Y10077156D01*
X63068884Y10033000D01*
X62142000Y10033000D01*
X62142000Y9388403D01*
X62148505Y9327907D01*
X62199555Y9191036D01*
X62199555Y9191035D01*
X62287095Y9074096D01*
X62404034Y8986556D01*
X62519172Y8943612D01*
X62576008Y8901065D01*
X62600819Y8834545D01*
X62585728Y8765171D01*
X62567841Y8740218D01*
X62424280Y8584271D01*
X62424275Y8584266D01*
X62301141Y8395794D01*
X62210703Y8189614D01*
X62210702Y8189613D01*
X62155437Y7971376D01*
X62155436Y7971370D01*
X62155436Y7971368D01*
X62136844Y7747000D01*
X62152950Y7552627D01*
X62155437Y7522625D01*
X62210702Y7304388D01*
X62210703Y7304387D01*
X62210704Y7304384D01*
X62277176Y7152843D01*
X62301141Y7098207D01*
X62424275Y6909735D01*
X62424279Y6909730D01*
X62576762Y6744092D01*
X62629193Y6703283D01*
X62754424Y6605811D01*
X62787680Y6587814D01*
X62838070Y6537804D01*
X62853423Y6468487D01*
X62828864Y6401874D01*
X62787683Y6366189D01*
X62754430Y6348193D01*
X62754424Y6348189D01*
X62576762Y6209909D01*
X62424279Y6044271D01*
X62424275Y6044266D01*
X62301141Y5855794D01*
X62210703Y5649614D01*
X62210702Y5649613D01*
X62155437Y5431376D01*
X62155436Y5431370D01*
X62155436Y5431368D01*
X62136844Y5207000D01*
X62140158Y5167001D01*
X62155437Y4982625D01*
X62210702Y4764388D01*
X62210703Y4764387D01*
X62210704Y4764384D01*
X62252802Y4668409D01*
X62301141Y4558207D01*
X62424275Y4369735D01*
X62424279Y4369730D01*
X62576762Y4204092D01*
X62602747Y4183867D01*
X62754424Y4065811D01*
X62787680Y4047814D01*
X62838071Y3997800D01*
X62853423Y3928484D01*
X62828862Y3861871D01*
X62787680Y3826187D01*
X62754426Y3808190D01*
X62754424Y3808189D01*
X62576762Y3669909D01*
X62424279Y3504271D01*
X62424275Y3504266D01*
X62301141Y3315794D01*
X62210703Y3109614D01*
X62210702Y3109613D01*
X62155437Y2891376D01*
X62155436Y2891370D01*
X62155436Y2891368D01*
X62136844Y2667000D01*
X48607156Y2667000D01*
X48588564Y2891368D01*
X48533296Y3109616D01*
X48442860Y3315791D01*
X48441065Y3318538D01*
X48413837Y3360215D01*
X48393324Y3428184D01*
X48412814Y3496453D01*
X48466119Y3543347D01*
X48509427Y3554741D01*
X48746403Y3573391D01*
X48992591Y3632495D01*
X49226502Y3729384D01*
X49442376Y3861672D01*
X49634898Y4026102D01*
X49799328Y4218624D01*
X49931616Y4434498D01*
X50028505Y4668409D01*
X50087609Y4914597D01*
X50107474Y5167000D01*
X50087609Y5419403D01*
X50028505Y5665591D01*
X49931616Y5899502D01*
X49799328Y6115376D01*
X49634898Y6307898D01*
X49442376Y6472328D01*
X49226502Y6604616D01*
X49223625Y6605808D01*
X48992589Y6701506D01*
X48815202Y6744092D01*
X48746403Y6760609D01*
X48494000Y6780474D01*
X48493999Y6780474D01*
X48241597Y6760609D01*
X47995410Y6701506D01*
X47761499Y6604617D01*
X47545625Y6472329D01*
X47353102Y6307898D01*
X47188671Y6115375D01*
X47056383Y5899501D01*
X46959494Y5665590D01*
X46900391Y5419403D01*
X46880526Y5167000D01*
X46900391Y4914598D01*
X46959494Y4668411D01*
X47055141Y4437500D01*
X47056384Y4434498D01*
X47143546Y4292262D01*
X47191259Y4214403D01*
X47190044Y4213659D01*
X47211739Y4152828D01*
X47195650Y4083679D01*
X47144729Y4034206D01*
X47106684Y4021371D01*
X47042887Y4010725D01*
X46909367Y3988445D01*
X46909360Y3988443D01*
X46696428Y3915344D01*
X46696426Y3915342D01*
X46498432Y3808193D01*
X46498426Y3808190D01*
X46498424Y3808189D01*
X46320762Y3669909D01*
X46312201Y3660608D01*
X46251348Y3624037D01*
X46180383Y3626172D01*
X46121838Y3666334D01*
X46094300Y3731772D01*
X46093500Y3745946D01*
X46093500Y3977633D01*
X46093499Y3977650D01*
X46086990Y4038197D01*
X46086988Y4038205D01*
X46035889Y4175203D01*
X46035887Y4175208D01*
X45948261Y4292262D01*
X45831207Y4379888D01*
X45831202Y4379890D01*
X45694204Y4430989D01*
X45694196Y4430991D01*
X45633649Y4437500D01*
X45633638Y4437500D01*
X44536362Y4437500D01*
X44536350Y4437500D01*
X44475803Y4430991D01*
X44475795Y4430989D01*
X44338797Y4379890D01*
X44338792Y4379888D01*
X44221738Y4292262D01*
X44134112Y4175208D01*
X44134110Y4175203D01*
X44083011Y4038205D01*
X44083009Y4038197D01*
X44076500Y3977650D01*
X44076500Y3534467D01*
X44056498Y3466346D01*
X44002842Y3419853D01*
X43932568Y3409749D01*
X43867988Y3439243D01*
X43845017Y3465551D01*
X43819720Y3504271D01*
X43667237Y3669909D01*
X43569545Y3745946D01*
X43489576Y3808189D01*
X43291574Y3915342D01*
X43291572Y3915343D01*
X43291571Y3915344D01*
X43078639Y3988443D01*
X43078632Y3988445D01*
X42978552Y4005145D01*
X42881314Y4021371D01*
X42817417Y4052312D01*
X42780389Y4112888D01*
X42781990Y4183867D01*
X42797271Y4214079D01*
X42796741Y4214403D01*
X42799329Y4218626D01*
X42931616Y4434498D01*
X43028505Y4668409D01*
X43087609Y4914597D01*
X43107474Y5167000D01*
X43087609Y5419403D01*
X43028505Y5665591D01*
X42931616Y5899502D01*
X42799328Y6115376D01*
X42634898Y6307898D01*
X42442376Y6472328D01*
X42226502Y6604616D01*
X42223625Y6605808D01*
X41992589Y6701506D01*
X41815202Y6744092D01*
X41746403Y6760609D01*
X41494000Y6780474D01*
X41493999Y6780474D01*
X41241597Y6760609D01*
X40995410Y6701506D01*
X40761499Y6604617D01*
X40545625Y6472329D01*
X40353102Y6307898D01*
X40188671Y6115375D01*
X40056383Y5899501D01*
X39959494Y5665589D01*
X39929328Y5539937D01*
X39893975Y5478367D01*
X39830949Y5445685D01*
X39760258Y5452266D01*
X39717714Y5480256D01*
X38890072Y6307898D01*
X38046464Y7151506D01*
X38043880Y7154250D01*
X38002273Y7201215D01*
X38002270Y7201217D01*
X38002271Y7201217D01*
X37950655Y7236846D01*
X37947590Y7239101D01*
X37929146Y7253551D01*
X37898226Y7277775D01*
X37898222Y7277777D01*
X37888919Y7281965D01*
X37869069Y7293160D01*
X37860675Y7298954D01*
X37837705Y7307666D01*
X37802043Y7321191D01*
X37798528Y7322647D01*
X37741332Y7348388D01*
X37741330Y7348389D01*
X37741329Y7348389D01*
X37731286Y7350230D01*
X37709336Y7356350D01*
X37699801Y7359965D01*
X37699800Y7359966D01*
X37699798Y7359966D01*
X37699794Y7359967D01*
X37647362Y7366333D01*
X37637537Y7367527D01*
X37633786Y7368098D01*
X37592760Y7375615D01*
X37572094Y7379402D01*
X37572093Y7379402D01*
X37509488Y7375615D01*
X37505685Y7375500D01*
X34682132Y7375500D01*
X34614011Y7395502D01*
X34567518Y7449158D01*
X34557414Y7519432D01*
X34586908Y7584012D01*
X34612894Y7606772D01*
X34819597Y7742722D01*
X35088057Y7967988D01*
X35328551Y8222896D01*
X35537825Y8504000D01*
X35713050Y8807499D01*
X35851857Y9129288D01*
X35952367Y9465016D01*
X36013222Y9810143D01*
X36033599Y10160000D01*
X36013222Y10509857D01*
X35952367Y10854984D01*
X35851857Y11190712D01*
X35713050Y11512501D01*
X35537825Y11816000D01*
X35328551Y12097104D01*
X35088057Y12352012D01*
X35088050Y12352018D01*
X35088045Y12352023D01*
X34819603Y12577274D01*
X34631010Y12701313D01*
X34526800Y12769853D01*
X34213626Y12927135D01*
X34213621Y12927137D01*
X34213616Y12927139D01*
X33884318Y13046994D01*
X33884313Y13046995D01*
X33884312Y13046996D01*
X33884310Y13046996D01*
X33696961Y13091399D01*
X33543307Y13127816D01*
X33543301Y13127817D01*
X33195228Y13168500D01*
X33195225Y13168500D01*
X32844775Y13168500D01*
X32844772Y13168500D01*
X32496698Y13127817D01*
X32496692Y13127816D01*
X32155686Y13046995D01*
X32155681Y13046994D01*
X31826383Y12927139D01*
X31826378Y12927137D01*
X31513198Y12769852D01*
X31220396Y12577274D01*
X30951954Y12352023D01*
X30951948Y12352017D01*
X30711450Y12097106D01*
X30502178Y11816005D01*
X30502168Y11815989D01*
X30326953Y11512507D01*
X30326944Y11512489D01*
X30210661Y11242915D01*
X30188143Y11190712D01*
X30148111Y11056996D01*
X30087633Y10854985D01*
X30026777Y10509853D01*
X30026777Y10509847D01*
X30006401Y10160000D01*
X30026777Y9810154D01*
X30026777Y9810148D01*
X30026778Y9810143D01*
X30087633Y9465016D01*
X30188143Y9129288D01*
X30188145Y9129282D01*
X30188146Y9129281D01*
X30315454Y8834148D01*
X30326950Y8807499D01*
X30502175Y8504000D01*
X30711449Y8222896D01*
X30951943Y7967988D01*
X30951948Y7967984D01*
X30951954Y7967978D01*
X31220396Y7742727D01*
X31220400Y7742724D01*
X31220403Y7742722D01*
X31427106Y7606772D01*
X31473029Y7552627D01*
X31482389Y7482250D01*
X31452214Y7417985D01*
X31392086Y7380235D01*
X31357868Y7375500D01*
X8156660Y7375500D01*
X8088539Y7395502D01*
X8067565Y7412405D01*
X6393565Y9086405D01*
X4708464Y10771506D01*
X4705880Y10774250D01*
X4664273Y10821215D01*
X4664270Y10821217D01*
X4664271Y10821217D01*
X4612655Y10856846D01*
X4609590Y10859101D01*
X4591146Y10873551D01*
X4560226Y10897775D01*
X4560222Y10897777D01*
X4550919Y10901965D01*
X4531069Y10913160D01*
X4522675Y10918954D01*
X4499705Y10927666D01*
X4464043Y10941191D01*
X4460528Y10942647D01*
X4403332Y10968388D01*
X4403330Y10968389D01*
X4403329Y10968389D01*
X4393286Y10970230D01*
X4371336Y10976350D01*
X4361801Y10979965D01*
X4361800Y10979966D01*
X4361798Y10979966D01*
X4361794Y10979967D01*
X4309362Y10986333D01*
X4299537Y10987527D01*
X4295786Y10988098D01*
X4254760Y10995615D01*
X4234094Y10999402D01*
X4234093Y10999402D01*
X4171488Y10995615D01*
X4167685Y10995500D01*
X4024500Y10995500D01*
X3956379Y11015502D01*
X3920424Y11056996D01*
X6686807Y11056996D01*
X6705556Y10782884D01*
X6705557Y10782878D01*
X6705558Y10782870D01*
X6720295Y10711952D01*
X6761460Y10513854D01*
X6761462Y10513846D01*
X6811652Y10372627D01*
X6853477Y10254942D01*
X6979752Y10011241D01*
X6979892Y10010972D01*
X7018553Y9956202D01*
X7138343Y9786498D01*
X7325889Y9585686D01*
X7539031Y9412282D01*
X7773800Y9269516D01*
X8025823Y9160047D01*
X8290404Y9085915D01*
X8376393Y9074096D01*
X8562604Y9048501D01*
X8562615Y9048500D01*
X8837385Y9048500D01*
X8837395Y9048501D01*
X8966945Y9066308D01*
X9109596Y9085915D01*
X9374177Y9160047D01*
X9626200Y9269516D01*
X9860969Y9412282D01*
X10074111Y9585686D01*
X10261657Y9786498D01*
X10420111Y10010977D01*
X10546523Y10254942D01*
X10581276Y10352730D01*
X10622934Y10410216D01*
X10689061Y10436056D01*
X10758661Y10422044D01*
X10809637Y10372627D01*
X10818721Y10352736D01*
X10853477Y10254942D01*
X10979752Y10011241D01*
X10979892Y10010972D01*
X11018553Y9956202D01*
X11138343Y9786498D01*
X11325889Y9585686D01*
X11539031Y9412282D01*
X11773800Y9269516D01*
X12025823Y9160047D01*
X12290404Y9085915D01*
X12376393Y9074096D01*
X12562604Y9048501D01*
X12562615Y9048500D01*
X12837385Y9048500D01*
X12837395Y9048501D01*
X12966945Y9066308D01*
X13109596Y9085915D01*
X13374177Y9160047D01*
X13626200Y9269516D01*
X13860969Y9412282D01*
X14074111Y9585686D01*
X14261657Y9786498D01*
X14420111Y10010977D01*
X14546523Y10254942D01*
X14581541Y10353475D01*
X14623198Y10410960D01*
X14689325Y10436801D01*
X14758925Y10422789D01*
X14809900Y10373373D01*
X14818989Y10353473D01*
X14853939Y10255133D01*
X14980314Y10011244D01*
X14980316Y10011241D01*
X15110541Y9826752D01*
X16173097Y10889308D01*
X16176884Y10871085D01*
X16246442Y10736844D01*
X16349638Y10626348D01*
X16478819Y10547791D01*
X16534420Y10532213D01*
X15470715Y9468508D01*
X15470715Y9468506D01*
X15539313Y9412696D01*
X15539318Y9412693D01*
X15774030Y9269962D01*
X16025989Y9160520D01*
X16290509Y9086405D01*
X16562635Y9049001D01*
X16562649Y9049000D01*
X16837351Y9049000D01*
X16837364Y9049001D01*
X17109490Y9086405D01*
X17374010Y9160520D01*
X17625969Y9269962D01*
X17860679Y9412691D01*
X17929283Y9468507D01*
X17929283Y9468508D01*
X16867625Y10530166D01*
X16988458Y10582651D01*
X17105739Y10678066D01*
X17192928Y10801585D01*
X17224838Y10891372D01*
X18289457Y9826753D01*
X18419682Y10011238D01*
X18419685Y10011244D01*
X18546061Y10255135D01*
X18638055Y10513981D01*
X18638057Y10513989D01*
X18693946Y10782946D01*
X18693947Y10782952D01*
X18712692Y11056996D01*
X18712692Y11057005D01*
X18693947Y11331049D01*
X18693946Y11331055D01*
X18638057Y11600012D01*
X18638055Y11600020D01*
X18546061Y11858866D01*
X18419685Y12102757D01*
X18419681Y12102763D01*
X18289457Y12287250D01*
X17226902Y11224695D01*
X17223116Y11242915D01*
X17153558Y11377156D01*
X17050362Y11487652D01*
X16921181Y11566209D01*
X16865577Y11581789D01*
X17929283Y12645495D01*
X17929283Y12645496D01*
X17860680Y12701309D01*
X17625969Y12844039D01*
X17374010Y12953481D01*
X17109490Y13027596D01*
X16837364Y13065000D01*
X16562635Y13065000D01*
X16290509Y13027596D01*
X16025989Y12953481D01*
X15774030Y12844039D01*
X15539325Y12701313D01*
X15470715Y12645495D01*
X15470714Y12645495D01*
X16532375Y11583835D01*
X16411542Y11531349D01*
X16294261Y11435934D01*
X16207072Y11312415D01*
X16175162Y11222629D01*
X15110541Y12287250D01*
X14980317Y12102764D01*
X14853939Y11858868D01*
X14818989Y11760528D01*
X14777329Y11703039D01*
X14711201Y11677200D01*
X14641601Y11691213D01*
X14590626Y11740630D01*
X14581543Y11760521D01*
X14546523Y11859058D01*
X14420111Y12103023D01*
X14261657Y12327502D01*
X14074111Y12528314D01*
X13860969Y12701718D01*
X13626200Y12844484D01*
X13626201Y12844484D01*
X13626197Y12844486D01*
X13374180Y12953952D01*
X13374178Y12953953D01*
X13374177Y12953953D01*
X13241886Y12991020D01*
X13109593Y13028086D01*
X12837395Y13065500D01*
X12837385Y13065500D01*
X12562615Y13065500D01*
X12562604Y13065500D01*
X12290406Y13028086D01*
X12025819Y12953952D01*
X11773802Y12844486D01*
X11539028Y12701716D01*
X11325886Y12528312D01*
X11138343Y12327502D01*
X10979892Y12103029D01*
X10853477Y11859059D01*
X10818725Y11761274D01*
X10777065Y11703785D01*
X10710938Y11677945D01*
X10641338Y11691958D01*
X10590363Y11741375D01*
X10581275Y11761274D01*
X10546523Y11859058D01*
X10420111Y12103023D01*
X10261657Y12327502D01*
X10074111Y12528314D01*
X9860969Y12701718D01*
X9626200Y12844484D01*
X9626201Y12844484D01*
X9626197Y12844486D01*
X9374180Y12953952D01*
X9374178Y12953953D01*
X9374177Y12953953D01*
X9241886Y12991020D01*
X9109593Y13028086D01*
X8837395Y13065500D01*
X8837385Y13065500D01*
X8562615Y13065500D01*
X8562604Y13065500D01*
X8290406Y13028086D01*
X8025819Y12953952D01*
X7773802Y12844486D01*
X7539028Y12701716D01*
X7325886Y12528312D01*
X7138343Y12327502D01*
X6979892Y12103029D01*
X6853477Y11859059D01*
X6761462Y11600155D01*
X6761460Y11600147D01*
X6743245Y11512489D01*
X6715123Y11377156D01*
X6705557Y11331123D01*
X6705556Y11331117D01*
X6686807Y11057005D01*
X6686807Y11056996D01*
X3920424Y11056996D01*
X3909886Y11069158D01*
X3898500Y11121500D01*
X3898500Y11185633D01*
X3898499Y11185650D01*
X3891990Y11246197D01*
X3891988Y11246205D01*
X3860312Y11331130D01*
X3840889Y11383204D01*
X3840888Y11383206D01*
X3840887Y11383208D01*
X3753261Y11500262D01*
X3636207Y11587888D01*
X3636202Y11587890D01*
X3499204Y11638989D01*
X3499196Y11638991D01*
X3438649Y11645500D01*
X3438638Y11645500D01*
X1641362Y11645500D01*
X1641350Y11645500D01*
X1580803Y11638991D01*
X1580795Y11638989D01*
X1443797Y11587890D01*
X1443792Y11587888D01*
X1326738Y11500262D01*
X1239112Y11383208D01*
X1239110Y11383203D01*
X1188011Y11246205D01*
X1188009Y11246197D01*
X1181500Y11185650D01*
X1181500Y9388351D01*
X1188009Y9327804D01*
X1188011Y9327796D01*
X1239110Y9190798D01*
X1239112Y9190793D01*
X1326738Y9073739D01*
X1443791Y8986114D01*
X1443792Y8986114D01*
X1443796Y8986111D01*
X1558810Y8943213D01*
X1615642Y8900668D01*
X1640453Y8834148D01*
X1625362Y8764774D01*
X1607475Y8739821D01*
X1464280Y8584271D01*
X1464275Y8584266D01*
X1341141Y8395794D01*
X1250703Y8189614D01*
X1250702Y8189613D01*
X1195437Y7971376D01*
X1195436Y7971370D01*
X1195436Y7971368D01*
X1176844Y7747000D01*
X1192950Y7552627D01*
X1195437Y7522625D01*
X1250702Y7304388D01*
X1250703Y7304387D01*
X1250704Y7304384D01*
X1317176Y7152843D01*
X1341141Y7098207D01*
X1464275Y6909735D01*
X1464279Y6909730D01*
X1616762Y6744092D01*
X1669193Y6703283D01*
X1794424Y6605811D01*
X1827674Y6587817D01*
X1827680Y6587814D01*
X1878071Y6537800D01*
X1893423Y6468484D01*
X1868862Y6401871D01*
X1827680Y6366187D01*
X1794426Y6348190D01*
X1794424Y6348189D01*
X1616762Y6209909D01*
X1464279Y6044271D01*
X1464275Y6044266D01*
X1341141Y5855794D01*
X1250703Y5649614D01*
X1250702Y5649613D01*
X1195437Y5431376D01*
X1195436Y5431370D01*
X1195436Y5431368D01*
X1176844Y5207000D01*
X1180158Y5167001D01*
X1195437Y4982625D01*
X1250702Y4764388D01*
X1250703Y4764387D01*
X1250704Y4764384D01*
X1292802Y4668409D01*
X1341141Y4558207D01*
X1464275Y4369735D01*
X1464279Y4369730D01*
X1616762Y4204092D01*
X1642747Y4183867D01*
X1794424Y4065811D01*
X1827680Y4047814D01*
X1878071Y3997800D01*
X1893423Y3928484D01*
X1868862Y3861871D01*
X1827680Y3826187D01*
X1794426Y3808190D01*
X1794424Y3808189D01*
X1616762Y3669909D01*
X1464279Y3504271D01*
X1464275Y3504266D01*
X1341141Y3315794D01*
X1250703Y3109614D01*
X1250702Y3109613D01*
X1195437Y2891376D01*
X1195436Y2891370D01*
X1195436Y2891368D01*
X1176844Y2667000D01*
X300500Y2667000D01*
X300500Y15230083D01*
X302051Y15249794D01*
X307534Y15284411D01*
X319716Y15321902D01*
X331070Y15344186D01*
X354239Y15376076D01*
X371924Y15393761D01*
X403814Y15416930D01*
X426098Y15428284D01*
X463590Y15440466D01*
X498209Y15445949D01*
X517919Y15447500D01*
X555595Y15447500D01*
X65484405Y15447500D01*
X65522081Y15447500D01*
X65541792Y15445949D01*
G37*
G04 #@! TD.AperFunction*
M02*
