EESchema Schematic File Version 4
EELAYER 30 0
EELAYER END
$Descr A4 11693 8268
encoding utf-8
Sheet 1 1
Title ""
Date ""
Rev ""
Comp ""
Comment1 ""
Comment2 ""
Comment3 ""
Comment4 ""
$EndDescr
$Comp
L PassiveRecorder-rescue:LM358-linear U2
U 1 1 5AFD39AC
P 2900 1675
F 0 "U2" H 2900 1875 50  0000 L CNN
F 1 "MCP6022" H 2900 1475 50  0000 L CNN
F 2 "Alimentations:SOIC-8_3.9x4.9mm_Pitch1.27mm" H 2900 1675 50  0001 C CNN
F 3 "" H 2900 1675 50  0001 C CNN
	1    2900 1675
	1    0    0    -1  
$EndComp
$Comp
L Molex2510:ConnM_01x03 J3
U 1 1 5AFD3CDD
P 800 1775
F 0 "J3" H 800 1975 50  0000 C CNN
F 1 "Micro" H 800 1575 50  0000 C CNN
F 2 "Alimentations:Molex_KK-6410-03_03x2.54mm_Straight" H 800 1775 50  0001 C CNN
F 3 "" H 800 1775 50  0001 C CNN
	1    800  1775
	-1   0    0    -1  
$EndComp
$Comp
L Device:C C2
U 1 1 5AFD3D66
P 1300 1775
F 0 "C2" V 1150 1725 50  0000 L CNN
F 1 "100nF" V 1450 1675 50  0000 L CNN
F 2 "Capacitor_SMD:C_0201_0603Metric_Pad0.64x0.40mm_HandSolder" H 1338 1625 50  0001 C CNN
F 3 "" H 1300 1775 50  0001 C CNN
	1    1300 1775
	0    1    1    0   
$EndComp
$Comp
L Device:R R3
U 1 1 5AFD3DBD
P 2300 1775
F 0 "R3" V 2380 1775 50  0000 C CNN
F 1 "4k7" V 2300 1775 50  0000 C CNN
F 2 "Resistor_SMD:R_0603_1608Metric_Pad0.98x0.95mm_HandSolder" V 2230 1775 50  0001 C CNN
F 3 "" H 2300 1775 50  0001 C CNN
	1    2300 1775
	0    1    1    0   
$EndComp
$Comp
L Device:R R2
U 1 1 5AFD3E81
P 2100 1525
F 0 "R2" V 2180 1525 50  0000 C CNN
F 1 "10k" V 2100 1525 50  0000 C CNN
F 2 "Resistor_SMD:R_0603_1608Metric_Pad0.98x0.95mm_HandSolder" V 2030 1525 50  0001 C CNN
F 3 "" H 2100 1525 50  0001 C CNN
	1    2100 1525
	-1   0    0    1   
$EndComp
$Comp
L Device:R R1
U 1 1 5AFD40CA
P 2100 1075
F 0 "R1" V 2180 1075 50  0000 C CNN
F 1 "10k" V 2100 1075 50  0000 C CNN
F 2 "Resistor_SMD:R_0603_1608Metric_Pad0.98x0.95mm_HandSolder" V 2030 1075 50  0001 C CNN
F 3 "" H 2100 1075 50  0001 C CNN
	1    2100 1075
	-1   0    0    1   
$EndComp
$Comp
L Device:C C4
U 1 1 5AFD43A7
P 1850 1975
F 0 "C4" H 1750 1875 50  0000 L CNN
F 1 "100nF" H 1600 2075 50  0000 L CNN
F 2 "Capacitor_SMD:C_0201_0603Metric_Pad0.64x0.40mm_HandSolder" H 1888 1825 50  0001 C CNN
F 3 "" H 1850 1975 50  0001 C CNN
	1    1850 1975
	-1   0    0    1   
$EndComp
$Comp
L Device:CP C3
U 1 1 5AFD4504
P 1600 1975
F 0 "C3" H 1625 2075 50  0000 L CNN
F 1 "220UF" H 1350 1875 50  0000 L CNN
F 2 "Alimentations:CP_Elec_8x6.7" H 1638 1825 50  0001 C CNN
F 3 "" H 1600 1975 50  0001 C CNN
	1    1600 1975
	1    0    0    -1  
$EndComp
$Comp
L Device:R R4
U 1 1 5AFD4A57
P 3050 1325
F 0 "R4" V 3130 1325 50  0000 C CNN
F 1 "100k" V 3050 1325 50  0000 C CNN
F 2 "Resistor_SMD:R_0603_1608Metric_Pad0.98x0.95mm_HandSolder" V 2980 1325 50  0001 C CNN
F 3 "" H 3050 1325 50  0001 C CNN
	1    3050 1325
	0    1    1    0   
$EndComp
$Comp
L Device:C C6
U 1 1 5AFD566E
P 3550 1675
F 0 "C6" V 3700 1625 50  0000 L CNN
F 1 "100nF" V 3400 1575 50  0000 L CNN
F 2 "Capacitor_SMD:C_0201_0603Metric_Pad0.64x0.40mm_HandSolder" H 3588 1525 50  0001 C CNN
F 3 "" H 3550 1675 50  0001 C CNN
	1    3550 1675
	0    1    1    0   
$EndComp
$Comp
L SwitchPCB:SW_SP3T_PCB SW1
U 1 1 5AFD5765
P 4000 1275
F 0 "SW1" H 3800 1375 50  0000 C CNN
F 1 "Analog gain" H 4000 1475 50  0000 C CNN
F 2 "Buttons_PCB:SW_3P_PCB_Angled" H 3375 1450 50  0001 C CNN
F 3 "" H 3375 1450 50  0001 C CNN
	1    4000 1275
	1    0    0    -1  
$EndComp
$Comp
L PassiveRecorder-rescue:LM358-linear U2
U 2 1 5AFD5C09
P 5600 1675
F 0 "U2" H 5600 1875 50  0000 L CNN
F 1 "MCP6022" H 5600 1475 50  0000 L CNN
F 2 "Alimentations:SOIC-8_3.9x4.9mm_Pitch1.27mm" H 5600 1675 50  0001 C CNN
F 3 "" H 5600 1675 50  0001 C CNN
	2    5600 1675
	1    0    0    -1  
$EndComp
$Comp
L Device:R R5
U 1 1 5AFD5CD9
P 4600 1175
F 0 "R5" V 4680 1175 50  0000 C CNN
F 1 "4k7" V 4600 1175 50  0000 C CNN
F 2 "Resistor_SMD:R_0603_1608Metric_Pad0.98x0.95mm_HandSolder" V 4530 1175 50  0001 C CNN
F 3 "" H 4600 1175 50  0001 C CNN
	1    4600 1175
	0    1    1    0   
$EndComp
$Comp
L Device:R R6
U 1 1 5AFD5D4D
P 4600 1475
F 0 "R6" V 4680 1475 50  0000 C CNN
F 1 "15k" V 4600 1475 50  0000 C CNN
F 2 "Resistor_SMD:R_0603_1608Metric_Pad0.98x0.95mm_HandSolder" V 4530 1475 50  0001 C CNN
F 3 "" H 4600 1475 50  0001 C CNN
	1    4600 1475
	0    1    1    0   
$EndComp
$Comp
L Device:R R7
U 1 1 5AFD5DB0
P 4600 1775
F 0 "R7" V 4680 1775 50  0000 C CNN
F 1 "47k" V 4600 1775 50  0000 C CNN
F 2 "Resistor_SMD:R_0603_1608Metric_Pad0.98x0.95mm_HandSolder" V 4530 1775 50  0001 C CNN
F 3 "" H 4600 1775 50  0001 C CNN
	1    4600 1775
	0    1    1    0   
$EndComp
$Comp
L Device:R R8
U 1 1 5AFD6E2B
P 5800 1275
F 0 "R8" V 5880 1275 50  0000 C CNN
F 1 "100k" V 5800 1275 50  0000 C CNN
F 2 "Resistor_SMD:R_0603_1608Metric_Pad0.98x0.95mm_HandSolder" V 5730 1275 50  0001 C CNN
F 3 "" H 5800 1275 50  0001 C CNN
	1    5800 1275
	0    1    1    0   
$EndComp
$Comp
L Device:C C9
U 1 1 5AFD80E8
P 6475 1375
F 0 "C9" H 6375 1275 50  0000 L CNN
F 1 "100nF" H 6225 1475 50  0000 L CNN
F 2 "Capacitor_SMD:C_0201_0603Metric_Pad0.64x0.40mm_HandSolder" H 6513 1225 50  0001 C CNN
F 3 "" H 6475 1375 50  0001 C CNN
	1    6475 1375
	-1   0    0    1   
$EndComp
$Comp
L Device:CP C8
U 1 1 5AFD8168
P 6200 1375
F 0 "C8" H 6225 1475 50  0000 L CNN
F 1 "470UF" H 6225 1275 50  0000 L CNN
F 2 "Alimentations:CP_Elec_10x7.7" H 6238 1225 50  0001 C CNN
F 3 "" H 6200 1375 50  0001 C CNN
	1    6200 1375
	1    0    0    -1  
$EndComp
Text GLabel 7575 825  2    60   Input ~ 0
+3V3
Text GLabel 7600 2275 2    60   Input ~ 0
GND
Text Notes 4000 2225 0    60   ~ 0
R7 33dB (+ 0dB) 5mV->0.2V\nR6 43dB (+15dB) 5mV->0.7V\nR5 53dB (+24dB) 5mV->2.3V
Text Notes 6875 2050 0    60   ~ 0
MEMS Microphone\npre-amp
$Comp
L SwitchPCB:FiveSwitchs SW2
U 1 1 5AFDE559
P 900 5050
F 0 "SW2" H 1400 5600 60  0000 C CNN
F 1 "FiveSwitchs" H 1450 5050 60  0000 C CNN
F 2 "Alimentations:JoystickCMS" H 1400 5150 60  0001 C CNN
F 3 "" H 1400 5150 60  0001 C CNN
	1    900  5050
	1    0    0    -1  
$EndComp
Text GLabel 6250 4400 2    60   Input ~ 0
+3V3
Text GLabel 6250 3750 2    60   Input ~ 0
GND
Text GLabel 7000 4500 0    60   Input ~ 0
GND
Text GLabel 7000 3950 0    60   Input ~ 0
+5V
$Comp
L PassiveRecorder-rescue:SW_DIP_x01-switches SW3
U 1 1 5AFE4EF2
P 8500 3950
F 0 "SW3" H 8500 4100 50  0000 C CNN
F 1 "Arret/Marche" H 8500 3800 50  0000 C CNN
F 2 "Alimentations:InterAM" H 8500 3950 50  0001 C CNN
F 3 "" H 8500 3950 50  0001 C CNN
	1    8500 3950
	1    0    0    -1  
$EndComp
Text GLabel 3150 7275 0    60   Input ~ 0
VP
$Comp
L PassiveRecorder-rescue:LM1084-3.3-regul U3
U 1 1 5AFE9975
P 3550 7275
F 0 "U3" H 3450 7025 50  0000 C CNN
F 1 "HT7130 LDO 3V" H 3250 7425 50  0000 L CNN
F 2 "Package_TO_SOT_SMD:SOT-23" H 3550 7500 50  0001 C CIN
F 3 "" H 3550 7225 50  0001 C CNN
	1    3550 7275
	1    0    0    -1  
$EndComp
$Comp
L PassiveRecorder-rescue:Conn_01x04-conn J5
U 1 1 5AFEA613
P 775 6425
F 0 "J5" H 775 6625 50  0000 C CNN
F 1 "Ecran_OLED" H 775 6125 50  0000 C CNN
F 2 "Alimentations:Oled0.96" H 775 6425 50  0001 C CNN
F 3 "" H 775 6425 50  0001 C CNN
	1    775  6425
	-1   0    0    1   
$EndComp
$Comp
L Device:Jumper_NC_Small JP1
U 1 1 5AFEACB0
P 1650 6725
F 0 "JP1" H 1650 6805 50  0000 C CNN
F 1 "GND_T" H 1660 6665 50  0000 C CNN
F 2 "Alimentations:Jumper2.54" H 1650 6725 50  0001 C CNN
F 3 "" H 1650 6725 50  0001 C CNN
	1    1650 6725
	-1   0    0    -1  
$EndComp
$Comp
L Device:Jumper_NC_Small JP2
U 1 1 5AFEB242
P 1650 6500
F 0 "JP2" H 1650 6580 50  0000 C CNN
F 1 "VDD_T" H 1660 6440 50  0000 C CNN
F 2 "Alimentations:Jumper2.54" H 1650 6500 50  0001 C CNN
F 3 "" H 1650 6500 50  0001 C CNN
	1    1650 6500
	-1   0    0    -1  
$EndComp
$Comp
L Device:Jumper_NC_Small JP3
U 1 1 5AFEB2BC
P 1650 6275
F 0 "JP3" H 1650 6355 50  0000 C CNN
F 1 "SCL_T" H 1660 6215 50  0000 C CNN
F 2 "Alimentations:Jumper2.54" H 1650 6275 50  0001 C CNN
F 3 "" H 1650 6275 50  0001 C CNN
	1    1650 6275
	-1   0    0    -1  
$EndComp
$Comp
L Device:Jumper_NC_Small JP4
U 1 1 5AFEB32F
P 1650 6050
F 0 "JP4" H 1650 6130 50  0000 C CNN
F 1 "SDA_T" H 1660 5990 50  0000 C CNN
F 2 "Alimentations:Jumper2.54" H 1650 6050 50  0001 C CNN
F 3 "" H 1650 6050 50  0001 C CNN
	1    1650 6050
	-1   0    0    -1  
$EndComp
Text Label 1250 6525 2    60   ~ 0
GND_E
Text Label 1250 6425 2    60   ~ 0
VDD_E
Text Label 1250 6325 2    60   ~ 0
SCL_E
Text Label 1250 6225 2    60   ~ 0
SDA_E
$Comp
L Molex2510:ConnM_01x02 J6
U 1 1 5AFFD1C0
P 11025 6400
F 0 "J6" H 11025 6500 50  0000 C CNN
F 1 "Alim12V" H 11025 6200 50  0000 C CNN
F 2 "Alimentations:Molex_KK-6410-02_02x2.54mm_Straight" H 11025 6400 50  0001 C CNN
F 3 "" H 11025 6400 50  0001 C CNN
	1    11025 6400
	1    0    0    1   
$EndComp
$Comp
L Device:D_Schottky D2
U 1 1 5B00316B
P 9700 3800
F 0 "D2" H 9700 3900 50  0000 C CNN
F 1 "SSB44" H 9700 3700 50  0000 C CNN
F 2 "Diodes_SMD:D_SMB" H 9700 3800 50  0001 C CNN
F 3 "" H 9700 3800 50  0001 C CNN
	1    9700 3800
	0    1    1    0   
$EndComp
NoConn ~ 3200 5700
NoConn ~ 3200 5800
NoConn ~ 3200 5900
NoConn ~ 3200 6000
NoConn ~ 3200 6100
NoConn ~ 3200 6200
NoConn ~ 3200 6300
NoConn ~ 3200 6400
NoConn ~ 3200 6500
NoConn ~ 5400 6400
NoConn ~ 5400 6000
NoConn ~ 5400 5900
NoConn ~ 5400 5800
NoConn ~ 5400 5700
NoConn ~ 5400 5500
$Comp
L Device:CP C10
U 1 1 5B03AB47
P 7800 4200
F 0 "C10" H 7825 4300 50  0000 L CNN
F 1 "220UF" H 7825 4100 50  0000 L CNN
F 2 "Alimentations:CP_Elec_8x6.7" H 7838 4050 50  0001 C CNN
F 3 "" H 7800 4200 50  0001 C CNN
	1    7800 4200
	1    0    0    -1  
$EndComp
$Comp
L Alimentations:2xBatteriesLiPo U8
U 1 1 5B147931
P 9900 750
F 0 "U8" H 9850 475 50  0000 L CNN
F 1 "2xBatteriesLiPo" V 10100 450 50  0000 L CNN
F 2 "Alimentations:2xBatteriesLiPo" H 9800 600 50  0001 L CIN
F 3 "" H 10000 800 50  0001 L CNN
	1    9900 750 
	1    0    0    -1  
$EndComp
$Comp
L Device:R R13
U 1 1 5B177CAF
P 7725 4925
F 0 "R13" V 7805 4925 50  0000 C CNN
F 1 "100k" V 7725 4925 50  0000 C CNN
F 2 "Resistor_SMD:R_0603_1608Metric_Pad0.98x0.95mm_HandSolder" V 7655 4925 50  0001 C CNN
F 3 "" H 7725 4925 50  0001 C CNN
	1    7725 4925
	-1   0    0    1   
$EndComp
$Comp
L Device:R R14
U 1 1 5B177D59
P 7725 5850
F 0 "R14" V 7805 5850 50  0000 C CNN
F 1 "5.6k" V 7725 5850 50  0000 C CNN
F 2 "Resistor_SMD:R_0603_1608Metric_Pad0.98x0.95mm_HandSolder" V 7655 5850 50  0001 C CNN
F 3 "" H 7725 5850 50  0001 C CNN
	1    7725 5850
	-1   0    0    1   
$EndComp
$Comp
L Device:C C11
U 1 1 5B17CE04
P 7450 4200
F 0 "C11" H 7350 4100 50  0000 L CNN
F 1 "100nF" H 7200 4300 50  0000 L CNN
F 2 "Capacitor_SMD:C_0201_0603Metric_Pad0.64x0.40mm_HandSolder" H 7488 4050 50  0001 C CNN
F 3 "" H 7450 4200 50  0001 C CNN
	1    7450 4200
	-1   0    0    1   
$EndComp
$Comp
L Device:L_Core_Ferrite_Small L1
U 1 1 5B19267D
P 8000 3950
F 0 "L1" V 7950 3900 50  0000 L CNN
F 1 "100uH" V 8100 3800 50  0000 L CNN
F 2 "Alimentations:L100mH" H 8000 3950 50  0001 C CNN
F 3 "" H 8000 3950 50  0001 C CNN
	1    8000 3950
	0    -1   -1   0   
$EndComp
$Comp
L Device:L_Core_Ferrite_Small L2
U 1 1 5B1935FF
P 6650 825
F 0 "L2" V 6600 775 50  0000 L CNN
F 1 "100uH" V 6750 675 50  0000 L CNN
F 2 "Alimentations:L100mH" H 6650 825 50  0001 C CNN
F 3 "" H 6650 825 50  0001 C CNN
	1    6650 825 
	0    -1   -1   0   
$EndComp
Text Notes 6975 7075 0    157  ~ 31
Passive Recorder V0.9 SMD-MEMS\nTeensy 4.1
Text GLabel 6250 4200 2    60   Input ~ 0
GND
$Comp
L Device:C C12
U 1 1 5B2EEDDB
P 7100 4200
F 0 "C12" H 6950 4100 50  0000 L CNN
F 1 "100nF" H 6850 4300 50  0000 L CNN
F 2 "Capacitor_SMD:C_0201_0603Metric_Pad0.64x0.40mm_HandSolder" H 7138 4050 50  0001 C CNN
F 3 "" H 7100 4200 50  0001 C CNN
	1    7100 4200
	-1   0    0    1   
$EndComp
Text GLabel 6250 3950 2    60   Input ~ 0
+5V
$Comp
L Device:D_Schottky D5
U 1 1 5B33450D
P 9950 6400
F 0 "D5" H 10050 6350 50  0000 C CNN
F 1 "SSB44" H 9750 6350 50  0000 C CNN
F 2 "Diodes_SMD:D_SMB" H 9950 6400 50  0001 C CNN
F 3 "" H 9950 6400 50  0001 C CNN
	1    9950 6400
	1    0    0    -1  
$EndComp
$Comp
L PassiveRecorder-rescue:Conn_01x15-conn J4
U 1 1 5B87281E
P 800 3350
F 0 "J4" H 800 4150 50  0000 C CNN
F 1 "Extension" H 800 2550 50  0000 C CNN
F 2 "Alimentations:PCB_EXT" H 800 3350 50  0001 C CNN
F 3 "" H 800 3350 50  0001 C CNN
	1    800  3350
	-1   0    0    1   
$EndComp
Text Label 1050 2650 0    60   ~ 0
+5V
Text Label 1050 2750 0    60   ~ 0
+3V3
Text Label 1050 2850 0    60   ~ 0
SCL0
Text Label 1050 2950 0    60   ~ 0
SDA0
Text Label 1050 3050 0    60   ~ 0
D22_A8
Text Label 1050 3150 0    60   ~ 0
D14_A0
Text Label 1050 3250 0    60   ~ 0
D00_RX1
Text Label 1050 3350 0    60   ~ 0
D01_TX1
Text Label 1050 3450 0    60   ~ 0
D04
Text Label 1050 3550 0    60   ~ 0
D05
Text Label 1050 3650 0    60   ~ 0
D09
Text Label 1050 4050 0    60   ~ 0
GND
Text Label 1050 3750 0    60   ~ 0
D10
Text Label 1050 3850 0    60   ~ 0
D11_MOSI
Text Label 1050 3950 0    60   ~ 0
D12_MISO
$Comp
L PassiveRecorder-rescue:USB_OTG-conn J7
U 1 1 5B8E2F49
P 10850 3050
F 0 "J7" H 11000 2700 50  0000 L CNN
F 1 "USB_OTG" H 10650 3400 50  0000 L CNN
F 2 "Alimentations:Micro-USB-V" H 11000 3000 50  0001 C CNN
F 3 "" H 11000 3000 50  0001 C CNN
	1    10850 3050
	-1   0    0    -1  
$EndComp
Text Label 6150 5300 0    60   ~ 0
Mesure_12V_Externe
$Comp
L PassiveRecorder-rescue:GS2-conn J10
U 1 1 5B8C2401
P 6050 6100
F 0 "J10" V 5950 6250 50  0000 C CNN
F 1 "B0" V 5950 6100 50  0000 C CNN
F 2 "Connectors:GS2" V 6124 6100 50  0001 C CNN
F 3 "" H 6050 6100 50  0001 C CNN
	1    6050 6100
	0    1    1    0   
$EndComp
$Comp
L PassiveRecorder-rescue:GS2-conn J11
U 1 1 5B8C26A0
P 6050 6300
F 0 "J11" V 5950 6450 50  0000 C CNN
F 1 "B1" V 5950 6300 50  0000 C CNN
F 2 "Connectors:GS2" V 6124 6300 50  0001 C CNN
F 3 "" H 6050 6300 50  0001 C CNN
	1    6050 6300
	0    1    1    0   
$EndComp
$Comp
L PassiveRecorder-rescue:GS2-conn J12
U 1 1 5B8C2759
P 6050 6500
F 0 "J12" V 5950 6650 50  0000 C CNN
F 1 "B2" V 5950 6500 50  0000 C CNN
F 2 "Connectors:GS2" V 6124 6500 50  0001 C CNN
F 3 "" H 6050 6500 50  0001 C CNN
	1    6050 6500
	0    1    1    0   
$EndComp
Text Notes 6425 6250 0    60   ~ 0
Teensy Recorders :\nD2 D1 D0\n 1  1  1 PR\n 1  1  0 AR\n 1  0  1 PR+Wifi\n 1  0  0 PR+Lora\n(open = 1)
Text GLabel 6250 5100 2    60   Input ~ 0
SAUDIO
Text GLabel 7575 1675 2    60   Input ~ 0
SAUDIO
$Comp
L Device:D_Schottky D3
U 1 1 5BA80C94
P 9500 3400
F 0 "D3" H 9500 3500 50  0000 C CNN
F 1 "SSB44" H 9500 3300 50  0000 C CNN
F 2 "Diodes_SMD:D_SMB" H 9500 3400 50  0001 C CNN
F 3 "" H 9500 3400 50  0001 C CNN
	1    9500 3400
	0    -1   -1   0   
$EndComp
$Comp
L Device:D_Schottky D1
U 1 1 5AFFC3B2
P 8975 4150
F 0 "D1" H 8975 4250 50  0000 C CNN
F 1 "SSB44" H 8975 4050 50  0000 C CNN
F 2 "Diodes_SMD:D_SMB" H 8975 4150 50  0001 C CNN
F 3 "" H 8975 4150 50  0001 C CNN
	1    8975 4150
	0    1    1    0   
$EndComp
Wire Wire Line
	2450 1775 2500 1775
Wire Wire Line
	2150 1775 1450 1775
Wire Wire Line
	1150 1775 1000 1775
Wire Wire Line
	2100 1225 2100 1275
Wire Wire Line
	1850 1825 1850 1275
Wire Wire Line
	1600 1275 1850 1275
Connection ~ 2100 1275
Wire Wire Line
	1600 1825 1600 1275
Connection ~ 1850 1275
Wire Wire Line
	2800 2275 2800 1975
Wire Wire Line
	1025 2275 1025 1875
Wire Wire Line
	1025 1875 1000 1875
Wire Wire Line
	1600 2125 1600 2275
Connection ~ 1600 2275
Wire Wire Line
	1850 2125 1850 2275
Connection ~ 1850 2275
Wire Wire Line
	2100 1675 2100 2275
Connection ~ 2100 2275
Wire Wire Line
	2300 1575 2600 1575
Wire Wire Line
	2300 925  2300 1275
Wire Wire Line
	2100 825  2100 925 
Wire Wire Line
	1025 825  1025 1675
Wire Wire Line
	1025 1675 1000 1675
Wire Wire Line
	2800 825  2800 1375
Connection ~ 2100 825 
Wire Wire Line
	2900 1325 2500 1325
Wire Wire Line
	2500 1125 2500 1325
Connection ~ 2500 1775
Wire Wire Line
	3200 1675 3300 1675
Wire Wire Line
	3300 1125 3300 1325
Wire Wire Line
	3300 1325 3200 1325
Connection ~ 3300 1675
Wire Wire Line
	3700 1675 3750 1675
Wire Wire Line
	3750 1675 3750 1275
Wire Wire Line
	3750 1275 3800 1275
Wire Wire Line
	3950 1525 3950 1675
Connection ~ 2800 2275
Wire Wire Line
	3950 1675 4050 1675
Wire Wire Line
	4050 1675 4050 1525
Connection ~ 3950 1675
Wire Wire Line
	4200 1175 4450 1175
Wire Wire Line
	4200 1275 4400 1275
Wire Wire Line
	4400 1275 4400 1475
Wire Wire Line
	4400 1475 4450 1475
Wire Wire Line
	4200 1375 4300 1375
Wire Wire Line
	4300 1375 4300 1775
Wire Wire Line
	4300 1775 4450 1775
Wire Wire Line
	4750 1175 4850 1175
Wire Wire Line
	4850 1175 4850 1275
Wire Wire Line
	4750 1775 4850 1775
Wire Wire Line
	4850 1475 4750 1475
Connection ~ 4850 1475
Wire Wire Line
	5300 1575 5250 1575
Wire Wire Line
	5250 1575 5250 925 
Wire Wire Line
	5250 925  2300 925 
Wire Wire Line
	5500 825  5500 1375
Connection ~ 2800 825 
Wire Wire Line
	5500 2275 5500 1975
Connection ~ 3950 2275
Wire Wire Line
	4850 1275 5350 1275
Connection ~ 4850 1275
Wire Wire Line
	5950 1275 6050 1275
Wire Wire Line
	6050 1075 6050 1275
Wire Wire Line
	5900 1675 6050 1675
Connection ~ 5500 825 
Wire Wire Line
	6200 825  6200 1225
Connection ~ 6200 825 
Wire Wire Line
	6475 825  6475 1225
Connection ~ 6475 825 
Wire Wire Line
	6200 2275 6200 1525
Connection ~ 5500 2275
Wire Wire Line
	6475 1525 6475 2275
Connection ~ 6200 2275
Connection ~ 6475 2275
Connection ~ 6050 1675
Wire Notes Line
	8025 675  650  675 
Wire Notes Line
	650  675  650  2425
Connection ~ 4850 1775
Wire Wire Line
	950  4700 800  4700
Wire Wire Line
	800  4700 800  4200
Wire Wire Line
	800  4200 1700 4200
Wire Wire Line
	2000 4500 2000 4700
Wire Wire Line
	2000 4700 1950 4700
Wire Wire Line
	2100 4600 2100 4800
Wire Wire Line
	2100 4800 1950 4800
Wire Wire Line
	1950 4900 3200 4900
Wire Wire Line
	950  4900 800  4900
Wire Wire Line
	800  4900 800  5100
Wire Wire Line
	950  4800 700  4800
Wire Wire Line
	700  4800 700  5200
Wire Wire Line
	6900 6300 6900 6425
Wire Wire Line
	2400 7725 2850 7725
Wire Wire Line
	3550 7725 3550 7575
Connection ~ 6900 6300
Wire Wire Line
	1550 6050 1350 6050
Wire Wire Line
	1350 6050 1350 6225
Wire Wire Line
	1350 6225 975  6225
Wire Wire Line
	1550 6275 1450 6275
Wire Wire Line
	1450 6275 1450 6325
Wire Wire Line
	1450 6325 975  6325
Wire Wire Line
	1550 6500 1450 6500
Wire Wire Line
	1450 6500 1450 6425
Wire Wire Line
	1450 6425 975  6425
Wire Wire Line
	1550 6725 1350 6725
Wire Wire Line
	1350 6725 1350 6525
Wire Wire Line
	1350 6525 975  6525
Wire Wire Line
	2300 5600 2300 6500
Wire Wire Line
	2300 6500 1750 6500
Wire Wire Line
	2400 6725 1750 6725
Connection ~ 3550 7725
Wire Wire Line
	1750 6050 1950 6050
Wire Wire Line
	1750 6275 2150 6275
Wire Wire Line
	5500 2950 5500 5000
Wire Wire Line
	2725 6825 2725 6050
Wire Wire Line
	5700 2850 5700 4900
Wire Wire Line
	2625 6900 2625 6275
Connection ~ 1950 6050
Connection ~ 2150 6275
Wire Wire Line
	7800 3950 7800 4050
Connection ~ 7800 3950
Wire Wire Line
	3200 4500 2000 4500
Wire Wire Line
	3200 4600 2100 4600
Wire Wire Line
	2100 5100 2100 5200
Wire Wire Line
	2100 5200 700  5200
Wire Wire Line
	7000 3950 7100 3950
Wire Wire Line
	7450 4050 7450 3950
Connection ~ 7450 3950
Wire Wire Line
	1025 825  1175 825 
Wire Wire Line
	6100 4200 6250 4200
Wire Wire Line
	3200 5100 2100 5100
Wire Wire Line
	800  5100 2000 5100
Wire Wire Line
	2000 5100 2000 5000
Wire Wire Line
	2000 5000 3200 5000
Wire Wire Line
	7100 3950 7100 4050
Connection ~ 7100 3950
Wire Wire Line
	6000 2650 6000 3950
Wire Wire Line
	6000 3950 6250 3950
Wire Wire Line
	1000 2650 6000 2650
Connection ~ 6000 3950
Wire Wire Line
	1000 2750 5900 2750
Wire Wire Line
	5900 2750 5900 4400
Connection ~ 5900 4400
Wire Wire Line
	2200 3950 2200 5500
Wire Wire Line
	2200 5500 3200 5500
Wire Wire Line
	2300 5400 3200 5400
Wire Wire Line
	2300 3850 2300 5400
Wire Wire Line
	2400 5300 3200 5300
Wire Wire Line
	2400 3750 2400 5300
Wire Wire Line
	3200 5200 2500 5200
Wire Wire Line
	2500 5200 2500 3650
Wire Wire Line
	3200 4800 2600 4800
Wire Wire Line
	2600 4800 2600 3550
Wire Wire Line
	3200 4700 2700 4700
Wire Wire Line
	2700 4700 2700 3450
Wire Wire Line
	3200 4400 2800 4400
Wire Wire Line
	2800 4400 2800 3350
Wire Wire Line
	3200 4300 2900 4300
Wire Wire Line
	2900 4300 2900 3250
Wire Wire Line
	1000 3150 5600 3150
Wire Wire Line
	5800 3050 5800 4600
Wire Wire Line
	1000 3050 5800 3050
Wire Wire Line
	2500 3650 1000 3650
Wire Wire Line
	2600 3550 1000 3550
Wire Wire Line
	2700 3450 1000 3450
Wire Wire Line
	2800 3350 1000 3350
Wire Wire Line
	2900 3250 1000 3250
Wire Wire Line
	7725 5075 7725 5300
Connection ~ 7725 5300
Wire Wire Line
	7725 6300 7725 6000
Connection ~ 7725 6300
Wire Wire Line
	6250 6300 6400 6300
Wire Wire Line
	7725 4775 7725 4700
Wire Wire Line
	2400 3750 1000 3750
Wire Wire Line
	2300 3850 1000 3850
Wire Wire Line
	2200 3950 1000 3950
Wire Wire Line
	1000 4050 1700 4050
Wire Wire Line
	1700 4050 1700 4200
Connection ~ 1700 4200
Wire Wire Line
	6250 3750 3000 3750
Wire Wire Line
	3000 3750 3000 4200
Connection ~ 3000 4200
Wire Wire Line
	5800 6200 5800 6300
Wire Wire Line
	5800 6300 5850 6300
Wire Wire Line
	5600 6300 5600 6500
Wire Wire Line
	5600 6500 5850 6500
Wire Wire Line
	6250 6100 6400 6100
Wire Wire Line
	6400 5600 6400 6100
Wire Wire Line
	6400 6500 6250 6500
Connection ~ 6400 6300
Connection ~ 6400 6100
Wire Wire Line
	6100 4300 6100 4200
Wire Wire Line
	7100 4350 7100 4500
Connection ~ 7100 4500
Wire Wire Line
	7450 4350 7450 4500
Connection ~ 7450 4500
Wire Wire Line
	8800 3950 8975 3950
Wire Wire Line
	7800 4350 7800 4500
Connection ~ 7800 4500
Wire Wire Line
	8200 3950 8100 3950
NoConn ~ 10550 3250
Wire Wire Line
	10850 3450 10850 4050
Wire Wire Line
	10950 4050 10950 3450
Connection ~ 10850 4050
NoConn ~ 5400 4500
Wire Wire Line
	5600 3150 5600 5400
NoConn ~ 5400 4700
NoConn ~ 5400 4800
Wire Wire Line
	5500 2950 1000 2950
Connection ~ 5500 5000
Wire Wire Line
	1000 2850 5700 2850
Connection ~ 5700 4900
$Comp
L Device:C C5
U 1 1 5C577D8A
P 3050 1125
F 0 "C5" V 3000 1175 50  0000 L CNN
F 1 "12pF" V 2900 1025 50  0000 L CNN
F 2 "CapacitorSMDUser:CapacitorSMD_0402" H 3088 975 50  0001 C CNN
F 3 "" H 3050 1125 50  0001 C CNN
	1    3050 1125
	0    1    1    0   
$EndComp
Wire Wire Line
	3200 1125 3300 1125
Connection ~ 3300 1325
Wire Wire Line
	2900 1125 2500 1125
Connection ~ 2500 1325
$Comp
L Device:C C7
U 1 1 5C5783FE
P 5800 1075
F 0 "C7" V 5750 1125 50  0000 L CNN
F 1 "12pF" V 5650 975 50  0000 L CNN
F 2 "CapacitorSMDUser:CapacitorSMD_0402" H 5838 925 50  0001 C CNN
F 3 "" H 5800 1075 50  0001 C CNN
	1    5800 1075
	0    1    1    0   
$EndComp
Wire Wire Line
	5950 1075 6050 1075
Connection ~ 6050 1275
Wire Wire Line
	5650 1075 5350 1075
Wire Wire Line
	5350 1075 5350 1275
Connection ~ 5350 1275
Connection ~ 2300 1275
$Comp
L Device:C C1
U 1 1 5C601DB6
P 1175 1300
F 0 "C1" H 1050 1225 50  0000 L CNN
F 1 "100nF" H 925 1400 50  0000 L CNN
F 2 "Capacitor_SMD:C_0201_0603Metric_Pad0.64x0.40mm_HandSolder" H 1213 1150 50  0001 C CNN
F 3 "" H 1175 1300 50  0001 C CNN
	1    1175 1300
	-1   0    0    1   
$EndComp
Wire Wire Line
	1175 1150 1175 825 
Connection ~ 1175 825 
Wire Wire Line
	1175 2275 1175 1450
Wire Wire Line
	2100 1275 2100 1375
Wire Wire Line
	2100 1275 2300 1275
Wire Wire Line
	1850 1275 2100 1275
Wire Wire Line
	1600 2275 1850 2275
Wire Wire Line
	1850 2275 2100 2275
Wire Wire Line
	2100 2275 2800 2275
Wire Wire Line
	2100 825  2800 825 
Wire Wire Line
	2500 1775 2600 1775
Wire Wire Line
	3300 1675 3400 1675
Wire Wire Line
	2800 2275 3950 2275
Wire Wire Line
	3950 1675 3950 2275
Wire Wire Line
	4850 1475 4850 1775
Wire Wire Line
	2800 825  5500 825 
Wire Wire Line
	3950 2275 5500 2275
Wire Wire Line
	4850 1275 4850 1475
Wire Wire Line
	5500 825  6200 825 
Wire Wire Line
	6200 825  6475 825 
Wire Wire Line
	6475 825  6550 825 
Wire Wire Line
	5500 2275 6200 2275
Wire Wire Line
	6200 2275 6475 2275
Wire Wire Line
	6475 2275 6800 2275
Wire Wire Line
	6050 1675 7575 1675
Wire Wire Line
	4850 1775 5300 1775
Wire Wire Line
	3550 7725 4850 7725
Wire Wire Line
	2300 5600 2850 5600
Wire Wire Line
	1950 6050 2725 6050
Wire Wire Line
	7800 3950 7900 3950
Wire Wire Line
	7450 3950 7800 3950
Wire Wire Line
	7100 3950 7450 3950
Wire Wire Line
	6000 3950 6000 4200
Wire Wire Line
	5900 4400 6250 4400
Wire Wire Line
	7725 5300 7725 5700
Wire Wire Line
	1700 4200 3000 4200
Wire Wire Line
	3000 4200 3200 4200
Wire Wire Line
	6400 6300 6900 6300
Wire Wire Line
	6400 6300 6400 6500
Wire Wire Line
	6400 6100 6400 6300
Wire Wire Line
	7100 4500 7000 4500
Wire Wire Line
	7800 4500 7450 4500
Wire Wire Line
	10850 4050 10850 4500
Wire Wire Line
	10850 4050 10950 4050
Wire Wire Line
	5700 4900 5700 6900
Wire Wire Line
	3300 1325 3300 1675
Wire Wire Line
	2500 1325 2500 1775
Wire Wire Line
	6050 1275 6050 1675
Wire Wire Line
	5350 1275 5650 1275
Wire Wire Line
	2300 1275 2300 1575
Wire Wire Line
	1025 2275 1175 2275
Connection ~ 1175 2275
Wire Wire Line
	1175 2275 1600 2275
Wire Wire Line
	1175 825  2100 825 
$Comp
L Alimentations:DW01A U6
U 1 1 5DBD9FD4
P 10475 1450
F 0 "U6" H 10475 1797 60  0000 C CNN
F 1 "R5478N101CD" H 10475 1691 60  0000 C CNN
F 2 "Alimentations:SOT23-6L" H 10475 1450 60  0001 C CNN
F 3 "" H 10475 1450 60  0001 C CNN
	1    10475 1450
	1    0    0    -1  
$EndComp
$Comp
L Alimentations:DMG9926USD U7
U 1 1 5DC67E0D
P 10500 2150
F 0 "U7" H 10212 2072 60  0000 R CNN
F 1 "DMG9926USD" H 10800 2425 60  0000 R CNN
F 2 "Alimentations:SOP-8L_4.9x3.9mm_Pitch1.27mm" H 10550 1700 60  0001 C CNN
F 3 "" H 10732 2152 60  0001 C CNN
	1    10500 2150
	-1   0    0    1   
$EndComp
Text GLabel 9500 600  0    60   Input ~ 0
+BAT1
Text GLabel 9075 700  0    60   Input ~ 0
-BAT1
Text GLabel 9500 800  0    60   Input ~ 0
+BAT2
Text GLabel 9075 900  0    60   Input ~ 0
-BAT2
Wire Wire Line
	9500 600  9650 600 
Wire Wire Line
	9650 700  9075 700 
Wire Wire Line
	9500 800  9650 800 
Wire Wire Line
	9075 900  9650 900 
$Comp
L Device:C C14
U 1 1 5DCDB972
P 9875 1825
F 0 "C14" H 9900 1725 50  0000 L CNN
F 1 "100nF" H 9900 1925 50  0000 L CNN
F 2 "Capacitor_SMD:C_0201_0603Metric_Pad0.64x0.40mm_HandSolder" H 9913 1675 50  0001 C CNN
F 3 "" H 9875 1825 50  0001 C CNN
	1    9875 1825
	-1   0    0    1   
$EndComp
$Comp
L Device:R R19
U 1 1 5DCDC184
P 10925 1725
F 0 "R19" V 11005 1725 50  0000 C CNN
F 1 "1k" V 10925 1725 50  0000 C CNN
F 2 "Resistor_SMD:R_0603_1608Metric_Pad0.98x0.95mm_HandSolder" V 10855 1725 50  0001 C CNN
F 3 "" H 10925 1725 50  0001 C CNN
	1    10925 1725
	-1   0    0    1   
$EndComp
Wire Wire Line
	10925 1500 10925 1575
Wire Wire Line
	10700 1950 10700 1925
Wire Wire Line
	10700 1925 10925 1925
Wire Wire Line
	10925 1925 10925 1875
Wire Wire Line
	10575 1950 10575 1700
Wire Wire Line
	10375 1700 10300 1700
Wire Wire Line
	10300 1700 10300 1950
Wire Wire Line
	10300 2300 10300 2350
Wire Wire Line
	10300 2350 10425 2350
Wire Wire Line
	10425 2350 10425 2300
Wire Wire Line
	10425 2350 10575 2350
Wire Wire Line
	10575 2350 10575 2300
Connection ~ 10425 2350
Wire Wire Line
	10575 2350 10700 2350
Wire Wire Line
	10700 2350 10700 2300
Connection ~ 10575 2350
Wire Wire Line
	10425 1950 10425 1825
Wire Wire Line
	10425 1825 10025 1825
Wire Wire Line
	10025 1825 10025 1500
Wire Wire Line
	10025 1350 9875 1350
Wire Wire Line
	9875 1350 9875 1675
Wire Wire Line
	9875 1975 9875 2225
Wire Wire Line
	9875 2225 9800 2225
Wire Wire Line
	10025 1825 10025 2225
Wire Wire Line
	10025 2225 9875 2225
Connection ~ 10025 1825
Connection ~ 9875 2225
$Comp
L Device:R R17
U 1 1 5DE44823
P 9675 1350
F 0 "R17" V 9755 1350 50  0000 C CNN
F 1 "330" V 9675 1350 50  0000 C CNN
F 2 "Resistor_SMD:R_0603_1608Metric_Pad0.98x0.95mm_HandSolder" V 9605 1350 50  0001 C CNN
F 3 "" H 9675 1350 50  0001 C CNN
	1    9675 1350
	0    -1   -1   0   
$EndComp
Wire Wire Line
	9825 1350 9875 1350
Connection ~ 9875 1350
Wire Wire Line
	9525 1350 9525 1500
Text GLabel 9525 1500 3    60   Input ~ 0
+BAT2
Text GLabel 9800 2225 0    60   Input ~ 0
-BAT2
NoConn ~ 10925 1350
$Comp
L Alimentations:DW01A U4
U 1 1 5DE94A64
P 8850 1475
F 0 "U4" H 8850 1822 60  0000 C CNN
F 1 "R5478N101CD" H 8850 1716 60  0000 C CNN
F 2 "Alimentations:SOT23-6L" H 8850 1475 60  0001 C CNN
F 3 "" H 8850 1475 60  0001 C CNN
	1    8850 1475
	1    0    0    -1  
$EndComp
$Comp
L Alimentations:DMG9926USD U5
U 1 1 5DE94A6E
P 8875 2175
F 0 "U5" H 8587 2097 60  0000 R CNN
F 1 "DMG9926USD" H 9175 2450 60  0000 R CNN
F 2 "Alimentations:SOP-8L_4.9x3.9mm_Pitch1.27mm" H 8925 1725 60  0001 C CNN
F 3 "" H 9107 2177 60  0001 C CNN
	1    8875 2175
	-1   0    0    1   
$EndComp
$Comp
L Device:C C13
U 1 1 5DE94A78
P 8250 1850
F 0 "C13" H 8275 1750 50  0000 L CNN
F 1 "100nF" V 8375 1825 50  0000 L CNN
F 2 "Capacitor_SMD:C_0201_0603Metric_Pad0.64x0.40mm_HandSolder" H 8288 1700 50  0001 C CNN
F 3 "" H 8250 1850 50  0001 C CNN
	1    8250 1850
	-1   0    0    1   
$EndComp
$Comp
L Device:R R16
U 1 1 5DE94A82
P 9300 1750
F 0 "R16" V 9380 1750 50  0000 C CNN
F 1 "1k" V 9300 1750 50  0000 C CNN
F 2 "Resistor_SMD:R_0603_1608Metric_Pad0.98x0.95mm_HandSolder" V 9230 1750 50  0001 C CNN
F 3 "" H 9300 1750 50  0001 C CNN
	1    9300 1750
	-1   0    0    1   
$EndComp
Wire Wire Line
	9300 1525 9300 1600
Wire Wire Line
	9075 1975 9075 1950
Wire Wire Line
	9075 1950 9300 1950
Wire Wire Line
	9300 1950 9300 1900
Wire Wire Line
	8950 1975 8950 1725
Wire Wire Line
	8750 1725 8675 1725
Wire Wire Line
	8675 1725 8675 1975
Wire Wire Line
	8675 2325 8675 2375
Wire Wire Line
	8675 2375 8800 2375
Wire Wire Line
	8800 2375 8800 2325
Wire Wire Line
	8800 2375 8950 2375
Wire Wire Line
	8950 2375 8950 2325
Connection ~ 8800 2375
Wire Wire Line
	8950 2375 9075 2375
Wire Wire Line
	9075 2375 9075 2325
Connection ~ 8950 2375
Wire Wire Line
	8800 1975 8800 1850
Wire Wire Line
	8800 1850 8400 1850
Wire Wire Line
	8400 1850 8400 1525
Wire Wire Line
	8400 1375 8250 1375
Wire Wire Line
	8250 1375 8250 1700
Wire Wire Line
	8250 2000 8250 2100
Wire Wire Line
	8250 2100 8250 2175
Wire Wire Line
	8400 1850 8400 2100
Wire Wire Line
	8400 2100 8250 2100
Connection ~ 8400 1850
$Comp
L Device:R R15
U 1 1 5DE94AA7
P 8250 1150
F 0 "R15" V 8330 1150 50  0000 C CNN
F 1 "330" V 8250 1150 50  0000 C CNN
F 2 "Resistor_SMD:R_0603_1608Metric_Pad0.98x0.95mm_HandSolder" V 8180 1150 50  0001 C CNN
F 3 "" H 8250 1150 50  0001 C CNN
	1    8250 1150
	1    0    0    -1  
$EndComp
Wire Wire Line
	8250 1300 8250 1375
Connection ~ 8250 1375
Text GLabel 8250 900  1    60   Input ~ 0
+BAT1
Text GLabel 8250 2175 3    60   Input ~ 0
-BAT1
NoConn ~ 9300 1375
Connection ~ 8250 2100
Wire Wire Line
	10925 1925 10925 2500
Wire Wire Line
	10925 2500 9875 2500
Wire Wire Line
	9300 2500 9300 1950
Connection ~ 10925 1925
Connection ~ 9300 1950
Text GLabel 9800 2400 0    60   Input ~ 0
GND
Wire Wire Line
	9800 2400 9875 2400
Wire Wire Line
	9875 2400 9875 2500
Connection ~ 9875 2500
Wire Wire Line
	9875 2500 9300 2500
Wire Wire Line
	9500 2850 9500 3250
$Comp
L Alimentations:TP4056 U9
U 1 1 5E163CF6
P 7800 2975
F 0 "U9" H 8025 2700 60  0000 C CNN
F 1 "TP4056" H 7675 2700 60  0000 C CNN
F 2 "Alimentations:ESOP-8_150mil" H 7800 2975 60  0001 C CNN
F 3 "" H 7800 2975 60  0001 C CNN
	1    7800 2975
	1    0    0    -1  
$EndComp
$Comp
L Device:R R21
U 1 1 5E23174F
P 7100 3225
F 0 "R21" V 7180 3225 50  0000 C CNN
F 1 "4.7k" V 7100 3225 50  0000 C CNN
F 2 "Resistor_SMD:R_0603_1608Metric_Pad0.98x0.95mm_HandSolder" V 7030 3225 50  0001 C CNN
F 3 "" H 7100 3225 50  0001 C CNN
	1    7100 3225
	0    -1   -1   0   
$EndComp
$Comp
L Device:R R20
U 1 1 5E23230B
P 7100 3375
F 0 "R20" V 7000 3375 50  0000 C CNN
F 1 "4.7k" V 7100 3375 50  0000 C CNN
F 2 "Resistor_SMD:R_0603_1608Metric_Pad0.98x0.95mm_HandSolder" V 7030 3375 50  0001 C CNN
F 3 "" H 7100 3375 50  0001 C CNN
	1    7100 3375
	0    -1   -1   0   
$EndComp
$Comp
L Device:R R23
U 1 1 5E2326C1
P 9225 2850
F 0 "R23" V 9305 2850 50  0000 C CNN
F 1 "0.4" V 9225 2850 50  0000 C CNN
F 2 "Resistors_SMD:R_1210" V 9155 2850 50  0001 C CNN
F 3 "" H 9225 2850 50  0001 C CNN
	1    9225 2850
	0    -1   -1   0   
$EndComp
Wire Wire Line
	7300 3225 7300 3025
Wire Wire Line
	7300 3025 7400 3025
Wire Wire Line
	7250 3225 7300 3225
Wire Wire Line
	7400 3125 7350 3125
Wire Wire Line
	7350 3125 7350 3375
Wire Wire Line
	7350 3375 7250 3375
$Comp
L Device:LED_Small D7
U 1 1 5E27195F
P 6875 3025
F 0 "D7" V 6921 2957 50  0000 R CNN
F 1 "LEDR" V 6830 2957 50  0000 R CNN
F 2 "LEDs:LED_0805" V 6875 3025 50  0001 C CNN
F 3 "~" V 6875 3025 50  0001 C CNN
	1    6875 3025
	0    -1   -1   0   
$EndComp
$Comp
L Device:LED_Small D6
U 1 1 5E2723C7
P 6600 3025
F 0 "D6" V 6646 2957 50  0000 R CNN
F 1 "LEDG" V 6525 3000 50  0000 R CNN
F 2 "LEDs:LED_0805" V 6600 3025 50  0001 C CNN
F 3 "~" V 6600 3025 50  0001 C CNN
	1    6600 3025
	0    -1   -1   0   
$EndComp
Wire Wire Line
	7400 2825 7300 2825
Wire Wire Line
	6875 2825 6875 2925
Wire Wire Line
	6875 2825 6600 2825
Wire Wire Line
	6600 2825 6600 2925
Connection ~ 6875 2825
Wire Wire Line
	7400 2925 7300 2925
Wire Wire Line
	7300 2925 7300 2825
Connection ~ 7300 2825
Wire Wire Line
	7300 2825 6875 2825
Wire Wire Line
	6950 3225 6875 3225
Wire Wire Line
	6875 3225 6875 3125
Wire Wire Line
	6950 3375 6600 3375
Wire Wire Line
	6600 3375 6600 3125
$Comp
L Device:C C15
U 1 1 5E3128BD
P 6425 3175
F 0 "C15" H 6450 3075 50  0000 L CNN
F 1 "10UF" H 6450 3275 50  0000 L CNN
F 2 "Capacitors_SMD:C_0603" H 6463 3025 50  0001 C CNN
F 3 "" H 6425 3175 50  0001 C CNN
	1    6425 3175
	-1   0    0    1   
$EndComp
$Comp
L Device:R R22
U 1 1 5E313635
P 8425 3250
F 0 "R22" V 8505 3250 50  0000 C CNN
F 1 "1.2k" V 8425 3250 50  0000 C CNN
F 2 "Resistor_SMD:R_0603_1608Metric_Pad0.98x0.95mm_HandSolder" V 8355 3250 50  0001 C CNN
F 3 "" H 8425 3250 50  0001 C CNN
	1    8425 3250
	-1   0    0    1   
$EndComp
Wire Wire Line
	8200 3125 8250 3125
Wire Wire Line
	8250 3125 8250 2925
Wire Wire Line
	8250 2925 8200 2925
Wire Wire Line
	8250 3125 8250 3525
Connection ~ 8250 3125
Wire Wire Line
	8200 3025 8425 3025
Wire Wire Line
	8425 3025 8425 3100
Wire Wire Line
	8425 3400 8425 3525
Wire Wire Line
	8425 3525 8250 3525
$Comp
L Device:C C16
U 1 1 5E39A3ED
P 8750 3175
F 0 "C16" H 8775 3075 50  0000 L CNN
F 1 "10UF" H 8775 3275 50  0000 L CNN
F 2 "Capacitors_SMD:C_0603" H 8788 3025 50  0001 C CNN
F 3 "" H 8750 3175 50  0001 C CNN
	1    8750 3175
	-1   0    0    1   
$EndComp
Wire Wire Line
	8200 2825 8750 2825
Wire Wire Line
	8750 2825 8750 3025
Wire Wire Line
	8750 3325 8750 3525
Wire Wire Line
	8750 3525 8425 3525
Connection ~ 8425 3525
Wire Wire Line
	8975 4000 8975 3950
Connection ~ 8975 3950
Wire Wire Line
	6600 2825 6425 2825
Wire Wire Line
	6425 2825 6425 3025
Connection ~ 6600 2825
Wire Wire Line
	6425 3325 6425 3525
Wire Wire Line
	6425 3525 8250 3525
Connection ~ 8250 3525
Wire Wire Line
	9075 2850 9025 2850
Wire Wire Line
	9025 2850 9025 2675
Wire Wire Line
	9025 2675 7300 2675
Wire Wire Line
	7300 2675 7300 2825
Text GLabel 9050 3075 2    60   Input ~ 0
+BAT1
Text GLabel 9050 3225 2    60   Input ~ 0
+BAT2
Text GLabel 9050 3375 2    60   Input ~ 0
VBAT
Wire Wire Line
	9050 3075 8925 3075
Wire Wire Line
	8925 3075 8925 2825
Wire Wire Line
	8925 2825 8750 2825
Connection ~ 8750 2825
Wire Wire Line
	9050 3225 8925 3225
Wire Wire Line
	8925 3225 8925 3075
Connection ~ 8925 3075
Wire Wire Line
	9050 3375 8925 3375
Wire Wire Line
	8925 3375 8925 3225
Connection ~ 8925 3225
Connection ~ 2300 6500
$Comp
L Device:CP C17
U 1 1 5EC229F4
P 5900 4725
F 0 "C17" H 5925 4825 50  0000 L CNN
F 1 "470UF" H 5925 4625 50  0000 L CNN
F 2 "Alimentations:CP_Elec_10x7.7" H 5938 4575 50  0001 C CNN
F 3 "" H 5900 4725 50  0001 C CNN
	1    5900 4725
	1    0    0    -1  
$EndComp
Wire Wire Line
	5900 4875 5900 5600
Connection ~ 5900 5600
Wire Wire Line
	5900 5600 6400 5600
Wire Wire Line
	5900 4575 5900 4400
Wire Wire Line
	9375 2850 9500 2850
Connection ~ 9500 2850
Text GLabel 9125 4400 2    60   Input ~ 0
VBAT
$Comp
L Molex2510:ConnM_01x04 J9
U 1 1 5E7824E5
P 10875 4775
F 0 "J9" H 10875 4975 50  0000 C CNN
F 1 "USB/TTL Ext." H 10825 4475 50  0000 C CNN
F 2 "Alimentations:Molex_KK-6410-04_04x2.54mm_Straight" H 10875 4775 50  0001 C CNN
F 3 "" H 10875 4775 50  0001 C CNN
	1    10875 4775
	1    0    0    -1  
$EndComp
$Comp
L Device:D_Schottky D4
U 1 1 5E7AA113
P 10000 4275
F 0 "D4" H 10000 4375 50  0000 C CNN
F 1 "SSB44" H 10000 4175 50  0000 C CNN
F 2 "Diodes_SMD:D_SMB" H 10000 4275 50  0001 C CNN
F 3 "" H 10000 4275 50  0001 C CNN
	1    10000 4275
	0    1    1    0   
$EndComp
Wire Wire Line
	10675 4875 10000 4875
Wire Wire Line
	10000 4425 10000 4800
Wire Wire Line
	10675 4975 9900 4975
Wire Wire Line
	9900 4500 9900 4975
Connection ~ 9900 4500
Wire Wire Line
	10850 4500 9900 4500
Wire Wire Line
	9900 4500 7800 4500
Wire Wire Line
	9500 3550 9500 3950
Wire Wire Line
	8975 3950 9500 3950
Wire Wire Line
	9500 2850 9700 2850
Wire Wire Line
	9700 3650 9700 3350
Connection ~ 9700 2850
Wire Wire Line
	9700 2850 10550 2850
Wire Wire Line
	9700 3350 10000 3350
Wire Wire Line
	10000 3350 10000 4125
Connection ~ 9700 3350
Wire Wire Line
	9700 3350 9700 2850
Wire Wire Line
	8200 5150 8200 5350
Wire Wire Line
	7725 6300 8200 6300
$Comp
L Device:C C22
U 1 1 5DD33B27
P 9400 5750
F 0 "C22" V 9325 5800 50  0000 L CNN
F 1 "6.8nF" V 9475 5500 50  0000 L CNN
F 2 "Capacitor_SMD:C_0201_0603Metric_Pad0.64x0.40mm_HandSolder" H 9438 5600 50  0001 C CNN
F 3 "" H 9400 5750 50  0001 C CNN
	1    9400 5750
	0    1    1    0   
$EndComp
$Comp
L Device:C C20
U 1 1 5DD8AFDB
P 9400 5150
F 0 "C20" V 9450 4950 50  0000 L CNN
F 1 "1µF" V 9525 5025 50  0000 L CNN
F 2 "Capacitors_SMD:C_0603" H 9438 5000 50  0001 C CNN
F 3 "" H 9400 5150 50  0001 C CNN
	1    9400 5150
	0    -1   -1   0   
$EndComp
$Comp
L Device:L_Core_Ferrite_Small L3
U 1 1 5DE1098A
P 9825 5350
F 0 "L3" V 9900 5300 50  0000 L CNN
F 1 "10uH" V 9775 5225 50  0000 L CNN
F 2 "Alimentations:L100mH" H 9825 5350 50  0001 C CNN
F 3 "" H 9825 5350 50  0001 C CNN
	1    9825 5350
	0    -1   -1   0   
$EndComp
$Comp
L Device:R R28
U 1 1 5DF49C77
P 9675 6000
F 0 "R28" V 9755 6000 50  0000 C CNN
F 1 "6.8k" V 9675 6000 50  0000 C CNN
F 2 "Resistor_SMD:R_0603_1608Metric_Pad0.98x0.95mm_HandSolder" V 9605 6000 50  0001 C CNN
F 3 "" H 9675 6000 50  0001 C CNN
	1    9675 6000
	1    0    0    -1  
$EndComp
Wire Wire Line
	8200 6175 8200 6300
Connection ~ 8200 6300
$Comp
L Device:C C21
U 1 1 5E19E248
P 10450 5850
F 0 "C21" H 10300 5750 50  0000 L CNN
F 1 "22UF" H 10225 5950 50  0000 L CNN
F 2 "Capacitor_SMD:C_0805_2012Metric_Pad1.18x1.45mm_HandSolder" H 10488 5700 50  0001 C CNN
F 3 "" H 10450 5850 50  0001 C CNN
	1    10450 5850
	-1   0    0    1   
$EndComp
Wire Wire Line
	10450 6000 10450 6300
Connection ~ 10450 6300
Wire Wire Line
	10450 6300 10825 6300
Wire Wire Line
	10450 5350 10450 5075
Wire Wire Line
	10450 5075 9700 5075
Wire Wire Line
	9700 3950 9700 5075
Connection ~ 10450 5350
$Comp
L PassiveRecorder-rescue:GS3-conn J15
U 1 1 5DD9F8FE
P 10625 3975
F 0 "J15" V 10775 3800 50  0000 L CNN
F 1 "GS3" V 10775 4000 50  0000 L CNN
F 2 "Connectors:GS3" V 10713 3901 50  0001 C CNN
F 3 "" H 10625 3975 50  0001 C CNN
	1    10625 3975
	0    1    1    0   
$EndComp
$Comp
L PassiveRecorder-rescue:GS3-conn J14
U 1 1 5DE8BA72
P 10250 3975
F 0 "J14" V 10400 3800 50  0000 L CNN
F 1 "GS3" V 10400 4000 50  0000 L CNN
F 2 "Connectors:GS3" V 10338 3901 50  0001 C CNN
F 3 "" H 10250 3975 50  0001 C CNN
	1    10250 3975
	0    1    1    0   
$EndComp
Wire Wire Line
	10625 4125 10625 4675
Wire Wire Line
	10625 4675 10675 4675
Wire Wire Line
	10250 4775 10250 4125
Wire Wire Line
	10250 4775 10675 4775
Wire Wire Line
	10725 3825 10725 3500
Wire Wire Line
	10725 3500 10450 3500
Wire Wire Line
	10450 3500 10450 3050
Connection ~ 10450 3050
Wire Wire Line
	10450 3050 10550 3050
Text GLabel 3200 3250 2    60   Input ~ 0
RX
Text GLabel 3200 3450 2    60   Input ~ 0
TX
Wire Wire Line
	3200 3250 2900 3250
Text GLabel 10150 3750 1    60   Input ~ 0
RX
Text GLabel 10525 3750 1    60   Input ~ 0
TX
Wire Wire Line
	10525 3825 10525 3750
Wire Wire Line
	10150 3825 10150 3750
Text GLabel 9500 4100 3    60   Input ~ 0
VP
Wire Wire Line
	9500 4100 9500 3950
Connection ~ 9500 3950
Text GLabel 8875 3525 2    60   Input ~ 0
GND
Wire Wire Line
	8875 3525 8750 3525
Connection ~ 8750 3525
Text GLabel 7050 6425 2    60   Input ~ 0
GND
Wire Wire Line
	7050 6425 6900 6425
Connection ~ 6900 6425
Wire Wire Line
	2300 6500 2300 7625
Wire Wire Line
	8200 5150 8600 5150
Wire Wire Line
	8275 5350 8200 5350
Connection ~ 8200 5350
Wire Wire Line
	9725 5350 9625 5350
Wire Wire Line
	9675 6150 9675 6300
Connection ~ 9675 6300
Wire Wire Line
	9675 6300 10075 6300
Wire Wire Line
	10825 6400 10100 6400
$Comp
L Transistor_FET:DMG2301L Q1
U 1 1 607B32A9
P 7175 925
F 0 "Q1" V 7000 1125 50  0000 C CNN
F 1 "AO3413" V 7075 1125 50  0000 C CNN
F 2 "TO_SOT_Packages_SMD:SOT-23" H 7375 850 50  0001 L CIN
F 3 "https://www.diodes.com/assets/Datasheets/DMG2301L.pdf" H 7175 925 50  0001 L CNN
	1    7175 925 
	0    -1   -1   0   
$EndComp
Wire Wire Line
	8250 900  8250 1000
Wire Notes Line
	8025 2425 8025 675 
Wire Notes Line
	650  2425 8025 2425
Wire Wire Line
	6750 825  6800 825 
Wire Wire Line
	7375 825  7450 825 
$Comp
L Device:R R29
U 1 1 60B703BB
P 7450 1075
F 0 "R29" V 7350 1075 50  0000 C CNN
F 1 "20k" V 7450 1075 50  0000 C CNN
F 2 "Resistor_SMD:R_0603_1608Metric_Pad0.98x0.95mm_HandSolder" V 7380 1075 50  0001 C CNN
F 3 "" H 7450 1075 50  0001 C CNN
	1    7450 1075
	1    0    0    -1  
$EndComp
Wire Wire Line
	7450 925  7450 825 
Connection ~ 7450 825 
Wire Wire Line
	7450 825  7575 825 
Wire Wire Line
	7450 1225 7450 1275
Wire Wire Line
	7450 1275 7175 1275
Wire Wire Line
	7175 1275 7175 1125
Text GLabel 7575 1450 2    60   Input ~ 0
CMDAMP
Wire Wire Line
	7575 1450 7175 1450
Wire Wire Line
	7175 1450 7175 1275
Connection ~ 7175 1275
Text GLabel 5875 6650 2    60   Input ~ 0
CMDAMP
Wire Wire Line
	5875 6650 5450 6650
Wire Wire Line
	5450 6650 5450 6500
Wire Wire Line
	6000 4200 5400 4200
Wire Wire Line
	5400 4300 6100 4300
Wire Wire Line
	5400 4400 5900 4400
Wire Wire Line
	5800 4600 5400 4600
Wire Wire Line
	5400 4900 5700 4900
Wire Wire Line
	5400 5000 5500 5000
Wire Wire Line
	7725 5300 5400 5300
Wire Wire Line
	5600 5400 5400 5400
Wire Wire Line
	5400 5600 5900 5600
Wire Wire Line
	5400 6100 5850 6100
Wire Wire Line
	5400 6200 5800 6200
Wire Wire Line
	5400 6300 5600 6300
Wire Wire Line
	5450 6500 5400 6500
$Comp
L teensy:Teensy4.1Min U1
U 1 1 63094D1E
P 4450 5350
F 0 "U1" H 3850 6650 60  0000 C CNN
F 1 "Teensy4.1Min" H 4825 6650 60  0000 C CNN
F 2 "teensy:Teensy41Min" H 4200 4400 60  0000 C CNN
F 3 "" H 4200 4400 60  0000 C CNN
	1    4450 5350
	1    0    0    -1  
$EndComp
Connection ~ 2900 3250
Wire Wire Line
	2800 3350 3100 3350
Wire Wire Line
	3100 3450 3200 3450
Wire Wire Line
	3100 3350 3100 3450
Connection ~ 2800 3350
Wire Wire Line
	5500 6825 2725 6825
Wire Wire Line
	5500 5000 5500 6825
Text GLabel 6425 7550 2    60   Input ~ 0
VBAT
Text GLabel 10100 2625 0    60   Input ~ 0
D+
Text GLabel 10100 2750 0    60   Input ~ 0
D-
Wire Wire Line
	10450 3050 10450 2625
Wire Wire Line
	10450 2625 10100 2625
Wire Wire Line
	10300 3150 10350 3150
Wire Wire Line
	10300 3050 10450 3050
$Comp
L Molex2510:ConnM_01x02 J13
U 1 1 5DD531E2
P 10100 3050
F 0 "J13" H 10100 3150 50  0000 C CNN
F 1 "D+/-" H 10100 2850 50  0000 C CNN
F 2 "Alimentations:JST_PH_B2B-PH-K_02x2.00mm_Straight" H 10100 3050 50  0001 C CNN
F 3 "" H 10100 3050 50  0001 C CNN
	1    10100 3050
	-1   0    0    -1  
$EndComp
Wire Wire Line
	10350 3825 10350 3150
Connection ~ 10350 3150
Wire Wire Line
	10350 3150 10550 3150
Wire Wire Line
	10100 2750 10350 2750
Wire Wire Line
	10350 2750 10350 3150
Text GLabel 4300 3550 1    60   Input ~ 0
D+
Text GLabel 4450 3550 1    60   Input ~ 0
D-
Wire Wire Line
	4450 4000 4450 3550
Wire Wire Line
	4300 4000 4300 3550
NoConn ~ 5400 5200
Wire Wire Line
	8975 4300 8975 4400
Wire Wire Line
	5400 5100 6250 5100
Text GLabel 4425 7300 3    60   Input ~ 0
+3V3
Wire Wire Line
	3150 7275 3250 7275
Wire Wire Line
	3850 7275 4250 7275
Wire Wire Line
	4250 7275 4250 6800
Wire Wire Line
	6900 6425 6900 7725
$Comp
L PassiveRecorder-rescue:LM1084-3.3-regul U11
U 1 1 648D3C79
P 4850 7175
F 0 "U11" H 4950 6925 50  0000 C CNN
F 1 "HT7130 LDO 2.8V" H 4550 7325 50  0000 L CNN
F 2 "Package_TO_SOT_SMD:SOT-23" H 4850 7400 50  0001 C CIN
F 3 "" H 4850 7125 50  0001 C CNN
	1    4850 7175
	1    0    0    -1  
$EndComp
$Comp
L Alimentations:MCP3221 U13
U 1 1 648D4B02
P 6275 7275
F 0 "U13" H 6050 7525 50  0000 C CNN
F 1 "MCP3221" H 6350 7525 50  0000 C CNN
F 2 "Alimentations:SOT-23-5" H 6275 7550 50  0001 C CNN
F 3 "" H 6275 7550 50  0001 C CNN
	1    6275 7275
	1    0    0    -1  
$EndComp
Wire Wire Line
	2625 6900 5700 6900
Wire Wire Line
	5700 6900 6650 6900
Wire Wire Line
	6650 6900 6650 7175
Wire Wire Line
	6650 7175 6575 7175
Connection ~ 5700 6900
Wire Wire Line
	5500 6825 6725 6825
Wire Wire Line
	6725 6825 6725 7375
Wire Wire Line
	6725 7375 6575 7375
Connection ~ 5500 6825
Wire Wire Line
	5150 7175 5225 7175
Wire Wire Line
	5950 7275 5475 7275
Wire Wire Line
	4850 7475 4850 7725
Connection ~ 4850 7725
Wire Wire Line
	4850 7725 5225 7725
$Comp
L Device:R R12
U 1 1 64C22CCD
P 6175 7550
F 0 "R12" V 6255 7550 50  0000 C CNN
F 1 "100k" V 6175 7550 50  0000 C CNN
F 2 "Resistor_SMD:R_0603_1608Metric_Pad0.98x0.95mm_HandSolder" V 6105 7550 50  0001 C CNN
F 3 "" H 6175 7550 50  0001 C CNN
	1    6175 7550
	0    1    1    0   
$EndComp
$Comp
L Device:R R11
U 1 1 64CA039C
P 5700 7550
F 0 "R11" V 5780 7550 50  0000 C CNN
F 1 "100k" V 5700 7550 50  0000 C CNN
F 2 "Resistor_SMD:R_0603_1608Metric_Pad0.98x0.95mm_HandSolder" V 5630 7550 50  0001 C CNN
F 3 "" H 5700 7550 50  0001 C CNN
	1    5700 7550
	0    1    1    0   
$EndComp
Wire Wire Line
	6025 7550 5925 7550
Wire Wire Line
	5550 7550 5475 7550
Wire Wire Line
	5475 7550 5475 7725
Connection ~ 5475 7725
Wire Wire Line
	5950 7375 5925 7375
Wire Wire Line
	5925 7375 5925 7550
Connection ~ 5925 7550
Wire Wire Line
	5925 7550 5850 7550
Wire Wire Line
	6425 7550 6325 7550
$Comp
L Alimentations:AHT20 U12
U 1 1 64E1DBAA
P 1150 7275
F 0 "U12" H 1137 7615 50  0000 C CNN
F 1 "AHT20" H 1137 7524 50  0000 C CNN
F 2 "Alimentations:AHT20" H 1137 7523 50  0001 C CNN
F 3 "" H 1150 7550 50  0001 C CNN
	1    1150 7275
	1    0    0    -1  
$EndComp
Wire Wire Line
	2400 6725 2400 7725
Wire Wire Line
	1450 7375 1950 7375
Wire Wire Line
	1950 6050 1950 7375
Wire Wire Line
	1450 7275 1650 7275
Wire Wire Line
	1650 7275 1650 7725
Wire Wire Line
	1650 7725 2400 7725
Connection ~ 2400 7725
Wire Wire Line
	825  7375 675  7375
Wire Wire Line
	675  7375 675  7550
Wire Wire Line
	675  7550 2150 7550
Wire Wire Line
	2150 6275 2150 7550
Wire Wire Line
	825  7275 600  7275
Wire Wire Line
	600  7275 600  7625
Wire Wire Line
	600  7625 2300 7625
$Comp
L Device:R R9
U 1 1 650096DB
P 1950 5825
F 0 "R9" V 2030 5825 50  0000 C CNN
F 1 "4k7" V 1950 5825 50  0000 C CNN
F 2 "Resistor_SMD:R_0603_1608Metric_Pad0.98x0.95mm_HandSolder" V 1880 5825 50  0001 C CNN
F 3 "" H 1950 5825 50  0001 C CNN
	1    1950 5825
	-1   0    0    1   
$EndComp
$Comp
L Device:R R10
U 1 1 650493BF
P 2150 5825
F 0 "R10" V 2230 5825 50  0000 C CNN
F 1 "4k7" V 2150 5825 50  0000 C CNN
F 2 "Resistor_SMD:R_0603_1608Metric_Pad0.98x0.95mm_HandSolder" V 2080 5825 50  0001 C CNN
F 3 "" H 2150 5825 50  0001 C CNN
	1    2150 5825
	-1   0    0    1   
$EndComp
Wire Wire Line
	2300 5600 2150 5600
Wire Wire Line
	1950 5600 1950 5675
Connection ~ 2300 5600
Wire Wire Line
	2150 5675 2150 5600
Connection ~ 2150 5600
Wire Wire Line
	2150 5600 1950 5600
Wire Wire Line
	1950 6050 1950 5975
Wire Wire Line
	2150 5975 2150 6275
Wire Wire Line
	2150 6275 2625 6275
$Comp
L Device:C C24
U 1 1 6520E6D1
P 6800 1375
F 0 "C24" H 6650 1275 50  0000 L CNN
F 1 "100nF" H 6550 1475 50  0000 L CNN
F 2 "Capacitor_SMD:C_0201_0603Metric_Pad0.64x0.40mm_HandSolder" H 6838 1225 50  0001 C CNN
F 3 "" H 6800 1375 50  0001 C CNN
	1    6800 1375
	-1   0    0    1   
$EndComp
Wire Wire Line
	6800 1225 6800 825 
Connection ~ 6800 825 
Wire Wire Line
	6800 825  6975 825 
Wire Wire Line
	6800 1525 6800 2275
Connection ~ 6800 2275
Wire Wire Line
	6800 2275 7600 2275
$Comp
L Device:C C25
U 1 1 655DC2C7
P 2850 5825
F 0 "C25" H 2700 5750 50  0000 L CNN
F 1 "100nF" H 2600 5925 50  0000 L CNN
F 2 "Capacitor_SMD:C_0201_0603Metric_Pad0.64x0.40mm_HandSolder" H 2888 5675 50  0001 C CNN
F 3 "" H 2850 5825 50  0001 C CNN
	1    2850 5825
	-1   0    0    1   
$EndComp
Wire Wire Line
	2850 5675 2850 5600
Connection ~ 2850 5600
Wire Wire Line
	2850 5600 3200 5600
Wire Wire Line
	2850 5975 2850 7725
Connection ~ 2850 7725
Wire Wire Line
	2850 7725 3550 7725
$Comp
L Device:C C26
U 1 1 6492C1A0
P 5225 7425
F 0 "C26" H 5075 7325 50  0000 L CNN
F 1 "100nF" H 5225 7525 50  0000 L CNN
F 2 "Capacitor_SMD:C_0805_2012Metric_Pad1.18x1.45mm_HandSolder" H 5263 7275 50  0001 C CNN
F 3 "" H 5225 7425 50  0001 C CNN
	1    5225 7425
	-1   0    0    1   
$EndComp
Wire Wire Line
	5225 7275 5225 7175
Connection ~ 5225 7175
Wire Wire Line
	5225 7175 5950 7175
Wire Wire Line
	5225 7575 5225 7725
Connection ~ 5225 7725
$Comp
L Regulator_Switching:AP6503 U10
U 1 1 648675EB
P 8900 5550
F 0 "U10" H 8900 6217 50  0000 C CNN
F 1 "AP6503" H 8900 6126 50  0000 C CNN
F 2 "Alimentations:ESOP-8_150mil" H 9550 5000 50  0001 C CNN
F 3 "https://www.diodes.com/assets/Datasheets/AP6503.pdf" H 8900 5700 50  0001 C CNN
	1    8900 5550
	1    0    0    -1  
$EndComp
Wire Wire Line
	8575 5350 8600 5350
$Comp
L Device:R R24
U 1 1 64ABFC2A
P 8425 5350
F 0 "R24" V 8505 5350 50  0000 C CNN
F 1 "100k" V 8425 5350 50  0000 C CNN
F 2 "Resistor_SMD:R_0603_1608Metric_Pad0.98x0.95mm_HandSolder" V 8355 5350 50  0001 C CNN
F 3 "" H 8425 5350 50  0001 C CNN
	1    8425 5350
	0    1    1    0   
$EndComp
$Comp
L Device:C C23
U 1 1 64AC0EC7
P 8475 6025
F 0 "C23" H 8325 5950 50  0000 L CNN
F 1 "100nF" H 8225 6125 50  0000 L CNN
F 2 "Capacitor_SMD:C_0201_0603Metric_Pad0.64x0.40mm_HandSolder" H 8513 5875 50  0001 C CNN
F 3 "" H 8475 6025 50  0001 C CNN
	1    8475 6025
	-1   0    0    1   
$EndComp
Wire Wire Line
	8475 6175 8475 6300
Connection ~ 8475 6300
Wire Wire Line
	8475 6300 8800 6300
Wire Wire Line
	8600 5750 8475 5750
Wire Wire Line
	8475 5750 8475 5875
Wire Wire Line
	9250 5150 9200 5150
Wire Wire Line
	9550 5150 9625 5150
Wire Wire Line
	9625 5150 9625 5350
Connection ~ 9625 5350
Wire Wire Line
	9625 5350 9200 5350
$Comp
L Device:R R27
U 1 1 64E218D3
P 10075 5650
F 0 "R27" V 10155 5650 50  0000 C CNN
F 1 "47k" V 10075 5650 50  0000 C CNN
F 2 "Resistor_SMD:R_0603_1608Metric_Pad0.98x0.95mm_HandSolder" V 10005 5650 50  0001 C CNN
F 3 "" H 10075 5650 50  0001 C CNN
	1    10075 5650
	-1   0    0    1   
$EndComp
$Comp
L Device:R R26
U 1 1 64E22A49
P 10075 6050
F 0 "R26" V 10155 6050 50  0000 C CNN
F 1 "10k" V 10075 6050 50  0000 C CNN
F 2 "Resistor_SMD:R_0603_1608Metric_Pad0.98x0.95mm_HandSolder" V 10005 6050 50  0001 C CNN
F 3 "" H 10075 6050 50  0001 C CNN
	1    10075 6050
	-1   0    0    1   
$EndComp
Connection ~ 10075 5350
Wire Wire Line
	10075 5350 9925 5350
Wire Wire Line
	9900 5550 9900 5850
Wire Wire Line
	9900 5850 10075 5850
Wire Wire Line
	9200 5550 9900 5550
Wire Wire Line
	8800 6150 8800 6300
Connection ~ 8800 6300
Wire Wire Line
	8800 6300 9675 6300
Wire Wire Line
	10075 5800 10075 5850
Wire Wire Line
	10075 6200 10075 6300
Connection ~ 10075 6300
Connection ~ 10075 5850
Wire Wire Line
	10075 5850 10075 5900
Wire Wire Line
	10450 5350 10450 5700
Wire Wire Line
	10075 5350 10450 5350
Wire Wire Line
	10075 6300 10450 6300
Wire Wire Line
	10075 5350 10075 5500
Wire Wire Line
	9200 5750 9250 5750
Wire Wire Line
	9675 5750 9550 5750
Wire Wire Line
	9675 5750 9675 5850
$Comp
L Device:C C19
U 1 1 6591407A
P 8200 6025
F 0 "C19" H 8050 5925 50  0000 L CNN
F 1 "22UF" H 7975 6125 50  0000 L CNN
F 2 "Capacitor_SMD:C_0805_2012Metric_Pad1.18x1.45mm_HandSolder" H 8238 5875 50  0001 C CNN
F 3 "" H 8200 6025 50  0001 C CNN
	1    8200 6025
	-1   0    0    1   
$EndComp
Wire Wire Line
	8200 6300 8475 6300
NoConn ~ 9000 6150
Wire Wire Line
	4425 7175 4425 7300
Wire Wire Line
	4425 7175 4550 7175
$Comp
L Connector_Generic:Conn_01x01 J16
U 1 1 64ADF21E
P 10850 775
F 0 "J16" H 10930 817 50  0000 L CNN
F 1 "PCB" H 10930 726 50  0000 L CNN
F 2 "Alimentations:PCB-HPL814" H 10850 775 50  0001 C CNN
F 3 "~" H 10850 775 50  0001 C CNN
	1    10850 775 
	1    0    0    -1  
$EndComp
Text GLabel 10550 775  0    60   Input ~ 0
GND
Wire Wire Line
	10550 775  10650 775 
Wire Wire Line
	6900 6300 7475 6300
Wire Wire Line
	7100 4500 7450 4500
$Comp
L Device:R R30
U 1 1 65022DA2
P 7475 4925
F 0 "R30" V 7555 4925 50  0000 C CNN
F 1 "100k" V 7475 4925 50  0000 C CNN
F 2 "Resistor_SMD:R_0603_1608Metric_Pad0.98x0.95mm_HandSolder" V 7405 4925 50  0001 C CNN
F 3 "" H 7475 4925 50  0001 C CNN
	1    7475 4925
	-1   0    0    1   
$EndComp
$Comp
L Device:R R31
U 1 1 6502306B
P 7475 5850
F 0 "R31" V 7555 5850 50  0000 C CNN
F 1 "100k" V 7475 5850 50  0000 C CNN
F 2 "Resistor_SMD:R_0603_1608Metric_Pad0.98x0.95mm_HandSolder" V 7405 5850 50  0001 C CNN
F 3 "" H 7475 5850 50  0001 C CNN
	1    7475 5850
	-1   0    0    1   
$EndComp
Wire Wire Line
	7475 6000 7475 6300
Connection ~ 7475 6300
Wire Wire Line
	7475 6300 7725 6300
Wire Wire Line
	7475 5075 7475 5400
Wire Wire Line
	5600 5400 7475 5400
Connection ~ 5600 5400
Connection ~ 7475 5400
Wire Wire Line
	7475 5400 7475 5700
Text Label 6150 5400 0    60   ~ 0
Mesure_5V_Externe
Text GLabel 7400 4675 0    60   Input ~ 0
EXT5V
Wire Wire Line
	7400 4675 7475 4675
Wire Wire Line
	7475 4675 7475 4775
Text GLabel 9450 4800 0    60   Input ~ 0
EXT5V
Wire Wire Line
	9450 4800 10000 4800
Connection ~ 10000 4800
Wire Wire Line
	10000 4800 10000 4875
Text GLabel 8300 4700 2    60   Input ~ 0
EXT12V
Wire Wire Line
	5475 7725 6900 7725
Wire Wire Line
	5225 7725 5475 7725
Wire Wire Line
	5475 7550 5475 7275
Connection ~ 5475 7550
Wire Wire Line
	8200 5350 8200 5875
Wire Wire Line
	7725 4700 8200 4700
Wire Wire Line
	8200 5350 8050 5350
Wire Wire Line
	8050 5350 8050 6400
Wire Wire Line
	8050 6400 9800 6400
Wire Wire Line
	9125 4400 8975 4400
Wire Wire Line
	8200 5150 8200 4700
Connection ~ 8200 5150
Connection ~ 8200 4700
Wire Wire Line
	8200 4700 8300 4700
Text GLabel 1800 5600 0    60   Input ~ 0
+3V3
Wire Wire Line
	1950 5600 1800 5600
Connection ~ 1950 5600
$EndSCHEMATC
