EESchema Schematic File Version 2
LIBS:power
LIBS:device
LIBS:switches
LIBS:relays
LIBS:motors
LIBS:transistors
LIBS:conn
LIBS:linear
LIBS:regul
LIBS:74xx
LIBS:cmos4000
LIBS:adc-dac
LIBS:memory
LIBS:xilinx
LIBS:microcontrollers
LIBS:dsp
LIBS:microchip
LIBS:analog_switches
LIBS:motorola
LIBS:texas
LIBS:intel
LIBS:audio
LIBS:interface
LIBS:digital-audio
LIBS:philips
LIBS:display
LIBS:cypress
LIBS:siliconi
LIBS:opto
LIBS:atmel
LIBS:contrib
LIBS:valves
LIBS:ADC7686
LIBS:Alimentations
LIBS:chargeurlipo
LIBS:Molex2510
LIBS:SwitchPCB
LIBS:teensy
LIBS:PassiveRecorder-cache
EELAYER 25 0
EELAYER END
$Descr A4 11693 8268
encoding utf-8
Sheet 1 1
Title ""
Date ""
Rev ""
Comp ""
Comment1 ""
Comment2 ""
Comment3 ""
Comment4 ""
$EndDescr
$Comp
L Teensy3.6Min U1
U 1 1 5AD8B8A9
P 4450 5350
F 0 "U1" H 3600 6650 60  0000 C CNN
F 1 "Teensy3.6Min" H 4800 6650 60  0000 C CNN
F 2 "teensy:Teensy35_36Min" H 4200 5000 60  0001 C CNN
F 3 "" H 4200 4400 60  0000 C CNN
	1    4450 5350
	1    0    0    -1  
$EndComp
$Comp
L LM358 U2
U 1 1 5AFD39AC
P 3300 1700
F 0 "U2" H 3300 1900 50  0000 L CNN
F 1 "OPA2376" H 3300 1500 50  0000 L CNN
F 2 "Alimentations:SOIC-8_3.9x4.9mm_Pitch1.27mm" H 3300 1700 50  0001 C CNN
F 3 "" H 3300 1700 50  0001 C CNN
	1    3300 1700
	1    0    0    -1  
$EndComp
$Comp
L ConnM_01x03 J3
U 1 1 5AFD3CDD
P 850 1800
F 0 "J3" H 850 2000 50  0000 C CNN
F 1 "Micro" H 850 1600 50  0000 C CNN
F 2 "Connectors_Molex:Molex_KK-6410-03_03x2.54mm_Straight" H 850 1800 50  0001 C CNN
F 3 "" H 850 1800 50  0001 C CNN
	1    850  1800
	-1   0    0    -1  
$EndComp
$Comp
L C C1
U 1 1 5AFD3D66
P 1700 1800
F 0 "C1" V 1550 1750 50  0000 L CNN
F 1 "100nF" V 1850 1700 50  0000 L CNN
F 2 "Alimentations:C100NF" H 1738 1650 50  0001 C CNN
F 3 "" H 1700 1800 50  0001 C CNN
	1    1700 1800
	0    1    1    0   
$EndComp
$Comp
L R R3
U 1 1 5AFD3DBD
P 2700 1800
F 0 "R3" V 2780 1800 50  0000 C CNN
F 1 "4k7" V 2700 1800 50  0000 C CNN
F 2 "Alimentations:ResistanceH" V 2630 1800 50  0001 C CNN
F 3 "" H 2700 1800 50  0001 C CNN
	1    2700 1800
	0    1    1    0   
$EndComp
$Comp
L R R2
U 1 1 5AFD3E81
P 2500 1550
F 0 "R2" V 2580 1550 50  0000 C CNN
F 1 "10k" V 2500 1550 50  0000 C CNN
F 2 "Alimentations:ResistanceH" V 2430 1550 50  0001 C CNN
F 3 "" H 2500 1550 50  0001 C CNN
	1    2500 1550
	-1   0    0    1   
$EndComp
$Comp
L R R1
U 1 1 5AFD40CA
P 2500 1100
F 0 "R1" V 2580 1100 50  0000 C CNN
F 1 "10k" V 2500 1100 50  0000 C CNN
F 2 "Alimentations:ResistanceH" V 2430 1100 50  0001 C CNN
F 3 "" H 2500 1100 50  0001 C CNN
	1    2500 1100
	-1   0    0    1   
$EndComp
$Comp
L C C3
U 1 1 5AFD43A7
P 2250 2000
F 0 "C3" H 2150 1900 50  0000 L CNN
F 1 "100nF" H 2000 2100 50  0000 L CNN
F 2 "Alimentations:C_0805_HandSoldering" H 2288 1850 50  0001 C CNN
F 3 "" H 2250 2000 50  0001 C CNN
	1    2250 2000
	-1   0    0    1   
$EndComp
$Comp
L CP C2
U 1 1 5AFD4504
P 2000 2000
F 0 "C2" H 2025 2100 50  0000 L CNN
F 1 "220µF" H 1750 1900 50  0000 L CNN
F 2 "Alimentations:C1000µF" H 2038 1850 50  0001 C CNN
F 3 "" H 2000 2000 50  0001 C CNN
	1    2000 2000
	1    0    0    -1  
$EndComp
$Comp
L R R4
U 1 1 5AFD4A57
P 3450 1350
F 0 "R4" V 3530 1350 50  0000 C CNN
F 1 "100k" V 3450 1350 50  0000 C CNN
F 2 "Alimentations:ResistanceH" V 3380 1350 50  0001 C CNN
F 3 "" H 3450 1350 50  0001 C CNN
	1    3450 1350
	0    1    1    0   
$EndComp
$Comp
L C C4
U 1 1 5AFD566E
P 3950 1700
F 0 "C4" V 4100 1650 50  0000 L CNN
F 1 "100nF" V 3800 1600 50  0000 L CNN
F 2 "Alimentations:C100NF" H 3988 1550 50  0001 C CNN
F 3 "" H 3950 1700 50  0001 C CNN
	1    3950 1700
	0    1    1    0   
$EndComp
$Comp
L SW_SP3T_PCB SW1
U 1 1 5AFD5765
P 4400 1300
F 0 "SW1" H 4200 1400 50  0000 C CNN
F 1 "Analog gain" H 4400 1500 50  0000 C CNN
F 2 "Buttons_PCB:SW_3P_PCB_Angled" H 3775 1475 50  0001 C CNN
F 3 "" H 3775 1475 50  0001 C CNN
	1    4400 1300
	1    0    0    -1  
$EndComp
$Comp
L LM358 U2
U 2 1 5AFD5C09
P 6000 1700
F 0 "U2" H 6000 1900 50  0000 L CNN
F 1 "OPA2376" H 6000 1500 50  0000 L CNN
F 2 "Alimentations:SOIC-8_3.9x4.9mm_Pitch1.27mm" H 6000 1700 50  0001 C CNN
F 3 "" H 6000 1700 50  0001 C CNN
	2    6000 1700
	1    0    0    -1  
$EndComp
$Comp
L R R5
U 1 1 5AFD5CD9
P 5000 1200
F 0 "R5" V 5080 1200 50  0000 C CNN
F 1 "4k7" V 5000 1200 50  0000 C CNN
F 2 "Alimentations:ResistanceH" V 4930 1200 50  0001 C CNN
F 3 "" H 5000 1200 50  0001 C CNN
	1    5000 1200
	0    1    1    0   
$EndComp
$Comp
L R R6
U 1 1 5AFD5D4D
P 5000 1500
F 0 "R6" V 5080 1500 50  0000 C CNN
F 1 "15k" V 5000 1500 50  0000 C CNN
F 2 "Alimentations:ResistanceH" V 4930 1500 50  0001 C CNN
F 3 "" H 5000 1500 50  0001 C CNN
	1    5000 1500
	0    1    1    0   
$EndComp
$Comp
L R R7
U 1 1 5AFD5DB0
P 5000 1800
F 0 "R7" V 5080 1800 50  0000 C CNN
F 1 "47k" V 5000 1800 50  0000 C CNN
F 2 "Alimentations:ResistanceH" V 4930 1800 50  0001 C CNN
F 3 "" H 5000 1800 50  0001 C CNN
	1    5000 1800
	0    1    1    0   
$EndComp
$Comp
L R R8
U 1 1 5AFD6E2B
P 6200 1300
F 0 "R8" V 6280 1300 50  0000 C CNN
F 1 "100k" V 6200 1300 50  0000 C CNN
F 2 "Alimentations:ResistanceH" V 6130 1300 50  0001 C CNN
F 3 "" H 6200 1300 50  0001 C CNN
	1    6200 1300
	0    1    1    0   
$EndComp
$Comp
L C C6
U 1 1 5AFD80E8
P 7050 1400
F 0 "C6" H 6950 1300 50  0000 L CNN
F 1 "100nF" H 6800 1500 50  0000 L CNN
F 2 "Alimentations:C_0805_HandSoldering" H 7088 1250 50  0001 C CNN
F 3 "" H 7050 1400 50  0001 C CNN
	1    7050 1400
	-1   0    0    1   
$EndComp
$Comp
L CP C5
U 1 1 5AFD8168
P 6650 1400
F 0 "C5" H 6675 1500 50  0000 L CNN
F 1 "470µF" H 6675 1300 50  0000 L CNN
F 2 "Alimentations:C1000µF" H 6688 1250 50  0001 C CNN
F 3 "" H 6650 1400 50  0001 C CNN
	1    6650 1400
	1    0    0    -1  
$EndComp
Text GLabel 7600 850  2    60   Input ~ 0
+3V3
Text GLabel 7700 2300 2    60   Input ~ 0
AGND
Text Notes 4400 2250 0    60   ~ 0
R7 33dB (+ 0dB) 5mV->0.2V\nR6 43dB (+15dB) 5mV->0.7V\nR5 53dB (+24dB) 5mV->2.3V
Text Notes 7150 1100 0    60   ~ 0
Microphone pre-amp
$Comp
L FiveSwitchs SW2
U 1 1 5AFDE559
P 900 5050
F 0 "SW2" H 1400 5600 60  0000 C CNN
F 1 "FiveSwitchs" H 1450 5050 60  0000 C CNN
F 2 "Alimentations:JoystickCMS" H 1400 5150 60  0001 C CNN
F 3 "" H 1400 5150 60  0001 C CNN
	1    900  5050
	1    0    0    -1  
$EndComp
Text GLabel 6250 4400 2    60   Input ~ 0
+3V3
Text GLabel 6250 3750 2    60   Input ~ 0
GND
Text GLabel 7000 4500 0    60   Input ~ 0
GND
Text GLabel 7000 3950 0    60   Input ~ 0
+5V
$Comp
L SW_DIP_x01 SW3
U 1 1 5AFE4EF2
P 8950 3950
F 0 "SW3" H 8950 4100 50  0000 C CNN
F 1 "Arret/Marche" H 8950 3800 50  0000 C CNN
F 2 "Alimentations:InterAM" H 8950 3950 50  0001 C CNN
F 3 "" H 8950 3950 50  0001 C CNN
	1    8950 3950
	1    0    0    -1  
$EndComp
Text GLabel 5350 7250 2    60   Input ~ 0
+3V7_Permanent
$Comp
L R R10
U 1 1 5AFE761E
P 8600 4950
F 0 "R10" V 8680 4950 50  0000 C CNN
F 1 "100k" V 8600 4950 50  0000 C CNN
F 2 "Alimentations:ResistanceH" V 8530 4950 50  0001 C CNN
F 3 "" H 8600 4950 50  0001 C CNN
	1    8600 4950
	-1   0    0    1   
$EndComp
$Comp
L R R11
U 1 1 5AFE85C9
P 8600 5850
F 0 "R11" V 8680 5850 50  0000 C CNN
F 1 "27k" V 8600 5850 50  0000 C CNN
F 2 "Alimentations:ResistanceH" V 8530 5850 50  0001 C CNN
F 3 "" H 8600 5850 50  0001 C CNN
	1    8600 5850
	-1   0    0    1   
$EndComp
$Comp
L LF120_TO252 U3
U 1 1 5AFE9975
P 4800 7250
F 0 "U3" H 4700 7000 50  0000 C CNN
F 1 "HT7130 LDO 3V" H 4500 7400 50  0000 L CNN
F 2 "Alimentations:SOT-89-3" H 4800 7475 50  0001 C CIN
F 3 "" H 4800 7200 50  0001 C CNN
	1    4800 7250
	-1   0    0    -1  
$EndComp
$Comp
L Conn_01x04 J5
U 1 1 5AFEA613
P 750 6700
F 0 "J5" H 750 6900 50  0000 C CNN
F 1 "Ecran_OLED" H 750 6400 50  0000 C CNN
F 2 "Alimentations:Oled0.96" H 750 6700 50  0001 C CNN
F 3 "" H 750 6700 50  0001 C CNN
	1    750  6700
	-1   0    0    1   
$EndComp
$Comp
L Jumper_NC_Small JP1
U 1 1 5AFEACB0
P 1650 7000
F 0 "JP1" H 1650 7080 50  0000 C CNN
F 1 "GND_T" H 1660 6940 50  0000 C CNN
F 2 "Alimentations:Jumper2.54" H 1650 7000 50  0001 C CNN
F 3 "" H 1650 7000 50  0001 C CNN
	1    1650 7000
	-1   0    0    -1  
$EndComp
$Comp
L Jumper_NC_Small JP2
U 1 1 5AFEB242
P 1650 6750
F 0 "JP2" H 1650 6830 50  0000 C CNN
F 1 "VDD_T" H 1660 6690 50  0000 C CNN
F 2 "Alimentations:Jumper2.54" H 1650 6750 50  0001 C CNN
F 3 "" H 1650 6750 50  0001 C CNN
	1    1650 6750
	-1   0    0    -1  
$EndComp
$Comp
L Jumper_NC_Small JP3
U 1 1 5AFEB2BC
P 1650 6500
F 0 "JP3" H 1650 6580 50  0000 C CNN
F 1 "SCL_T" H 1660 6440 50  0000 C CNN
F 2 "Alimentations:Jumper2.54" H 1650 6500 50  0001 C CNN
F 3 "" H 1650 6500 50  0001 C CNN
	1    1650 6500
	-1   0    0    -1  
$EndComp
$Comp
L Jumper_NC_Small JP4
U 1 1 5AFEB32F
P 1650 6250
F 0 "JP4" H 1650 6330 50  0000 C CNN
F 1 "SDA_T" H 1660 6190 50  0000 C CNN
F 2 "Alimentations:Jumper2.54" H 1650 6250 50  0001 C CNN
F 3 "" H 1650 6250 50  0001 C CNN
	1    1650 6250
	-1   0    0    -1  
$EndComp
Text Label 1300 6800 2    60   ~ 0
GND_E
Text Label 1300 6700 2    60   ~ 0
VDD_E
Text Label 1300 6600 2    60   ~ 0
SCL_E
Text Label 1300 6500 2    60   ~ 0
SDA_E
$Comp
L ProtectionLIPO U5
U 1 1 5AFF526E
P 9500 1750
F 0 "U5" H 9450 1900 50  0000 L CNN
F 1 "ProtectionLIPO" H 9225 1600 50  0000 L CNN
F 2 "Alimentations:ProtectionLiPo" H 9300 1550 50  0001 L CIN
F 3 "" H 9500 1750 50  0001 L CNN
	1    9500 1750
	0    -1   -1   0   
$EndComp
$Comp
L ProtectionLIPO U6
U 1 1 5AFF54C2
P 10800 1750
F 0 "U6" H 10750 1900 50  0000 L CNN
F 1 "ProtectionLIPO" H 10525 1600 50  0000 L CNN
F 2 "Alimentations:ProtectionLiPo" H 10600 1550 50  0001 L CIN
F 3 "" H 10800 1750 50  0001 L CNN
	1    10800 1750
	0    -1   -1   0   
$EndComp
$Comp
L ConnM_01x02 J6
U 1 1 5AFFD1C0
P 11000 5800
F 0 "J6" H 11000 5900 50  0000 C CNN
F 1 "Alim12V" H 11000 5600 50  0000 C CNN
F 2 "Connectors_Molex:Molex_KK-6410-02_02x2.54mm_Straight" H 11000 5800 50  0001 C CNN
F 3 "" H 11000 5800 50  0001 C CNN
	1    11000 5800
	1    0    0    -1  
$EndComp
$Comp
L D_Schottky D2
U 1 1 5B00316B
P 10100 4250
F 0 "D2" H 10100 4350 50  0000 C CNN
F 1 "SS22" H 10100 4150 50  0000 C CNN
F 2 "Alimentations:D_2114" H 10100 4250 50  0001 C CNN
F 3 "" H 10100 4250 50  0001 C CNN
	1    10100 4250
	0    1    1    0   
$EndComp
NoConn ~ 3200 5700
NoConn ~ 3200 5800
NoConn ~ 3200 5900
NoConn ~ 3200 6000
NoConn ~ 3200 6100
NoConn ~ 3200 6200
NoConn ~ 3200 6300
NoConn ~ 3200 6400
NoConn ~ 3200 6500
NoConn ~ 5400 6500
NoConn ~ 5400 6400
NoConn ~ 5400 6000
NoConn ~ 5400 5900
NoConn ~ 5400 5800
NoConn ~ 5400 5700
NoConn ~ 5400 5500
$Comp
L R R12
U 1 1 5B02E0A6
P 1950 5900
F 0 "R12" V 2030 5900 50  0000 C CNN
F 1 "4k7" V 1950 5900 50  0000 C CNN
F 2 "Alimentations:ResistanceH" V 1880 5900 50  0001 C CNN
F 3 "" H 1950 5900 50  0001 C CNN
	1    1950 5900
	-1   0    0    1   
$EndComp
$Comp
L R R13
U 1 1 5B02F1F0
P 2150 5900
F 0 "R13" V 2230 5900 50  0000 C CNN
F 1 "4k7" V 2150 5900 50  0000 C CNN
F 2 "Alimentations:ResistanceH" V 2080 5900 50  0001 C CNN
F 3 "" H 2150 5900 50  0001 C CNN
	1    2150 5900
	-1   0    0    1   
$EndComp
$Comp
L CP C7
U 1 1 5B03AB47
P 7800 4200
F 0 "C7" H 7825 4300 50  0000 L CNN
F 1 "220µF" H 7825 4100 50  0000 L CNN
F 2 "Alimentations:C1000µF" H 7838 4050 50  0001 C CNN
F 3 "" H 7800 4200 50  0001 C CNN
	1    7800 4200
	1    0    0    -1  
$EndComp
$Comp
L 2xBatteriesLiPo U7
U 1 1 5B147931
P 10150 900
F 0 "U7" V 10125 1150 50  0000 L CNN
F 1 "2xBatteriesLiPo" V 10350 600 50  0000 L CNN
F 2 "Alimentations:2xBatteriesLiPo" H 10050 750 50  0001 L CIN
F 3 "" H 10250 950 50  0001 L CNN
	1    10150 900 
	0    -1   -1   0   
$EndComp
$Comp
L R R14
U 1 1 5B177CAF
P 8800 4950
F 0 "R14" V 8880 4950 50  0000 C CNN
F 1 "100k" V 8800 4950 50  0000 C CNN
F 2 "Alimentations:ResistanceH" V 8730 4950 50  0001 C CNN
F 3 "" H 8800 4950 50  0001 C CNN
	1    8800 4950
	-1   0    0    1   
$EndComp
$Comp
L R R15
U 1 1 5B177D59
P 8800 5850
F 0 "R15" V 8880 5850 50  0000 C CNN
F 1 "5.6k" V 8800 5850 50  0000 C CNN
F 2 "Alimentations:ResistanceH" V 8730 5850 50  0001 C CNN
F 3 "" H 8800 5850 50  0001 C CNN
	1    8800 5850
	-1   0    0    1   
$EndComp
$Comp
L C C8
U 1 1 5B17CE04
P 7450 4200
F 0 "C8" H 7350 4100 50  0000 L CNN
F 1 "100nF" H 7200 4300 50  0000 L CNN
F 2 "Alimentations:C100NF" H 7488 4050 50  0001 C CNN
F 3 "" H 7450 4200 50  0001 C CNN
	1    7450 4200
	-1   0    0    1   
$EndComp
$Comp
L L_Core_Ferrite_Small L1
U 1 1 5B19267D
P 8000 3950
F 0 "L1" V 7950 3900 50  0000 L CNN
F 1 "100uH" V 8100 3800 50  0000 L CNN
F 2 "Alimentations:L100mH" H 8000 3950 50  0001 C CNN
F 3 "" H 8000 3950 50  0001 C CNN
	1    8000 3950
	0    -1   -1   0   
$EndComp
$Comp
L L_Core_Ferrite_Small L2
U 1 1 5B1935FF
P 7300 850
F 0 "L2" V 7250 800 50  0000 L CNN
F 1 "100uH" V 7400 700 50  0000 L CNN
F 2 "Alimentations:L100mH" H 7300 850 50  0001 C CNN
F 3 "" H 7300 850 50  0001 C CNN
	1    7300 850 
	0    -1   -1   0   
$EndComp
Text Notes 7150 6900 0    157  ~ 31
Passive Recorder V0.3
Text GLabel 6250 4200 2    60   Input ~ 0
AGND
$Comp
L C C10
U 1 1 5B2EEDDB
P 7100 4200
F 0 "C10" H 6950 4100 50  0000 L CNN
F 1 "100nF" H 6850 4300 50  0000 L CNN
F 2 "Alimentations:C100NF" H 7138 4050 50  0001 C CNN
F 3 "" H 7100 4200 50  0001 C CNN
	1    7100 4200
	-1   0    0    1   
$EndComp
Text GLabel 6250 3950 2    60   Input ~ 0
+5V
$Comp
L Convertisseur12V>5V U9
U 1 1 5B3404BB
P 9800 5250
F 0 "U9" H 9750 5450 50  0000 L CNN
F 1 "Convertisseur12V>5V" H 9400 5550 50  0000 L CNN
F 2 "Alimentations:CONV12V_5V" H 9600 5050 50  0001 L CIN
F 3 "" H 9800 5250 50  0001 L CNN
	1    9800 5250
	1    0    0    -1  
$EndComp
$Comp
L D_Schottky D3
U 1 1 5B33450D
P 10250 5800
F 0 "D3" H 10250 5900 50  0000 C CNN
F 1 "SS22" H 10250 5700 50  0000 C CNN
F 2 "Alimentations:D_2114" H 10250 5800 50  0001 C CNN
F 3 "" H 10250 5800 50  0001 C CNN
	1    10250 5800
	1    0    0    -1  
$EndComp
$Comp
L Conn_01x15 J4
U 1 1 5B87281E
P 800 3350
F 0 "J4" H 800 4150 50  0000 C CNN
F 1 "Extension" H 800 2550 50  0000 C CNN
F 2 "Alimentations:PCB_EXT" H 800 3350 50  0001 C CNN
F 3 "" H 800 3350 50  0001 C CNN
	1    800  3350
	-1   0    0    1   
$EndComp
Text Label 1050 2650 0    60   ~ 0
+5V
Text Label 1050 2750 0    60   ~ 0
+3V3
Text Label 1050 2850 0    60   ~ 0
SCL0
Text Label 1050 2950 0    60   ~ 0
SDA0
Text Label 1050 3050 0    60   ~ 0
D22_A8
Text Label 1050 3150 0    60   ~ 0
D14_A0_SCK0
Text Label 1050 3250 0    60   ~ 0
RX1_MOSI1
Text Label 1050 3350 0    60   ~ 0
TX1_MISO1
Text Label 1050 3450 0    60   ~ 0
D04
Text Label 1050 3550 0    60   ~ 0
D05
Text Label 1050 3650 0    60   ~ 0
D09_RX2
Text Label 1050 4050 0    60   ~ 0
GND
Text Label 1050 3750 0    60   ~ 0
D10_TX2_CS0
Text Label 1050 3850 0    60   ~ 0
D11_MOSI
Text Label 1050 3950 0    60   ~ 0
D12_MISO
Text Label 9550 1200 0    60   ~ 0
+BAT1
Text Label 9550 1300 0    60   ~ 0
-BAT1
Text Label 10450 1200 0    60   ~ 0
-BAT2
Text Label 10450 1300 0    60   ~ 0
+BAT2
Text GLabel 9100 2350 0    60   Input ~ 0
GND
Text GLabel 9100 2200 0    60   Input ~ 0
+3V7_Permanent
$Comp
L Chargeur5V>4V2-eletechsup U4
U 1 1 5B8E2CE9
P 9000 2900
F 0 "U4" H 8950 3100 50  0000 L CNN
F 1 "Chargeur5V>4V2-eletechsup" H 8600 3200 50  0001 L CNN
F 2 "Alimentations:Chargeur5V_4V2-V" H 8800 2700 50  0001 L CIN
F 3 "" H 9000 2900 50  0001 L CNN
	1    9000 2900
	1    0    0    -1  
$EndComp
$Comp
L USB_OTG J7
U 1 1 5B8E2F49
P 10850 2800
F 0 "J7" H 11000 2450 50  0000 L CNN
F 1 "USB_OTG" H 10650 3150 50  0000 L CNN
F 2 "Alimentations:Micro-USB-V" H 11000 2750 50  0001 C CNN
F 3 "" H 11000 2750 50  0001 C CNN
	1    10850 2800
	-1   0    0    -1  
$EndComp
Text Label 8700 2600 0    60   ~ 0
+5V_C
Text Label 9700 3950 0    60   ~ 0
+3V7_D
Text Label 10450 5800 0    60   ~ 0
+12V_A
Text Label 9350 4800 0    60   ~ 0
+5V_E
Text Label 9100 5800 0    60   ~ 0
+12V_B
NoConn ~ 10100 5500
Text Label 6150 5200 0    60   ~ 0
Mesure_Batteries
Text Label 6150 5300 0    60   ~ 0
Mesure_12V_Externe
$Comp
L GS2 J9
U 1 1 5B8C2401
P 6050 6100
F 0 "J9" V 5950 6250 50  0000 C CNN
F 1 "B0" V 5950 6100 50  0000 C CNN
F 2 "Connectors:GS2" V 6124 6100 50  0001 C CNN
F 3 "" H 6050 6100 50  0001 C CNN
	1    6050 6100
	0    1    1    0   
$EndComp
$Comp
L GS2 J10
U 1 1 5B8C26A0
P 6050 6300
F 0 "J10" V 5950 6450 50  0000 C CNN
F 1 "B1" V 5950 6300 50  0000 C CNN
F 2 "Connectors:GS2" V 6124 6300 50  0001 C CNN
F 3 "" H 6050 6300 50  0001 C CNN
	1    6050 6300
	0    1    1    0   
$EndComp
$Comp
L GS2 J11
U 1 1 5B8C2759
P 6050 6500
F 0 "J11" V 5950 6650 50  0000 C CNN
F 1 "B2" V 5950 6500 50  0000 C CNN
F 2 "Connectors:GS2" V 6124 6500 50  0001 C CNN
F 3 "" H 6050 6500 50  0001 C CNN
	1    6050 6500
	0    1    1    0   
$EndComp
Text Notes 6550 6150 0    60   ~ 0
Teensy Recorders :\nD2 D1 D0\n 1  1  1 Passive Recorder (PR)\n 1  1  0 Active Recorder (AR)\n 1  0  1 PR+Wifi\n 1  0  0 PR+Lora
Text GLabel 6250 4850 2    60   Input ~ 0
SAUDIO
Text GLabel 7600 1700 2    60   Input ~ 0
SAUDIO
$Comp
L D_Schottky D4
U 1 1 5BA80C94
P 9600 3700
F 0 "D4" H 9600 3800 50  0000 C CNN
F 1 "SS22" H 9600 3600 50  0000 C CNN
F 2 "Alimentations:D_2114" H 9600 3700 50  0001 C CNN
F 3 "" H 9600 3700 50  0001 C CNN
	1    9600 3700
	0    -1   -1   0   
$EndComp
$Comp
L D_Schottky D1
U 1 1 5AFFC3B2
P 10250 3750
F 0 "D1" H 10250 3850 50  0000 C CNN
F 1 "SS22" H 10250 3650 50  0000 C CNN
F 2 "Alimentations:D_2114" H 10250 3750 50  0001 C CNN
F 3 "" H 10250 3750 50  0001 C CNN
	1    10250 3750
	0    -1   -1   0   
$EndComp
Wire Wire Line
	2850 1800 3000 1800
Wire Wire Line
	2550 1800 1850 1800
Wire Wire Line
	1550 1800 1050 1800
Wire Wire Line
	2500 1250 2500 1400
Wire Wire Line
	2250 1850 2250 1300
Wire Wire Line
	2000 1300 2700 1300
Connection ~ 2500 1300
Wire Wire Line
	2000 1850 2000 1300
Connection ~ 2250 1300
Wire Wire Line
	3200 2300 3200 2000
Wire Wire Line
	1100 2300 7700 2300
Wire Wire Line
	1100 2300 1100 1900
Wire Wire Line
	1100 1900 1050 1900
Wire Wire Line
	2000 2150 2000 2300
Connection ~ 2000 2300
Wire Wire Line
	2250 2150 2250 2300
Connection ~ 2250 2300
Wire Wire Line
	2500 1700 2500 2300
Connection ~ 2500 2300
Wire Wire Line
	2700 1600 3000 1600
Wire Wire Line
	2700 950  2700 1600
Wire Wire Line
	2500 850  2500 950 
Wire Wire Line
	1100 850  1100 1700
Wire Wire Line
	1100 1700 1050 1700
Wire Wire Line
	3200 850  3200 1400
Connection ~ 2500 850 
Wire Wire Line
	3300 1350 2900 1350
Wire Wire Line
	2900 1150 2900 1800
Connection ~ 2900 1800
Wire Wire Line
	3600 1700 3800 1700
Wire Wire Line
	3700 1150 3700 1700
Wire Wire Line
	3700 1350 3600 1350
Connection ~ 3700 1700
Wire Wire Line
	4100 1700 4150 1700
Wire Wire Line
	4150 1700 4150 1300
Wire Wire Line
	4150 1300 4200 1300
Wire Wire Line
	4350 1550 4350 2300
Connection ~ 3200 2300
Wire Wire Line
	4350 1700 4450 1700
Wire Wire Line
	4450 1700 4450 1550
Connection ~ 4350 1700
Wire Wire Line
	4600 1200 4850 1200
Wire Wire Line
	4600 1300 4800 1300
Wire Wire Line
	4800 1300 4800 1500
Wire Wire Line
	4800 1500 4850 1500
Wire Wire Line
	4600 1400 4700 1400
Wire Wire Line
	4700 1400 4700 1800
Wire Wire Line
	4700 1800 4850 1800
Wire Wire Line
	5150 1200 5250 1200
Wire Wire Line
	5250 1200 5250 1800
Wire Wire Line
	5150 1800 5700 1800
Wire Wire Line
	5250 1500 5150 1500
Connection ~ 5250 1500
Wire Wire Line
	5700 1600 5650 1600
Wire Wire Line
	5650 1600 5650 950 
Wire Wire Line
	5650 950  2700 950 
Wire Wire Line
	5900 850  5900 1400
Connection ~ 3200 850 
Wire Wire Line
	5900 2300 5900 2000
Connection ~ 4350 2300
Wire Wire Line
	5250 1300 6050 1300
Connection ~ 5250 1300
Wire Wire Line
	6350 1300 6450 1300
Wire Wire Line
	6450 1100 6450 1700
Wire Wire Line
	6300 1700 7600 1700
Connection ~ 5900 850 
Wire Wire Line
	6650 850  6650 1250
Connection ~ 6650 850 
Wire Wire Line
	7050 850  7050 1250
Connection ~ 7050 850 
Wire Wire Line
	6650 2300 6650 1550
Connection ~ 5900 2300
Wire Wire Line
	7050 1550 7050 2300
Connection ~ 6650 2300
Connection ~ 7050 2300
Connection ~ 6450 1700
Wire Notes Line
	8050 700  700  700 
Wire Notes Line
	700  700  700  2450
Wire Notes Line
	700  2450 8050 2450
Wire Notes Line
	8050 2450 8050 700 
Connection ~ 5250 1800
Wire Wire Line
	950  4700 800  4700
Wire Wire Line
	800  4700 800  4200
Wire Wire Line
	800  4200 3200 4200
Wire Wire Line
	2000 4500 2000 4700
Wire Wire Line
	2000 4700 1950 4700
Wire Wire Line
	2100 4600 2100 4800
Wire Wire Line
	2100 4800 1950 4800
Wire Wire Line
	1950 4900 3200 4900
Wire Wire Line
	950  4900 800  4900
Wire Wire Line
	800  4900 800  5100
Wire Wire Line
	950  4800 700  4800
Wire Wire Line
	700  4800 700  5200
Wire Wire Line
	6700 6300 6700 7650
Wire Wire Line
	6050 5100 5400 5100
Wire Wire Line
	5400 4400 6250 4400
Wire Wire Line
	10850 4500 7000 4500
Wire Wire Line
	4500 7250 4250 7250
Wire Wire Line
	4250 7250 4250 6800
Wire Wire Line
	2400 7650 6700 7650
Wire Wire Line
	4800 7650 4800 7550
Connection ~ 6700 6300
Wire Wire Line
	1550 6250 1350 6250
Wire Wire Line
	1350 6250 1350 6500
Wire Wire Line
	1350 6500 950  6500
Wire Wire Line
	1550 6500 1450 6500
Wire Wire Line
	1450 6500 1450 6600
Wire Wire Line
	1450 6600 950  6600
Wire Wire Line
	1550 6750 1450 6750
Wire Wire Line
	1450 6750 1450 6700
Wire Wire Line
	1450 6700 950  6700
Wire Wire Line
	1550 7000 1350 7000
Wire Wire Line
	1350 7000 1350 6800
Wire Wire Line
	1350 6800 950  6800
Wire Wire Line
	1950 5600 3200 5600
Wire Wire Line
	2300 5600 2300 6750
Wire Wire Line
	2300 6750 1750 6750
Wire Wire Line
	2400 7650 2400 7000
Wire Wire Line
	2400 7000 1750 7000
Connection ~ 4800 7650
Wire Wire Line
	1750 6250 2500 6250
Wire Wire Line
	1750 6500 2400 6500
Wire Wire Line
	5400 5000 5500 5000
Wire Wire Line
	5500 2950 5500 6800
Wire Wire Line
	5500 6800 2500 6800
Wire Wire Line
	2500 6800 2500 6250
Wire Wire Line
	5400 4900 5700 4900
Wire Wire Line
	5700 2850 5700 6900
Wire Wire Line
	5700 6900 2400 6900
Wire Wire Line
	2400 6900 2400 6500
Wire Wire Line
	1950 5600 1950 5750
Connection ~ 2300 5600
Wire Wire Line
	2150 5750 2150 5600
Connection ~ 2150 5600
Wire Wire Line
	1950 6050 1950 6250
Connection ~ 1950 6250
Wire Wire Line
	2150 6050 2150 6500
Connection ~ 2150 6500
Wire Wire Line
	7800 3950 7800 4050
Connection ~ 7800 3950
Wire Wire Line
	3200 4500 2000 4500
Wire Wire Line
	3200 4600 2100 4600
Wire Wire Line
	2100 5100 2100 5200
Wire Wire Line
	2100 5200 700  5200
Wire Wire Line
	7000 3950 7900 3950
Wire Wire Line
	7450 4050 7450 3950
Connection ~ 7450 3950
Wire Wire Line
	7600 850  7400 850 
Wire Wire Line
	1100 850  1900 850 
Wire Wire Line
	2200 850  7200 850 
Wire Wire Line
	1450 1250 1450 2300
Connection ~ 1450 2300
Wire Wire Line
	6050 5100 6050 4850
Wire Wire Line
	6050 4850 6250 4850
Wire Wire Line
	5400 4300 6100 4300
Wire Wire Line
	6100 4200 6250 4200
Wire Wire Line
	3200 5100 2100 5100
Wire Wire Line
	800  5100 2000 5100
Wire Wire Line
	2000 5100 2000 5000
Wire Wire Line
	2000 5000 3200 5000
Wire Wire Line
	7100 3950 7100 4050
Connection ~ 7100 3950
Wire Wire Line
	8200 6300 8200 4500
Connection ~ 8200 4500
Wire Wire Line
	6000 4200 5400 4200
Wire Wire Line
	6000 2650 6000 4200
Wire Wire Line
	6000 3950 6250 3950
Wire Wire Line
	1000 2650 6000 2650
Connection ~ 6000 3950
Wire Wire Line
	1000 2750 5900 2750
Wire Wire Line
	5900 2750 5900 4400
Connection ~ 5900 4400
Wire Wire Line
	2200 3950 2200 5500
Wire Wire Line
	2200 5500 3200 5500
Wire Wire Line
	2300 5400 3200 5400
Wire Wire Line
	2300 3850 2300 5400
Wire Wire Line
	2400 5300 3200 5300
Wire Wire Line
	2400 3750 2400 5300
Wire Wire Line
	3200 5200 2500 5200
Wire Wire Line
	2500 5200 2500 3650
Wire Wire Line
	3200 4800 2600 4800
Wire Wire Line
	2600 4800 2600 3550
Wire Wire Line
	3200 4700 2700 4700
Wire Wire Line
	2700 4700 2700 3450
Wire Wire Line
	3200 4400 2800 4400
Wire Wire Line
	2800 4400 2800 3350
Wire Wire Line
	3200 4300 2900 4300
Wire Wire Line
	2900 4300 2900 3250
Wire Wire Line
	1000 3150 5600 3150
Wire Wire Line
	5800 4600 5400 4600
Wire Wire Line
	5800 3050 5800 4600
Wire Wire Line
	1000 3050 5800 3050
Wire Wire Line
	2500 3650 1000 3650
Wire Wire Line
	2600 3550 1000 3550
Wire Wire Line
	2700 3450 1000 3450
Wire Wire Line
	2800 3350 1000 3350
Wire Wire Line
	2900 3250 1000 3250
Wire Wire Line
	10000 1200 9450 1200
Wire Wire Line
	9450 1200 9450 1400
Wire Wire Line
	10100 1300 10100 1150
Wire Wire Line
	9550 1300 10100 1300
Wire Wire Line
	9550 1300 9550 1400
Wire Wire Line
	10200 1300 10750 1300
Wire Wire Line
	10750 1300 10750 1400
Wire Wire Line
	10300 1200 10850 1200
Wire Wire Line
	10850 1200 10850 1400
Wire Wire Line
	9800 2200 9800 3300
Wire Wire Line
	9100 2200 10750 2200
Wire Wire Line
	10750 2200 10750 2100
Wire Wire Line
	9550 2100 9550 2350
Wire Wire Line
	9100 2350 10850 2350
Wire Wire Line
	10850 2350 10850 2100
Connection ~ 9550 2350
Connection ~ 9800 2200
Wire Wire Line
	5100 7250 5350 7250
Wire Wire Line
	10250 2200 10250 3600
Connection ~ 10250 2200
Wire Wire Line
	10250 3500 10600 3500
Wire Wire Line
	8800 5100 8800 5700
Connection ~ 8800 5300
Wire Wire Line
	8800 6300 8800 6000
Connection ~ 8800 6300
Wire Wire Line
	8600 6300 8600 6000
Connection ~ 8600 6300
Wire Wire Line
	8600 5100 8600 5700
Connection ~ 8600 5200
Wire Wire Line
	8800 5300 5400 5300
Wire Wire Line
	8600 5200 5400 5200
Wire Wire Line
	6250 6300 10500 6300
Wire Wire Line
	10800 5800 10400 5800
Wire Wire Line
	9900 5500 9900 5800
Wire Wire Line
	9000 5800 10100 5800
Wire Wire Line
	9700 6300 9700 5500
Wire Wire Line
	9500 5500 9500 5650
Wire Wire Line
	9500 5650 9100 5650
Wire Wire Line
	10100 4800 9100 4800
Wire Wire Line
	10800 5900 10500 5900
Wire Wire Line
	10500 5900 10500 6300
Connection ~ 9700 6300
Wire Wire Line
	9200 3150 9200 3300
Wire Wire Line
	9200 3300 9800 3300
Wire Wire Line
	8450 2600 8450 3500
Wire Wire Line
	8450 3500 9600 3500
Wire Wire Line
	8800 3500 8800 3150
Wire Wire Line
	9100 4800 9100 5650
Connection ~ 8200 6300
Wire Wire Line
	8800 4800 8800 4700
Wire Wire Line
	8800 4700 9000 4700
Wire Wire Line
	9000 4700 9000 5800
Connection ~ 9900 5800
Wire Wire Line
	8600 4800 8600 4600
Wire Wire Line
	8600 4600 10600 4600
Wire Wire Line
	10600 4600 10600 3500
Connection ~ 10250 3500
Wire Wire Line
	2400 3750 1000 3750
Wire Wire Line
	2300 3850 1000 3850
Wire Wire Line
	2200 3950 1000 3950
Wire Wire Line
	1000 4050 1700 4050
Wire Wire Line
	1700 4050 1700 4200
Connection ~ 1700 4200
Wire Wire Line
	6250 3750 3000 3750
Wire Wire Line
	3000 3750 3000 4200
Connection ~ 3000 4200
Wire Wire Line
	5400 6100 5850 6100
Wire Wire Line
	5400 6200 5800 6200
Wire Wire Line
	5800 6200 5800 6300
Wire Wire Line
	5800 6300 5850 6300
Wire Wire Line
	5400 6300 5600 6300
Wire Wire Line
	5600 6300 5600 6500
Wire Wire Line
	5600 6500 5850 6500
Wire Wire Line
	6250 6100 6400 6100
Wire Wire Line
	6400 5600 6400 6500
Wire Wire Line
	6400 6500 6250 6500
Connection ~ 6400 6300
Wire Wire Line
	5400 5600 6400 5600
Connection ~ 6400 6100
Wire Wire Line
	6100 4300 6100 4200
Wire Wire Line
	9600 3500 9600 3550
Connection ~ 8800 3500
Wire Wire Line
	9600 3850 9600 3950
Connection ~ 9600 3950
Wire Wire Line
	7100 4350 7100 4500
Connection ~ 7100 4500
Wire Wire Line
	7450 4350 7450 4500
Connection ~ 7450 4500
Wire Wire Line
	9250 3950 10250 3950
Wire Wire Line
	10250 3950 10250 3900
Wire Wire Line
	10100 4400 10100 4800
Wire Wire Line
	9450 2100 9450 2200
Connection ~ 9450 2200
Wire Wire Line
	10000 1150 10000 1200
Wire Wire Line
	10200 1300 10200 1150
Wire Wire Line
	10300 1200 10300 1150
Wire Wire Line
	7800 4350 7800 4500
Connection ~ 7800 4500
Wire Wire Line
	8650 3950 8100 3950
Text Label 8200 3950 0    60   ~ 0
+3V7_C
NoConn ~ 10550 2800
NoConn ~ 10550 2900
NoConn ~ 10550 3000
Wire Wire Line
	10850 3200 10850 4500
Wire Wire Line
	10950 3400 10950 3200
Wire Wire Line
	9000 3400 10950 3400
Connection ~ 10850 3400
Wire Wire Line
	8450 2600 10550 2600
Wire Wire Line
	10100 2600 10100 4100
Connection ~ 10100 2600
Wire Wire Line
	9000 3400 9000 3150
NoConn ~ 5400 4500
Wire Wire Line
	5600 5400 5400 5400
Wire Wire Line
	5600 3150 5600 5400
NoConn ~ 5400 4700
NoConn ~ 5400 4800
Wire Wire Line
	5500 2950 1000 2950
Connection ~ 5500 5000
Wire Wire Line
	1000 2850 5700 2850
Connection ~ 5700 4900
Text Notes 1550 2050 0    47   ~ 0
[470pF]
Text Notes 3850 1500 0    47   ~ 0
[1nF]
$Comp
L C C11
U 1 1 5C577D8A
P 3450 1150
F 0 "C11" V 3400 1200 50  0000 L CNN
F 1 "[12pF]" V 3300 1050 50  0000 L CNN
F 2 "Alimentations:C100NF" H 3488 1000 50  0001 C CNN
F 3 "" H 3450 1150 50  0001 C CNN
	1    3450 1150
	0    1    1    0   
$EndComp
Wire Wire Line
	3600 1150 3700 1150
Connection ~ 3700 1350
Wire Wire Line
	3300 1150 2900 1150
Connection ~ 2900 1350
$Comp
L C C12
U 1 1 5C5783FE
P 6200 1100
F 0 "C12" V 6150 1150 50  0000 L CNN
F 1 "[12pF]" V 6050 1000 50  0000 L CNN
F 2 "Alimentations:C100NF" H 6238 950 50  0001 C CNN
F 3 "" H 6200 1100 50  0001 C CNN
	1    6200 1100
	0    1    1    0   
$EndComp
Wire Wire Line
	6350 1100 6450 1100
Connection ~ 6450 1300
Wire Wire Line
	6050 1100 5750 1100
Wire Wire Line
	5750 1100 5750 1300
Connection ~ 5750 1300
Connection ~ 2700 1300
Wire Notes Line
	2850 900  2850 1250
Wire Notes Line
	2850 1250 3750 1250
Wire Notes Line
	3750 1250 3750 900 
Wire Notes Line
	3750 900  2850 900 
Wire Notes Line
	6500 1200 6000 1200
Wire Notes Line
	6000 1200 6000 900 
Wire Notes Line
	6000 900  6500 900 
Wire Notes Line
	6500 900  6500 1200
Text Notes 4900 1150 0    47   ~ 0
[2k2]
Text Notes 4900 1450 0    47   ~ 0
[4k7]
Text Notes 4900 1750 0    47   ~ 0
[10k]
$Comp
L R R16
U 1 1 5C5F89C8
P 2050 850
F 0 "R16" V 2130 850 50  0000 C CNN
F 1 "2k2" V 2050 850 50  0000 C CNN
F 2 "Resistors_THT:R_Axial_DIN0204_L3.6mm_D1.6mm_P2.54mm_Vertical" V 1980 850 50  0001 C CNN
F 3 "" H 2050 850 50  0001 C CNN
	1    2050 850 
	0    1    1    0   
$EndComp
Wire Wire Line
	1700 900  1700 850 
Connection ~ 1700 850 
Wire Wire Line
	1450 950  1450 850 
Connection ~ 1450 850 
$Comp
L R R17
U 1 1 5C5F99F1
P 1700 1050
F 0 "R17" V 1600 1050 50  0000 C CNN
F 1 "4k7" V 1700 1050 50  0000 C CNN
F 2 "Resistors_THT:R_Axial_DIN0204_L3.6mm_D1.6mm_P2.54mm_Vertical" V 1630 1050 50  0001 C CNN
F 3 "" H 1700 1050 50  0001 C CNN
	1    1700 1050
	-1   0    0    1   
$EndComp
$Comp
L CP C13
U 1 1 5C5F9B08
P 1450 1100
F 0 "C13" V 1500 1150 50  0000 L CNN
F 1 "2.2µF" V 1500 800 50  0000 L CNN
F 2 "Capacitors_THT:CP_Radial_D6.3mm_P2.50mm" H 1488 950 50  0001 C CNN
F 3 "" H 1450 1100 50  0001 C CNN
	1    1450 1100
	1    0    0    -1  
$EndComp
$Comp
L C C9
U 1 1 5C601DB6
P 1200 1100
F 0 "C9" V 1150 900 50  0000 L CNN
F 1 "100nF" V 1150 1200 50  0000 L CNN
F 2 "Alimentations:C_0805_HandSoldering" H 1238 950 50  0001 C CNN
F 3 "" H 1200 1100 50  0001 C CNN
	1    1200 1100
	-1   0    0    1   
$EndComp
Wire Wire Line
	1200 950  1200 850 
Connection ~ 1200 850 
Wire Wire Line
	1700 1600 1700 1200
Wire Wire Line
	1200 1600 1700 1600
Connection ~ 1450 1600
Wire Wire Line
	1200 1600 1200 1250
Wire Notes Line
	1000 750  2250 750 
Wire Notes Line
	2250 750  2250 1200
Wire Notes Line
	2250 1200 1000 1200
Wire Notes Line
	1000 1200 1000 750 
Text Notes 500  650  0    47   ~ 0
MEMS Microphone : C13=No, C1=100nF, C11=No, C4=100nF, C12=No, R17=No, R16=Strap, R5=4.7k, R6=15k, R7=47k\nFG Microphone : C13=2.2µF, C1=470pF, C11=12pF, C4=1nF, C12=12pF, R17=4.7k, R16=2.2k, R5=2.2k, R6=4.7k, R7=10k
$EndSCHEMATC
