M48
; DRILL file {KiCad (5.1.4)-1} date 29/12/2019 16:21:09
; FORMAT={-:-/ absolute / inch / decimal}
; #@! TF.CreationDate,2019-12-29T16:21:09+01:00
; #@! TF.GenerationSoftware,Kicad,Pcbnew,(5.1.4)-1
; #@! TF.FileFunction,NonPlated,1,2,NPTH
FMAT,2
INCH
T1C0.0591
T2C0.0984
%
G90
G05
T1
X3.8984Y-3.5913
X3.8984Y-3.7487
T2
X6.0789Y-2.1017
X6.0789Y-4.2868
X6.8663Y-2.1017
X6.8663Y-4.2868
X4.4882Y-2.4176
X4.4882Y-4.6224
X5.5118Y-2.4176
X5.5118Y-4.6224
X3.4824Y-1.9689
X3.4824Y-4.3311
X7.5376Y-1.9689
X7.5376Y-4.3311
T2
G00X3.2595Y-2.1874
M15
G01X3.2595Y-2.2268
M16
G05
G00X3.2595Y-3.0732
M15
G01X3.2595Y-3.1126
M16
G05
G00X4.165Y-2.1874
M15
G01X4.165Y-2.2268
M16
G05
G00X4.165Y-3.0732
M15
G01X4.165Y-3.1126
M16
G05
T0
M30
