G04 #@! TF.GenerationSoftware,KiCad,Pcbnew,(5.1.4)-1*
G04 #@! TF.CreationDate,2019-12-29T16:21:11+01:00*
G04 #@! TF.ProjectId,PassiveRecorder,50617373-6976-4655-9265-636f72646572,rev?*
G04 #@! TF.SameCoordinates,Original*
G04 #@! TF.FileFunction,Legend,Bot*
G04 #@! TF.FilePolarity,Positive*
%FSLAX46Y46*%
G04 Gerber Fmt 4.6, Leading zero omitted, Abs format (unit mm)*
G04 Created by KiCad (PCBNEW (5.1.4)-1) date 2019-12-29 16:21:11*
%MOMM*%
%LPD*%
G04 APERTURE LIST*
%ADD10C,0.150000*%
%ADD11C,0.120000*%
G04 APERTURE END LIST*
D10*
X108576952Y-87320380D02*
X108576952Y-86320380D01*
X108338857Y-86320380D01*
X108196000Y-86368000D01*
X108100761Y-86463238D01*
X108053142Y-86558476D01*
X108005523Y-86748952D01*
X108005523Y-86891809D01*
X108053142Y-87082285D01*
X108100761Y-87177523D01*
X108196000Y-87272761D01*
X108338857Y-87320380D01*
X108576952Y-87320380D01*
X107576952Y-86939428D02*
X106815047Y-86939428D01*
X110910666Y-87574380D02*
X111244000Y-87098190D01*
X111482095Y-87574380D02*
X111482095Y-86574380D01*
X111101142Y-86574380D01*
X111005904Y-86622000D01*
X110958285Y-86669619D01*
X110910666Y-86764857D01*
X110910666Y-86907714D01*
X110958285Y-87002952D01*
X111005904Y-87050571D01*
X111101142Y-87098190D01*
X111482095Y-87098190D01*
X110577333Y-86574380D02*
X109910666Y-87574380D01*
X109910666Y-86574380D02*
X110577333Y-87574380D01*
X108576952Y-80970380D02*
X108576952Y-79970380D01*
X108338857Y-79970380D01*
X108196000Y-80018000D01*
X108100761Y-80113238D01*
X108053142Y-80208476D01*
X108005523Y-80398952D01*
X108005523Y-80541809D01*
X108053142Y-80732285D01*
X108100761Y-80827523D01*
X108196000Y-80922761D01*
X108338857Y-80970380D01*
X108576952Y-80970380D01*
X107576952Y-80589428D02*
X106815047Y-80589428D01*
X107196000Y-80970380D02*
X107196000Y-80208476D01*
X111505904Y-79970380D02*
X110934476Y-79970380D01*
X111220190Y-80970380D02*
X111220190Y-79970380D01*
X110696380Y-79970380D02*
X110029714Y-80970380D01*
X110029714Y-79970380D02*
X110696380Y-80970380D01*
D11*
X91116000Y-69934000D02*
X91116000Y-68834000D01*
X89916000Y-69934000D02*
X91116000Y-69934000D01*
X86416000Y-67734000D02*
X88646000Y-67734000D01*
X86416000Y-69934000D02*
X86416000Y-67734000D01*
X88646000Y-69934000D02*
X86416000Y-69934000D01*
X91116000Y-66632000D02*
X91116000Y-65532000D01*
X89916000Y-66632000D02*
X91116000Y-66632000D01*
X86416000Y-64432000D02*
X88646000Y-64432000D01*
X86416000Y-66632000D02*
X86416000Y-64432000D01*
X88646000Y-66632000D02*
X86416000Y-66632000D01*
X91116000Y-63076000D02*
X91116000Y-61976000D01*
X89916000Y-63076000D02*
X91116000Y-63076000D01*
X86416000Y-60876000D02*
X88646000Y-60876000D01*
X86416000Y-63076000D02*
X86416000Y-60876000D01*
X88646000Y-63076000D02*
X86416000Y-63076000D01*
X91116000Y-59774000D02*
X91116000Y-58674000D01*
X89916000Y-59774000D02*
X91116000Y-59774000D01*
X86416000Y-57574000D02*
X88646000Y-57574000D01*
X86416000Y-59774000D02*
X86416000Y-57574000D01*
X88646000Y-59774000D02*
X86416000Y-59774000D01*
D10*
X112000000Y-59408000D02*
X112000000Y-119408000D01*
X112000000Y-119408000D02*
X142000000Y-119408000D01*
X142000000Y-59408000D02*
X142000000Y-119408000D01*
X112000000Y-59408000D02*
X142000000Y-59408000D01*
D11*
X130302000Y-89026000D02*
X132842000Y-89026000D01*
X132842000Y-90806000D02*
X130302000Y-90806000D01*
X132842000Y-90806000D02*
X132842000Y-89026000D01*
X130302000Y-89026000D02*
X130302000Y-90806000D01*
X130302000Y-91566000D02*
X132842000Y-91566000D01*
X132842000Y-93346000D02*
X130302000Y-93346000D01*
X132842000Y-93346000D02*
X132842000Y-91566000D01*
X130302000Y-91566000D02*
X130302000Y-93346000D01*
X130302000Y-94360000D02*
X130302000Y-96140000D01*
X132842000Y-96140000D02*
X132842000Y-94360000D01*
X132842000Y-96140000D02*
X130302000Y-96140000D01*
X130302000Y-94360000D02*
X132842000Y-94360000D01*
X82490000Y-69148000D02*
X83820000Y-69148000D01*
X82490000Y-67818000D02*
X82490000Y-69148000D01*
X82490000Y-66548000D02*
X85150000Y-66548000D01*
X85150000Y-66548000D02*
X85150000Y-58868000D01*
X82490000Y-66548000D02*
X82490000Y-58868000D01*
X82490000Y-58868000D02*
X85150000Y-58868000D01*
X107564000Y-84200000D02*
X111384000Y-84200000D01*
X111384000Y-84200000D02*
X111384000Y-85980000D01*
X111384000Y-85980000D02*
X107564000Y-85980000D01*
X107564000Y-84200000D02*
X107564000Y-85980000D01*
X107564000Y-81406000D02*
X107564000Y-83186000D01*
X111384000Y-83186000D02*
X107564000Y-83186000D01*
X111384000Y-81406000D02*
X111384000Y-83186000D01*
X107564000Y-81406000D02*
X111384000Y-81406000D01*
D10*
X92585333Y-69934000D02*
X91885333Y-69700666D01*
X92585333Y-69467333D01*
X91885333Y-69234000D02*
X92585333Y-69234000D01*
X92585333Y-69067333D01*
X92552000Y-68967333D01*
X92485333Y-68900666D01*
X92418666Y-68867333D01*
X92285333Y-68834000D01*
X92185333Y-68834000D01*
X92052000Y-68867333D01*
X91985333Y-68900666D01*
X91918666Y-68967333D01*
X91885333Y-69067333D01*
X91885333Y-69234000D01*
X91885333Y-68534000D02*
X92585333Y-68534000D01*
X92585333Y-68367333D01*
X92552000Y-68267333D01*
X92485333Y-68200666D01*
X92418666Y-68167333D01*
X92285333Y-68134000D01*
X92185333Y-68134000D01*
X92052000Y-68167333D01*
X91985333Y-68200666D01*
X91918666Y-68267333D01*
X91885333Y-68367333D01*
X91885333Y-68534000D01*
X91885333Y-67834000D02*
X92585333Y-67834000D01*
X92552000Y-66232000D02*
X92585333Y-66298666D01*
X92585333Y-66398666D01*
X92552000Y-66498666D01*
X92485333Y-66565333D01*
X92418666Y-66598666D01*
X92285333Y-66632000D01*
X92185333Y-66632000D01*
X92052000Y-66598666D01*
X91985333Y-66565333D01*
X91918666Y-66498666D01*
X91885333Y-66398666D01*
X91885333Y-66332000D01*
X91918666Y-66232000D01*
X91952000Y-66198666D01*
X92185333Y-66198666D01*
X92185333Y-66332000D01*
X91885333Y-65898666D02*
X92585333Y-65898666D01*
X91885333Y-65498666D01*
X92585333Y-65498666D01*
X91885333Y-65165333D02*
X92585333Y-65165333D01*
X92585333Y-64998666D01*
X92552000Y-64898666D01*
X92485333Y-64832000D01*
X92418666Y-64798666D01*
X92285333Y-64765333D01*
X92185333Y-64765333D01*
X92052000Y-64798666D01*
X91985333Y-64832000D01*
X91918666Y-64898666D01*
X91885333Y-64998666D01*
X91885333Y-65165333D01*
X91885333Y-64465333D02*
X92585333Y-64465333D01*
X91918666Y-62976000D02*
X91885333Y-62876000D01*
X91885333Y-62709333D01*
X91918666Y-62642666D01*
X91952000Y-62609333D01*
X92018666Y-62576000D01*
X92085333Y-62576000D01*
X92152000Y-62609333D01*
X92185333Y-62642666D01*
X92218666Y-62709333D01*
X92252000Y-62842666D01*
X92285333Y-62909333D01*
X92318666Y-62942666D01*
X92385333Y-62976000D01*
X92452000Y-62976000D01*
X92518666Y-62942666D01*
X92552000Y-62909333D01*
X92585333Y-62842666D01*
X92585333Y-62676000D01*
X92552000Y-62576000D01*
X91952000Y-61876000D02*
X91918666Y-61909333D01*
X91885333Y-62009333D01*
X91885333Y-62076000D01*
X91918666Y-62176000D01*
X91985333Y-62242666D01*
X92052000Y-62276000D01*
X92185333Y-62309333D01*
X92285333Y-62309333D01*
X92418666Y-62276000D01*
X92485333Y-62242666D01*
X92552000Y-62176000D01*
X92585333Y-62076000D01*
X92585333Y-62009333D01*
X92552000Y-61909333D01*
X92518666Y-61876000D01*
X91885333Y-61242666D02*
X91885333Y-61576000D01*
X92585333Y-61576000D01*
X91885333Y-61009333D02*
X92585333Y-61009333D01*
X91918666Y-59690666D02*
X91885333Y-59590666D01*
X91885333Y-59424000D01*
X91918666Y-59357333D01*
X91952000Y-59324000D01*
X92018666Y-59290666D01*
X92085333Y-59290666D01*
X92152000Y-59324000D01*
X92185333Y-59357333D01*
X92218666Y-59424000D01*
X92252000Y-59557333D01*
X92285333Y-59624000D01*
X92318666Y-59657333D01*
X92385333Y-59690666D01*
X92452000Y-59690666D01*
X92518666Y-59657333D01*
X92552000Y-59624000D01*
X92585333Y-59557333D01*
X92585333Y-59390666D01*
X92552000Y-59290666D01*
X91885333Y-58990666D02*
X92585333Y-58990666D01*
X92585333Y-58824000D01*
X92552000Y-58724000D01*
X92485333Y-58657333D01*
X92418666Y-58624000D01*
X92285333Y-58590666D01*
X92185333Y-58590666D01*
X92052000Y-58624000D01*
X91985333Y-58657333D01*
X91918666Y-58724000D01*
X91885333Y-58824000D01*
X91885333Y-58990666D01*
X92085333Y-58324000D02*
X92085333Y-57990666D01*
X91885333Y-58390666D02*
X92585333Y-58157333D01*
X91885333Y-57924000D01*
X91885333Y-57690666D02*
X92585333Y-57690666D01*
X128484380Y-89106476D02*
X129198666Y-89106476D01*
X129341523Y-89058857D01*
X129436761Y-88963619D01*
X129484380Y-88820761D01*
X129484380Y-88725523D01*
X129484380Y-90106476D02*
X129484380Y-89535047D01*
X129484380Y-89820761D02*
X128484380Y-89820761D01*
X128627238Y-89725523D01*
X128722476Y-89630285D01*
X128770095Y-89535047D01*
X128484380Y-90725523D02*
X128484380Y-90820761D01*
X128532000Y-90916000D01*
X128579619Y-90963619D01*
X128674857Y-91011238D01*
X128865333Y-91058857D01*
X129103428Y-91058857D01*
X129293904Y-91011238D01*
X129389142Y-90963619D01*
X129436761Y-90916000D01*
X129484380Y-90820761D01*
X129484380Y-90725523D01*
X129436761Y-90630285D01*
X129389142Y-90582666D01*
X129293904Y-90535047D01*
X129103428Y-90487428D01*
X128865333Y-90487428D01*
X128674857Y-90535047D01*
X128579619Y-90582666D01*
X128532000Y-90630285D01*
X128484380Y-90725523D01*
X128484380Y-91646476D02*
X129198666Y-91646476D01*
X129341523Y-91598857D01*
X129436761Y-91503619D01*
X129484380Y-91360761D01*
X129484380Y-91265523D01*
X129484380Y-92646476D02*
X129484380Y-92075047D01*
X129484380Y-92360761D02*
X128484380Y-92360761D01*
X128627238Y-92265523D01*
X128722476Y-92170285D01*
X128770095Y-92075047D01*
X129484380Y-93598857D02*
X129484380Y-93027428D01*
X129484380Y-93313142D02*
X128484380Y-93313142D01*
X128627238Y-93217904D01*
X128722476Y-93122666D01*
X128770095Y-93027428D01*
X128484380Y-94440476D02*
X129198666Y-94440476D01*
X129341523Y-94392857D01*
X129436761Y-94297619D01*
X129484380Y-94154761D01*
X129484380Y-94059523D01*
X129484380Y-95440476D02*
X129484380Y-94869047D01*
X129484380Y-95154761D02*
X128484380Y-95154761D01*
X128627238Y-95059523D01*
X128722476Y-94964285D01*
X128770095Y-94869047D01*
X128579619Y-95821428D02*
X128532000Y-95869047D01*
X128484380Y-95964285D01*
X128484380Y-96202380D01*
X128532000Y-96297619D01*
X128579619Y-96345238D01*
X128674857Y-96392857D01*
X128770095Y-96392857D01*
X128912952Y-96345238D01*
X129484380Y-95773809D01*
X129484380Y-96392857D01*
X85423333Y-57110380D02*
X85423333Y-57824666D01*
X85470952Y-57967523D01*
X85566190Y-58062761D01*
X85709047Y-58110380D01*
X85804285Y-58110380D01*
X84804285Y-57538952D02*
X84899523Y-57491333D01*
X84947142Y-57443714D01*
X84994761Y-57348476D01*
X84994761Y-57300857D01*
X84947142Y-57205619D01*
X84899523Y-57158000D01*
X84804285Y-57110380D01*
X84613809Y-57110380D01*
X84518571Y-57158000D01*
X84470952Y-57205619D01*
X84423333Y-57300857D01*
X84423333Y-57348476D01*
X84470952Y-57443714D01*
X84518571Y-57491333D01*
X84613809Y-57538952D01*
X84804285Y-57538952D01*
X84899523Y-57586571D01*
X84947142Y-57634190D01*
X84994761Y-57729428D01*
X84994761Y-57919904D01*
X84947142Y-58015142D01*
X84899523Y-58062761D01*
X84804285Y-58110380D01*
X84613809Y-58110380D01*
X84518571Y-58062761D01*
X84470952Y-58015142D01*
X84423333Y-57919904D01*
X84423333Y-57729428D01*
X84470952Y-57634190D01*
X84518571Y-57586571D01*
X84613809Y-57538952D01*
X86200952Y-71048571D02*
X86058095Y-71096190D01*
X86010476Y-71143809D01*
X85962857Y-71239047D01*
X85962857Y-71381904D01*
X86010476Y-71477142D01*
X86058095Y-71524761D01*
X86153333Y-71572380D01*
X86534285Y-71572380D01*
X86534285Y-70572380D01*
X86200952Y-70572380D01*
X86105714Y-70620000D01*
X86058095Y-70667619D01*
X86010476Y-70762857D01*
X86010476Y-70858095D01*
X86058095Y-70953333D01*
X86105714Y-71000952D01*
X86200952Y-71048571D01*
X86534285Y-71048571D01*
X85105714Y-70905714D02*
X85105714Y-71572380D01*
X85534285Y-70905714D02*
X85534285Y-71429523D01*
X85486666Y-71524761D01*
X85391428Y-71572380D01*
X85248571Y-71572380D01*
X85153333Y-71524761D01*
X85105714Y-71477142D01*
X84677142Y-71524761D02*
X84581904Y-71572380D01*
X84391428Y-71572380D01*
X84296190Y-71524761D01*
X84248571Y-71429523D01*
X84248571Y-71381904D01*
X84296190Y-71286666D01*
X84391428Y-71239047D01*
X84534285Y-71239047D01*
X84629523Y-71191428D01*
X84677142Y-71096190D01*
X84677142Y-71048571D01*
X84629523Y-70953333D01*
X84534285Y-70905714D01*
X84391428Y-70905714D01*
X84296190Y-70953333D01*
X83058095Y-71572380D02*
X83058095Y-70572380D01*
X82010476Y-71477142D02*
X82058095Y-71524761D01*
X82200952Y-71572380D01*
X82296190Y-71572380D01*
X82439047Y-71524761D01*
X82534285Y-71429523D01*
X82581904Y-71334285D01*
X82629523Y-71143809D01*
X82629523Y-71000952D01*
X82581904Y-70810476D01*
X82534285Y-70715238D01*
X82439047Y-70620000D01*
X82296190Y-70572380D01*
X82200952Y-70572380D01*
X82058095Y-70620000D01*
X82010476Y-70667619D01*
X81629523Y-70667619D02*
X81581904Y-70620000D01*
X81486666Y-70572380D01*
X81248571Y-70572380D01*
X81153333Y-70620000D01*
X81105714Y-70667619D01*
X81058095Y-70762857D01*
X81058095Y-70858095D01*
X81105714Y-71000952D01*
X81677142Y-71572380D01*
X81058095Y-71572380D01*
X106727523Y-84542380D02*
X106727523Y-85256666D01*
X106775142Y-85399523D01*
X106870380Y-85494761D01*
X107013238Y-85542380D01*
X107108476Y-85542380D01*
X105727523Y-85542380D02*
X106298952Y-85542380D01*
X106013238Y-85542380D02*
X106013238Y-84542380D01*
X106108476Y-84685238D01*
X106203714Y-84780476D01*
X106298952Y-84828095D01*
X104870380Y-84875714D02*
X104870380Y-85542380D01*
X105108476Y-84494761D02*
X105346571Y-85209047D01*
X104727523Y-85209047D01*
X106727523Y-81748380D02*
X106727523Y-82462666D01*
X106775142Y-82605523D01*
X106870380Y-82700761D01*
X107013238Y-82748380D01*
X107108476Y-82748380D01*
X105727523Y-82748380D02*
X106298952Y-82748380D01*
X106013238Y-82748380D02*
X106013238Y-81748380D01*
X106108476Y-81891238D01*
X106203714Y-81986476D01*
X106298952Y-82034095D01*
X104822761Y-81748380D02*
X105298952Y-81748380D01*
X105346571Y-82224571D01*
X105298952Y-82176952D01*
X105203714Y-82129333D01*
X104965619Y-82129333D01*
X104870380Y-82176952D01*
X104822761Y-82224571D01*
X104775142Y-82319809D01*
X104775142Y-82557904D01*
X104822761Y-82653142D01*
X104870380Y-82700761D01*
X104965619Y-82748380D01*
X105203714Y-82748380D01*
X105298952Y-82700761D01*
X105346571Y-82653142D01*
M02*
