G04 #@! TF.GenerationSoftware,KiCad,Pcbnew,7.0.6*
G04 #@! TF.CreationDate,2024-11-10T11:06:42+01:00*
G04 #@! TF.ProjectId,ActiveRecorder,41637469-7665-4526-9563-6f726465722e,rev?*
G04 #@! TF.SameCoordinates,PX2160ec0PY6ea0500*
G04 #@! TF.FileFunction,Soldermask,Top*
G04 #@! TF.FilePolarity,Negative*
%FSLAX46Y46*%
G04 Gerber Fmt 4.6, Leading zero omitted, Abs format (unit mm)*
G04 Created by KiCad (PCBNEW 7.0.6) date 2024-11-10 11:06:42*
%MOMM*%
%LPD*%
G01*
G04 APERTURE LIST*
G04 Aperture macros list*
%AMRoundRect*
0 Rectangle with rounded corners*
0 $1 Rounding radius*
0 $2 $3 $4 $5 $6 $7 $8 $9 X,Y pos of 4 corners*
0 Add a 4 corners polygon primitive as box body*
4,1,4,$2,$3,$4,$5,$6,$7,$8,$9,$2,$3,0*
0 Add four circle primitives for the rounded corners*
1,1,$1+$1,$2,$3*
1,1,$1+$1,$4,$5*
1,1,$1+$1,$6,$7*
1,1,$1+$1,$8,$9*
0 Add four rect primitives between the rounded corners*
20,1,$1+$1,$2,$3,$4,$5,0*
20,1,$1+$1,$4,$5,$6,$7,0*
20,1,$1+$1,$6,$7,$8,$9,0*
20,1,$1+$1,$8,$9,$2,$3,0*%
%AMFreePoly0*
4,1,35,0.549497,0.799497,0.570000,0.750000,0.570000,-0.750000,0.549497,-0.799497,0.500000,-0.820000,0.000000,-0.820000,-0.012286,-0.814911,-0.071157,-0.814911,-0.090878,-0.812076,-0.227429,-0.771981,-0.245553,-0.763704,-0.365275,-0.686763,-0.380332,-0.673715,-0.473529,-0.566160,-0.484301,-0.549399,-0.543420,-0.419945,-0.549033,-0.400828,-0.569287,-0.259962,-0.570000,-0.250000,-0.570000,0.250000,
-0.569287,0.259962,-0.549033,0.400828,-0.543420,0.419945,-0.484301,0.549399,-0.473529,0.566160,-0.380332,0.673715,-0.365275,0.686763,-0.245553,0.763704,-0.227429,0.771981,-0.090878,0.812076,-0.071157,0.814911,-0.012286,0.814911,0.000000,0.820000,0.500000,0.820000,0.549497,0.799497,0.549497,0.799497,$1*%
%AMFreePoly1*
4,1,35,0.012286,0.814911,0.071157,0.814911,0.090878,0.812076,0.227429,0.771981,0.245553,0.763704,0.365275,0.686763,0.380332,0.673715,0.473529,0.566160,0.484301,0.549399,0.543420,0.419945,0.549033,0.400828,0.569287,0.259962,0.570000,0.250000,0.570000,-0.250000,0.569287,-0.259962,0.549033,-0.400828,0.543420,-0.419945,0.484301,-0.549399,0.473529,-0.566160,0.380332,-0.673715,
0.365275,-0.686763,0.245553,-0.763704,0.227429,-0.771981,0.090878,-0.812076,0.071157,-0.814911,0.012286,-0.814911,0.000000,-0.820000,-0.500000,-0.820000,-0.549497,-0.799497,-0.570000,-0.750000,-0.570000,0.750000,-0.549497,0.799497,-0.500000,0.820000,0.000000,0.820000,0.012286,0.814911,0.012286,0.814911,$1*%
G04 Aperture macros list end*
%ADD10RoundRect,0.070000X1.300000X-1.000000X1.300000X1.000000X-1.300000X1.000000X-1.300000X-1.000000X0*%
%ADD11O,2.740000X2.140000*%
%ADD12RoundRect,0.070000X-1.300000X1.000000X-1.300000X-1.000000X1.300000X-1.000000X1.300000X1.000000X0*%
%ADD13RoundRect,0.070000X-0.850000X-0.850000X0.850000X-0.850000X0.850000X0.850000X-0.850000X0.850000X0*%
%ADD14O,1.840000X1.840000*%
%ADD15O,1.640000X2.640000*%
%ADD16RoundRect,0.070000X-0.750000X-1.250000X0.750000X-1.250000X0.750000X1.250000X-0.750000X1.250000X0*%
%ADD17O,2.340000X4.140000*%
%ADD18C,2.340000*%
%ADD19C,1.840000*%
%ADD20RoundRect,0.220000X0.150000X-0.825000X0.150000X0.825000X-0.150000X0.825000X-0.150000X-0.825000X0*%
%ADD21C,2.640000*%
%ADD22RoundRect,0.070000X-2.000000X-3.000000X2.000000X-3.000000X2.000000X3.000000X-2.000000X3.000000X0*%
%ADD23O,4.140000X6.140000*%
%ADD24C,3.140000*%
%ADD25O,5.140000X2.140000*%
%ADD26RoundRect,0.070000X0.700000X1.000000X-0.700000X1.000000X-0.700000X-1.000000X0.700000X-1.000000X0*%
%ADD27O,1.540000X2.140000*%
%ADD28O,2.640000X5.140000*%
%ADD29C,2.140000*%
%ADD30C,1.440000*%
%ADD31O,3.140000X2.640000*%
%ADD32RoundRect,0.070000X0.600000X-0.600000X0.600000X0.600000X-0.600000X0.600000X-0.600000X-0.600000X0*%
%ADD33RoundRect,0.070000X-0.500000X0.350000X-0.500000X-0.350000X0.500000X-0.350000X0.500000X0.350000X0*%
%ADD34C,1.664000*%
%ADD35RoundRect,0.350000X0.900000X-1.000000X0.900000X1.000000X-0.900000X1.000000X-0.900000X-1.000000X0*%
%ADD36RoundRect,0.320000X0.337500X0.475000X-0.337500X0.475000X-0.337500X-0.475000X0.337500X-0.475000X0*%
%ADD37RoundRect,0.320000X0.475000X-0.337500X0.475000X0.337500X-0.475000X0.337500X-0.475000X-0.337500X0*%
%ADD38RoundRect,0.320000X2.000000X1.000000X-2.000000X1.000000X-2.000000X-1.000000X2.000000X-1.000000X0*%
%ADD39RoundRect,0.320800X-0.699200X2.749200X-0.699200X-2.749200X0.699200X-2.749200X0.699200X2.749200X0*%
%ADD40RoundRect,0.320000X-2.000000X-1.000000X2.000000X-1.000000X2.000000X1.000000X-2.000000X1.000000X0*%
%ADD41RoundRect,0.320800X2.749200X0.699200X-2.749200X0.699200X-2.749200X-0.699200X2.749200X-0.699200X0*%
%ADD42RoundRect,0.320000X-0.475000X0.337500X-0.475000X-0.337500X0.475000X-0.337500X0.475000X0.337500X0*%
%ADD43RoundRect,0.320000X-0.337500X-0.475000X0.337500X-0.475000X0.337500X0.475000X-0.337500X0.475000X0*%
%ADD44RoundRect,0.350000X-0.450000X0.350000X-0.450000X-0.350000X0.450000X-0.350000X0.450000X0.350000X0*%
%ADD45C,2.240000*%
%ADD46RoundRect,0.100000X1.100000X-1.100000X1.100000X1.100000X-1.100000X1.100000X-1.100000X-1.100000X0*%
%ADD47RoundRect,0.350000X-0.350000X-0.450000X0.350000X-0.450000X0.350000X0.450000X-0.350000X0.450000X0*%
%ADD48RoundRect,0.350000X0.450000X-0.350000X0.450000X0.350000X-0.450000X0.350000X-0.450000X-0.350000X0*%
%ADD49RoundRect,0.220000X-0.512500X-0.150000X0.512500X-0.150000X0.512500X0.150000X-0.512500X0.150000X0*%
%ADD50RoundRect,0.350000X0.350000X0.450000X-0.350000X0.450000X-0.350000X-0.450000X0.350000X-0.450000X0*%
%ADD51RoundRect,0.320000X1.075000X-0.400000X1.075000X0.400000X-1.075000X0.400000X-1.075000X-0.400000X0*%
%ADD52RoundRect,0.070000X-0.775000X-0.300000X0.775000X-0.300000X0.775000X0.300000X-0.775000X0.300000X0*%
%ADD53RoundRect,0.070000X0.775000X0.300000X-0.775000X0.300000X-0.775000X-0.300000X0.775000X-0.300000X0*%
%ADD54RoundRect,0.070000X-0.650000X0.350000X-0.650000X-0.350000X0.650000X-0.350000X0.650000X0.350000X0*%
%ADD55RoundRect,0.070000X-1.250000X1.700000X-1.250000X-1.700000X1.250000X-1.700000X1.250000X1.700000X0*%
%ADD56RoundRect,0.070000X-1.050000X0.650000X-1.050000X-0.650000X1.050000X-0.650000X1.050000X0.650000X0*%
%ADD57RoundRect,0.070000X0.400000X-0.450000X0.400000X0.450000X-0.400000X0.450000X-0.400000X-0.450000X0*%
%ADD58RoundRect,0.070000X0.325000X-0.530000X0.325000X0.530000X-0.325000X0.530000X-0.325000X-0.530000X0*%
%ADD59RoundRect,0.070000X-0.800000X0.800000X-0.800000X-0.800000X0.800000X-0.800000X0.800000X0.800000X0*%
%ADD60C,1.740000*%
%ADD61RoundRect,0.220000X-0.150000X0.825000X-0.150000X-0.825000X0.150000X-0.825000X0.150000X0.825000X0*%
%ADD62RoundRect,0.070000X-0.450000X-0.300000X0.450000X-0.300000X0.450000X0.300000X-0.450000X0.300000X0*%
%ADD63C,5.140000*%
%ADD64RoundRect,0.220000X-0.150000X0.512500X-0.150000X-0.512500X0.150000X-0.512500X0.150000X0.512500X0*%
%ADD65C,5.240000*%
%ADD66RoundRect,0.070000X-1.000000X-1.000000X1.000000X-1.000000X1.000000X1.000000X-1.000000X1.000000X0*%
%ADD67FreePoly0,270.000000*%
%ADD68FreePoly1,270.000000*%
G04 APERTURE END LIST*
D10*
X38914000Y17443000D03*
D11*
X38914000Y19983000D03*
D12*
X118924000Y56310000D03*
D11*
X118924000Y53770000D03*
X118924000Y51230000D03*
D13*
X113590000Y10590000D03*
D14*
X113590000Y8050000D03*
X113590000Y5510000D03*
X113590000Y2970000D03*
D15*
X123305000Y2335000D03*
D16*
X119305000Y2335000D03*
D15*
X125305000Y2335000D03*
X127305000Y2335000D03*
D17*
X116892000Y2585000D03*
X129718000Y2585000D03*
D18*
X84995000Y5216000D03*
X77995000Y5216000D03*
D19*
X83745000Y2716000D03*
X79245000Y2716000D03*
D18*
X64675000Y5216000D03*
X57675000Y5216000D03*
D19*
X63425000Y2716000D03*
X58925000Y2716000D03*
D18*
X74835000Y5216000D03*
X67835000Y5216000D03*
D19*
X73585000Y2716000D03*
X69085000Y2716000D03*
D20*
X118797000Y29197000D03*
X120067000Y29197000D03*
X121337000Y29197000D03*
X122607000Y29197000D03*
X122607000Y34147000D03*
X121337000Y34147000D03*
X120067000Y34147000D03*
X118797000Y34147000D03*
D21*
X48250000Y52077000D03*
X48250000Y32077000D03*
X103750000Y52077000D03*
X103750000Y32077000D03*
D22*
X111500000Y32077000D03*
D23*
X40500000Y32077000D03*
D22*
X111500000Y52077000D03*
D23*
X40500000Y52077000D03*
D24*
X91175000Y11360000D03*
D25*
X100175000Y860000D03*
X90175000Y860000D03*
D24*
X95175000Y11360000D03*
X99175000Y11360000D03*
D26*
X31548000Y58596000D03*
D27*
X29548000Y58596000D03*
D28*
X31370000Y46300000D03*
X2770000Y46300000D03*
X31370000Y15700000D03*
X2770000Y15700000D03*
D29*
X32310000Y34810000D03*
X32310000Y32270000D03*
X32310000Y29730000D03*
X32310000Y27190000D03*
D30*
X16995000Y1874000D03*
X16995000Y7874000D03*
D31*
X20245000Y7874000D03*
X13745000Y7874000D03*
X13745000Y4699000D03*
X20245000Y1524000D03*
X13745000Y1524000D03*
D32*
X29516000Y6356000D03*
X29516000Y4156000D03*
X27230000Y6356000D03*
X27230000Y4156000D03*
D33*
X66416000Y19950000D03*
X66416000Y19000000D03*
X66416000Y18050000D03*
X68816000Y18050000D03*
X68816000Y19000000D03*
X68816000Y19950000D03*
X84196000Y20430000D03*
X84196000Y19480000D03*
X84196000Y18530000D03*
X86596000Y18530000D03*
X86596000Y19480000D03*
X86596000Y20430000D03*
D34*
X29262000Y52754000D03*
X31802000Y52754000D03*
X117400000Y20242000D03*
X117400000Y17702000D03*
D35*
X61774000Y8948000D03*
X61774000Y13248000D03*
D36*
X120039128Y23949828D03*
X117964128Y23949828D03*
X121476650Y38898728D03*
X119401650Y38898728D03*
X110055500Y2208000D03*
X107980500Y2208000D03*
D13*
X52630000Y10590000D03*
D14*
X52630000Y8050000D03*
X52630000Y5510000D03*
X52630000Y2970000D03*
D37*
X129599135Y35097193D03*
X129599135Y37172193D03*
D38*
X122994000Y44626000D03*
X117394000Y44626000D03*
D37*
X127306000Y30380500D03*
X127306000Y32455500D03*
D36*
X124530652Y26334862D03*
X122455652Y26334862D03*
D39*
X126544000Y20744000D03*
X126544000Y13644000D03*
D37*
X116384000Y30126500D03*
X116384000Y32201500D03*
D40*
X105202000Y17448000D03*
X110802000Y17448000D03*
D36*
X18082100Y56792600D03*
X16007100Y56792600D03*
D37*
X124004000Y54256500D03*
X124004000Y56331500D03*
D36*
X109947200Y11575100D03*
X107872200Y11575100D03*
D41*
X20620000Y49960000D03*
X13520000Y49960000D03*
D40*
X94286000Y17448000D03*
X99886000Y17448000D03*
D42*
X67400000Y13037500D03*
X67400000Y10962500D03*
D37*
X77588200Y9298500D03*
X77588200Y11373500D03*
D43*
X71658500Y19734000D03*
X73733500Y19734000D03*
X88675167Y20070575D03*
X90750167Y20070575D03*
D44*
X43486000Y20988000D03*
X43486000Y18988000D03*
D37*
X55739352Y18821173D03*
X55739352Y20896173D03*
D45*
X36620000Y13600000D03*
X39160000Y13600000D03*
X41700000Y13600000D03*
X44240000Y13600000D03*
D46*
X36300000Y5980000D03*
X47100000Y5980000D03*
D45*
X46780000Y13600000D03*
X37890000Y11410000D03*
X40430000Y11400000D03*
X42970000Y11410000D03*
X45510000Y11410000D03*
D44*
X119178000Y8288000D03*
X119178000Y6288000D03*
D47*
X66870000Y15924000D03*
X68870000Y15924000D03*
X84650000Y16686000D03*
X86650000Y16686000D03*
D44*
X29516000Y10320000D03*
X29516000Y8320000D03*
D48*
X27230000Y8320000D03*
X27230000Y10320000D03*
D49*
X16694500Y21646296D03*
X16694500Y19746296D03*
X18969500Y20696296D03*
D48*
X45518000Y18988000D03*
X45518000Y20988000D03*
D47*
X12781160Y29476462D03*
X14781160Y29476462D03*
D43*
X107931400Y9131100D03*
X110006400Y9131100D03*
D50*
X127117333Y34707154D03*
X125117333Y34707154D03*
D48*
X125020000Y30418000D03*
X125020000Y32418000D03*
X129592000Y30418000D03*
X129592000Y32418000D03*
D47*
X118036446Y26352271D03*
X120036446Y26352271D03*
D44*
X121972000Y8288000D03*
X121972000Y6288000D03*
X124766000Y8288000D03*
X124766000Y6288000D03*
D47*
X119439150Y36600740D03*
X121439150Y36600740D03*
D50*
X110018000Y6780000D03*
X108018000Y6780000D03*
X110018000Y4494000D03*
X108018000Y4494000D03*
D47*
X71696000Y15924000D03*
X73696000Y15924000D03*
D48*
X89714000Y15940000D03*
X89714000Y17940000D03*
D51*
X32564000Y4214000D03*
X32564000Y7314000D03*
D52*
X69554200Y11987000D03*
X69554200Y10717000D03*
X69554200Y9447000D03*
X69554200Y8177000D03*
X74954200Y8177000D03*
X74954200Y9447000D03*
X74954200Y10717000D03*
X74954200Y11987000D03*
D53*
X63458000Y16305000D03*
X63458000Y17575000D03*
X63458000Y18845000D03*
X63458000Y20115000D03*
X58058000Y20115000D03*
X58058000Y18845000D03*
X58058000Y17575000D03*
X58058000Y16305000D03*
X82254000Y16813000D03*
X82254000Y18083000D03*
X82254000Y19353000D03*
X82254000Y20623000D03*
X76854000Y20623000D03*
X76854000Y19353000D03*
X76854000Y18083000D03*
X76854000Y16813000D03*
D54*
X48356000Y20231000D03*
X48356000Y18961000D03*
X48356000Y17691000D03*
X48356000Y16421000D03*
X53856000Y16421000D03*
X53856000Y17691000D03*
X53856000Y18961000D03*
X53856000Y20231000D03*
D55*
X51106000Y18326000D03*
D56*
X29904000Y26211000D03*
X27604000Y26211000D03*
X29904000Y35741500D03*
X27604000Y35741500D03*
D57*
X12734794Y33556313D03*
X14634794Y33556313D03*
X13684794Y35556313D03*
D58*
X880000Y35144000D03*
X1830000Y35144000D03*
X2780000Y35144000D03*
X2780000Y37344000D03*
X880000Y37344000D03*
D59*
X9450000Y59485000D03*
D60*
X9450000Y56945000D03*
X9450000Y54405000D03*
X9450000Y51865000D03*
X9450000Y49325000D03*
X9450000Y46785000D03*
X9450000Y44245000D03*
X9450000Y41705000D03*
X9450000Y39165000D03*
X9450000Y36625000D03*
X9450000Y34085000D03*
X9450000Y31545000D03*
X9450000Y29005000D03*
X9450000Y26465000D03*
X9450000Y23925000D03*
X9450000Y21385000D03*
X9450000Y18845000D03*
X9450000Y16305000D03*
X9450000Y13765000D03*
X9450000Y11225000D03*
X9450000Y8685000D03*
X9450000Y6145000D03*
X9450000Y3605000D03*
X9450000Y1065000D03*
X11990000Y13765000D03*
X14530000Y13765000D03*
X17070000Y13765000D03*
X19610000Y13765000D03*
X24690000Y1065000D03*
X24690000Y3605000D03*
X24690000Y6145000D03*
X24690000Y8685000D03*
X24690000Y11225000D03*
X24690000Y13765000D03*
X24690000Y16305000D03*
X24690000Y18845000D03*
X24690000Y21385000D03*
X24690000Y23925000D03*
X24690000Y26465000D03*
X24690000Y29005000D03*
X24690000Y31545000D03*
X24690000Y34085000D03*
X24690000Y36625000D03*
X24690000Y39165000D03*
X24690000Y41705000D03*
X24690000Y44245000D03*
X24690000Y46785000D03*
X24690000Y49325000D03*
X24690000Y51865000D03*
X24690000Y54405000D03*
X24690000Y56945000D03*
X24690000Y59485000D03*
X15800000Y58975000D03*
X18340000Y58975000D03*
D56*
X29904000Y32307000D03*
X27604000Y32307000D03*
X29904000Y29767000D03*
X27604000Y29767000D03*
D42*
X14703918Y41754457D03*
X14703918Y39679457D03*
X12500000Y41737500D03*
X12500000Y39662500D03*
D61*
X20600000Y43032962D03*
X19330000Y43032962D03*
X18060000Y43032962D03*
X16790000Y43032962D03*
X16790000Y38082962D03*
X18060000Y38082962D03*
X19330000Y38082962D03*
X20600000Y38082962D03*
D47*
X12767393Y31679108D03*
X14767393Y31679108D03*
D49*
X55925000Y9950000D03*
X55925000Y8050000D03*
X58200000Y9000000D03*
D36*
X14805500Y24052000D03*
X12730500Y24052000D03*
D49*
X55925000Y13650000D03*
X55925000Y11750000D03*
X58200000Y12700000D03*
D62*
X830000Y41070000D03*
X830000Y40070000D03*
X830000Y39070000D03*
X2830000Y39070000D03*
X2830000Y40070000D03*
X2830000Y41070000D03*
D43*
X14000500Y17194000D03*
X16075500Y17194000D03*
D36*
X3883500Y32180000D03*
X1808500Y32180000D03*
D44*
X5386000Y23274000D03*
X5386000Y21274000D03*
X19819254Y31656000D03*
X19819254Y29656000D03*
X17348494Y31640526D03*
X17348494Y29640526D03*
X5386000Y19194000D03*
X5386000Y17194000D03*
D63*
X83110000Y10590000D03*
D64*
X3796000Y28999500D03*
X1896000Y28999500D03*
X2846000Y26724500D03*
D44*
X65300000Y13000000D03*
X65300000Y11000000D03*
D65*
X5000000Y54000000D03*
X5000000Y8000000D03*
X129000000Y54000000D03*
X129000000Y8000000D03*
D66*
X67000000Y60464000D03*
D67*
X77600000Y14550000D03*
D68*
X77600000Y13250000D03*
M02*
