%TF.GenerationSoftware,KiCad,Pcbnew,7.0.7*%
%TF.CreationDate,2024-11-28T16:17:27+01:00*%
%TF.ProjectId,TestEcran,54657374-4563-4726-916e-2e6b69636164,rev?*%
%TF.SameCoordinates,Original*%
%TF.FileFunction,Legend,Top*%
%TF.FilePolarity,Positive*%
%FSLAX46Y46*%
G04 Gerber Fmt 4.6, Leading zero omitted, Abs format (unit mm)*
G04 Created by KiCad (PCBNEW 7.0.7) date 2024-11-28 16:17:27*
%MOMM*%
%LPD*%
G01*
G04 APERTURE LIST*
%ADD10C,0.300000*%
%ADD11C,0.200000*%
%ADD12C,0.250000*%
%ADD13C,0.100000*%
%ADD14C,0.150000*%
%ADD15C,0.120000*%
G04 APERTURE END LIST*
D10*
X116276910Y-74453114D02*
X116776910Y-74453114D01*
X116991196Y-75238828D02*
X116276910Y-75238828D01*
X116276910Y-75238828D02*
X116276910Y-73738828D01*
X116276910Y-73738828D02*
X116991196Y-73738828D01*
X117562625Y-75167400D02*
X117776911Y-75238828D01*
X117776911Y-75238828D02*
X118134053Y-75238828D01*
X118134053Y-75238828D02*
X118276911Y-75167400D01*
X118276911Y-75167400D02*
X118348339Y-75095971D01*
X118348339Y-75095971D02*
X118419768Y-74953114D01*
X118419768Y-74953114D02*
X118419768Y-74810257D01*
X118419768Y-74810257D02*
X118348339Y-74667400D01*
X118348339Y-74667400D02*
X118276911Y-74595971D01*
X118276911Y-74595971D02*
X118134053Y-74524542D01*
X118134053Y-74524542D02*
X117848339Y-74453114D01*
X117848339Y-74453114D02*
X117705482Y-74381685D01*
X117705482Y-74381685D02*
X117634053Y-74310257D01*
X117634053Y-74310257D02*
X117562625Y-74167400D01*
X117562625Y-74167400D02*
X117562625Y-74024542D01*
X117562625Y-74024542D02*
X117634053Y-73881685D01*
X117634053Y-73881685D02*
X117705482Y-73810257D01*
X117705482Y-73810257D02*
X117848339Y-73738828D01*
X117848339Y-73738828D02*
X118205482Y-73738828D01*
X118205482Y-73738828D02*
X118419768Y-73810257D01*
X119062624Y-75238828D02*
X119062624Y-73738828D01*
X119062624Y-73738828D02*
X119634053Y-73738828D01*
X119634053Y-73738828D02*
X119776910Y-73810257D01*
X119776910Y-73810257D02*
X119848339Y-73881685D01*
X119848339Y-73881685D02*
X119919767Y-74024542D01*
X119919767Y-74024542D02*
X119919767Y-74238828D01*
X119919767Y-74238828D02*
X119848339Y-74381685D01*
X119848339Y-74381685D02*
X119776910Y-74453114D01*
X119776910Y-74453114D02*
X119634053Y-74524542D01*
X119634053Y-74524542D02*
X119062624Y-74524542D01*
X120419767Y-73738828D02*
X121348339Y-73738828D01*
X121348339Y-73738828D02*
X120848339Y-74310257D01*
X120848339Y-74310257D02*
X121062624Y-74310257D01*
X121062624Y-74310257D02*
X121205482Y-74381685D01*
X121205482Y-74381685D02*
X121276910Y-74453114D01*
X121276910Y-74453114D02*
X121348339Y-74595971D01*
X121348339Y-74595971D02*
X121348339Y-74953114D01*
X121348339Y-74953114D02*
X121276910Y-75095971D01*
X121276910Y-75095971D02*
X121205482Y-75167400D01*
X121205482Y-75167400D02*
X121062624Y-75238828D01*
X121062624Y-75238828D02*
X120634053Y-75238828D01*
X120634053Y-75238828D02*
X120491196Y-75167400D01*
X120491196Y-75167400D02*
X120419767Y-75095971D01*
X121919767Y-73881685D02*
X121991195Y-73810257D01*
X121991195Y-73810257D02*
X122134053Y-73738828D01*
X122134053Y-73738828D02*
X122491195Y-73738828D01*
X122491195Y-73738828D02*
X122634053Y-73810257D01*
X122634053Y-73810257D02*
X122705481Y-73881685D01*
X122705481Y-73881685D02*
X122776910Y-74024542D01*
X122776910Y-74024542D02*
X122776910Y-74167400D01*
X122776910Y-74167400D02*
X122705481Y-74381685D01*
X122705481Y-74381685D02*
X121848338Y-75238828D01*
X121848338Y-75238828D02*
X122776910Y-75238828D01*
X124276909Y-75095971D02*
X124205481Y-75167400D01*
X124205481Y-75167400D02*
X123991195Y-75238828D01*
X123991195Y-75238828D02*
X123848338Y-75238828D01*
X123848338Y-75238828D02*
X123634052Y-75167400D01*
X123634052Y-75167400D02*
X123491195Y-75024542D01*
X123491195Y-75024542D02*
X123419766Y-74881685D01*
X123419766Y-74881685D02*
X123348338Y-74595971D01*
X123348338Y-74595971D02*
X123348338Y-74381685D01*
X123348338Y-74381685D02*
X123419766Y-74095971D01*
X123419766Y-74095971D02*
X123491195Y-73953114D01*
X123491195Y-73953114D02*
X123634052Y-73810257D01*
X123634052Y-73810257D02*
X123848338Y-73738828D01*
X123848338Y-73738828D02*
X123991195Y-73738828D01*
X123991195Y-73738828D02*
X124205481Y-73810257D01*
X124205481Y-73810257D02*
X124276909Y-73881685D01*
X124776909Y-73738828D02*
X125705481Y-73738828D01*
X125705481Y-73738828D02*
X125205481Y-74310257D01*
X125205481Y-74310257D02*
X125419766Y-74310257D01*
X125419766Y-74310257D02*
X125562624Y-74381685D01*
X125562624Y-74381685D02*
X125634052Y-74453114D01*
X125634052Y-74453114D02*
X125705481Y-74595971D01*
X125705481Y-74595971D02*
X125705481Y-74953114D01*
X125705481Y-74953114D02*
X125634052Y-75095971D01*
X125634052Y-75095971D02*
X125562624Y-75167400D01*
X125562624Y-75167400D02*
X125419766Y-75238828D01*
X125419766Y-75238828D02*
X124991195Y-75238828D01*
X124991195Y-75238828D02*
X124848338Y-75167400D01*
X124848338Y-75167400D02*
X124776909Y-75095971D01*
D11*
X108681742Y-82520136D02*
X108681742Y-83205850D01*
X108681742Y-82862993D02*
X107481742Y-82862993D01*
X107481742Y-82862993D02*
X107653171Y-82977279D01*
X107653171Y-82977279D02*
X107767457Y-83091564D01*
X107767457Y-83091564D02*
X107824600Y-83205850D01*
X107481742Y-81777279D02*
X107481742Y-81662993D01*
X107481742Y-81662993D02*
X107538885Y-81548707D01*
X107538885Y-81548707D02*
X107596028Y-81491565D01*
X107596028Y-81491565D02*
X107710314Y-81434422D01*
X107710314Y-81434422D02*
X107938885Y-81377279D01*
X107938885Y-81377279D02*
X108224600Y-81377279D01*
X108224600Y-81377279D02*
X108453171Y-81434422D01*
X108453171Y-81434422D02*
X108567457Y-81491565D01*
X108567457Y-81491565D02*
X108624600Y-81548707D01*
X108624600Y-81548707D02*
X108681742Y-81662993D01*
X108681742Y-81662993D02*
X108681742Y-81777279D01*
X108681742Y-81777279D02*
X108624600Y-81891565D01*
X108624600Y-81891565D02*
X108567457Y-81948707D01*
X108567457Y-81948707D02*
X108453171Y-82005850D01*
X108453171Y-82005850D02*
X108224600Y-82062993D01*
X108224600Y-82062993D02*
X107938885Y-82062993D01*
X107938885Y-82062993D02*
X107710314Y-82005850D01*
X107710314Y-82005850D02*
X107596028Y-81948707D01*
X107596028Y-81948707D02*
X107538885Y-81891565D01*
X107538885Y-81891565D02*
X107481742Y-81777279D01*
X108681742Y-80862993D02*
X107481742Y-80862993D01*
X108224600Y-80748708D02*
X108681742Y-80405850D01*
X107881742Y-80405850D02*
X108338885Y-80862993D01*
D10*
X109242857Y-51215542D02*
X109642857Y-52415542D01*
X109642857Y-52415542D02*
X110042857Y-51215542D01*
X110442857Y-52415542D02*
X110442857Y-51215542D01*
X110442857Y-51215542D02*
X110728571Y-51215542D01*
X110728571Y-51215542D02*
X110900000Y-51272685D01*
X110900000Y-51272685D02*
X111014285Y-51386971D01*
X111014285Y-51386971D02*
X111071428Y-51501257D01*
X111071428Y-51501257D02*
X111128571Y-51729828D01*
X111128571Y-51729828D02*
X111128571Y-51901257D01*
X111128571Y-51901257D02*
X111071428Y-52129828D01*
X111071428Y-52129828D02*
X111014285Y-52244114D01*
X111014285Y-52244114D02*
X110900000Y-52358400D01*
X110900000Y-52358400D02*
X110728571Y-52415542D01*
X110728571Y-52415542D02*
X110442857Y-52415542D01*
X111642857Y-52415542D02*
X111642857Y-51215542D01*
X111642857Y-51215542D02*
X111928571Y-51215542D01*
X111928571Y-51215542D02*
X112100000Y-51272685D01*
X112100000Y-51272685D02*
X112214285Y-51386971D01*
X112214285Y-51386971D02*
X112271428Y-51501257D01*
X112271428Y-51501257D02*
X112328571Y-51729828D01*
X112328571Y-51729828D02*
X112328571Y-51901257D01*
X112328571Y-51901257D02*
X112271428Y-52129828D01*
X112271428Y-52129828D02*
X112214285Y-52244114D01*
X112214285Y-52244114D02*
X112100000Y-52358400D01*
X112100000Y-52358400D02*
X111928571Y-52415542D01*
X111928571Y-52415542D02*
X111642857Y-52415542D01*
X114385714Y-51272685D02*
X114271429Y-51215542D01*
X114271429Y-51215542D02*
X114100000Y-51215542D01*
X114100000Y-51215542D02*
X113928571Y-51272685D01*
X113928571Y-51272685D02*
X113814286Y-51386971D01*
X113814286Y-51386971D02*
X113757143Y-51501257D01*
X113757143Y-51501257D02*
X113700000Y-51729828D01*
X113700000Y-51729828D02*
X113700000Y-51901257D01*
X113700000Y-51901257D02*
X113757143Y-52129828D01*
X113757143Y-52129828D02*
X113814286Y-52244114D01*
X113814286Y-52244114D02*
X113928571Y-52358400D01*
X113928571Y-52358400D02*
X114100000Y-52415542D01*
X114100000Y-52415542D02*
X114214286Y-52415542D01*
X114214286Y-52415542D02*
X114385714Y-52358400D01*
X114385714Y-52358400D02*
X114442857Y-52301257D01*
X114442857Y-52301257D02*
X114442857Y-51901257D01*
X114442857Y-51901257D02*
X114214286Y-51901257D01*
X114957143Y-52415542D02*
X114957143Y-51215542D01*
X114957143Y-51215542D02*
X115642857Y-52415542D01*
X115642857Y-52415542D02*
X115642857Y-51215542D01*
X116214286Y-52415542D02*
X116214286Y-51215542D01*
X116214286Y-51215542D02*
X116500000Y-51215542D01*
X116500000Y-51215542D02*
X116671429Y-51272685D01*
X116671429Y-51272685D02*
X116785714Y-51386971D01*
X116785714Y-51386971D02*
X116842857Y-51501257D01*
X116842857Y-51501257D02*
X116900000Y-51729828D01*
X116900000Y-51729828D02*
X116900000Y-51901257D01*
X116900000Y-51901257D02*
X116842857Y-52129828D01*
X116842857Y-52129828D02*
X116785714Y-52244114D01*
X116785714Y-52244114D02*
X116671429Y-52358400D01*
X116671429Y-52358400D02*
X116500000Y-52415542D01*
X116500000Y-52415542D02*
X116214286Y-52415542D01*
X118271429Y-52358400D02*
X118442858Y-52415542D01*
X118442858Y-52415542D02*
X118728572Y-52415542D01*
X118728572Y-52415542D02*
X118842858Y-52358400D01*
X118842858Y-52358400D02*
X118900000Y-52301257D01*
X118900000Y-52301257D02*
X118957143Y-52186971D01*
X118957143Y-52186971D02*
X118957143Y-52072685D01*
X118957143Y-52072685D02*
X118900000Y-51958400D01*
X118900000Y-51958400D02*
X118842858Y-51901257D01*
X118842858Y-51901257D02*
X118728572Y-51844114D01*
X118728572Y-51844114D02*
X118500000Y-51786971D01*
X118500000Y-51786971D02*
X118385715Y-51729828D01*
X118385715Y-51729828D02*
X118328572Y-51672685D01*
X118328572Y-51672685D02*
X118271429Y-51558400D01*
X118271429Y-51558400D02*
X118271429Y-51444114D01*
X118271429Y-51444114D02*
X118328572Y-51329828D01*
X118328572Y-51329828D02*
X118385715Y-51272685D01*
X118385715Y-51272685D02*
X118500000Y-51215542D01*
X118500000Y-51215542D02*
X118785715Y-51215542D01*
X118785715Y-51215542D02*
X118957143Y-51272685D01*
X120157143Y-52301257D02*
X120100000Y-52358400D01*
X120100000Y-52358400D02*
X119928572Y-52415542D01*
X119928572Y-52415542D02*
X119814286Y-52415542D01*
X119814286Y-52415542D02*
X119642857Y-52358400D01*
X119642857Y-52358400D02*
X119528572Y-52244114D01*
X119528572Y-52244114D02*
X119471429Y-52129828D01*
X119471429Y-52129828D02*
X119414286Y-51901257D01*
X119414286Y-51901257D02*
X119414286Y-51729828D01*
X119414286Y-51729828D02*
X119471429Y-51501257D01*
X119471429Y-51501257D02*
X119528572Y-51386971D01*
X119528572Y-51386971D02*
X119642857Y-51272685D01*
X119642857Y-51272685D02*
X119814286Y-51215542D01*
X119814286Y-51215542D02*
X119928572Y-51215542D01*
X119928572Y-51215542D02*
X120100000Y-51272685D01*
X120100000Y-51272685D02*
X120157143Y-51329828D01*
X120671429Y-52415542D02*
X120671429Y-51215542D01*
X121357143Y-52415542D02*
X120842857Y-51729828D01*
X121357143Y-51215542D02*
X120671429Y-51901257D01*
X122728572Y-52358400D02*
X122900001Y-52415542D01*
X122900001Y-52415542D02*
X123185715Y-52415542D01*
X123185715Y-52415542D02*
X123300001Y-52358400D01*
X123300001Y-52358400D02*
X123357143Y-52301257D01*
X123357143Y-52301257D02*
X123414286Y-52186971D01*
X123414286Y-52186971D02*
X123414286Y-52072685D01*
X123414286Y-52072685D02*
X123357143Y-51958400D01*
X123357143Y-51958400D02*
X123300001Y-51901257D01*
X123300001Y-51901257D02*
X123185715Y-51844114D01*
X123185715Y-51844114D02*
X122957143Y-51786971D01*
X122957143Y-51786971D02*
X122842858Y-51729828D01*
X122842858Y-51729828D02*
X122785715Y-51672685D01*
X122785715Y-51672685D02*
X122728572Y-51558400D01*
X122728572Y-51558400D02*
X122728572Y-51444114D01*
X122728572Y-51444114D02*
X122785715Y-51329828D01*
X122785715Y-51329828D02*
X122842858Y-51272685D01*
X122842858Y-51272685D02*
X122957143Y-51215542D01*
X122957143Y-51215542D02*
X123242858Y-51215542D01*
X123242858Y-51215542D02*
X123414286Y-51272685D01*
X123928572Y-52415542D02*
X123928572Y-51215542D01*
X123928572Y-51215542D02*
X124214286Y-51215542D01*
X124214286Y-51215542D02*
X124385715Y-51272685D01*
X124385715Y-51272685D02*
X124500000Y-51386971D01*
X124500000Y-51386971D02*
X124557143Y-51501257D01*
X124557143Y-51501257D02*
X124614286Y-51729828D01*
X124614286Y-51729828D02*
X124614286Y-51901257D01*
X124614286Y-51901257D02*
X124557143Y-52129828D01*
X124557143Y-52129828D02*
X124500000Y-52244114D01*
X124500000Y-52244114D02*
X124385715Y-52358400D01*
X124385715Y-52358400D02*
X124214286Y-52415542D01*
X124214286Y-52415542D02*
X123928572Y-52415542D01*
X125071429Y-52072685D02*
X125642858Y-52072685D01*
X124957143Y-52415542D02*
X125357143Y-51215542D01*
X125357143Y-51215542D02*
X125757143Y-52415542D01*
X105821428Y-53416828D02*
X106107142Y-53416828D01*
X106107142Y-53416828D02*
X106249999Y-53488257D01*
X106249999Y-53488257D02*
X106392856Y-53631114D01*
X106392856Y-53631114D02*
X106464285Y-53916828D01*
X106464285Y-53916828D02*
X106464285Y-54416828D01*
X106464285Y-54416828D02*
X106392856Y-54702542D01*
X106392856Y-54702542D02*
X106249999Y-54845400D01*
X106249999Y-54845400D02*
X106107142Y-54916828D01*
X106107142Y-54916828D02*
X105821428Y-54916828D01*
X105821428Y-54916828D02*
X105678571Y-54845400D01*
X105678571Y-54845400D02*
X105535713Y-54702542D01*
X105535713Y-54702542D02*
X105464285Y-54416828D01*
X105464285Y-54416828D02*
X105464285Y-53916828D01*
X105464285Y-53916828D02*
X105535713Y-53631114D01*
X105535713Y-53631114D02*
X105678571Y-53488257D01*
X105678571Y-53488257D02*
X105821428Y-53416828D01*
X107821428Y-54916828D02*
X107107142Y-54916828D01*
X107107142Y-54916828D02*
X107107142Y-53416828D01*
X108321428Y-54131114D02*
X108821428Y-54131114D01*
X109035714Y-54916828D02*
X108321428Y-54916828D01*
X108321428Y-54916828D02*
X108321428Y-53416828D01*
X108321428Y-53416828D02*
X109035714Y-53416828D01*
X109678571Y-54916828D02*
X109678571Y-53416828D01*
X109678571Y-53416828D02*
X110035714Y-53416828D01*
X110035714Y-53416828D02*
X110250000Y-53488257D01*
X110250000Y-53488257D02*
X110392857Y-53631114D01*
X110392857Y-53631114D02*
X110464286Y-53773971D01*
X110464286Y-53773971D02*
X110535714Y-54059685D01*
X110535714Y-54059685D02*
X110535714Y-54273971D01*
X110535714Y-54273971D02*
X110464286Y-54559685D01*
X110464286Y-54559685D02*
X110392857Y-54702542D01*
X110392857Y-54702542D02*
X110250000Y-54845400D01*
X110250000Y-54845400D02*
X110035714Y-54916828D01*
X110035714Y-54916828D02*
X109678571Y-54916828D01*
X106785715Y-57331828D02*
X105928572Y-57331828D01*
X106357143Y-57331828D02*
X106357143Y-55831828D01*
X106357143Y-55831828D02*
X106214286Y-56046114D01*
X106214286Y-56046114D02*
X106071429Y-56188971D01*
X106071429Y-56188971D02*
X105928572Y-56260400D01*
X107428571Y-57188971D02*
X107500000Y-57260400D01*
X107500000Y-57260400D02*
X107428571Y-57331828D01*
X107428571Y-57331828D02*
X107357143Y-57260400D01*
X107357143Y-57260400D02*
X107428571Y-57188971D01*
X107428571Y-57188971D02*
X107428571Y-57331828D01*
X108000000Y-55831828D02*
X108928572Y-55831828D01*
X108928572Y-55831828D02*
X108428572Y-56403257D01*
X108428572Y-56403257D02*
X108642857Y-56403257D01*
X108642857Y-56403257D02*
X108785715Y-56474685D01*
X108785715Y-56474685D02*
X108857143Y-56546114D01*
X108857143Y-56546114D02*
X108928572Y-56688971D01*
X108928572Y-56688971D02*
X108928572Y-57046114D01*
X108928572Y-57046114D02*
X108857143Y-57188971D01*
X108857143Y-57188971D02*
X108785715Y-57260400D01*
X108785715Y-57260400D02*
X108642857Y-57331828D01*
X108642857Y-57331828D02*
X108214286Y-57331828D01*
X108214286Y-57331828D02*
X108071429Y-57260400D01*
X108071429Y-57260400D02*
X108000000Y-57188971D01*
X109500000Y-55831828D02*
X109500000Y-56117542D01*
X110071428Y-55831828D02*
X110071428Y-56117542D01*
X110042857Y-59146685D02*
X109928572Y-59089542D01*
X109928572Y-59089542D02*
X109757143Y-59089542D01*
X109757143Y-59089542D02*
X109585714Y-59146685D01*
X109585714Y-59146685D02*
X109471429Y-59260971D01*
X109471429Y-59260971D02*
X109414286Y-59375257D01*
X109414286Y-59375257D02*
X109357143Y-59603828D01*
X109357143Y-59603828D02*
X109357143Y-59775257D01*
X109357143Y-59775257D02*
X109414286Y-60003828D01*
X109414286Y-60003828D02*
X109471429Y-60118114D01*
X109471429Y-60118114D02*
X109585714Y-60232400D01*
X109585714Y-60232400D02*
X109757143Y-60289542D01*
X109757143Y-60289542D02*
X109871429Y-60289542D01*
X109871429Y-60289542D02*
X110042857Y-60232400D01*
X110042857Y-60232400D02*
X110100000Y-60175257D01*
X110100000Y-60175257D02*
X110100000Y-59775257D01*
X110100000Y-59775257D02*
X109871429Y-59775257D01*
X110614286Y-60289542D02*
X110614286Y-59089542D01*
X110614286Y-59089542D02*
X111300000Y-60289542D01*
X111300000Y-60289542D02*
X111300000Y-59089542D01*
X111871429Y-60289542D02*
X111871429Y-59089542D01*
X111871429Y-59089542D02*
X112157143Y-59089542D01*
X112157143Y-59089542D02*
X112328572Y-59146685D01*
X112328572Y-59146685D02*
X112442857Y-59260971D01*
X112442857Y-59260971D02*
X112500000Y-59375257D01*
X112500000Y-59375257D02*
X112557143Y-59603828D01*
X112557143Y-59603828D02*
X112557143Y-59775257D01*
X112557143Y-59775257D02*
X112500000Y-60003828D01*
X112500000Y-60003828D02*
X112442857Y-60118114D01*
X112442857Y-60118114D02*
X112328572Y-60232400D01*
X112328572Y-60232400D02*
X112157143Y-60289542D01*
X112157143Y-60289542D02*
X111871429Y-60289542D01*
X113814286Y-59089542D02*
X114214286Y-60289542D01*
X114214286Y-60289542D02*
X114614286Y-59089542D01*
X115014286Y-60289542D02*
X115014286Y-59089542D01*
X115014286Y-59089542D02*
X115300000Y-59089542D01*
X115300000Y-59089542D02*
X115471429Y-59146685D01*
X115471429Y-59146685D02*
X115585714Y-59260971D01*
X115585714Y-59260971D02*
X115642857Y-59375257D01*
X115642857Y-59375257D02*
X115700000Y-59603828D01*
X115700000Y-59603828D02*
X115700000Y-59775257D01*
X115700000Y-59775257D02*
X115642857Y-60003828D01*
X115642857Y-60003828D02*
X115585714Y-60118114D01*
X115585714Y-60118114D02*
X115471429Y-60232400D01*
X115471429Y-60232400D02*
X115300000Y-60289542D01*
X115300000Y-60289542D02*
X115014286Y-60289542D01*
X116214286Y-60289542D02*
X116214286Y-59089542D01*
X116214286Y-59089542D02*
X116500000Y-59089542D01*
X116500000Y-59089542D02*
X116671429Y-59146685D01*
X116671429Y-59146685D02*
X116785714Y-59260971D01*
X116785714Y-59260971D02*
X116842857Y-59375257D01*
X116842857Y-59375257D02*
X116900000Y-59603828D01*
X116900000Y-59603828D02*
X116900000Y-59775257D01*
X116900000Y-59775257D02*
X116842857Y-60003828D01*
X116842857Y-60003828D02*
X116785714Y-60118114D01*
X116785714Y-60118114D02*
X116671429Y-60232400D01*
X116671429Y-60232400D02*
X116500000Y-60289542D01*
X116500000Y-60289542D02*
X116214286Y-60289542D01*
X118271429Y-60232400D02*
X118442858Y-60289542D01*
X118442858Y-60289542D02*
X118728572Y-60289542D01*
X118728572Y-60289542D02*
X118842858Y-60232400D01*
X118842858Y-60232400D02*
X118900000Y-60175257D01*
X118900000Y-60175257D02*
X118957143Y-60060971D01*
X118957143Y-60060971D02*
X118957143Y-59946685D01*
X118957143Y-59946685D02*
X118900000Y-59832400D01*
X118900000Y-59832400D02*
X118842858Y-59775257D01*
X118842858Y-59775257D02*
X118728572Y-59718114D01*
X118728572Y-59718114D02*
X118500000Y-59660971D01*
X118500000Y-59660971D02*
X118385715Y-59603828D01*
X118385715Y-59603828D02*
X118328572Y-59546685D01*
X118328572Y-59546685D02*
X118271429Y-59432400D01*
X118271429Y-59432400D02*
X118271429Y-59318114D01*
X118271429Y-59318114D02*
X118328572Y-59203828D01*
X118328572Y-59203828D02*
X118385715Y-59146685D01*
X118385715Y-59146685D02*
X118500000Y-59089542D01*
X118500000Y-59089542D02*
X118785715Y-59089542D01*
X118785715Y-59089542D02*
X118957143Y-59146685D01*
X120157143Y-60175257D02*
X120100000Y-60232400D01*
X120100000Y-60232400D02*
X119928572Y-60289542D01*
X119928572Y-60289542D02*
X119814286Y-60289542D01*
X119814286Y-60289542D02*
X119642857Y-60232400D01*
X119642857Y-60232400D02*
X119528572Y-60118114D01*
X119528572Y-60118114D02*
X119471429Y-60003828D01*
X119471429Y-60003828D02*
X119414286Y-59775257D01*
X119414286Y-59775257D02*
X119414286Y-59603828D01*
X119414286Y-59603828D02*
X119471429Y-59375257D01*
X119471429Y-59375257D02*
X119528572Y-59260971D01*
X119528572Y-59260971D02*
X119642857Y-59146685D01*
X119642857Y-59146685D02*
X119814286Y-59089542D01*
X119814286Y-59089542D02*
X119928572Y-59089542D01*
X119928572Y-59089542D02*
X120100000Y-59146685D01*
X120100000Y-59146685D02*
X120157143Y-59203828D01*
X120671429Y-60289542D02*
X120671429Y-59089542D01*
X121357143Y-60289542D02*
X120842857Y-59603828D01*
X121357143Y-59089542D02*
X120671429Y-59775257D01*
X122728572Y-60232400D02*
X122900001Y-60289542D01*
X122900001Y-60289542D02*
X123185715Y-60289542D01*
X123185715Y-60289542D02*
X123300001Y-60232400D01*
X123300001Y-60232400D02*
X123357143Y-60175257D01*
X123357143Y-60175257D02*
X123414286Y-60060971D01*
X123414286Y-60060971D02*
X123414286Y-59946685D01*
X123414286Y-59946685D02*
X123357143Y-59832400D01*
X123357143Y-59832400D02*
X123300001Y-59775257D01*
X123300001Y-59775257D02*
X123185715Y-59718114D01*
X123185715Y-59718114D02*
X122957143Y-59660971D01*
X122957143Y-59660971D02*
X122842858Y-59603828D01*
X122842858Y-59603828D02*
X122785715Y-59546685D01*
X122785715Y-59546685D02*
X122728572Y-59432400D01*
X122728572Y-59432400D02*
X122728572Y-59318114D01*
X122728572Y-59318114D02*
X122785715Y-59203828D01*
X122785715Y-59203828D02*
X122842858Y-59146685D01*
X122842858Y-59146685D02*
X122957143Y-59089542D01*
X122957143Y-59089542D02*
X123242858Y-59089542D01*
X123242858Y-59089542D02*
X123414286Y-59146685D01*
X123928572Y-60289542D02*
X123928572Y-59089542D01*
X123928572Y-59089542D02*
X124214286Y-59089542D01*
X124214286Y-59089542D02*
X124385715Y-59146685D01*
X124385715Y-59146685D02*
X124500000Y-59260971D01*
X124500000Y-59260971D02*
X124557143Y-59375257D01*
X124557143Y-59375257D02*
X124614286Y-59603828D01*
X124614286Y-59603828D02*
X124614286Y-59775257D01*
X124614286Y-59775257D02*
X124557143Y-60003828D01*
X124557143Y-60003828D02*
X124500000Y-60118114D01*
X124500000Y-60118114D02*
X124385715Y-60232400D01*
X124385715Y-60232400D02*
X124214286Y-60289542D01*
X124214286Y-60289542D02*
X123928572Y-60289542D01*
X125071429Y-59946685D02*
X125642858Y-59946685D01*
X124957143Y-60289542D02*
X125357143Y-59089542D01*
X125357143Y-59089542D02*
X125757143Y-60289542D01*
D11*
X106014742Y-84044136D02*
X106014742Y-84729850D01*
X106014742Y-84386993D02*
X104814742Y-84386993D01*
X104814742Y-84386993D02*
X104986171Y-84501279D01*
X104986171Y-84501279D02*
X105100457Y-84615564D01*
X105100457Y-84615564D02*
X105157600Y-84729850D01*
X104814742Y-83301279D02*
X104814742Y-83186993D01*
X104814742Y-83186993D02*
X104871885Y-83072707D01*
X104871885Y-83072707D02*
X104929028Y-83015565D01*
X104929028Y-83015565D02*
X105043314Y-82958422D01*
X105043314Y-82958422D02*
X105271885Y-82901279D01*
X105271885Y-82901279D02*
X105557600Y-82901279D01*
X105557600Y-82901279D02*
X105786171Y-82958422D01*
X105786171Y-82958422D02*
X105900457Y-83015565D01*
X105900457Y-83015565D02*
X105957600Y-83072707D01*
X105957600Y-83072707D02*
X106014742Y-83186993D01*
X106014742Y-83186993D02*
X106014742Y-83301279D01*
X106014742Y-83301279D02*
X105957600Y-83415565D01*
X105957600Y-83415565D02*
X105900457Y-83472707D01*
X105900457Y-83472707D02*
X105786171Y-83529850D01*
X105786171Y-83529850D02*
X105557600Y-83586993D01*
X105557600Y-83586993D02*
X105271885Y-83586993D01*
X105271885Y-83586993D02*
X105043314Y-83529850D01*
X105043314Y-83529850D02*
X104929028Y-83472707D01*
X104929028Y-83472707D02*
X104871885Y-83415565D01*
X104871885Y-83415565D02*
X104814742Y-83301279D01*
X106014742Y-82386993D02*
X104814742Y-82386993D01*
X105557600Y-82272708D02*
X106014742Y-81929850D01*
X105214742Y-81929850D02*
X105671885Y-82386993D01*
D10*
X105821428Y-61163828D02*
X106107142Y-61163828D01*
X106107142Y-61163828D02*
X106249999Y-61235257D01*
X106249999Y-61235257D02*
X106392856Y-61378114D01*
X106392856Y-61378114D02*
X106464285Y-61663828D01*
X106464285Y-61663828D02*
X106464285Y-62163828D01*
X106464285Y-62163828D02*
X106392856Y-62449542D01*
X106392856Y-62449542D02*
X106249999Y-62592400D01*
X106249999Y-62592400D02*
X106107142Y-62663828D01*
X106107142Y-62663828D02*
X105821428Y-62663828D01*
X105821428Y-62663828D02*
X105678571Y-62592400D01*
X105678571Y-62592400D02*
X105535713Y-62449542D01*
X105535713Y-62449542D02*
X105464285Y-62163828D01*
X105464285Y-62163828D02*
X105464285Y-61663828D01*
X105464285Y-61663828D02*
X105535713Y-61378114D01*
X105535713Y-61378114D02*
X105678571Y-61235257D01*
X105678571Y-61235257D02*
X105821428Y-61163828D01*
X107821428Y-62663828D02*
X107107142Y-62663828D01*
X107107142Y-62663828D02*
X107107142Y-61163828D01*
X108321428Y-61878114D02*
X108821428Y-61878114D01*
X109035714Y-62663828D02*
X108321428Y-62663828D01*
X108321428Y-62663828D02*
X108321428Y-61163828D01*
X108321428Y-61163828D02*
X109035714Y-61163828D01*
X109678571Y-62663828D02*
X109678571Y-61163828D01*
X109678571Y-61163828D02*
X110035714Y-61163828D01*
X110035714Y-61163828D02*
X110250000Y-61235257D01*
X110250000Y-61235257D02*
X110392857Y-61378114D01*
X110392857Y-61378114D02*
X110464286Y-61520971D01*
X110464286Y-61520971D02*
X110535714Y-61806685D01*
X110535714Y-61806685D02*
X110535714Y-62020971D01*
X110535714Y-62020971D02*
X110464286Y-62306685D01*
X110464286Y-62306685D02*
X110392857Y-62449542D01*
X110392857Y-62449542D02*
X110250000Y-62592400D01*
X110250000Y-62592400D02*
X110035714Y-62663828D01*
X110035714Y-62663828D02*
X109678571Y-62663828D01*
X105571429Y-63578828D02*
X105714286Y-63578828D01*
X105714286Y-63578828D02*
X105857143Y-63650257D01*
X105857143Y-63650257D02*
X105928572Y-63721685D01*
X105928572Y-63721685D02*
X106000000Y-63864542D01*
X106000000Y-63864542D02*
X106071429Y-64150257D01*
X106071429Y-64150257D02*
X106071429Y-64507400D01*
X106071429Y-64507400D02*
X106000000Y-64793114D01*
X106000000Y-64793114D02*
X105928572Y-64935971D01*
X105928572Y-64935971D02*
X105857143Y-65007400D01*
X105857143Y-65007400D02*
X105714286Y-65078828D01*
X105714286Y-65078828D02*
X105571429Y-65078828D01*
X105571429Y-65078828D02*
X105428572Y-65007400D01*
X105428572Y-65007400D02*
X105357143Y-64935971D01*
X105357143Y-64935971D02*
X105285714Y-64793114D01*
X105285714Y-64793114D02*
X105214286Y-64507400D01*
X105214286Y-64507400D02*
X105214286Y-64150257D01*
X105214286Y-64150257D02*
X105285714Y-63864542D01*
X105285714Y-63864542D02*
X105357143Y-63721685D01*
X105357143Y-63721685D02*
X105428572Y-63650257D01*
X105428572Y-63650257D02*
X105571429Y-63578828D01*
X106714285Y-64935971D02*
X106785714Y-65007400D01*
X106785714Y-65007400D02*
X106714285Y-65078828D01*
X106714285Y-65078828D02*
X106642857Y-65007400D01*
X106642857Y-65007400D02*
X106714285Y-64935971D01*
X106714285Y-64935971D02*
X106714285Y-65078828D01*
X107500000Y-65078828D02*
X107785714Y-65078828D01*
X107785714Y-65078828D02*
X107928571Y-65007400D01*
X107928571Y-65007400D02*
X108000000Y-64935971D01*
X108000000Y-64935971D02*
X108142857Y-64721685D01*
X108142857Y-64721685D02*
X108214286Y-64435971D01*
X108214286Y-64435971D02*
X108214286Y-63864542D01*
X108214286Y-63864542D02*
X108142857Y-63721685D01*
X108142857Y-63721685D02*
X108071429Y-63650257D01*
X108071429Y-63650257D02*
X107928571Y-63578828D01*
X107928571Y-63578828D02*
X107642857Y-63578828D01*
X107642857Y-63578828D02*
X107500000Y-63650257D01*
X107500000Y-63650257D02*
X107428571Y-63721685D01*
X107428571Y-63721685D02*
X107357143Y-63864542D01*
X107357143Y-63864542D02*
X107357143Y-64221685D01*
X107357143Y-64221685D02*
X107428571Y-64364542D01*
X107428571Y-64364542D02*
X107500000Y-64435971D01*
X107500000Y-64435971D02*
X107642857Y-64507400D01*
X107642857Y-64507400D02*
X107928571Y-64507400D01*
X107928571Y-64507400D02*
X108071429Y-64435971D01*
X108071429Y-64435971D02*
X108142857Y-64364542D01*
X108142857Y-64364542D02*
X108214286Y-64221685D01*
X109500000Y-63578828D02*
X109214285Y-63578828D01*
X109214285Y-63578828D02*
X109071428Y-63650257D01*
X109071428Y-63650257D02*
X109000000Y-63721685D01*
X109000000Y-63721685D02*
X108857142Y-63935971D01*
X108857142Y-63935971D02*
X108785714Y-64221685D01*
X108785714Y-64221685D02*
X108785714Y-64793114D01*
X108785714Y-64793114D02*
X108857142Y-64935971D01*
X108857142Y-64935971D02*
X108928571Y-65007400D01*
X108928571Y-65007400D02*
X109071428Y-65078828D01*
X109071428Y-65078828D02*
X109357142Y-65078828D01*
X109357142Y-65078828D02*
X109500000Y-65007400D01*
X109500000Y-65007400D02*
X109571428Y-64935971D01*
X109571428Y-64935971D02*
X109642857Y-64793114D01*
X109642857Y-64793114D02*
X109642857Y-64435971D01*
X109642857Y-64435971D02*
X109571428Y-64293114D01*
X109571428Y-64293114D02*
X109500000Y-64221685D01*
X109500000Y-64221685D02*
X109357142Y-64150257D01*
X109357142Y-64150257D02*
X109071428Y-64150257D01*
X109071428Y-64150257D02*
X108928571Y-64221685D01*
X108928571Y-64221685D02*
X108857142Y-64293114D01*
X108857142Y-64293114D02*
X108785714Y-64435971D01*
X110214285Y-63578828D02*
X110214285Y-63864542D01*
X110785713Y-63578828D02*
X110785713Y-63864542D01*
D12*
X100459857Y-66411383D02*
X100459857Y-65725669D01*
X100459857Y-66068526D02*
X101659857Y-66068526D01*
X101659857Y-66068526D02*
X101488428Y-65954240D01*
X101488428Y-65954240D02*
X101374142Y-65839955D01*
X101374142Y-65839955D02*
X101317000Y-65725669D01*
X100574142Y-66925669D02*
X100517000Y-66982812D01*
X100517000Y-66982812D02*
X100459857Y-66925669D01*
X100459857Y-66925669D02*
X100517000Y-66868526D01*
X100517000Y-66868526D02*
X100574142Y-66925669D01*
X100574142Y-66925669D02*
X100459857Y-66925669D01*
X101659857Y-67382812D02*
X101659857Y-68125669D01*
X101659857Y-68125669D02*
X101202714Y-67725669D01*
X101202714Y-67725669D02*
X101202714Y-67897098D01*
X101202714Y-67897098D02*
X101145571Y-68011384D01*
X101145571Y-68011384D02*
X101088428Y-68068526D01*
X101088428Y-68068526D02*
X100974142Y-68125669D01*
X100974142Y-68125669D02*
X100688428Y-68125669D01*
X100688428Y-68125669D02*
X100574142Y-68068526D01*
X100574142Y-68068526D02*
X100517000Y-68011384D01*
X100517000Y-68011384D02*
X100459857Y-67897098D01*
X100459857Y-67897098D02*
X100459857Y-67554241D01*
X100459857Y-67554241D02*
X100517000Y-67439955D01*
X100517000Y-67439955D02*
X100574142Y-67382812D01*
X101659857Y-68582812D02*
X101431285Y-68582812D01*
X101659857Y-69039955D02*
X101431285Y-69039955D01*
X101659857Y-74278758D02*
X101659857Y-74393044D01*
X101659857Y-74393044D02*
X101602714Y-74507330D01*
X101602714Y-74507330D02*
X101545571Y-74564473D01*
X101545571Y-74564473D02*
X101431285Y-74621615D01*
X101431285Y-74621615D02*
X101202714Y-74678758D01*
X101202714Y-74678758D02*
X100917000Y-74678758D01*
X100917000Y-74678758D02*
X100688428Y-74621615D01*
X100688428Y-74621615D02*
X100574142Y-74564473D01*
X100574142Y-74564473D02*
X100517000Y-74507330D01*
X100517000Y-74507330D02*
X100459857Y-74393044D01*
X100459857Y-74393044D02*
X100459857Y-74278758D01*
X100459857Y-74278758D02*
X100517000Y-74164473D01*
X100517000Y-74164473D02*
X100574142Y-74107330D01*
X100574142Y-74107330D02*
X100688428Y-74050187D01*
X100688428Y-74050187D02*
X100917000Y-73993044D01*
X100917000Y-73993044D02*
X101202714Y-73993044D01*
X101202714Y-73993044D02*
X101431285Y-74050187D01*
X101431285Y-74050187D02*
X101545571Y-74107330D01*
X101545571Y-74107330D02*
X101602714Y-74164473D01*
X101602714Y-74164473D02*
X101659857Y-74278758D01*
X100574142Y-75193044D02*
X100517000Y-75250187D01*
X100517000Y-75250187D02*
X100459857Y-75193044D01*
X100459857Y-75193044D02*
X100517000Y-75135901D01*
X100517000Y-75135901D02*
X100574142Y-75193044D01*
X100574142Y-75193044D02*
X100459857Y-75193044D01*
X100459857Y-75821616D02*
X100459857Y-76050187D01*
X100459857Y-76050187D02*
X100517000Y-76164473D01*
X100517000Y-76164473D02*
X100574142Y-76221616D01*
X100574142Y-76221616D02*
X100745571Y-76335901D01*
X100745571Y-76335901D02*
X100974142Y-76393044D01*
X100974142Y-76393044D02*
X101431285Y-76393044D01*
X101431285Y-76393044D02*
X101545571Y-76335901D01*
X101545571Y-76335901D02*
X101602714Y-76278759D01*
X101602714Y-76278759D02*
X101659857Y-76164473D01*
X101659857Y-76164473D02*
X101659857Y-75935901D01*
X101659857Y-75935901D02*
X101602714Y-75821616D01*
X101602714Y-75821616D02*
X101545571Y-75764473D01*
X101545571Y-75764473D02*
X101431285Y-75707330D01*
X101431285Y-75707330D02*
X101145571Y-75707330D01*
X101145571Y-75707330D02*
X101031285Y-75764473D01*
X101031285Y-75764473D02*
X100974142Y-75821616D01*
X100974142Y-75821616D02*
X100917000Y-75935901D01*
X100917000Y-75935901D02*
X100917000Y-76164473D01*
X100917000Y-76164473D02*
X100974142Y-76278759D01*
X100974142Y-76278759D02*
X101031285Y-76335901D01*
X101031285Y-76335901D02*
X101145571Y-76393044D01*
X101659857Y-77421616D02*
X101659857Y-77193044D01*
X101659857Y-77193044D02*
X101602714Y-77078758D01*
X101602714Y-77078758D02*
X101545571Y-77021616D01*
X101545571Y-77021616D02*
X101374142Y-76907330D01*
X101374142Y-76907330D02*
X101145571Y-76850187D01*
X101145571Y-76850187D02*
X100688428Y-76850187D01*
X100688428Y-76850187D02*
X100574142Y-76907330D01*
X100574142Y-76907330D02*
X100517000Y-76964473D01*
X100517000Y-76964473D02*
X100459857Y-77078758D01*
X100459857Y-77078758D02*
X100459857Y-77307330D01*
X100459857Y-77307330D02*
X100517000Y-77421616D01*
X100517000Y-77421616D02*
X100574142Y-77478758D01*
X100574142Y-77478758D02*
X100688428Y-77535901D01*
X100688428Y-77535901D02*
X100974142Y-77535901D01*
X100974142Y-77535901D02*
X101088428Y-77478758D01*
X101088428Y-77478758D02*
X101145571Y-77421616D01*
X101145571Y-77421616D02*
X101202714Y-77307330D01*
X101202714Y-77307330D02*
X101202714Y-77078758D01*
X101202714Y-77078758D02*
X101145571Y-76964473D01*
X101145571Y-76964473D02*
X101088428Y-76907330D01*
X101088428Y-76907330D02*
X100974142Y-76850187D01*
X101659857Y-77993044D02*
X101431285Y-77993044D01*
X101659857Y-78450187D02*
X101431285Y-78450187D01*
D10*
X108321429Y-88885828D02*
X109178572Y-88885828D01*
X108750000Y-90385828D02*
X108750000Y-88885828D01*
X110250000Y-90314400D02*
X110107143Y-90385828D01*
X110107143Y-90385828D02*
X109821429Y-90385828D01*
X109821429Y-90385828D02*
X109678571Y-90314400D01*
X109678571Y-90314400D02*
X109607143Y-90171542D01*
X109607143Y-90171542D02*
X109607143Y-89600114D01*
X109607143Y-89600114D02*
X109678571Y-89457257D01*
X109678571Y-89457257D02*
X109821429Y-89385828D01*
X109821429Y-89385828D02*
X110107143Y-89385828D01*
X110107143Y-89385828D02*
X110250000Y-89457257D01*
X110250000Y-89457257D02*
X110321429Y-89600114D01*
X110321429Y-89600114D02*
X110321429Y-89742971D01*
X110321429Y-89742971D02*
X109607143Y-89885828D01*
X110892857Y-90314400D02*
X111035714Y-90385828D01*
X111035714Y-90385828D02*
X111321428Y-90385828D01*
X111321428Y-90385828D02*
X111464285Y-90314400D01*
X111464285Y-90314400D02*
X111535714Y-90171542D01*
X111535714Y-90171542D02*
X111535714Y-90100114D01*
X111535714Y-90100114D02*
X111464285Y-89957257D01*
X111464285Y-89957257D02*
X111321428Y-89885828D01*
X111321428Y-89885828D02*
X111107143Y-89885828D01*
X111107143Y-89885828D02*
X110964285Y-89814400D01*
X110964285Y-89814400D02*
X110892857Y-89671542D01*
X110892857Y-89671542D02*
X110892857Y-89600114D01*
X110892857Y-89600114D02*
X110964285Y-89457257D01*
X110964285Y-89457257D02*
X111107143Y-89385828D01*
X111107143Y-89385828D02*
X111321428Y-89385828D01*
X111321428Y-89385828D02*
X111464285Y-89457257D01*
X111964286Y-89385828D02*
X112535714Y-89385828D01*
X112178571Y-88885828D02*
X112178571Y-90171542D01*
X112178571Y-90171542D02*
X112250000Y-90314400D01*
X112250000Y-90314400D02*
X112392857Y-90385828D01*
X112392857Y-90385828D02*
X112535714Y-90385828D01*
X114750000Y-90314400D02*
X114607143Y-90385828D01*
X114607143Y-90385828D02*
X114321429Y-90385828D01*
X114321429Y-90385828D02*
X114178571Y-90314400D01*
X114178571Y-90314400D02*
X114107143Y-90171542D01*
X114107143Y-90171542D02*
X114107143Y-89600114D01*
X114107143Y-89600114D02*
X114178571Y-89457257D01*
X114178571Y-89457257D02*
X114321429Y-89385828D01*
X114321429Y-89385828D02*
X114607143Y-89385828D01*
X114607143Y-89385828D02*
X114750000Y-89457257D01*
X114750000Y-89457257D02*
X114821429Y-89600114D01*
X114821429Y-89600114D02*
X114821429Y-89742971D01*
X114821429Y-89742971D02*
X114107143Y-89885828D01*
X114607143Y-88814400D02*
X114392857Y-89028685D01*
X116107143Y-90314400D02*
X115964285Y-90385828D01*
X115964285Y-90385828D02*
X115678571Y-90385828D01*
X115678571Y-90385828D02*
X115535714Y-90314400D01*
X115535714Y-90314400D02*
X115464285Y-90242971D01*
X115464285Y-90242971D02*
X115392857Y-90100114D01*
X115392857Y-90100114D02*
X115392857Y-89671542D01*
X115392857Y-89671542D02*
X115464285Y-89528685D01*
X115464285Y-89528685D02*
X115535714Y-89457257D01*
X115535714Y-89457257D02*
X115678571Y-89385828D01*
X115678571Y-89385828D02*
X115964285Y-89385828D01*
X115964285Y-89385828D02*
X116107143Y-89457257D01*
X116749999Y-90385828D02*
X116749999Y-89385828D01*
X116749999Y-89671542D02*
X116821428Y-89528685D01*
X116821428Y-89528685D02*
X116892857Y-89457257D01*
X116892857Y-89457257D02*
X117035714Y-89385828D01*
X117035714Y-89385828D02*
X117178571Y-89385828D01*
X118321428Y-90385828D02*
X118321428Y-89600114D01*
X118321428Y-89600114D02*
X118249999Y-89457257D01*
X118249999Y-89457257D02*
X118107142Y-89385828D01*
X118107142Y-89385828D02*
X117821428Y-89385828D01*
X117821428Y-89385828D02*
X117678570Y-89457257D01*
X118321428Y-90314400D02*
X118178570Y-90385828D01*
X118178570Y-90385828D02*
X117821428Y-90385828D01*
X117821428Y-90385828D02*
X117678570Y-90314400D01*
X117678570Y-90314400D02*
X117607142Y-90171542D01*
X117607142Y-90171542D02*
X117607142Y-90028685D01*
X117607142Y-90028685D02*
X117678570Y-89885828D01*
X117678570Y-89885828D02*
X117821428Y-89814400D01*
X117821428Y-89814400D02*
X118178570Y-89814400D01*
X118178570Y-89814400D02*
X118321428Y-89742971D01*
X119035713Y-89385828D02*
X119035713Y-90385828D01*
X119035713Y-89528685D02*
X119107142Y-89457257D01*
X119107142Y-89457257D02*
X119249999Y-89385828D01*
X119249999Y-89385828D02*
X119464285Y-89385828D01*
X119464285Y-89385828D02*
X119607142Y-89457257D01*
X119607142Y-89457257D02*
X119678571Y-89600114D01*
X119678571Y-89600114D02*
X119678571Y-90385828D01*
X121821428Y-88885828D02*
X122107142Y-88885828D01*
X122107142Y-88885828D02*
X122249999Y-88957257D01*
X122249999Y-88957257D02*
X122392856Y-89100114D01*
X122392856Y-89100114D02*
X122464285Y-89385828D01*
X122464285Y-89385828D02*
X122464285Y-89885828D01*
X122464285Y-89885828D02*
X122392856Y-90171542D01*
X122392856Y-90171542D02*
X122249999Y-90314400D01*
X122249999Y-90314400D02*
X122107142Y-90385828D01*
X122107142Y-90385828D02*
X121821428Y-90385828D01*
X121821428Y-90385828D02*
X121678571Y-90314400D01*
X121678571Y-90314400D02*
X121535713Y-90171542D01*
X121535713Y-90171542D02*
X121464285Y-89885828D01*
X121464285Y-89885828D02*
X121464285Y-89385828D01*
X121464285Y-89385828D02*
X121535713Y-89100114D01*
X121535713Y-89100114D02*
X121678571Y-88957257D01*
X121678571Y-88957257D02*
X121821428Y-88885828D01*
X123821428Y-90385828D02*
X123107142Y-90385828D01*
X123107142Y-90385828D02*
X123107142Y-88885828D01*
X124321428Y-89600114D02*
X124821428Y-89600114D01*
X125035714Y-90385828D02*
X124321428Y-90385828D01*
X124321428Y-90385828D02*
X124321428Y-88885828D01*
X124321428Y-88885828D02*
X125035714Y-88885828D01*
X125678571Y-90385828D02*
X125678571Y-88885828D01*
X125678571Y-88885828D02*
X126035714Y-88885828D01*
X126035714Y-88885828D02*
X126250000Y-88957257D01*
X126250000Y-88957257D02*
X126392857Y-89100114D01*
X126392857Y-89100114D02*
X126464286Y-89242971D01*
X126464286Y-89242971D02*
X126535714Y-89528685D01*
X126535714Y-89528685D02*
X126535714Y-89742971D01*
X126535714Y-89742971D02*
X126464286Y-90028685D01*
X126464286Y-90028685D02*
X126392857Y-90171542D01*
X126392857Y-90171542D02*
X126250000Y-90314400D01*
X126250000Y-90314400D02*
X126035714Y-90385828D01*
X126035714Y-90385828D02*
X125678571Y-90385828D01*
X115214286Y-91300828D02*
X115714286Y-92800828D01*
X115714286Y-92800828D02*
X116214286Y-91300828D01*
X117000000Y-91300828D02*
X117142857Y-91300828D01*
X117142857Y-91300828D02*
X117285714Y-91372257D01*
X117285714Y-91372257D02*
X117357143Y-91443685D01*
X117357143Y-91443685D02*
X117428571Y-91586542D01*
X117428571Y-91586542D02*
X117500000Y-91872257D01*
X117500000Y-91872257D02*
X117500000Y-92229400D01*
X117500000Y-92229400D02*
X117428571Y-92515114D01*
X117428571Y-92515114D02*
X117357143Y-92657971D01*
X117357143Y-92657971D02*
X117285714Y-92729400D01*
X117285714Y-92729400D02*
X117142857Y-92800828D01*
X117142857Y-92800828D02*
X117000000Y-92800828D01*
X117000000Y-92800828D02*
X116857143Y-92729400D01*
X116857143Y-92729400D02*
X116785714Y-92657971D01*
X116785714Y-92657971D02*
X116714285Y-92515114D01*
X116714285Y-92515114D02*
X116642857Y-92229400D01*
X116642857Y-92229400D02*
X116642857Y-91872257D01*
X116642857Y-91872257D02*
X116714285Y-91586542D01*
X116714285Y-91586542D02*
X116785714Y-91443685D01*
X116785714Y-91443685D02*
X116857143Y-91372257D01*
X116857143Y-91372257D02*
X117000000Y-91300828D01*
X118142856Y-92657971D02*
X118214285Y-92729400D01*
X118214285Y-92729400D02*
X118142856Y-92800828D01*
X118142856Y-92800828D02*
X118071428Y-92729400D01*
X118071428Y-92729400D02*
X118142856Y-92657971D01*
X118142856Y-92657971D02*
X118142856Y-92800828D01*
X119642857Y-92800828D02*
X118785714Y-92800828D01*
X119214285Y-92800828D02*
X119214285Y-91300828D01*
X119214285Y-91300828D02*
X119071428Y-91515114D01*
X119071428Y-91515114D02*
X118928571Y-91657971D01*
X118928571Y-91657971D02*
X118785714Y-91729400D01*
D13*
X108149800Y-70193067D02*
X108102180Y-70335924D01*
X108102180Y-70335924D02*
X108102180Y-70574019D01*
X108102180Y-70574019D02*
X108149800Y-70669257D01*
X108149800Y-70669257D02*
X108197419Y-70716876D01*
X108197419Y-70716876D02*
X108292657Y-70764495D01*
X108292657Y-70764495D02*
X108387895Y-70764495D01*
X108387895Y-70764495D02*
X108483133Y-70716876D01*
X108483133Y-70716876D02*
X108530752Y-70669257D01*
X108530752Y-70669257D02*
X108578371Y-70574019D01*
X108578371Y-70574019D02*
X108625990Y-70383543D01*
X108625990Y-70383543D02*
X108673609Y-70288305D01*
X108673609Y-70288305D02*
X108721228Y-70240686D01*
X108721228Y-70240686D02*
X108816466Y-70193067D01*
X108816466Y-70193067D02*
X108911704Y-70193067D01*
X108911704Y-70193067D02*
X109006942Y-70240686D01*
X109006942Y-70240686D02*
X109054561Y-70288305D01*
X109054561Y-70288305D02*
X109102180Y-70383543D01*
X109102180Y-70383543D02*
X109102180Y-70621638D01*
X109102180Y-70621638D02*
X109054561Y-70764495D01*
X109102180Y-71097829D02*
X108102180Y-71335924D01*
X108102180Y-71335924D02*
X108816466Y-71526400D01*
X108816466Y-71526400D02*
X108102180Y-71716876D01*
X108102180Y-71716876D02*
X109102180Y-71954972D01*
X108102180Y-72859733D02*
X108102180Y-72288305D01*
X108102180Y-72574019D02*
X109102180Y-72574019D01*
X109102180Y-72574019D02*
X108959323Y-72478781D01*
X108959323Y-72478781D02*
X108864085Y-72383543D01*
X108864085Y-72383543D02*
X108816466Y-72288305D01*
X120908095Y-77562419D02*
X120908095Y-78371942D01*
X120908095Y-78371942D02*
X120955714Y-78467180D01*
X120955714Y-78467180D02*
X121003333Y-78514800D01*
X121003333Y-78514800D02*
X121098571Y-78562419D01*
X121098571Y-78562419D02*
X121289047Y-78562419D01*
X121289047Y-78562419D02*
X121384285Y-78514800D01*
X121384285Y-78514800D02*
X121431904Y-78467180D01*
X121431904Y-78467180D02*
X121479523Y-78371942D01*
X121479523Y-78371942D02*
X121479523Y-77562419D01*
X122479523Y-78562419D02*
X121908095Y-78562419D01*
X122193809Y-78562419D02*
X122193809Y-77562419D01*
X122193809Y-77562419D02*
X122098571Y-77705276D01*
X122098571Y-77705276D02*
X122003333Y-77800514D01*
X122003333Y-77800514D02*
X121908095Y-77848133D01*
D14*
X124126666Y-62065819D02*
X124126666Y-62780104D01*
X124126666Y-62780104D02*
X124079047Y-62922961D01*
X124079047Y-62922961D02*
X123983809Y-63018200D01*
X123983809Y-63018200D02*
X123840952Y-63065819D01*
X123840952Y-63065819D02*
X123745714Y-63065819D01*
X124555238Y-62161057D02*
X124602857Y-62113438D01*
X124602857Y-62113438D02*
X124698095Y-62065819D01*
X124698095Y-62065819D02*
X124936190Y-62065819D01*
X124936190Y-62065819D02*
X125031428Y-62113438D01*
X125031428Y-62113438D02*
X125079047Y-62161057D01*
X125079047Y-62161057D02*
X125126666Y-62256295D01*
X125126666Y-62256295D02*
X125126666Y-62351533D01*
X125126666Y-62351533D02*
X125079047Y-62494390D01*
X125079047Y-62494390D02*
X124507619Y-63065819D01*
X124507619Y-63065819D02*
X125126666Y-63065819D01*
X106118819Y-79033666D02*
X105642628Y-79366999D01*
X106118819Y-79605094D02*
X105118819Y-79605094D01*
X105118819Y-79605094D02*
X105118819Y-79224142D01*
X105118819Y-79224142D02*
X105166438Y-79128904D01*
X105166438Y-79128904D02*
X105214057Y-79081285D01*
X105214057Y-79081285D02*
X105309295Y-79033666D01*
X105309295Y-79033666D02*
X105452152Y-79033666D01*
X105452152Y-79033666D02*
X105547390Y-79081285D01*
X105547390Y-79081285D02*
X105595009Y-79128904D01*
X105595009Y-79128904D02*
X105642628Y-79224142D01*
X105642628Y-79224142D02*
X105642628Y-79605094D01*
X106118819Y-78081285D02*
X106118819Y-78652713D01*
X106118819Y-78366999D02*
X105118819Y-78366999D01*
X105118819Y-78366999D02*
X105261676Y-78462237D01*
X105261676Y-78462237D02*
X105356914Y-78557475D01*
X105356914Y-78557475D02*
X105404533Y-78652713D01*
X108658819Y-77509666D02*
X108182628Y-77842999D01*
X108658819Y-78081094D02*
X107658819Y-78081094D01*
X107658819Y-78081094D02*
X107658819Y-77700142D01*
X107658819Y-77700142D02*
X107706438Y-77604904D01*
X107706438Y-77604904D02*
X107754057Y-77557285D01*
X107754057Y-77557285D02*
X107849295Y-77509666D01*
X107849295Y-77509666D02*
X107992152Y-77509666D01*
X107992152Y-77509666D02*
X108087390Y-77557285D01*
X108087390Y-77557285D02*
X108135009Y-77604904D01*
X108135009Y-77604904D02*
X108182628Y-77700142D01*
X108182628Y-77700142D02*
X108182628Y-78081094D01*
X107754057Y-77128713D02*
X107706438Y-77081094D01*
X107706438Y-77081094D02*
X107658819Y-76985856D01*
X107658819Y-76985856D02*
X107658819Y-76747761D01*
X107658819Y-76747761D02*
X107706438Y-76652523D01*
X107706438Y-76652523D02*
X107754057Y-76604904D01*
X107754057Y-76604904D02*
X107849295Y-76557285D01*
X107849295Y-76557285D02*
X107944533Y-76557285D01*
X107944533Y-76557285D02*
X108087390Y-76604904D01*
X108087390Y-76604904D02*
X108658819Y-77176332D01*
X108658819Y-77176332D02*
X108658819Y-76557285D01*
X124380666Y-54318819D02*
X124380666Y-55033104D01*
X124380666Y-55033104D02*
X124333047Y-55175961D01*
X124333047Y-55175961D02*
X124237809Y-55271200D01*
X124237809Y-55271200D02*
X124094952Y-55318819D01*
X124094952Y-55318819D02*
X123999714Y-55318819D01*
X125380666Y-55318819D02*
X124809238Y-55318819D01*
X125094952Y-55318819D02*
X125094952Y-54318819D01*
X125094952Y-54318819D02*
X124999714Y-54461676D01*
X124999714Y-54461676D02*
X124904476Y-54556914D01*
X124904476Y-54556914D02*
X124809238Y-54604533D01*
D13*
%TO.C,SW1*%
X107764000Y-67279000D02*
X107120000Y-67279000D01*
X107764000Y-67279000D02*
X107764000Y-75915000D01*
X107120000Y-67279000D02*
X107120000Y-67279000D01*
X103564000Y-67279000D02*
X104326000Y-67279000D01*
X103564000Y-67279000D02*
X103564000Y-75915000D01*
X107764000Y-75915000D02*
X107120000Y-75915000D01*
X103564000Y-75915000D02*
X104326000Y-75915000D01*
X103564000Y-69533000D02*
X100564000Y-69533000D01*
X100564000Y-69533000D02*
X100564000Y-72533000D01*
X100564000Y-72533000D02*
X103564000Y-72533000D01*
X103564000Y-72533000D02*
X103564000Y-69533000D01*
%TO.C,U1*%
X132670000Y-69105000D02*
X109670000Y-69105000D01*
X109670000Y-69105000D02*
X109670000Y-87105000D01*
X109670000Y-87105000D02*
X132670000Y-87105000D01*
X132670000Y-87105000D02*
X132670000Y-69105000D01*
X134170000Y-73605000D02*
X127170000Y-73605000D01*
X127170000Y-73605000D02*
X127170000Y-82605000D01*
X127170000Y-82605000D02*
X134170000Y-82605000D01*
X134170000Y-82605000D02*
X134170000Y-73605000D01*
D15*
%TO.C,J2*%
X112472000Y-63941000D02*
X112472000Y-62611000D01*
X113802000Y-63941000D02*
X112472000Y-63941000D01*
X115072000Y-63941000D02*
X122752000Y-63941000D01*
X115072000Y-63941000D02*
X115072000Y-61281000D01*
X122752000Y-63941000D02*
X122752000Y-61281000D01*
X115072000Y-61281000D02*
X122752000Y-61281000D01*
%TO.C,R1*%
X104617000Y-85359000D02*
X104617000Y-81519000D01*
X106457000Y-85359000D02*
X106457000Y-81519000D01*
%TO.C,R2*%
X107157000Y-83835000D02*
X107157000Y-79995000D01*
X108997000Y-83835000D02*
X108997000Y-79995000D01*
%TO.C,J1*%
X112589000Y-56194000D02*
X112589000Y-54864000D01*
X113919000Y-56194000D02*
X112589000Y-56194000D01*
X115189000Y-56194000D02*
X122869000Y-56194000D01*
X115189000Y-56194000D02*
X115189000Y-53534000D01*
X122869000Y-56194000D02*
X122869000Y-53534000D01*
X115189000Y-53534000D02*
X122869000Y-53534000D01*
%TD*%
M02*
