EESchema Schematic File Version 5
EELAYER 43 0
EELAYER END
$Descr A4 11693 8268
encoding utf-8
Sheet 1 1
Title ""
Date ""
Rev ""
Comp ""
Comment1 ""
Comment2 ""
Comment3 ""
Comment4 ""
Comment5 ""
Comment6 ""
Comment7 ""
Comment8 ""
Comment9 ""
$EndDescr
Connection ~ 3700 2350
Connection ~ 4200 1550
Connection ~ 4200 2350
NoConn ~ 3500 1750
Wire Wire Line
	3500 1550 4200 1550
Wire Wire Line
	3500 1950 4500 1950
Wire Wire Line
	3700 2150 3500 2150
Wire Wire Line
	3700 2150 3700 2350
Wire Wire Line
	3700 2350 3700 2440
Wire Wire Line
	3700 2350 4200 2350
Wire Wire Line
	4200 1550 4500 1550
Wire Wire Line
	4200 2000 4200 1550
Wire Wire Line
	4200 2300 4200 2350
Wire Wire Line
	4200 2350 4200 2700
Wire Wire Line
	4200 2350 4500 2350
Wire Wire Line
	4200 2700 4500 2700
$Comp
L power:GND #PWR01
U 1 1 00000000
P 3700 2440
F 0 "#PWR01" H 3700 2190 50  0001 C CNN
F 1 "GND" H 3700 2277 50  0000 C CNN
F 2 "" H 3700 2440 50  0001 C CNN
F 3 "" H 3700 2440 50  0001 C CNN
	1    3700 2440
	1    0    0    -1  
$EndComp
$Comp
L ShemaMicroICS40730-rescue:Conn_01x01-conn J2
U 1 1 5B0450A0
P 4700 1550
F 0 "J2" H 4700 1650 50  0001 C CNN
F 1 "+" H 4700 1450 50  0000 C CNN
F 2 "MicroMEMS:WirePad" H 4700 1550 50  0001 C CNN
F 3 "" H 4700 1550 50  0001 C CNN
	1    4700 1550
	1    0    0    -1  
$EndComp
$Comp
L ShemaMicroICS40730-rescue:Conn_01x01-conn J1
U 1 1 5B044FB7
P 4700 1950
F 0 "J1" H 4700 2050 50  0001 C CNN
F 1 "o" H 4700 1850 50  0000 C CNN
F 2 "MicroMEMS:WirePad" H 4700 1950 50  0001 C CNN
F 3 "" H 4700 1950 50  0001 C CNN
	1    4700 1950
	1    0    0    -1  
$EndComp
$Comp
L ShemaMicroICS40730-rescue:Conn_01x01-conn J3
U 1 1 5B0450F1
P 4700 2350
F 0 "J3" H 4700 2450 50  0001 C CNN
F 1 "G" H 4700 2250 50  0000 C CNN
F 2 "MicroMEMS:WirePad" H 4700 2350 50  0001 C CNN
F 3 "" H 4700 2350 50  0001 C CNN
	1    4700 2350
	1    0    0    -1  
$EndComp
$Comp
L ShemaMicroICS40730-rescue:Conn_01x01-conn J4
U 1 1 5BDB1CDE
P 4700 2700
F 0 "J4" H 4700 2800 50  0001 C CNN
F 1 "G" H 4700 2600 50  0000 C CNN
F 2 "MicroMEMS:WirePad" H 4700 2700 50  0001 C CNN
F 3 "" H 4700 2700 50  0001 C CNN
	1    4700 2700
	1    0    0    -1  
$EndComp
$Comp
L Device:C C1
U 1 1 5BDB1574
P 4200 2150
F 0 "C1" H 4225 2250 50  0000 L CNN
F 1 "100nF" H 4225 2050 50  0000 L CNN
F 2 "MicroMEMS:C_0805_HandSoldering" H 4238 2000 50  0001 C CNN
F 3 "" H 4200 2150 50  0001 C CNN
	1    4200 2150
	1    0    0    -1  
$EndComp
$Comp
L ShemaMicroICS40730-rescue:MEMS-ICS40730-micro_mems U1
U 1 1 5C5851CF
P 2750 1850
F 0 "U1" H 2750 1350 60  0000 C CNN
F 1 "MEMS-ICS40730" H 2600 2200 60  0000 C CNN
F 2 "MicroMEMS:MEMS-ICS40730" H 2600 1650 60  0001 C CNN
F 3 "" H 2600 1650 60  0001 C CNN
	1    2750 1850
	1    0    0    -1  
$EndComp
$EndSCHEMATC
