(kicad_symbol_lib (version 20220914) (generator kicad_symbol_editor)
  (symbol "Conn_01x01-conn" (pin_names (offset 1.016) hide) (in_bom yes) (on_board yes)
    (property "Reference" "J" (at 0 2.54 0)
      (effects (font (size 1.27 1.27)))
    )
    (property "Value" "conn_Conn_01x01" (at 0 -2.54 0)
      (effects (font (size 1.27 1.27)))
    )
    (property "Footprint" "" (at 0 0 0)
      (effects (font (size 1.27 1.27)) hide)
    )
    (property "Datasheet" "" (at 0 0 0)
      (effects (font (size 1.27 1.27)) hide)
    )
    (property "ki_fp_filters" "Connector*:*_??x*mm* Connector*:*1x??x*mm* Pin?Header?Straight?1X* Pin?Header?Angled?1X* Socket?Strip?Straight?1X* Socket?Strip?Angled?1X*" (at 0 0 0)
      (effects (font (size 1.27 1.27)) hide)
    )
    (symbol "Conn_01x01-conn_1_1"
      (rectangle (start -1.27 0.127) (end 0 -0.127)
        (stroke (width 0.1524) (type solid))
        (fill (type none))
      )
      (rectangle (start -1.27 1.27) (end 1.27 -1.27)
        (stroke (width 0.254) (type solid))
        (fill (type background))
      )
      (pin passive line (at -5.08 0 0) (length 3.81)
        (name "Pin_1" (effects (font (size 1.27 1.27))))
        (number "1" (effects (font (size 1.27 1.27))))
      )
    )
  )
  (symbol "MEMS-ICS40730-micro_mems" (pin_names (offset 1.016)) (in_bom yes) (on_board yes)
    (property "Reference" "U" (at 0 -12.7 0)
      (effects (font (size 1.524 1.524)))
    )
    (property "Value" "micro_mems_MEMS-ICS40730" (at -3.81 8.89 0)
      (effects (font (size 1.524 1.524)))
    )
    (property "Footprint" "" (at -3.81 -5.08 0)
      (effects (font (size 1.524 1.524)) hide)
    )
    (property "Datasheet" "" (at -3.81 -5.08 0)
      (effects (font (size 1.524 1.524)) hide)
    )
    (symbol "MEMS-ICS40730-micro_mems_0_1"
      (rectangle (start -16.51 10.16) (end 16.51 -10.16)
        (stroke (width 0) (type solid))
        (fill (type none))
      )
      (rectangle (start 64.77 -60.96) (end 64.77 -59.69)
        (stroke (width 0) (type solid))
        (fill (type none))
      )
    )
    (symbol "MEMS-ICS40730-micro_mems_1_1"
      (pin input line (at 19.05 7.62 180) (length 2.54)
        (name "VDD" (effects (font (size 1.27 1.27))))
        (number "1" (effects (font (size 1.27 1.27))))
      )
      (pin input line (at 19.05 2.54 180) (length 2.54)
        (name "Output-" (effects (font (size 1.27 1.27))))
        (number "2" (effects (font (size 1.27 1.27))))
      )
      (pin input line (at 19.05 -2.54 180) (length 2.54)
        (name "Output+" (effects (font (size 1.27 1.27))))
        (number "3" (effects (font (size 1.27 1.27))))
      )
      (pin input line (at 19.05 -7.62 180) (length 2.54)
        (name "GND" (effects (font (size 1.27 1.27))))
        (number "4" (effects (font (size 1.27 1.27))))
      )
    )
  )
)
