EESchema Schematic File Version 2
LIBS:power
LIBS:device
LIBS:switches
LIBS:relays
LIBS:motors
LIBS:transistors
LIBS:conn
LIBS:linear
LIBS:regul
LIBS:74xx
LIBS:cmos4000
LIBS:adc-dac
LIBS:memory
LIBS:xilinx
LIBS:microcontrollers
LIBS:dsp
LIBS:microchip
LIBS:analog_switches
LIBS:motorola
LIBS:texas
LIBS:intel
LIBS:audio
LIBS:interface
LIBS:digital-audio
LIBS:philips
LIBS:display
LIBS:cypress
LIBS:siliconi
LIBS:opto
LIBS:atmel
LIBS:contrib
LIBS:valves
LIBS:ADC7686
LIBS:Alimentations
LIBS:chargeurlipo
LIBS:Molex2510
LIBS:SwitchPCB
LIBS:teensy
LIBS:agg-kicad
LIBS:ActiveRecorder-cache
EELAYER 25 0
EELAYER END
$Descr A4 11693 8268
encoding utf-8
Sheet 1 1
Title ""
Date ""
Rev ""
Comp ""
Comment1 ""
Comment2 ""
Comment3 ""
Comment4 ""
$EndDescr
$Comp
L Teensy3.6Min U1
U 1 1 5AD8B8A9
P 4450 5350
F 0 "U1" H 3600 6650 60  0000 C CNN
F 1 "Teensy3.6Min" H 4800 6650 60  0000 C CNN
F 2 "teensy:Teensy35_36Min" H 4200 5000 60  0001 C CNN
F 3 "" H 4200 4400 60  0000 C CNN
	1    4450 5350
	1    0    0    -1  
$EndComp
$Comp
L LM358 U2
U 1 1 5AFD39AC
P 3300 1700
F 0 "U2" H 3300 1900 50  0000 L CNN
F 1 "OPA2376" H 3300 1500 50  0000 L CNN
F 2 "Alimentations:SOIC-8_3.9x4.9mm_Pitch1.27mm" H 3300 1700 50  0001 C CNN
F 3 "" H 3300 1700 50  0001 C CNN
	1    3300 1700
	1    0    0    -1  
$EndComp
$Comp
L ConnM_01x03 J3
U 1 1 5AFD3CDD
P 900 1800
F 0 "J3" H 900 2000 50  0000 C CNN
F 1 "Micro" H 900 1600 50  0000 C CNN
F 2 "Connectors_Molex:Molex_KK-6410-03_03x2.54mm_Straight" H 900 1800 50  0001 C CNN
F 3 "" H 900 1800 50  0001 C CNN
	1    900  1800
	-1   0    0    -1  
$EndComp
$Comp
L C C1
U 1 1 5AFD3D66
P 1500 1800
F 0 "C1" V 1650 1750 50  0000 L CNN
F 1 "100nF" V 1350 1700 50  0000 L CNN
F 2 "Alimentations:C100NF" H 1538 1650 50  0001 C CNN
F 3 "" H 1500 1800 50  0001 C CNN
	1    1500 1800
	0    1    1    0   
$EndComp
$Comp
L R R3
U 1 1 5AFD3DBD
P 2700 1800
F 0 "R3" V 2780 1800 50  0000 C CNN
F 1 "4k7" V 2700 1800 50  0000 C CNN
F 2 "Alimentations:ResistanceH" V 2630 1800 50  0001 C CNN
F 3 "" H 2700 1800 50  0001 C CNN
	1    2700 1800
	0    1    1    0   
$EndComp
$Comp
L R R2
U 1 1 5AFD3E81
P 2500 1550
F 0 "R2" V 2580 1550 50  0000 C CNN
F 1 "10k" V 2500 1550 50  0000 C CNN
F 2 "Alimentations:ResistanceH" V 2430 1550 50  0001 C CNN
F 3 "" H 2500 1550 50  0001 C CNN
	1    2500 1550
	-1   0    0    1   
$EndComp
$Comp
L R R1
U 1 1 5AFD40CA
P 2500 1100
F 0 "R1" V 2580 1100 50  0000 C CNN
F 1 "10k" V 2500 1100 50  0000 C CNN
F 2 "Alimentations:ResistanceH" V 2430 1100 50  0001 C CNN
F 3 "" H 2500 1100 50  0001 C CNN
	1    2500 1100
	-1   0    0    1   
$EndComp
$Comp
L C C3
U 1 1 5AFD43A7
P 2150 1550
F 0 "C3" H 2050 1450 50  0000 L CNN
F 1 "100nF" H 1900 1650 50  0000 L CNN
F 2 "Alimentations:C_0805_HandSoldering" H 2188 1400 50  0001 C CNN
F 3 "" H 2150 1550 50  0001 C CNN
	1    2150 1550
	-1   0    0    1   
$EndComp
$Comp
L CP C2
U 1 1 5AFD4504
P 1750 1550
F 0 "C2" H 1775 1650 50  0000 L CNN
F 1 "220µF" H 1775 1450 50  0000 L CNN
F 2 "Alimentations:C1000µF" H 1788 1400 50  0001 C CNN
F 3 "" H 1750 1550 50  0001 C CNN
	1    1750 1550
	1    0    0    -1  
$EndComp
$Comp
L R R4
U 1 1 5AFD4A57
P 3450 1300
F 0 "R4" V 3530 1300 50  0000 C CNN
F 1 "100k" V 3450 1300 50  0000 C CNN
F 2 "Alimentations:ResistanceH" V 3380 1300 50  0001 C CNN
F 3 "" H 3450 1300 50  0001 C CNN
	1    3450 1300
	0    1    1    0   
$EndComp
$Comp
L C C4
U 1 1 5AFD566E
P 3950 1700
F 0 "C4" V 4100 1650 50  0000 L CNN
F 1 "100nF" V 3800 1600 50  0000 L CNN
F 2 "Alimentations:C100NF" H 3988 1550 50  0001 C CNN
F 3 "" H 3950 1700 50  0001 C CNN
	1    3950 1700
	0    1    1    0   
$EndComp
$Comp
L SW_SP3T_PCB SW1
U 1 1 5AFD5765
P 4400 1300
F 0 "SW1" H 4200 1400 50  0000 C CNN
F 1 "Gain analogique" H 4400 1500 50  0000 C CNN
F 2 "Buttons_PCB:SW_3P_PCB_Angled" H 3775 1475 50  0001 C CNN
F 3 "" H 3775 1475 50  0001 C CNN
	1    4400 1300
	1    0    0    -1  
$EndComp
$Comp
L LM358 U2
U 2 1 5AFD5C09
P 6000 1700
F 0 "U2" H 6000 1900 50  0000 L CNN
F 1 "OPA2376" H 6000 1500 50  0000 L CNN
F 2 "Alimentations:SOIC-8_3.9x4.9mm_Pitch1.27mm" H 6000 1700 50  0001 C CNN
F 3 "" H 6000 1700 50  0001 C CNN
	2    6000 1700
	1    0    0    -1  
$EndComp
$Comp
L R R5
U 1 1 5AFD5CD9
P 5000 1200
F 0 "R5" V 5080 1200 50  0000 C CNN
F 1 "4k7" V 5000 1200 50  0000 C CNN
F 2 "Alimentations:ResistanceH" V 4930 1200 50  0001 C CNN
F 3 "" H 5000 1200 50  0001 C CNN
	1    5000 1200
	0    1    1    0   
$EndComp
$Comp
L R R6
U 1 1 5AFD5D4D
P 5000 1400
F 0 "R6" V 5080 1400 50  0000 C CNN
F 1 "15k" V 5000 1400 50  0000 C CNN
F 2 "Alimentations:ResistanceH" V 4930 1400 50  0001 C CNN
F 3 "" H 5000 1400 50  0001 C CNN
	1    5000 1400
	0    1    1    0   
$EndComp
$Comp
L R R7
U 1 1 5AFD5DB0
P 5000 1600
F 0 "R7" V 5080 1600 50  0000 C CNN
F 1 "47k" V 5000 1600 50  0000 C CNN
F 2 "Alimentations:ResistanceH" V 4930 1600 50  0001 C CNN
F 3 "" H 5000 1600 50  0001 C CNN
	1    5000 1600
	0    1    1    0   
$EndComp
$Comp
L R R8
U 1 1 5AFD6E2B
P 6200 1300
F 0 "R8" V 6280 1300 50  0000 C CNN
F 1 "100k" V 6200 1300 50  0000 C CNN
F 2 "Alimentations:ResistanceH" V 6130 1300 50  0001 C CNN
F 3 "" H 6200 1300 50  0001 C CNN
	1    6200 1300
	0    1    1    0   
$EndComp
$Comp
L C C6
U 1 1 5AFD80E8
P 7050 1400
F 0 "C6" H 6950 1300 50  0000 L CNN
F 1 "100nF" H 6800 1500 50  0000 L CNN
F 2 "Alimentations:C_0805_HandSoldering" H 7088 1250 50  0001 C CNN
F 3 "" H 7050 1400 50  0001 C CNN
	1    7050 1400
	-1   0    0    1   
$EndComp
$Comp
L CP C5
U 1 1 5AFD8168
P 6650 1400
F 0 "C5" H 6675 1500 50  0000 L CNN
F 1 "470µF" H 6675 1300 50  0000 L CNN
F 2 "Alimentations:C1000µF" H 6688 1250 50  0001 C CNN
F 3 "" H 6650 1400 50  0001 C CNN
	1    6650 1400
	1    0    0    -1  
$EndComp
Text GLabel 7600 850  2    60   Input ~ 0
+3V3
Text GLabel 7700 2300 2    60   Input ~ 0
AGND
Text Notes 4400 2250 0    60   ~ 0
R7 33dB (+ 0dB) 5mV->0.2V\nR6 43dB (+15dB) 5mV->0.7V\nR5 53dB (+24dB) 5mV->2.3V
Text Notes 7150 1100 0    60   ~ 0
Pré-ampli Micro
Text GLabel 6250 4400 2    60   Input ~ 0
+3V3
Text GLabel 6250 3750 2    60   Input ~ 0
GND
Text GLabel 7000 4150 0    60   Input ~ 0
GND
Text GLabel 7000 3650 0    60   Input ~ 0
+5V
Text GLabel 5350 7250 2    60   Input ~ 0
+3V7_Permanent
$Comp
L R R10
U 1 1 5AFE761E
P 7900 4800
F 0 "R10" V 7980 4800 50  0000 C CNN
F 1 "100k" V 7900 4800 50  0000 C CNN
F 2 "Alimentations:ResistanceH" V 7830 4800 50  0001 C CNN
F 3 "" H 7900 4800 50  0001 C CNN
	1    7900 4800
	-1   0    0    1   
$EndComp
$Comp
L R R11
U 1 1 5AFE85C9
P 7900 6150
F 0 "R11" V 7980 6150 50  0000 C CNN
F 1 "27k" V 7900 6150 50  0000 C CNN
F 2 "Alimentations:ResistanceH" V 7830 6150 50  0001 C CNN
F 3 "" H 7900 6150 50  0001 C CNN
	1    7900 6150
	-1   0    0    1   
$EndComp
$Comp
L LF120_TO252 U3
U 1 1 5AFE9975
P 4800 7250
F 0 "U3" H 4700 7000 50  0000 C CNN
F 1 "HT7130 LDO 3V" H 4500 7400 50  0000 L CNN
F 2 "Alimentations:SOT-89-3" H 4800 7475 50  0001 C CIN
F 3 "" H 4800 7200 50  0001 C CNN
	1    4800 7250
	-1   0    0    -1  
$EndComp
$Comp
L Conn_01x04 J5
U 1 1 5AFEA613
P 750 6700
F 0 "J5" H 750 6900 50  0000 C CNN
F 1 "Ecran_OLED" H 750 6400 50  0000 C CNN
F 2 "Alimentations:Oled1.3" H 750 6700 50  0001 C CNN
F 3 "" H 750 6700 50  0001 C CNN
	1    750  6700
	-1   0    0    1   
$EndComp
$Comp
L Jumper_NC_Small JP1
U 1 1 5AFEACB0
P 1650 7000
F 0 "JP1" H 1650 7080 50  0000 C CNN
F 1 "VDD_T" H 1660 6940 50  0000 C CNN
F 2 "Alimentations:Jumper2.54" H 1650 7000 50  0001 C CNN
F 3 "" H 1650 7000 50  0001 C CNN
	1    1650 7000
	-1   0    0    -1  
$EndComp
$Comp
L Jumper_NC_Small JP2
U 1 1 5AFEB242
P 1650 6750
F 0 "JP2" H 1650 6830 50  0000 C CNN
F 1 "GND_T" H 1660 6690 50  0000 C CNN
F 2 "Alimentations:Jumper2.54" H 1650 6750 50  0001 C CNN
F 3 "" H 1650 6750 50  0001 C CNN
	1    1650 6750
	-1   0    0    -1  
$EndComp
$Comp
L Jumper_NC_Small JP3
U 1 1 5AFEB2BC
P 1650 6500
F 0 "JP3" H 1650 6580 50  0000 C CNN
F 1 "SCL_T" H 1660 6440 50  0000 C CNN
F 2 "Alimentations:Jumper2.54" H 1650 6500 50  0001 C CNN
F 3 "" H 1650 6500 50  0001 C CNN
	1    1650 6500
	-1   0    0    -1  
$EndComp
$Comp
L Jumper_NC_Small JP4
U 1 1 5AFEB32F
P 1650 6250
F 0 "JP4" H 1650 6330 50  0000 C CNN
F 1 "SDA_T" H 1660 6190 50  0000 C CNN
F 2 "Alimentations:Jumper2.54" H 1650 6250 50  0001 C CNN
F 3 "" H 1650 6250 50  0001 C CNN
	1    1650 6250
	-1   0    0    -1  
$EndComp
Text Label 1300 6700 2    60   ~ 0
GND_E
Text Label 1300 6800 2    60   ~ 0
VDD_E
Text Label 1300 6600 2    60   ~ 0
SCL_E
Text Label 1300 6500 2    60   ~ 0
SDA_E
$Comp
L ProtectionLIPO U5
U 1 1 5AFF526E
P 9500 1650
F 0 "U5" H 9450 1800 50  0000 L CNN
F 1 "ProtectionLIPO" H 9225 1500 50  0000 L CNN
F 2 "Alimentations:ProtectionLiPo" H 9300 1450 50  0001 L CIN
F 3 "" H 9500 1650 50  0001 L CNN
	1    9500 1650
	0    -1   -1   0   
$EndComp
$Comp
L ProtectionLIPO U6
U 1 1 5AFF54C2
P 10800 1650
F 0 "U6" H 10750 1800 50  0000 L CNN
F 1 "ProtectionLIPO" H 10525 1500 50  0000 L CNN
F 2 "Alimentations:ProtectionLiPo" H 10600 1450 50  0001 L CIN
F 3 "" H 10800 1650 50  0001 L CNN
	1    10800 1650
	0    -1   -1   0   
$EndComp
NoConn ~ 3200 5700
NoConn ~ 3200 5800
NoConn ~ 3200 5900
NoConn ~ 3200 6000
NoConn ~ 3200 6100
NoConn ~ 3200 6200
NoConn ~ 3200 6300
NoConn ~ 3200 6400
NoConn ~ 3200 6500
NoConn ~ 5400 6500
NoConn ~ 5400 6400
NoConn ~ 5400 6000
NoConn ~ 5400 5800
NoConn ~ 5400 5500
$Comp
L R R12
U 1 1 5B02E0A6
P 1950 5900
F 0 "R12" V 2030 5900 50  0000 C CNN
F 1 "4k7" V 1950 5900 50  0000 C CNN
F 2 "Alimentations:ResistanceH" V 1880 5900 50  0001 C CNN
F 3 "" H 1950 5900 50  0001 C CNN
	1    1950 5900
	-1   0    0    1   
$EndComp
$Comp
L R R13
U 1 1 5B02F1F0
P 2150 5900
F 0 "R13" V 2230 5900 50  0000 C CNN
F 1 "4k7" V 2150 5900 50  0000 C CNN
F 2 "Alimentations:ResistanceH" V 2080 5900 50  0001 C CNN
F 3 "" H 2150 5900 50  0001 C CNN
	1    2150 5900
	-1   0    0    1   
$EndComp
$Comp
L CP C7
U 1 1 5B03AB47
P 7800 3900
F 0 "C7" H 7825 4000 50  0000 L CNN
F 1 "220µF" H 7825 3800 50  0000 L CNN
F 2 "Alimentations:C1000µF" H 7838 3750 50  0001 C CNN
F 3 "" H 7800 3900 50  0001 C CNN
	1    7800 3900
	1    0    0    -1  
$EndComp
$Comp
L 2xBatteriesLiPo U7
U 1 1 5B147931
P 10150 800
F 0 "U7" V 10125 1050 50  0000 L CNN
F 1 "2xBatteriesLiPo" V 10350 500 50  0000 L CNN
F 2 "Alimentations:2xBatteriesLiPo" H 10050 650 50  0001 L CIN
F 3 "" H 10250 850 50  0001 L CNN
	1    10150 800 
	0    -1   -1   0   
$EndComp
$Comp
L C C8
U 1 1 5B17CE04
P 7450 3900
F 0 "C8" H 7350 3800 50  0000 L CNN
F 1 "100nF" H 7200 4000 50  0000 L CNN
F 2 "Alimentations:C100NF" H 7488 3750 50  0001 C CNN
F 3 "" H 7450 3900 50  0001 C CNN
	1    7450 3900
	-1   0    0    1   
$EndComp
$Comp
L L_Core_Ferrite_Small L1
U 1 1 5B19267D
P 8200 3650
F 0 "L1" V 8150 3600 50  0000 L CNN
F 1 "100uH" V 8300 3500 50  0000 L CNN
F 2 "Alimentations:L100mH" H 8200 3650 50  0001 C CNN
F 3 "" H 8200 3650 50  0001 C CNN
	1    8200 3650
	0    -1   -1   0   
$EndComp
$Comp
L L_Core_Ferrite_Small L2
U 1 1 5B1935FF
P 7300 850
F 0 "L2" V 7250 800 50  0000 L CNN
F 1 "100uH" V 7400 700 50  0000 L CNN
F 2 "Alimentations:L100mH" H 7300 850 50  0001 C CNN
F 3 "" H 7300 850 50  0001 C CNN
	1    7300 850 
	0    -1   -1   0   
$EndComp
$Comp
L C C9
U 1 1 5B19B08B
P 1300 1250
F 0 "C9" H 1200 1150 50  0000 L CNN
F 1 "100nF" H 1050 1350 50  0000 L CNN
F 2 "Alimentations:C100NF" H 1338 1100 50  0001 C CNN
F 3 "" H 1300 1250 50  0001 C CNN
	1    1300 1250
	-1   0    0    1   
$EndComp
Text Notes 7150 6900 0    157  ~ 31
Active Recorder V0.1b
Text GLabel 6250 4200 2    60   Input ~ 0
AGND
$Comp
L C C10
U 1 1 5B2EEDDB
P 7100 3900
F 0 "C10" H 6950 3800 50  0000 L CNN
F 1 "100nF" H 6850 4000 50  0000 L CNN
F 2 "Alimentations:C100NF" H 7138 3750 50  0001 C CNN
F 3 "" H 7100 3900 50  0001 C CNN
	1    7100 3900
	-1   0    0    1   
$EndComp
Text GLabel 6250 3950 2    60   Input ~ 0
+5V
Text Label 9550 1100 0    60   ~ 0
+BAT1
Text Label 9550 1200 0    60   ~ 0
-BAT1
Text Label 10400 1100 0    60   ~ 0
-BAT2
Text Label 10400 1200 0    60   ~ 0
+BAT2
Text GLabel 9100 2200 0    60   Input ~ 0
GND
Text GLabel 9100 2050 0    60   Input ~ 0
+3V7_Permanent
$Comp
L Chargeur5V>4V2-eletechsup U4
U 1 1 5B8E2CE9
P 9000 2650
F 0 "U4" H 8950 2850 50  0000 L CNN
F 1 "Chargeur5V>4V2-eletechsup" H 8600 2950 50  0001 L CNN
F 2 "Alimentations:Chargeur5V_4V2-V" H 8800 2450 50  0001 L CIN
F 3 "" H 9000 2650 50  0001 L CNN
	1    9000 2650
	1    0    0    -1  
$EndComp
$Comp
L USB_OTG J7
U 1 1 5B8E2F49
P 10850 2600
F 0 "J7" H 11000 2250 50  0000 L CNN
F 1 "USB_OTG" H 10650 2950 50  0000 L CNN
F 2 "Connectors_USB:USB3_A_Molex_48393-001" H 11000 2550 50  0001 C CNN
F 3 "" H 11000 2550 50  0001 C CNN
	1    10850 2600
	-1   0    0    -1  
$EndComp
Text Label 8700 2400 0    60   ~ 0
+5V_C
Text Label 9750 3650 0    60   ~ 0
+3V7_D
Text Label 6150 5200 0    60   ~ 0
Mesure_Batteries
Text Label 6150 5300 0    60   ~ 0
Mesure_Heterodyne
Text Notes 6000 6300 0    51   ~ 0
Teensy Recorders :\n35 36 37\nD2 D1 D0\n 1  1  0 Active Recorder (AR)
Text GLabel 6250 4850 2    60   Input ~ 0
SAUDIO
Text GLabel 7600 1700 2    60   Input ~ 0
SAUDIO
$Comp
L D_Schottky D4
U 1 1 5BA80C94
P 9600 3450
F 0 "D4" H 9600 3550 50  0000 C CNN
F 1 "SS22" H 9600 3350 50  0000 C CNN
F 2 "Alimentations:D_2114" H 9600 3450 50  0001 C CNN
F 3 "" H 9600 3450 50  0001 C CNN
	1    9600 3450
	0    -1   -1   0   
$EndComp
$Comp
L D_Schottky D1
U 1 1 5AFFC3B2
P 10250 3450
F 0 "D1" H 10250 3550 50  0000 C CNN
F 1 "SS22" H 10250 3350 50  0000 C CNN
F 2 "Alimentations:D_2114" H 10250 3450 50  0001 C CNN
F 3 "" H 10250 3450 50  0001 C CNN
	1    10250 3450
	0    -1   -1   0   
$EndComp
Text Label 8400 3650 0    60   ~ 0
+3V7_C
NoConn ~ 10550 2600
NoConn ~ 10550 2700
NoConn ~ 10550 2800
NoConn ~ 5400 4500
NoConn ~ 5400 4700
NoConn ~ 5400 4800
Text Label 5650 6100 0    60   ~ 0
D0=0
Text Label 2900 4500 0    60   ~ 0
Up
Text Label 2900 4600 0    60   ~ 0
Rec
Text Label 2900 4900 0    60   ~ 0
Down
Text Label 2900 5000 0    60   ~ 0
Push
Text Label 2900 5100 0    60   ~ 0
Mode
$Comp
L SW_Push SW2
U 1 1 5C1EBD21
P 1050 4450
F 0 "SW2" H 1100 4550 50  0000 L CNN
F 1 "Up" H 1050 4390 50  0000 C CNN
F 2 "Buttons_Switches_THT:SW_PUSH_6mm" H 1050 4650 50  0001 C CNN
F 3 "" H 1050 4650 50  0001 C CNN
	1    1050 4450
	1    0    0    -1  
$EndComp
$Comp
L SW_Push SW4
U 1 1 5C1EC034
P 1050 4950
F 0 "SW4" H 1100 5050 50  0000 L CNN
F 1 "Down" H 1050 4890 50  0000 C CNN
F 2 "Buttons_Switches_THT:SW_PUSH_6mm" H 1050 5150 50  0001 C CNN
F 3 "" H 1050 5150 50  0001 C CNN
	1    1050 4950
	1    0    0    -1  
$EndComp
$Comp
L SW_Push SW5
U 1 1 5C1EC18F
P 1050 5200
F 0 "SW5" H 1100 5300 50  0000 L CNN
F 1 "Push" H 1050 5140 50  0000 C CNN
F 2 "Buttons_Switches_THT:SW_PUSH_6mm" H 1050 5400 50  0001 C CNN
F 3 "" H 1050 5400 50  0001 C CNN
	1    1050 5200
	1    0    0    -1  
$EndComp
NoConn ~ 3200 5500
NoConn ~ 3200 5400
NoConn ~ 3200 5300
NoConn ~ 3200 5200
NoConn ~ 3200 4800
NoConn ~ 3200 4700
NoConn ~ 3200 4400
NoConn ~ 3200 4300
NoConn ~ 5400 4600
NoConn ~ 5400 5400
NoConn ~ 5400 6200
NoConn ~ 5400 6300
$Comp
L Conn_01x02 J1
U 1 1 5C218635
P 8850 3450
F 0 "J1" H 8850 3550 50  0000 C CNN
F 1 "Conn_A/M" V 8950 3450 50  0000 C CNN
F 2 "Connectors_Molex:Molex_KK-6410-02_02x2.54mm_Straight" H 8850 3450 50  0001 C CNN
F 3 "" H 8850 3450 50  0001 C CNN
	1    8850 3450
	0    -1   -1   0   
$EndComp
$Comp
L Audio-Jack-3 J6
U 1 1 5C21EA20
P 10850 4650
F 0 "J6" H 10850 4550 50  0000 C CNN
F 1 "Audio-Jack" H 10850 4850 50  0000 C CNN
F 2 "" H 11100 4750 50  0001 C CNN
F 3 "" H 11100 4750 50  0001 C CNN
	1    10850 4650
	-1   0    0    -1  
$EndComp
Text Label 6150 5700 0    60   ~ 0
Sortie_Audio
$Comp
L CP C11
U 1 1 5C2571BC
P 6850 5700
F 0 "C11" H 6875 5800 50  0000 L CNN
F 1 "1µF" H 6875 5600 50  0000 L CNN
F 2 "Alimentations:C1000µF" H 6888 5550 50  0001 C CNN
F 3 "" H 6850 5700 50  0001 C CNN
	1    6850 5700
	0    -1   -1   0   
$EndComp
$Comp
L R R9
U 1 1 5C395307
P 7250 5700
F 0 "R9" V 7330 5700 50  0000 C CNN
F 1 "100k" V 7250 5700 50  0000 C CNN
F 2 "Alimentations:ResistanceH" V 7180 5700 50  0001 C CNN
F 3 "" H 7250 5700 50  0001 C CNN
	1    7250 5700
	0    -1   -1   0   
$EndComp
Wire Wire Line
	2850 1800 2900 1800
Wire Wire Line
	2900 1800 3000 1800
Wire Wire Line
	2550 1800 1650 1800
Wire Wire Line
	1350 1800 1100 1800
Wire Wire Line
	2500 1250 2500 1300
Wire Wire Line
	2500 1300 2500 1400
Wire Wire Line
	2150 1400 2150 1300
Wire Wire Line
	1750 1300 2150 1300
Wire Wire Line
	2150 1300 2500 1300
Wire Wire Line
	2500 1300 2650 1300
Connection ~ 2500 1300
Wire Wire Line
	1750 1400 1750 1300
Connection ~ 2150 1300
Wire Wire Line
	3200 2300 3200 2000
Wire Wire Line
	1150 2300 1300 2300
Wire Wire Line
	1300 2300 1750 2300
Wire Wire Line
	1750 2300 2150 2300
Wire Wire Line
	2150 2300 2500 2300
Wire Wire Line
	2500 2300 3200 2300
Wire Wire Line
	3200 2300 4350 2300
Wire Wire Line
	4350 2300 5900 2300
Wire Wire Line
	5900 2300 6650 2300
Wire Wire Line
	6650 2300 7050 2300
Wire Wire Line
	7050 2300 7700 2300
Wire Wire Line
	1150 2300 1150 1900
Wire Wire Line
	1150 1900 1100 1900
Wire Wire Line
	1750 1700 1750 2300
Connection ~ 1750 2300
Wire Wire Line
	2150 1700 2150 2300
Connection ~ 2150 2300
Wire Wire Line
	2500 1700 2500 2300
Connection ~ 2500 2300
Wire Wire Line
	2650 1600 2800 1600
Wire Wire Line
	2800 1600 3000 1600
Wire Wire Line
	2650 1300 2650 1600
Wire Wire Line
	2500 850  2500 950 
Wire Wire Line
	1150 850  1150 1700
Wire Wire Line
	1150 1700 1100 1700
Wire Wire Line
	3200 850  3200 1400
Connection ~ 2500 850 
Wire Wire Line
	3300 1300 2900 1300
Wire Wire Line
	2900 1300 2900 1800
Connection ~ 2900 1800
Wire Wire Line
	3600 1700 3700 1700
Wire Wire Line
	3700 1700 3800 1700
Wire Wire Line
	3700 1700 3700 1300
Wire Wire Line
	3700 1300 3600 1300
Connection ~ 3700 1700
Wire Wire Line
	4100 1700 4150 1700
Wire Wire Line
	4150 1700 4150 1300
Wire Wire Line
	4150 1300 4200 1300
Wire Wire Line
	4350 1550 4350 1700
Wire Wire Line
	4350 1700 4350 2300
Connection ~ 3200 2300
Wire Wire Line
	4350 1700 4450 1700
Wire Wire Line
	4450 1700 4450 1550
Connection ~ 4350 1700
Wire Wire Line
	4600 1200 4850 1200
Wire Wire Line
	4600 1300 4800 1300
Wire Wire Line
	4800 1300 4800 1400
Wire Wire Line
	4800 1400 4850 1400
Wire Wire Line
	4600 1400 4700 1400
Wire Wire Line
	4700 1400 4700 1600
Wire Wire Line
	4700 1600 4850 1600
Wire Wire Line
	5150 1200 5250 1200
Wire Wire Line
	5250 1200 5250 1300
Wire Wire Line
	5250 1300 5250 1400
Wire Wire Line
	5250 1400 5250 1600
Wire Wire Line
	5500 1800 5700 1800
Wire Wire Line
	5250 1400 5150 1400
Connection ~ 5250 1400
Wire Wire Line
	5700 1600 5650 1600
Wire Wire Line
	5650 1600 5650 1050
Wire Wire Line
	5650 1050 2800 1050
Wire Wire Line
	2800 1050 2800 1600
Connection ~ 2800 1600
Wire Wire Line
	5900 850  5900 1400
Connection ~ 3200 850 
Wire Wire Line
	5900 2300 5900 2000
Connection ~ 4350 2300
Wire Wire Line
	6050 1300 5250 1300
Connection ~ 5250 1300
Wire Wire Line
	6350 1300 6450 1300
Wire Wire Line
	6450 1300 6450 1700
Wire Wire Line
	6300 1700 6450 1700
Wire Wire Line
	6450 1700 7600 1700
Connection ~ 5900 850 
Wire Wire Line
	6650 850  6650 1250
Connection ~ 6650 850 
Wire Wire Line
	7050 850  7050 1250
Connection ~ 7050 850 
Wire Wire Line
	6650 2300 6650 1550
Connection ~ 5900 2300
Wire Wire Line
	7050 1550 7050 2300
Connection ~ 6650 2300
Connection ~ 7050 2300
Connection ~ 6450 1700
Wire Notes Line
	8050 700  700  700 
Wire Notes Line
	700  700  700  2450
Wire Notes Line
	700  2450 8050 2450
Wire Notes Line
	8050 2450 8050 700 
Wire Wire Line
	5500 1600 5500 1800
Wire Wire Line
	5150 1600 5250 1600
Wire Wire Line
	5250 1600 5500 1600
Connection ~ 5250 1600
Wire Wire Line
	800  4200 3000 4200
Wire Wire Line
	3000 4200 3200 4200
Wire Wire Line
	1550 4900 3200 4900
Wire Wire Line
	6700 7650 6700 6450
Wire Wire Line
	6050 5100 5400 5100
Wire Wire Line
	5400 4400 5900 4400
Wire Wire Line
	5900 4400 6250 4400
Wire Wire Line
	10850 4150 7800 4150
Wire Wire Line
	7800 4150 7450 4150
Wire Wire Line
	7450 4150 7100 4150
Wire Wire Line
	7100 4150 7000 4150
Wire Wire Line
	4500 7250 4250 7250
Wire Wire Line
	4250 7250 4250 6800
Wire Wire Line
	2200 7650 4800 7650
Wire Wire Line
	4800 7650 6700 7650
Wire Wire Line
	4800 7650 4800 7550
Connection ~ 6700 6450
Wire Wire Line
	1550 6250 1350 6250
Wire Wire Line
	1350 6250 1350 6500
Wire Wire Line
	1350 6500 950  6500
Wire Wire Line
	1550 6500 1450 6500
Wire Wire Line
	1450 6500 1450 6600
Wire Wire Line
	1450 6600 950  6600
Wire Wire Line
	1550 6750 1450 6750
Wire Wire Line
	1450 6750 1450 6700
Wire Wire Line
	1550 7000 1350 7000
Wire Wire Line
	1350 7000 1350 6800
Wire Wire Line
	1950 5600 2150 5600
Wire Wire Line
	2150 5600 2300 5600
Wire Wire Line
	2300 5600 3200 5600
Wire Wire Line
	2300 5600 2300 7000
Wire Wire Line
	2200 7650 2200 6750
Connection ~ 4800 7650
Wire Wire Line
	1750 6250 1950 6250
Wire Wire Line
	1950 6250 2500 6250
Wire Wire Line
	1750 6500 2150 6500
Wire Wire Line
	2150 6500 2400 6500
Wire Wire Line
	5400 5000 5500 5000
Wire Wire Line
	5500 6800 2500 6800
Wire Wire Line
	2500 6800 2500 6250
Wire Wire Line
	5400 4900 5600 4900
Wire Wire Line
	5600 6900 2400 6900
Wire Wire Line
	2400 6900 2400 6500
Wire Wire Line
	1950 5600 1950 5750
Connection ~ 2300 5600
Wire Wire Line
	2150 5750 2150 5600
Connection ~ 2150 5600
Wire Wire Line
	1950 6050 1950 6250
Connection ~ 1950 6250
Wire Wire Line
	2150 6050 2150 6500
Connection ~ 2150 6500
Wire Wire Line
	7800 3650 7800 3750
Connection ~ 7800 3650
Wire Wire Line
	1550 4500 3200 4500
Wire Wire Line
	1550 4600 3200 4600
Wire Wire Line
	7000 3650 7100 3650
Wire Wire Line
	7100 3650 7450 3650
Wire Wire Line
	7450 3650 7800 3650
Wire Wire Line
	7800 3650 8100 3650
Wire Wire Line
	7450 3750 7450 3650
Connection ~ 7450 3650
Wire Wire Line
	7600 850  7400 850 
Wire Wire Line
	1150 850  1300 850 
Wire Wire Line
	1300 850  2500 850 
Wire Wire Line
	2500 850  3200 850 
Wire Wire Line
	3200 850  5900 850 
Wire Wire Line
	5900 850  6650 850 
Wire Wire Line
	6650 850  7050 850 
Wire Wire Line
	7050 850  7200 850 
Wire Wire Line
	1300 1100 1300 850 
Connection ~ 1300 850 
Wire Wire Line
	1300 1400 1300 2300
Connection ~ 1300 2300
Wire Wire Line
	6050 5100 6050 4850
Wire Wire Line
	6050 4850 6250 4850
Wire Wire Line
	5400 4300 6100 4300
Wire Wire Line
	6100 4200 6250 4200
Wire Wire Line
	1750 5100 3200 5100
Wire Wire Line
	1650 5000 3200 5000
Wire Wire Line
	7100 3650 7100 3750
Connection ~ 7100 3650
Wire Wire Line
	7450 6450 7450 4150
Wire Wire Line
	7450 4150 7450 4050
Connection ~ 7450 4150
Wire Wire Line
	6000 4200 5400 4200
Wire Wire Line
	6000 3950 6250 3950
Connection ~ 5900 4400
Wire Wire Line
	10000 1100 9450 1100
Wire Wire Line
	9450 1100 9450 1300
Wire Wire Line
	10100 1200 10100 1050
Wire Wire Line
	9550 1200 10100 1200
Wire Wire Line
	9550 1200 9550 1300
Wire Wire Line
	10200 1200 10750 1200
Wire Wire Line
	10750 1200 10750 1300
Wire Wire Line
	10300 1100 10850 1100
Wire Wire Line
	10850 1100 10850 1300
Wire Wire Line
	9800 2050 9800 2950
Wire Wire Line
	9100 2050 9450 2050
Wire Wire Line
	9450 2050 9800 2050
Wire Wire Line
	9800 2050 10250 2050
Wire Wire Line
	10250 2050 10750 2050
Wire Wire Line
	10750 2050 10750 2000
Wire Wire Line
	9550 2000 9550 2200
Wire Wire Line
	9100 2200 9550 2200
Wire Wire Line
	9550 2200 10850 2200
Wire Wire Line
	10850 2200 10850 2000
Connection ~ 9550 2200
Connection ~ 9800 2050
Wire Wire Line
	5100 7250 5350 7250
Wire Wire Line
	10250 2050 10250 3150
Wire Wire Line
	10250 3150 10250 3300
Connection ~ 10250 2050
Wire Wire Line
	10250 3150 10600 3150
Wire Wire Line
	7900 6450 7900 6300
Wire Wire Line
	7900 4950 7900 5050
Wire Wire Line
	7900 5050 7900 6000
Connection ~ 7900 5050
Wire Wire Line
	9200 2900 9200 2950
Wire Wire Line
	9200 2950 9800 2950
Wire Wire Line
	8450 2400 8450 3150
Wire Wire Line
	8450 3150 8800 3150
Wire Wire Line
	8800 3150 9600 3150
Wire Wire Line
	8800 3150 8800 2900
Connection ~ 7450 6450
Wire Wire Line
	7900 4650 7900 4250
Wire Wire Line
	7900 4250 10600 4250
Wire Wire Line
	10600 4250 10600 3150
Connection ~ 10250 3150
Wire Wire Line
	6250 3750 3000 3750
Wire Wire Line
	3000 3750 3000 4200
Connection ~ 3000 4200
Wire Wire Line
	5400 6100 5950 6100
Wire Wire Line
	5400 5600 5950 5600
Connection ~ 5950 6100
Wire Wire Line
	6100 4300 6100 4200
Wire Wire Line
	9600 3150 9600 3300
Connection ~ 8800 3150
Wire Wire Line
	9600 3600 9600 3650
Connection ~ 9600 3650
Wire Wire Line
	7100 4050 7100 4150
Connection ~ 7100 4150
Wire Wire Line
	8950 3650 9600 3650
Wire Wire Line
	9600 3650 10250 3650
Wire Wire Line
	10250 3650 10250 3600
Wire Wire Line
	9450 2000 9450 2050
Connection ~ 9450 2050
Wire Wire Line
	10000 1050 10000 1100
Wire Wire Line
	10200 1200 10200 1050
Wire Wire Line
	10300 1100 10300 1050
Wire Wire Line
	7800 4050 7800 4150
Connection ~ 7800 4150
Wire Wire Line
	8300 3650 8850 3650
Wire Wire Line
	10850 3000 10850 3050
Wire Wire Line
	10850 3050 10850 4150
Wire Wire Line
	10950 3050 10950 3000
Wire Wire Line
	9000 3050 10850 3050
Wire Wire Line
	10850 3050 10950 3050
Connection ~ 10850 3050
Wire Wire Line
	8450 2400 10550 2400
Wire Wire Line
	9000 3050 9000 2900
Wire Wire Line
	7650 6450 7650 5450
Connection ~ 7900 6450
Wire Wire Line
	5900 4550 7650 4550
Wire Wire Line
	7650 4550 8100 4550
Wire Wire Line
	7650 4550 7650 5150
Wire Wire Line
	5400 5300 7500 5300
Wire Wire Line
	850  4450 800  4450
Wire Wire Line
	800  4200 800  4450
Wire Wire Line
	800  4450 800  4700
Wire Wire Line
	800  4700 800  4950
Wire Wire Line
	800  4950 800  5200
Wire Wire Line
	800  5200 800  5450
Wire Wire Line
	800  4700 850  4700
Connection ~ 800  4450
Wire Wire Line
	800  4950 850  4950
Connection ~ 800  4700
Wire Wire Line
	800  5200 850  5200
Connection ~ 800  4950
Wire Wire Line
	800  5450 850  5450
Connection ~ 800  5200
Wire Wire Line
	1250 4450 1550 4450
Wire Wire Line
	1550 4450 1550 4500
Wire Wire Line
	1550 4600 1550 4700
Wire Wire Line
	1550 4700 1250 4700
Wire Wire Line
	1550 4900 1550 4950
Wire Wire Line
	1550 4950 1250 4950
Wire Wire Line
	1250 5200 1650 5200
Wire Wire Line
	1650 5200 1650 5000
Wire Wire Line
	1250 5450 1750 5450
Wire Wire Line
	1750 5450 1750 5100
Wire Wire Line
	6000 3950 6000 4200
Wire Wire Line
	5900 4400 5900 4550
Wire Wire Line
	5500 5000 5500 6800
Wire Wire Line
	5600 4900 5600 6900
Wire Wire Line
	5950 5600 5950 6100
Wire Wire Line
	5950 6100 5950 6450
Wire Wire Line
	5950 6450 6700 6450
Wire Wire Line
	6700 6450 7450 6450
Wire Wire Line
	7450 6450 7650 6450
Wire Wire Line
	7650 6450 7900 6450
Wire Wire Line
	7900 6450 8100 6450
Wire Wire Line
	8100 6450 8400 6450
Wire Wire Line
	8400 6450 9150 6450
Wire Wire Line
	9150 6450 9500 6450
Wire Wire Line
	9500 6450 11100 6450
Connection ~ 7650 6450
Wire Wire Line
	7900 5050 7350 5050
Wire Wire Line
	7350 5050 7350 5200
Wire Wire Line
	7350 5200 5400 5200
Wire Wire Line
	5400 5700 6700 5700
Wire Wire Line
	7100 5700 7000 5700
Wire Wire Line
	1350 6800 950  6800
Wire Wire Line
	1450 6700 950  6700
Wire Wire Line
	2300 7000 1750 7000
Wire Wire Line
	2200 6750 1750 6750
$Comp
L POT RV1
U 1 1 5C1E873C
P 7650 5300
F 0 "RV1" V 7475 5300 50  0000 C CNN
F 1 "10K" V 7550 5300 50  0000 C CNN
F 2 "Potentiometers:Potentiometer_Alps_RK09K_Horizontal" H 7650 5300 50  0001 C CNN
F 3 "" H 7650 5300 50  0001 C CNN
	1    7650 5300
	-1   0    0    1   
$EndComp
$Comp
L POT RV2
U 1 1 5C2526FB
P 8400 5950
F 0 "RV2" V 8225 5950 50  0000 C CNN
F 1 "10K" V 8300 5950 50  0000 C CNN
F 2 "Potentiometers:Potentiometer_Alps_RK09K_Horizontal" H 8400 5950 50  0001 C CNN
F 3 "" H 8400 5950 50  0001 C CNN
	1    8400 5950
	1    0    0    -1  
$EndComp
$Comp
L SW_Push SW6
U 1 1 5C3BF2CD
P 1050 5450
F 0 "SW6" H 1100 5550 50  0000 L CNN
F 1 "Mode" H 1050 5390 50  0000 C CNN
F 2 "Buttons_Switches_THT:SW_PUSH_6mm" H 1050 5650 50  0001 C CNN
F 3 "" H 1050 5650 50  0001 C CNN
	1    1050 5450
	1    0    0    -1  
$EndComp
$Comp
L SW_Push SW3
U 1 1 5C3BF3EE
P 1050 4700
F 0 "SW3" H 1100 4800 50  0000 L CNN
F 1 "REC" H 1050 4640 50  0000 C CNN
F 2 "Buttons_Switches_THT:SW_PUSH_6mm" H 1050 4900 50  0001 C CNN
F 3 "" H 1050 4900 50  0001 C CNN
	1    1050 4700
	1    0    0    -1  
$EndComp
$Comp
L TPA301 U8
U 1 1 5C581A53
P 9900 5050
F 0 "U8" H 9400 5350 50  0000 L CNN
F 1 "TPA301" H 9400 4750 50  0000 L CNN
F 2 "agg:SOIC-8" H 9400 4650 50  0001 L CNN
F 3 "http://www.ti.com/lit/ds/symlink/tpa301.pdf" H 9400 4550 50  0001 L CNN
F 4 "2342287" H 9400 4450 50  0001 L CNN "Farnell"
	1    9900 5050
	1    0    0    -1  
$EndComp
Wire Wire Line
	9300 5250 9250 5250
Wire Wire Line
	9250 5250 9250 6050
Wire Wire Line
	9250 6050 9500 6050
Wire Wire Line
	9500 6050 10800 6050
Wire Wire Line
	9500 6050 9500 6100
Wire Wire Line
	10500 5150 10800 5150
Wire Wire Line
	10800 5150 10800 6050
Connection ~ 9500 6050
Wire Wire Line
	9500 6400 9500 6450
Connection ~ 9500 6450
Wire Wire Line
	8100 4850 9300 4850
Wire Wire Line
	9300 4950 9150 4950
Wire Wire Line
	9150 4950 9150 6450
Connection ~ 9150 6450
Wire Wire Line
	10500 4950 11050 4950
Wire Wire Line
	11050 4950 11050 4750
Wire Wire Line
	10550 4550 10650 4550
Wire Wire Line
	10550 4400 10550 4550
Wire Wire Line
	10550 4550 10550 4650
Wire Wire Line
	10550 4650 10550 4850
Wire Wire Line
	10550 4850 10500 4850
Wire Wire Line
	10000 4650 10550 4650
Wire Wire Line
	10550 4650 10650 4650
Connection ~ 10550 4650
Wire Wire Line
	5400 5900 7550 5900
Wire Wire Line
	7550 5900 7550 5600
Wire Wire Line
	7550 5600 10700 5600
Wire Wire Line
	10500 5250 10700 5250
Wire Wire Line
	10700 5250 10700 5600
$Comp
L CP C12
U 1 1 5C588020
P 8100 5300
F 0 "C12" H 8125 5400 50  0000 L CNN
F 1 "47µF" H 8125 5200 50  0000 L CNN
F 2 "Alimentations:C1000µF" H 8138 5150 50  0001 C CNN
F 3 "" H 8100 5300 50  0001 C CNN
	1    8100 5300
	1    0    0    -1  
$EndComp
Wire Wire Line
	8100 5450 8100 6450
Connection ~ 8100 6450
Connection ~ 8100 4850
$Comp
L R R15
U 1 1 5C58DBA2
P 9850 4650
F 0 "R15" V 9930 4650 50  0000 C CNN
F 1 "50k" V 9850 4650 50  0000 C CNN
F 2 "Alimentations:ResistanceH" V 9780 4650 50  0001 C CNN
F 3 "" H 9850 4650 50  0001 C CNN
	1    9850 4650
	0    -1   -1   0   
$EndComp
Connection ~ 10550 4550
Wire Wire Line
	9050 5150 9250 5150
Wire Wire Line
	9250 5150 9300 5150
Wire Wire Line
	9250 4400 9250 4650
Wire Wire Line
	9250 4650 9250 5150
Wire Wire Line
	9250 4650 9700 4650
$Comp
L R R14
U 1 1 5C590271
P 8900 5150
F 0 "R14" V 8980 5150 50  0000 C CNN
F 1 "20k" V 8900 5150 50  0000 C CNN
F 2 "Alimentations:ResistanceH" V 8830 5150 50  0001 C CNN
F 3 "" H 8900 5150 50  0001 C CNN
	1    8900 5150
	0    -1   -1   0   
$EndComp
Connection ~ 9250 5150
Wire Wire Line
	8400 6100 8400 6450
Connection ~ 8400 6450
Wire Wire Line
	8750 5150 8650 5150
Wire Wire Line
	8650 5150 8650 5250
Wire Wire Line
	7400 5700 8400 5700
Wire Wire Line
	8400 5700 8400 5800
Wire Wire Line
	8650 5550 8650 5950
Wire Wire Line
	8650 5950 8550 5950
$Comp
L CP C15
U 1 1 5C597220
P 9500 6250
F 0 "C15" H 9525 6350 50  0000 L CNN
F 1 "1µF" H 9525 6150 50  0000 L CNN
F 2 "Alimentations:C1000µF" H 9538 6100 50  0001 C CNN
F 3 "" H 9500 6250 50  0001 C CNN
	1    9500 6250
	1    0    0    -1  
$EndComp
$Comp
L C C14
U 1 1 5C598B2F
P 9850 4400
F 0 "C14" V 9750 4250 50  0000 L CNN
F 1 "100pF" V 9750 4500 50  0000 L CNN
F 2 "Alimentations:C100NF" H 9888 4250 50  0001 C CNN
F 3 "" H 9850 4400 50  0001 C CNN
	1    9850 4400
	0    -1   -1   0   
$EndComp
Wire Wire Line
	10000 4400 10550 4400
Wire Wire Line
	9700 4400 9250 4400
Connection ~ 9250 4650
$Comp
L C C13
U 1 1 5C59C14C
P 8650 5400
F 0 "C13" H 8700 5500 50  0000 L CNN
F 1 "470nF" H 8400 5500 50  0000 L CNN
F 2 "Alimentations:C100NF" H 8688 5250 50  0001 C CNN
F 3 "" H 8650 5400 50  0001 C CNN
	1    8650 5400
	-1   0    0    1   
$EndComp
Wire Wire Line
	8100 4550 8100 4850
Wire Wire Line
	8100 4850 8100 5150
Connection ~ 7650 4550
$EndSCHEMATC
