EESchema Schematic File Version 4
LIBS:PassiveRecorderS-cache
LIBS:PassiveRecorder-cache
EELAYER 30 0
EELAYER END
$Descr A4 11693 8268
encoding utf-8
Sheet 2 2
Title ""
Date ""
Rev ""
Comp ""
Comment1 ""
Comment2 ""
Comment3 ""
Comment4 ""
$EndDescr
$Comp
L teensy:Teensy3.6Min U?
U 1 1 5AD8B8A9
P 4450 5350
F 0 "U?" H 3600 6650 60  0000 C CNN
F 1 "Teensy3.6Min" H 4800 6650 60  0000 C CNN
F 2 "teensy:Teensy35_36Min" H 4200 5000 60  0001 C CNN
F 3 "" H 4200 4400 60  0000 C CNN
	1    4450 5350
	1    0    0    -1  
$EndComp
$Comp
L linear:LM358 U?
U 1 1 603836F6
P 2900 1675
F 0 "U?" H 2900 1875 50  0000 L CNN
F 1 "MCP6022" H 2900 1475 50  0000 L CNN
F 2 "Alimentations:SOIC-8_3.9x4.9mm_Pitch1.27mm" H 2900 1675 50  0001 C CNN
F 3 "" H 2900 1675 50  0001 C CNN
	1    2900 1675
	1    0    0    -1  
$EndComp
$Comp
L Molex2510:ConnM_01x03 J?
U 1 1 5AFD3CDD
P 800 1775
F 0 "J?" H 800 1975 50  0000 C CNN
F 1 "Micro" H 800 1575 50  0000 C CNN
F 2 "Connectors_Molex:Molex_KK-6410-03_03x2.54mm_Straight" H 800 1775 50  0001 C CNN
F 3 "" H 800 1775 50  0001 C CNN
	1    800  1775
	-1   0    0    -1  
$EndComp
$Comp
L Device:C C?
U 1 1 5AFD3D66
P 1300 1775
F 0 "C?" V 1150 1725 50  0000 L CNN
F 1 "100nF" V 1450 1675 50  0000 L CNN
F 2 "Capacitors_SMD:C_0603" H 1338 1625 50  0001 C CNN
F 3 "" H 1300 1775 50  0001 C CNN
	1    1300 1775
	0    1    1    0   
$EndComp
$Comp
L Device:R R?
U 1 1 5AFD3DBD
P 2300 1775
F 0 "R?" V 2380 1775 50  0000 C CNN
F 1 "4k7" V 2300 1775 50  0000 C CNN
F 2 "Resistors_SMD:R_1206" V 2230 1775 50  0001 C CNN
F 3 "" H 2300 1775 50  0001 C CNN
	1    2300 1775
	0    1    1    0   
$EndComp
$Comp
L Device:R R?
U 1 1 5AFD3E81
P 2100 1525
F 0 "R?" V 2180 1525 50  0000 C CNN
F 1 "10k" V 2100 1525 50  0000 C CNN
F 2 "Resistors_SMD:R_0805" V 2030 1525 50  0001 C CNN
F 3 "" H 2100 1525 50  0001 C CNN
	1    2100 1525
	-1   0    0    1   
$EndComp
$Comp
L Device:R R?
U 1 1 5AFD40CA
P 2100 1075
F 0 "R?" V 2180 1075 50  0000 C CNN
F 1 "10k" V 2100 1075 50  0000 C CNN
F 2 "Resistors_SMD:R_0805" V 2030 1075 50  0001 C CNN
F 3 "" H 2100 1075 50  0001 C CNN
	1    2100 1075
	-1   0    0    1   
$EndComp
$Comp
L Device:C C?
U 1 1 603836FC
P 1850 1975
F 0 "C?" H 1750 1875 50  0000 L CNN
F 1 "100nF" H 1600 2075 50  0000 L CNN
F 2 "Capacitors_SMD:C_0603" H 1888 1825 50  0001 C CNN
F 3 "" H 1850 1975 50  0001 C CNN
	1    1850 1975
	-1   0    0    1   
$EndComp
$Comp
L Device:CP C?
U 1 1 603836FD
P 1600 1975
F 0 "C?" H 1625 2075 50  0000 L CNN
F 1 "220UF" H 1350 1875 50  0000 L CNN
F 2 "Capacitors_SMD:CP_Elec_8x6.7" H 1638 1825 50  0001 C CNN
F 3 "" H 1600 1975 50  0001 C CNN
	1    1600 1975
	1    0    0    -1  
$EndComp
$Comp
L Device:R R?
U 1 1 603836FE
P 3050 1325
F 0 "R?" V 3130 1325 50  0000 C CNN
F 1 "100k" V 3050 1325 50  0000 C CNN
F 2 "Resistors_SMD:R_0805" V 2980 1325 50  0001 C CNN
F 3 "" H 3050 1325 50  0001 C CNN
	1    3050 1325
	0    1    1    0   
$EndComp
$Comp
L Device:C C?
U 1 1 603836FF
P 3550 1675
F 0 "C?" V 3700 1625 50  0000 L CNN
F 1 "100nF" V 3400 1575 50  0000 L CNN
F 2 "Capacitors_SMD:C_0603" H 3588 1525 50  0001 C CNN
F 3 "" H 3550 1675 50  0001 C CNN
	1    3550 1675
	0    1    1    0   
$EndComp
$Comp
L SwitchPCB:SW_SP3T_PCB SW?
U 1 1 5AFD5765
P 4000 1275
F 0 "SW?" H 3800 1375 50  0000 C CNN
F 1 "Analog gain" H 4000 1475 50  0000 C CNN
F 2 "Buttons_PCB:SW_3P_PCB_Angled" H 3375 1450 50  0001 C CNN
F 3 "" H 3375 1450 50  0001 C CNN
	1    4000 1275
	1    0    0    -1  
$EndComp
$Comp
L linear:LM358 U?
U 2 1 5AFD5C09
P 5600 1675
F 0 "U?" H 5600 1875 50  0000 L CNN
F 1 "MCP6022" H 5600 1475 50  0000 L CNN
F 2 "Alimentations:SOIC-8_3.9x4.9mm_Pitch1.27mm" H 5600 1675 50  0001 C CNN
F 3 "" H 5600 1675 50  0001 C CNN
	2    5600 1675
	1    0    0    -1  
$EndComp
$Comp
L Device:R R?
U 1 1 60383701
P 4600 1175
F 0 "R?" V 4680 1175 50  0000 C CNN
F 1 "4k7" V 4600 1175 50  0000 C CNN
F 2 "Resistors_SMD:R_1206" V 4530 1175 50  0001 C CNN
F 3 "" H 4600 1175 50  0001 C CNN
	1    4600 1175
	0    1    1    0   
$EndComp
$Comp
L Device:R R?
U 1 1 5AFD5D4D
P 4600 1475
F 0 "R?" V 4680 1475 50  0000 C CNN
F 1 "15k" V 4600 1475 50  0000 C CNN
F 2 "Resistors_SMD:R_0805" V 4530 1475 50  0001 C CNN
F 3 "" H 4600 1475 50  0001 C CNN
	1    4600 1475
	0    1    1    0   
$EndComp
$Comp
L Device:R R?
U 1 1 5AFD5DB0
P 4600 1775
F 0 "R?" V 4680 1775 50  0000 C CNN
F 1 "47k" V 4600 1775 50  0000 C CNN
F 2 "Resistors_SMD:R_0805" V 4530 1775 50  0001 C CNN
F 3 "" H 4600 1775 50  0001 C CNN
	1    4600 1775
	0    1    1    0   
$EndComp
$Comp
L Device:R R?
U 1 1 5AFD6E2B
P 5800 1275
F 0 "R?" V 5880 1275 50  0000 C CNN
F 1 "100k" V 5800 1275 50  0000 C CNN
F 2 "Resistors_SMD:R_0805" V 5730 1275 50  0001 C CNN
F 3 "" H 5800 1275 50  0001 C CNN
	1    5800 1275
	0    1    1    0   
$EndComp
$Comp
L Device:C C?
U 1 1 5AFD80E8
P 6575 1375
F 0 "C?" H 6475 1275 50  0000 L CNN
F 1 "100nF" H 6325 1475 50  0000 L CNN
F 2 "Capacitors_SMD:C_0603" H 6613 1225 50  0001 C CNN
F 3 "" H 6575 1375 50  0001 C CNN
	1    6575 1375
	-1   0    0    1   
$EndComp
$Comp
L Device:CP C?
U 1 1 5AFD8168
P 6250 1375
F 0 "C?" H 6275 1475 50  0000 L CNN
F 1 "470UF" H 6275 1275 50  0000 L CNN
F 2 "Capacitors_SMD:CP_Elec_10x7.7" H 6288 1225 50  0001 C CNN
F 3 "" H 6250 1375 50  0001 C CNN
	1    6250 1375
	1    0    0    -1  
$EndComp
Text GLabel 6875 825  2    60   Input ~ 0
+3V3
Text GLabel 6875 2275 2    60   Input ~ 0
AGND
Text Notes 4000 2225 0    60   ~ 0
R7 33dB (+ 0dB) 5mV->0.2V\nR6 43dB (+15dB) 5mV->0.7V\nR5 53dB (+24dB) 5mV->2.3V
Text Notes 6725 1175 0    60   ~ 0
MEMS Microphone\npre-amp
$Comp
L SwitchPCB:FiveSwitchs SW?
U 1 1 5AFDE559
P 900 5050
F 0 "SW?" H 1400 5600 60  0000 C CNN
F 1 "FiveSwitchs" H 1450 5050 60  0000 C CNN
F 2 "Alimentations:JoystickCMS" H 1400 5150 60  0001 C CNN
F 3 "" H 1400 5150 60  0001 C CNN
	1    900  5050
	1    0    0    -1  
$EndComp
Text GLabel 6250 4400 2    60   Input ~ 0
+3V3
Text GLabel 6250 3750 2    60   Input ~ 0
GND
Text GLabel 7000 4500 0    60   Input ~ 0
GND
Text GLabel 7000 3950 0    60   Input ~ 0
+5V
$Comp
L switches:SW_DIP_x01 SW?
U 1 1 5AFE4EF2
P 8500 3950
F 0 "SW?" H 8500 4100 50  0000 C CNN
F 1 "Arret/Marche" H 8500 3800 50  0000 C CNN
F 2 "Alimentations:InterAM" H 8500 3950 50  0001 C CNN
F 3 "" H 8500 3950 50  0001 C CNN
	1    8500 3950
	1    0    0    -1  
$EndComp
Text GLabel 5350 7250 2    60   Input ~ 0
VP
$Comp
L Device:R R?
U 1 1 5AFE85C9
P 7525 5850
F 0 "R?" V 7605 5850 50  0000 C CNN
F 1 "27k" V 7525 5850 50  0000 C CNN
F 2 "Resistors_SMD:R_0805" V 7455 5850 50  0001 C CNN
F 3 "" H 7525 5850 50  0001 C CNN
	1    7525 5850
	-1   0    0    1   
$EndComp
$Comp
L regul:LM1084-3.3 U?
U 1 1 60383709
P 4800 7250
F 0 "U?" H 4700 7000 50  0000 C CNN
F 1 "HT7130 LDO 3V" H 4500 7400 50  0000 L CNN
F 2 "TO_SOT_Packages_SMD:SOT-23" H 4800 7475 50  0001 C CIN
F 3 "" H 4800 7200 50  0001 C CNN
	1    4800 7250
	-1   0    0    -1  
$EndComp
$Comp
L conn:Conn_01x04 J?
U 1 1 6038370A
P 775 6425
F 0 "J?" H 775 6625 50  0000 C CNN
F 1 "Ecran_OLED" H 775 6125 50  0000 C CNN
F 2 "Alimentations:Oled0.96" H 775 6425 50  0001 C CNN
F 3 "" H 775 6425 50  0001 C CNN
	1    775  6425
	-1   0    0    1   
$EndComp
$Comp
L Device:Jumper_NC_Small JP?
U 1 1 6038370B
P 1650 6725
F 0 "JP?" H 1650 6805 50  0000 C CNN
F 1 "GND_T" H 1660 6665 50  0000 C CNN
F 2 "Alimentations:Jumper2.54" H 1650 6725 50  0001 C CNN
F 3 "" H 1650 6725 50  0001 C CNN
	1    1650 6725
	-1   0    0    -1  
$EndComp
$Comp
L Device:Jumper_NC_Small JP?
U 1 1 6038370C
P 1650 6500
F 0 "JP?" H 1650 6580 50  0000 C CNN
F 1 "VDD_T" H 1660 6440 50  0000 C CNN
F 2 "Alimentations:Jumper2.54" H 1650 6500 50  0001 C CNN
F 3 "" H 1650 6500 50  0001 C CNN
	1    1650 6500
	-1   0    0    -1  
$EndComp
$Comp
L Device:Jumper_NC_Small JP?
U 1 1 6038370D
P 1650 6275
F 0 "JP?" H 1650 6355 50  0000 C CNN
F 1 "SCL_T" H 1660 6215 50  0000 C CNN
F 2 "Alimentations:Jumper2.54" H 1650 6275 50  0001 C CNN
F 3 "" H 1650 6275 50  0001 C CNN
	1    1650 6275
	-1   0    0    -1  
$EndComp
$Comp
L Device:Jumper_NC_Small JP?
U 1 1 5AFEB32F
P 1650 6050
F 0 "JP?" H 1650 6130 50  0000 C CNN
F 1 "SDA_T" H 1660 5990 50  0000 C CNN
F 2 "Alimentations:Jumper2.54" H 1650 6050 50  0001 C CNN
F 3 "" H 1650 6050 50  0001 C CNN
	1    1650 6050
	-1   0    0    -1  
$EndComp
Text Label 1250 6525 2    60   ~ 0
GND_E
Text Label 1250 6425 2    60   ~ 0
VDD_E
Text Label 1250 6325 2    60   ~ 0
SCL_E
Text Label 1250 6225 2    60   ~ 0
SDA_E
$Comp
L Molex2510:ConnM_01x02 J?
U 1 1 5AFFD1C0
P 11050 6200
F 0 "J?" H 11050 6300 50  0000 C CNN
F 1 "Alim12V" H 11050 6000 50  0000 C CNN
F 2 "Connectors_Molex:Molex_KK-6410-02_02x2.54mm_Straight" H 11050 6200 50  0001 C CNN
F 3 "" H 11050 6200 50  0001 C CNN
	1    11050 6200
	1    0    0    -1  
$EndComp
$Comp
L Device:D_Schottky D?
U 1 1 60383711
P 9825 3800
F 0 "D?" H 9825 3900 50  0000 C CNN
F 1 "SSB44" H 9825 3700 50  0000 C CNN
F 2 "Diodes_SMD:D_SMB" H 9825 3800 50  0001 C CNN
F 3 "" H 9825 3800 50  0001 C CNN
	1    9825 3800
	0    1    1    0   
$EndComp
NoConn ~ 3200 5700
NoConn ~ 3200 5800
NoConn ~ 3200 5900
NoConn ~ 3200 6000
NoConn ~ 3200 6100
NoConn ~ 3200 6200
NoConn ~ 3200 6300
NoConn ~ 3200 6400
NoConn ~ 3200 6500
NoConn ~ 5400 6500
NoConn ~ 5400 6400
NoConn ~ 5400 6000
NoConn ~ 5400 5900
NoConn ~ 5400 5800
NoConn ~ 5400 5700
NoConn ~ 5400 5500
$Comp
L Device:R R?
U 1 1 60383712
P 1950 5825
F 0 "R?" V 2030 5825 50  0000 C CNN
F 1 "4k7" V 1950 5825 50  0000 C CNN
F 2 "Resistors_SMD:R_1206" V 1880 5825 50  0001 C CNN
F 3 "" H 1950 5825 50  0001 C CNN
	1    1950 5825
	-1   0    0    1   
$EndComp
$Comp
L Device:R R?
U 1 1 5B02F1F0
P 2150 5825
F 0 "R?" V 2230 5825 50  0000 C CNN
F 1 "4k7" V 2150 5825 50  0000 C CNN
F 2 "Resistors_SMD:R_1206" V 2080 5825 50  0001 C CNN
F 3 "" H 2150 5825 50  0001 C CNN
	1    2150 5825
	-1   0    0    1   
$EndComp
$Comp
L Device:CP C?
U 1 1 60383714
P 7800 4200
F 0 "C?" H 7825 4300 50  0000 L CNN
F 1 "220UF" H 7825 4100 50  0000 L CNN
F 2 "Capacitors_SMD:CP_Elec_8x6.7" H 7838 4050 50  0001 C CNN
F 3 "" H 7800 4200 50  0001 C CNN
	1    7800 4200
	1    0    0    -1  
$EndComp
$Comp
L Alimentations:2xBatteriesLiPo U?
U 1 1 60383715
P 9900 750
F 0 "U?" H 9850 475 50  0000 L CNN
F 1 "2xBatteriesLiPo" V 10100 450 50  0000 L CNN
F 2 "Alimentations:2xBatteriesLiPo" H 9800 600 50  0001 L CIN
F 3 "" H 10000 800 50  0001 L CNN
	1    9900 750 
	1    0    0    -1  
$EndComp
$Comp
L Device:R R?
U 1 1 5B177CAF
P 7725 4925
F 0 "R?" V 7805 4925 50  0000 C CNN
F 1 "100k" V 7725 4925 50  0000 C CNN
F 2 "Resistors_SMD:R_0805" V 7655 4925 50  0001 C CNN
F 3 "" H 7725 4925 50  0001 C CNN
	1    7725 4925
	-1   0    0    1   
$EndComp
$Comp
L Device:R R?
U 1 1 5B177D59
P 7725 5850
F 0 "R?" V 7805 5850 50  0000 C CNN
F 1 "5.6k" V 7725 5850 50  0000 C CNN
F 2 "Resistors_SMD:R_0805" V 7655 5850 50  0001 C CNN
F 3 "" H 7725 5850 50  0001 C CNN
	1    7725 5850
	-1   0    0    1   
$EndComp
$Comp
L Device:C C?
U 1 1 5B17CE04
P 7450 4200
F 0 "C?" H 7350 4100 50  0000 L CNN
F 1 "100nF" H 7200 4300 50  0000 L CNN
F 2 "Capacitors_SMD:C_0603" H 7488 4050 50  0001 C CNN
F 3 "" H 7450 4200 50  0001 C CNN
	1    7450 4200
	-1   0    0    1   
$EndComp
$Comp
L Device:L_Core_Ferrite_Small L?
U 1 1 5B19267D
P 8000 3950
F 0 "L?" V 7950 3900 50  0000 L CNN
F 1 "100uH" V 8100 3800 50  0000 L CNN
F 2 "Alimentations:L100mH" H 8000 3950 50  0001 C CNN
F 3 "" H 8000 3950 50  0001 C CNN
	1    8000 3950
	0    -1   -1   0   
$EndComp
$Comp
L Device:L_Core_Ferrite_Small L?
U 1 1 6038371A
P 6750 825
F 0 "L?" V 6700 775 50  0000 L CNN
F 1 "100uH" V 6850 675 50  0000 L CNN
F 2 "Alimentations:L100mH" H 6750 825 50  0001 C CNN
F 3 "" H 6750 825 50  0001 C CNN
	1    6750 825 
	0    -1   -1   0   
$EndComp
Text Notes 6975 6925 0    157  ~ 31
Passive Recorder V0.5 SMD-MEMS
Text GLabel 6250 4200 2    60   Input ~ 0
AGND
$Comp
L Device:C C?
U 1 1 6038371B
P 7100 4200
F 0 "C?" H 6950 4100 50  0000 L CNN
F 1 "100nF" H 6850 4300 50  0000 L CNN
F 2 "Capacitors_SMD:C_0603" H 7138 4050 50  0001 C CNN
F 3 "" H 7100 4200 50  0001 C CNN
	1    7100 4200
	-1   0    0    1   
$EndComp
Text GLabel 6250 3950 2    60   Input ~ 0
+5V
$Comp
L Device:D_Schottky D?
U 1 1 6038371C
P 10250 6125
F 0 "D?" H 10250 6225 50  0000 C CNN
F 1 "SSB44" H 10250 6025 50  0000 C CNN
F 2 "Diodes_SMD:D_SMB" H 10250 6125 50  0001 C CNN
F 3 "" H 10250 6125 50  0001 C CNN
	1    10250 6125
	1    0    0    -1  
$EndComp
$Comp
L conn:Conn_01x15 J?
U 1 1 5B87281E
P 800 3350
F 0 "J?" H 800 4150 50  0000 C CNN
F 1 "Extension" H 800 2550 50  0000 C CNN
F 2 "Alimentations:PCB_EXT" H 800 3350 50  0001 C CNN
F 3 "" H 800 3350 50  0001 C CNN
	1    800  3350
	-1   0    0    1   
$EndComp
Text Label 1050 2650 0    60   ~ 0
+5V
Text Label 1050 2750 0    60   ~ 0
+3V3
Text Label 1050 2850 0    60   ~ 0
SCL0
Text Label 1050 2950 0    60   ~ 0
SDA0
Text Label 1050 3050 0    60   ~ 0
D22_A8
Text Label 1050 3150 0    60   ~ 0
D14_A0_SCK0
Text Label 1050 3250 0    60   ~ 0
RX1_MOSI1
Text Label 1050 3350 0    60   ~ 0
TX1_MISO1
Text Label 1050 3450 0    60   ~ 0
D04
Text Label 1050 3550 0    60   ~ 0
D05
Text Label 1050 3650 0    60   ~ 0
D09_RX2
Text Label 1050 4050 0    60   ~ 0
GND
Text Label 1050 3750 0    60   ~ 0
D10_TX2_CS0
Text Label 1050 3850 0    60   ~ 0
D11_MOSI
Text Label 1050 3950 0    60   ~ 0
D12_MISO
$Comp
L conn:USB_OTG J?
U 1 1 5B8E2F49
P 10850 3050
F 0 "J?" H 11000 2700 50  0000 L CNN
F 1 "USB_OTG" H 10650 3400 50  0000 L CNN
F 2 "Alimentations:Micro-USB-V" H 11000 3000 50  0001 C CNN
F 3 "" H 11000 3000 50  0001 C CNN
	1    10850 3050
	-1   0    0    -1  
$EndComp
Text Label 6150 5200 0    60   ~ 0
Mesure_Batteries
Text Label 6150 5300 0    60   ~ 0
Mesure_12V_Externe
$Comp
L conn:GS2 J?
U 1 1 5B8C2401
P 6050 6100
F 0 "J?" V 5950 6250 50  0000 C CNN
F 1 "B0" V 5950 6100 50  0000 C CNN
F 2 "Connectors:GS2" V 6124 6100 50  0001 C CNN
F 3 "" H 6050 6100 50  0001 C CNN
	1    6050 6100
	0    1    1    0   
$EndComp
$Comp
L conn:GS2 J?
U 1 1 5B8C26A0
P 6050 6300
F 0 "J?" V 5950 6450 50  0000 C CNN
F 1 "B1" V 5950 6300 50  0000 C CNN
F 2 "Connectors:GS2" V 6124 6300 50  0001 C CNN
F 3 "" H 6050 6300 50  0001 C CNN
	1    6050 6300
	0    1    1    0   
$EndComp
$Comp
L conn:GS2 J?
U 1 1 5B8C2759
P 6050 6500
F 0 "J?" V 5950 6650 50  0000 C CNN
F 1 "B2" V 5950 6500 50  0000 C CNN
F 2 "Connectors:GS2" V 6124 6500 50  0001 C CNN
F 3 "" H 6050 6500 50  0001 C CNN
	1    6050 6500
	0    1    1    0   
$EndComp
Text Notes 6425 6250 0    60   ~ 0
Teensy Recorders :\nD2 D1 D0\n 1  1  1 PR\n 1  1  0 AR\n 1  0  1 PR+Wifi\n 1  0  0 PR+Lora\n(open = 1)
Text GLabel 6250 4850 2    60   Input ~ 0
SAUDIO
Text GLabel 6875 1675 2    60   Input ~ 0
SAUDIO
$Comp
L Device:D_Schottky D?
U 1 1 5BA80C94
P 9550 3375
F 0 "D?" H 9550 3475 50  0000 C CNN
F 1 "SSB44" H 9550 3275 50  0000 C CNN
F 2 "Diodes_SMD:D_SMB" H 9550 3375 50  0001 C CNN
F 3 "" H 9550 3375 50  0001 C CNN
	1    9550 3375
	0    -1   -1   0   
$EndComp
$Comp
L Device:D_Schottky D?
U 1 1 5AFFC3B2
P 8975 4250
F 0 "D?" H 8975 4350 50  0000 C CNN
F 1 "SSB44" H 8975 4150 50  0000 C CNN
F 2 "Diodes_SMD:D_SMB" H 8975 4250 50  0001 C CNN
F 3 "" H 8975 4250 50  0001 C CNN
	1    8975 4250
	0    1    1    0   
$EndComp
Wire Wire Line
	2450 1775 2500 1775
Wire Wire Line
	2150 1775 1450 1775
Wire Wire Line
	1150 1775 1000 1775
Wire Wire Line
	2100 1225 2100 1275
Wire Wire Line
	1850 1825 1850 1275
Wire Wire Line
	1600 1275 1850 1275
Connection ~ 2100 1275
Wire Wire Line
	1600 1825 1600 1275
Connection ~ 1850 1275
Wire Wire Line
	2800 2275 2800 1975
Wire Wire Line
	1025 2275 1025 1875
Wire Wire Line
	1025 1875 1000 1875
Wire Wire Line
	1600 2125 1600 2275
Connection ~ 1600 2275
Wire Wire Line
	1850 2125 1850 2275
Connection ~ 1850 2275
Wire Wire Line
	2100 1675 2100 2275
Connection ~ 2100 2275
Wire Wire Line
	2300 1575 2600 1575
Wire Wire Line
	2300 925  2300 1275
Wire Wire Line
	2100 825  2100 925 
Wire Wire Line
	1025 825  1025 1675
Wire Wire Line
	1025 1675 1000 1675
Wire Wire Line
	2800 825  2800 1375
Connection ~ 2100 825 
Wire Wire Line
	2900 1325 2500 1325
Wire Wire Line
	2500 1125 2500 1325
Connection ~ 2500 1775
Wire Wire Line
	3200 1675 3300 1675
Wire Wire Line
	3300 1125 3300 1325
Wire Wire Line
	3300 1325 3200 1325
Connection ~ 3300 1675
Wire Wire Line
	3700 1675 3750 1675
Wire Wire Line
	3750 1675 3750 1275
Wire Wire Line
	3750 1275 3800 1275
Wire Wire Line
	3950 1525 3950 1675
Connection ~ 2800 2275
Wire Wire Line
	3950 1675 4050 1675
Wire Wire Line
	4050 1675 4050 1525
Connection ~ 3950 1675
Wire Wire Line
	4200 1175 4450 1175
Wire Wire Line
	4200 1275 4400 1275
Wire Wire Line
	4400 1275 4400 1475
Wire Wire Line
	4400 1475 4450 1475
Wire Wire Line
	4200 1375 4300 1375
Wire Wire Line
	4300 1375 4300 1775
Wire Wire Line
	4300 1775 4450 1775
Wire Wire Line
	4750 1175 4850 1175
Wire Wire Line
	4850 1175 4850 1275
Wire Wire Line
	4750 1775 4850 1775
Wire Wire Line
	4850 1475 4750 1475
Connection ~ 4850 1475
Wire Wire Line
	5300 1575 5250 1575
Wire Wire Line
	5250 1575 5250 925 
Wire Wire Line
	5250 925  2300 925 
Wire Wire Line
	5500 825  5500 1375
Connection ~ 2800 825 
Wire Wire Line
	5500 2275 5500 1975
Connection ~ 3950 2275
Wire Wire Line
	4850 1275 5350 1275
Connection ~ 4850 1275
Wire Wire Line
	5950 1275 6050 1275
Wire Wire Line
	6050 1075 6050 1275
Wire Wire Line
	5900 1675 6050 1675
Connection ~ 5500 825 
Wire Wire Line
	6250 825  6250 1225
Connection ~ 6250 825 
Wire Wire Line
	6575 825  6575 1225
Connection ~ 6575 825 
Wire Wire Line
	6250 2275 6250 1525
Connection ~ 5500 2275
Wire Wire Line
	6575 1525 6575 2275
Connection ~ 6250 2275
Connection ~ 6575 2275
Connection ~ 6050 1675
Wire Notes Line
	7650 675  650  675 
Wire Notes Line
	650  675  650  2425
Wire Notes Line
	650  2425 7650 2425
Wire Notes Line
	7650 2425 7650 675 
Connection ~ 4850 1775
Wire Wire Line
	950  4700 800  4700
Wire Wire Line
	800  4700 800  4200
Wire Wire Line
	800  4200 1700 4200
Wire Wire Line
	2000 4500 2000 4700
Wire Wire Line
	2000 4700 1950 4700
Wire Wire Line
	2100 4600 2100 4800
Wire Wire Line
	2100 4800 1950 4800
Wire Wire Line
	1950 4900 3200 4900
Wire Wire Line
	950  4900 800  4900
Wire Wire Line
	800  4900 800  5100
Wire Wire Line
	950  4800 700  4800
Wire Wire Line
	700  4800 700  5200
Wire Wire Line
	6700 6300 6700 6425
Wire Wire Line
	6050 5100 5400 5100
Wire Wire Line
	5400 4400 5900 4400
Wire Wire Line
	4500 7250 4250 7250
Wire Wire Line
	4250 7250 4250 6800
Wire Wire Line
	2400 7650 4800 7650
Wire Wire Line
	4800 7650 4800 7550
Connection ~ 6700 6300
Wire Wire Line
	1550 6050 1350 6050
Wire Wire Line
	1350 6050 1350 6225
Wire Wire Line
	1350 6225 975  6225
Wire Wire Line
	1550 6275 1450 6275
Wire Wire Line
	1450 6275 1450 6325
Wire Wire Line
	1450 6325 975  6325
Wire Wire Line
	1550 6500 1450 6500
Wire Wire Line
	1450 6500 1450 6425
Wire Wire Line
	1450 6425 975  6425
Wire Wire Line
	1550 6725 1350 6725
Wire Wire Line
	1350 6725 1350 6525
Wire Wire Line
	1350 6525 975  6525
Wire Wire Line
	1950 5600 2150 5600
Wire Wire Line
	2300 5600 2300 6500
Wire Wire Line
	2300 6500 1750 6500
Wire Wire Line
	2400 6725 1750 6725
Connection ~ 4800 7650
Wire Wire Line
	1750 6050 1950 6050
Wire Wire Line
	1750 6275 2150 6275
Wire Wire Line
	5400 5000 5500 5000
Wire Wire Line
	5500 2950 5500 5000
Wire Wire Line
	2725 6875 2725 6050
Wire Wire Line
	5400 4900 5700 4900
Wire Wire Line
	5700 2850 5700 4900
Wire Wire Line
	5700 7000 2625 7000
Wire Wire Line
	2625 7000 2625 6275
Wire Wire Line
	1950 5600 1950 5675
Connection ~ 2300 5600
Wire Wire Line
	2150 5675 2150 5600
Connection ~ 2150 5600
Wire Wire Line
	1950 5975 1950 6050
Connection ~ 1950 6050
Wire Wire Line
	2150 5975 2150 6275
Connection ~ 2150 6275
Wire Wire Line
	7800 3950 7800 4050
Connection ~ 7800 3950
Wire Wire Line
	3200 4500 2000 4500
Wire Wire Line
	3200 4600 2100 4600
Wire Wire Line
	2100 5100 2100 5200
Wire Wire Line
	2100 5200 700  5200
Wire Wire Line
	7000 3950 7100 3950
Wire Wire Line
	7450 4050 7450 3950
Connection ~ 7450 3950
Wire Wire Line
	6875 825  6850 825 
Wire Wire Line
	1025 825  1175 825 
Wire Wire Line
	6050 5100 6050 4850
Wire Wire Line
	6050 4850 6250 4850
Wire Wire Line
	5400 4300 6100 4300
Wire Wire Line
	6100 4200 6250 4200
Wire Wire Line
	3200 5100 2100 5100
Wire Wire Line
	800  5100 2000 5100
Wire Wire Line
	2000 5100 2000 5000
Wire Wire Line
	2000 5000 3200 5000
Wire Wire Line
	7100 3950 7100 4050
Connection ~ 7100 3950
Wire Wire Line
	7375 6300 7375 4500
Connection ~ 7375 4500
Wire Wire Line
	6000 4200 5400 4200
Wire Wire Line
	6000 2650 6000 3950
Wire Wire Line
	6000 3950 6250 3950
Wire Wire Line
	1000 2650 6000 2650
Connection ~ 6000 3950
Wire Wire Line
	1000 2750 5900 2750
Wire Wire Line
	5900 2750 5900 4400
Connection ~ 5900 4400
Wire Wire Line
	2200 3950 2200 5500
Wire Wire Line
	2200 5500 3200 5500
Wire Wire Line
	2300 5400 3200 5400
Wire Wire Line
	2300 3850 2300 5400
Wire Wire Line
	2400 5300 3200 5300
Wire Wire Line
	2400 3750 2400 5300
Wire Wire Line
	3200 5200 2500 5200
Wire Wire Line
	2500 5200 2500 3650
Wire Wire Line
	3200 4800 2600 4800
Wire Wire Line
	2600 4800 2600 3550
Wire Wire Line
	3200 4700 2700 4700
Wire Wire Line
	2700 4700 2700 3450
Wire Wire Line
	3200 4400 2800 4400
Wire Wire Line
	2800 4400 2800 3350
Wire Wire Line
	3200 4300 2900 4300
Wire Wire Line
	2900 4300 2900 3250
Wire Wire Line
	1000 3150 5600 3150
Wire Wire Line
	5800 4600 5400 4600
Wire Wire Line
	5800 3050 5800 4600
Wire Wire Line
	1000 3050 5800 3050
Wire Wire Line
	2500 3650 1000 3650
Wire Wire Line
	2600 3550 1000 3550
Wire Wire Line
	2700 3450 1000 3450
Wire Wire Line
	2800 3350 1000 3350
Wire Wire Line
	2900 3250 1000 3250
Wire Wire Line
	5100 7250 5350 7250
Wire Wire Line
	7725 5075 7725 5300
Connection ~ 7725 5300
Wire Wire Line
	7725 6300 7725 6000
Connection ~ 7725 6300
Wire Wire Line
	7525 6300 7525 6000
Connection ~ 7525 6300
Wire Wire Line
	7525 5075 7525 5200
Connection ~ 7525 5200
Wire Wire Line
	7725 5300 5400 5300
Wire Wire Line
	7525 5200 5400 5200
Wire Wire Line
	6250 6300 6400 6300
Connection ~ 7375 6300
Wire Wire Line
	7725 4775 7725 4700
Wire Wire Line
	7725 4700 7875 4700
Wire Wire Line
	7875 4700 7875 5300
Wire Wire Line
	7525 4775 7525 4600
Wire Wire Line
	7525 4600 8750 4600
Wire Wire Line
	2400 3750 1000 3750
Wire Wire Line
	2300 3850 1000 3850
Wire Wire Line
	2200 3950 1000 3950
Wire Wire Line
	1000 4050 1700 4050
Wire Wire Line
	1700 4050 1700 4200
Connection ~ 1700 4200
Wire Wire Line
	6250 3750 3000 3750
Wire Wire Line
	3000 3750 3000 4200
Connection ~ 3000 4200
Wire Wire Line
	5400 6100 5850 6100
Wire Wire Line
	5400 6200 5800 6200
Wire Wire Line
	5800 6200 5800 6300
Wire Wire Line
	5800 6300 5850 6300
Wire Wire Line
	5400 6300 5600 6300
Wire Wire Line
	5600 6300 5600 6500
Wire Wire Line
	5600 6500 5850 6500
Wire Wire Line
	6250 6100 6400 6100
Wire Wire Line
	6400 5600 6400 6100
Wire Wire Line
	6400 6500 6250 6500
Connection ~ 6400 6300
Wire Wire Line
	5400 5600 5900 5600
Connection ~ 6400 6100
Wire Wire Line
	6100 4300 6100 4200
Wire Wire Line
	7100 4350 7100 4500
Connection ~ 7100 4500
Wire Wire Line
	7450 4350 7450 4500
Connection ~ 7450 4500
Wire Wire Line
	8800 3950 8975 3950
Wire Wire Line
	7800 4350 7800 4500
Connection ~ 7800 4500
Wire Wire Line
	8200 3950 8100 3950
NoConn ~ 10550 3250
Wire Wire Line
	10850 3450 10850 4050
Wire Wire Line
	10950 4050 10950 3450
Connection ~ 10850 4050
NoConn ~ 5400 4500
Wire Wire Line
	5600 5400 5400 5400
Wire Wire Line
	5600 3150 5600 5400
NoConn ~ 5400 4700
NoConn ~ 5400 4800
Wire Wire Line
	5500 2950 1000 2950
Connection ~ 5500 5000
Wire Wire Line
	1000 2850 5700 2850
Connection ~ 5700 4900
$Comp
L Device:C C?
U 1 1 5C577D8A
P 3050 1125
F 0 "C?" V 3000 1175 50  0000 L CNN
F 1 "12pF" V 2900 1025 50  0000 L CNN
F 2 "Capacitors_SMD:C_0402" H 3088 975 50  0001 C CNN
F 3 "" H 3050 1125 50  0001 C CNN
	1    3050 1125
	0    1    1    0   
$EndComp
Wire Wire Line
	3200 1125 3300 1125
Connection ~ 3300 1325
Wire Wire Line
	2900 1125 2500 1125
Connection ~ 2500 1325
$Comp
L Device:C C?
U 1 1 5C5783FE
P 5800 1075
F 0 "C?" V 5750 1125 50  0000 L CNN
F 1 "12pF" V 5650 975 50  0000 L CNN
F 2 "Capacitors_SMD:C_0402" H 5838 925 50  0001 C CNN
F 3 "" H 5800 1075 50  0001 C CNN
	1    5800 1075
	0    1    1    0   
$EndComp
Wire Wire Line
	5950 1075 6050 1075
Connection ~ 6050 1275
Wire Wire Line
	5650 1075 5350 1075
Wire Wire Line
	5350 1075 5350 1275
Connection ~ 5350 1275
Connection ~ 2300 1275
$Comp
L Device:C C?
U 1 1 5C601DB6
P 1175 1300
F 0 "C?" H 1050 1225 50  0000 L CNN
F 1 "100nF" H 925 1400 50  0000 L CNN
F 2 "Capacitors_SMD:C_0603" H 1213 1150 50  0001 C CNN
F 3 "" H 1175 1300 50  0001 C CNN
	1    1175 1300
	-1   0    0    1   
$EndComp
Wire Wire Line
	1175 1150 1175 825 
Connection ~ 1175 825 
Wire Wire Line
	1175 2275 1175 1450
Wire Wire Line
	2100 1275 2100 1375
Wire Wire Line
	2100 1275 2300 1275
Wire Wire Line
	1850 1275 2100 1275
Wire Wire Line
	1600 2275 1850 2275
Wire Wire Line
	1850 2275 2100 2275
Wire Wire Line
	2100 2275 2800 2275
Wire Wire Line
	2100 825  2800 825 
Wire Wire Line
	2500 1775 2600 1775
Wire Wire Line
	3300 1675 3400 1675
Wire Wire Line
	2800 2275 3950 2275
Wire Wire Line
	3950 1675 3950 2275
Wire Wire Line
	4850 1475 4850 1775
Wire Wire Line
	2800 825  5500 825 
Wire Wire Line
	3950 2275 5500 2275
Wire Wire Line
	4850 1275 4850 1475
Wire Wire Line
	5500 825  6250 825 
Wire Wire Line
	6250 825  6575 825 
Wire Wire Line
	6575 825  6650 825 
Wire Wire Line
	5500 2275 6250 2275
Wire Wire Line
	6250 2275 6575 2275
Wire Wire Line
	6575 2275 6875 2275
Wire Wire Line
	6050 1675 6875 1675
Wire Wire Line
	4850 1775 5300 1775
Wire Wire Line
	6700 6300 7375 6300
Wire Wire Line
	4800 7650 6700 7650
Wire Wire Line
	2300 5600 3200 5600
Wire Wire Line
	2150 5600 2300 5600
Wire Wire Line
	1950 6050 2725 6050
Wire Wire Line
	2150 6275 2625 6275
Wire Wire Line
	7800 3950 7900 3950
Wire Wire Line
	7450 3950 7800 3950
Wire Wire Line
	7100 3950 7450 3950
Wire Wire Line
	7375 4500 7450 4500
Wire Wire Line
	6000 3950 6000 4200
Wire Wire Line
	5900 4400 6250 4400
Wire Wire Line
	7725 5300 7725 5700
Wire Wire Line
	7525 6300 7725 6300
Wire Wire Line
	7525 5200 7525 5700
Wire Wire Line
	7375 6300 7525 6300
Wire Wire Line
	1700 4200 3000 4200
Wire Wire Line
	3000 4200 3200 4200
Wire Wire Line
	6400 6300 6700 6300
Wire Wire Line
	6400 6300 6400 6500
Wire Wire Line
	6400 6100 6400 6300
Wire Wire Line
	7100 4500 7000 4500
Wire Wire Line
	7800 4500 7450 4500
Wire Wire Line
	10850 4050 10850 4500
Wire Wire Line
	10850 4050 10950 4050
Wire Wire Line
	5500 5000 5500 6875
Wire Wire Line
	5700 4900 5700 7000
Wire Wire Line
	3300 1325 3300 1675
Wire Wire Line
	2500 1325 2500 1775
Wire Wire Line
	6050 1275 6050 1675
Wire Wire Line
	5350 1275 5650 1275
Wire Wire Line
	2300 1275 2300 1575
Wire Wire Line
	1025 2275 1175 2275
Connection ~ 1175 2275
Wire Wire Line
	1175 2275 1600 2275
Wire Wire Line
	1175 825  2100 825 
$Comp
L Alimentations:DW01A U?
U 1 1 5DBD9FD4
P 10475 1450
F 0 "U?" H 10475 1797 60  0000 C CNN
F 1 "R5478N101CD" H 10475 1691 60  0000 C CNN
F 2 "Alimentations:SOT23-6L" H 10475 1450 60  0001 C CNN
F 3 "" H 10475 1450 60  0001 C CNN
	1    10475 1450
	1    0    0    -1  
$EndComp
$Comp
L Alimentations:DMG9926USD U?
U 1 1 5DC67E0D
P 10500 2150
F 0 "U?" H 10212 2072 60  0000 R CNN
F 1 "DMG9926USD" H 10800 2425 60  0000 R CNN
F 2 "Alimentations:SOP-8L_4.9x3.9mm_Pitch1.27mm" H 10550 1700 60  0001 C CNN
F 3 "" H 10732 2152 60  0001 C CNN
	1    10500 2150
	-1   0    0    1   
$EndComp
Text GLabel 9500 600  0    60   Input ~ 0
+BAT1
Text GLabel 9075 700  0    60   Input ~ 0
-BAT1
Text GLabel 9500 800  0    60   Input ~ 0
+BAT2
Text GLabel 9075 900  0    60   Input ~ 0
-BAT2
Wire Wire Line
	9500 600  9650 600 
Wire Wire Line
	9650 700  9075 700 
Wire Wire Line
	9500 800  9650 800 
Wire Wire Line
	9075 900  9650 900 
$Comp
L Device:C C?
U 1 1 5DCDB972
P 9875 1825
F 0 "C?" H 9900 1725 50  0000 L CNN
F 1 "100nF" H 9900 1925 50  0000 L CNN
F 2 "Capacitors_SMD:C_0603" H 9913 1675 50  0001 C CNN
F 3 "" H 9875 1825 50  0001 C CNN
	1    9875 1825
	-1   0    0    1   
$EndComp
$Comp
L Device:R R?
U 1 1 5DCDC184
P 10925 1725
F 0 "R?" V 11005 1725 50  0000 C CNN
F 1 "1k" V 10925 1725 50  0000 C CNN
F 2 "Resistors_SMD:R_1206" V 10855 1725 50  0001 C CNN
F 3 "" H 10925 1725 50  0001 C CNN
	1    10925 1725
	-1   0    0    1   
$EndComp
Wire Wire Line
	10925 1500 10925 1575
Wire Wire Line
	10700 1950 10700 1925
Wire Wire Line
	10700 1925 10925 1925
Wire Wire Line
	10925 1925 10925 1875
Wire Wire Line
	10575 1950 10575 1700
Wire Wire Line
	10375 1700 10300 1700
Wire Wire Line
	10300 1700 10300 1950
Wire Wire Line
	10300 2300 10300 2350
Wire Wire Line
	10300 2350 10425 2350
Wire Wire Line
	10425 2350 10425 2300
Wire Wire Line
	10425 2350 10575 2350
Wire Wire Line
	10575 2350 10575 2300
Connection ~ 10425 2350
Wire Wire Line
	10575 2350 10700 2350
Wire Wire Line
	10700 2350 10700 2300
Connection ~ 10575 2350
Wire Wire Line
	10425 1950 10425 1825
Wire Wire Line
	10425 1825 10025 1825
Wire Wire Line
	10025 1825 10025 1500
Wire Wire Line
	10025 1350 9875 1350
Wire Wire Line
	9875 1350 9875 1675
Wire Wire Line
	9875 1975 9875 2225
Wire Wire Line
	9875 2225 9800 2225
Wire Wire Line
	10025 1825 10025 2225
Wire Wire Line
	10025 2225 9875 2225
Connection ~ 10025 1825
Connection ~ 9875 2225
$Comp
L Device:R R?
U 1 1 5DE44823
P 9675 1350
F 0 "R?" V 9755 1350 50  0000 C CNN
F 1 "330" V 9675 1350 50  0000 C CNN
F 2 "Resistors_SMD:R_0805" V 9605 1350 50  0001 C CNN
F 3 "" H 9675 1350 50  0001 C CNN
	1    9675 1350
	0    -1   -1   0   
$EndComp
Wire Wire Line
	9825 1350 9875 1350
Connection ~ 9875 1350
Wire Wire Line
	9525 1350 9525 1500
Text GLabel 9525 1500 3    60   Input ~ 0
+BAT2
Text GLabel 9800 2225 0    60   Input ~ 0
-BAT2
NoConn ~ 10925 1350
$Comp
L Alimentations:DW01A U?
U 1 1 5DE94A64
P 8850 1475
F 0 "U?" H 8850 1822 60  0000 C CNN
F 1 "R5478N101CD" H 8850 1716 60  0000 C CNN
F 2 "Alimentations:SOT23-6L" H 8850 1475 60  0001 C CNN
F 3 "" H 8850 1475 60  0001 C CNN
	1    8850 1475
	1    0    0    -1  
$EndComp
$Comp
L Alimentations:DMG9926USD U?
U 1 1 5DE94A6E
P 8875 2175
F 0 "U?" H 8587 2097 60  0000 R CNN
F 1 "DMG9926USD" H 9175 2450 60  0000 R CNN
F 2 "Alimentations:SOP-8L_4.9x3.9mm_Pitch1.27mm" H 8925 1725 60  0001 C CNN
F 3 "" H 9107 2177 60  0001 C CNN
	1    8875 2175
	-1   0    0    1   
$EndComp
$Comp
L Device:C C?
U 1 1 5DE94A78
P 8250 1850
F 0 "C?" H 8275 1750 50  0000 L CNN
F 1 "100nF" H 8275 1950 50  0000 L CNN
F 2 "Capacitors_SMD:C_0603" H 8288 1700 50  0001 C CNN
F 3 "" H 8250 1850 50  0001 C CNN
	1    8250 1850
	-1   0    0    1   
$EndComp
$Comp
L Device:R R?
U 1 1 5DE94A82
P 9300 1750
F 0 "R?" V 9380 1750 50  0000 C CNN
F 1 "1k" V 9300 1750 50  0000 C CNN
F 2 "Resistors_SMD:R_1206" V 9230 1750 50  0001 C CNN
F 3 "" H 9300 1750 50  0001 C CNN
	1    9300 1750
	-1   0    0    1   
$EndComp
Wire Wire Line
	9300 1525 9300 1600
Wire Wire Line
	9075 1975 9075 1950
Wire Wire Line
	9075 1950 9300 1950
Wire Wire Line
	9300 1950 9300 1900
Wire Wire Line
	8950 1975 8950 1725
Wire Wire Line
	8750 1725 8675 1725
Wire Wire Line
	8675 1725 8675 1975
Wire Wire Line
	8675 2325 8675 2375
Wire Wire Line
	8675 2375 8800 2375
Wire Wire Line
	8800 2375 8800 2325
Wire Wire Line
	8800 2375 8950 2375
Wire Wire Line
	8950 2375 8950 2325
Connection ~ 8800 2375
Wire Wire Line
	8950 2375 9075 2375
Wire Wire Line
	9075 2375 9075 2325
Connection ~ 8950 2375
Wire Wire Line
	8800 1975 8800 1850
Wire Wire Line
	8800 1850 8400 1850
Wire Wire Line
	8400 1850 8400 1525
Wire Wire Line
	8400 1375 8250 1375
Wire Wire Line
	8250 1375 8250 1700
Wire Wire Line
	8250 2000 8250 2250
Wire Wire Line
	8250 2250 8175 2250
Wire Wire Line
	8400 1850 8400 2250
Wire Wire Line
	8400 2250 8250 2250
Connection ~ 8400 1850
$Comp
L Device:R R?
U 1 1 5DE94AA7
P 8050 1375
F 0 "R?" V 8130 1375 50  0000 C CNN
F 1 "330" V 8050 1375 50  0000 C CNN
F 2 "Resistors_SMD:R_0805" V 7980 1375 50  0001 C CNN
F 3 "" H 8050 1375 50  0001 C CNN
	1    8050 1375
	0    -1   -1   0   
$EndComp
Wire Wire Line
	8200 1375 8250 1375
Connection ~ 8250 1375
Text GLabel 7900 1525 3    60   Input ~ 0
+BAT1
Text GLabel 8175 2250 0    60   Input ~ 0
-BAT1
NoConn ~ 9300 1375
Connection ~ 8250 2250
Wire Wire Line
	7900 1375 7900 1525
Wire Wire Line
	10925 1925 10925 2500
Wire Wire Line
	10925 2500 9875 2500
Wire Wire Line
	9300 2500 9300 1950
Connection ~ 10925 1925
Connection ~ 9300 1950
Text GLabel 9800 2400 0    60   Input ~ 0
GND
Wire Wire Line
	9800 2400 9875 2400
Wire Wire Line
	9875 2400 9875 2500
Connection ~ 9875 2500
Wire Wire Line
	9875 2500 9300 2500
$Comp
L Device:R R?
U 1 1 60383707
P 7525 4925
F 0 "R?" V 7605 4925 50  0000 C CNN
F 1 "100k" V 7525 4925 50  0000 C CNN
F 2 "Resistors_SMD:R_0805" V 7455 4925 50  0001 C CNN
F 3 "" H 7525 4925 50  0001 C CNN
	1    7525 4925
	-1   0    0    1   
$EndComp
Wire Wire Line
	9550 2850 9550 3225
$Comp
L Alimentations:TP4056 U?
U 1 1 5E163CF6
P 7800 2975
F 0 "U?" H 8025 2700 60  0000 C CNN
F 1 "TP4056" H 7675 2700 60  0000 C CNN
F 2 "Alimentations:ESOP-8_150mil" H 7800 2975 60  0001 C CNN
F 3 "" H 7800 2975 60  0001 C CNN
	1    7800 2975
	1    0    0    -1  
$EndComp
$Comp
L Device:R R?
U 1 1 5E23174F
P 7100 3225
F 0 "R?" V 7180 3225 50  0000 C CNN
F 1 "1.2k" V 7100 3225 50  0000 C CNN
F 2 "Resistors_SMD:R_0805" V 7030 3225 50  0001 C CNN
F 3 "" H 7100 3225 50  0001 C CNN
	1    7100 3225
	0    -1   -1   0   
$EndComp
$Comp
L Device:R R?
U 1 1 5E23230B
P 7100 3375
F 0 "R?" V 7000 3375 50  0000 C CNN
F 1 "1.2k" V 7100 3375 50  0000 C CNN
F 2 "Resistors_SMD:R_0805" V 7030 3375 50  0001 C CNN
F 3 "" H 7100 3375 50  0001 C CNN
	1    7100 3375
	0    -1   -1   0   
$EndComp
$Comp
L Device:R R?
U 1 1 5E2326C1
P 9225 2850
F 0 "R?" V 9305 2850 50  0000 C CNN
F 1 "0.4" V 9225 2850 50  0000 C CNN
F 2 "Resistors_SMD:R_1210" V 9155 2850 50  0001 C CNN
F 3 "" H 9225 2850 50  0001 C CNN
	1    9225 2850
	0    -1   -1   0   
$EndComp
Wire Wire Line
	7300 3225 7300 3025
Wire Wire Line
	7300 3025 7400 3025
Wire Wire Line
	7250 3225 7300 3225
Wire Wire Line
	7400 3125 7350 3125
Wire Wire Line
	7350 3125 7350 3375
Wire Wire Line
	7350 3375 7250 3375
$Comp
L Device:LED_Small D?
U 1 1 5E27195F
P 6875 3025
F 0 "D?" V 6921 2957 50  0000 R CNN
F 1 "LEDR" V 6830 2957 50  0000 R CNN
F 2 "LEDs:LED_0805" V 6875 3025 50  0001 C CNN
F 3 "~" V 6875 3025 50  0001 C CNN
	1    6875 3025
	0    -1   -1   0   
$EndComp
$Comp
L Device:LED_Small D?
U 1 1 5E2723C7
P 6600 3025
F 0 "D?" V 6646 2957 50  0000 R CNN
F 1 "LEDG" V 6525 3000 50  0000 R CNN
F 2 "LEDs:LED_0805" V 6600 3025 50  0001 C CNN
F 3 "~" V 6600 3025 50  0001 C CNN
	1    6600 3025
	0    -1   -1   0   
$EndComp
Wire Wire Line
	7400 2825 7300 2825
Wire Wire Line
	6875 2825 6875 2925
Wire Wire Line
	6875 2825 6600 2825
Wire Wire Line
	6600 2825 6600 2925
Connection ~ 6875 2825
Wire Wire Line
	7400 2925 7300 2925
Wire Wire Line
	7300 2925 7300 2825
Connection ~ 7300 2825
Wire Wire Line
	7300 2825 6875 2825
Wire Wire Line
	6950 3225 6875 3225
Wire Wire Line
	6875 3225 6875 3125
Wire Wire Line
	6950 3375 6600 3375
Wire Wire Line
	6600 3375 6600 3125
$Comp
L Device:C C?
U 1 1 5E3128BD
P 6425 3175
F 0 "C?" H 6450 3075 50  0000 L CNN
F 1 "10UF" H 6450 3275 50  0000 L CNN
F 2 "Capacitors_SMD:C_0603" H 6463 3025 50  0001 C CNN
F 3 "" H 6425 3175 50  0001 C CNN
	1    6425 3175
	-1   0    0    1   
$EndComp
$Comp
L Device:R R?
U 1 1 5E313635
P 8425 3250
F 0 "R?" V 8505 3250 50  0000 C CNN
F 1 "1.2k" V 8425 3250 50  0000 C CNN
F 2 "Resistors_SMD:R_0805" V 8355 3250 50  0001 C CNN
F 3 "" H 8425 3250 50  0001 C CNN
	1    8425 3250
	-1   0    0    1   
$EndComp
Wire Wire Line
	8200 3125 8250 3125
Wire Wire Line
	8250 3125 8250 2925
Wire Wire Line
	8250 2925 8200 2925
Wire Wire Line
	8250 3125 8250 3525
Connection ~ 8250 3125
Wire Wire Line
	8200 3025 8425 3025
Wire Wire Line
	8425 3025 8425 3100
Wire Wire Line
	8425 3400 8425 3525
Wire Wire Line
	8425 3525 8250 3525
$Comp
L Device:C C?
U 1 1 5E39A3ED
P 8750 3175
F 0 "C?" H 8775 3075 50  0000 L CNN
F 1 "10UF" H 8775 3275 50  0000 L CNN
F 2 "Capacitors_SMD:C_0603" H 8788 3025 50  0001 C CNN
F 3 "" H 8750 3175 50  0001 C CNN
	1    8750 3175
	-1   0    0    1   
$EndComp
Wire Wire Line
	8200 2825 8750 2825
Wire Wire Line
	8750 2825 8750 3025
Wire Wire Line
	8750 3325 8750 3525
Wire Wire Line
	8750 3525 8425 3525
Connection ~ 8425 3525
Wire Wire Line
	8975 4600 8975 4400
Wire Wire Line
	8975 4100 8975 3950
Connection ~ 8975 3950
Wire Wire Line
	6600 2825 6425 2825
Wire Wire Line
	6425 2825 6425 3025
Connection ~ 6600 2825
Wire Wire Line
	6425 3325 6425 3525
Wire Wire Line
	6425 3525 8250 3525
Connection ~ 8250 3525
Wire Wire Line
	9075 2850 9025 2850
Wire Wire Line
	9025 2850 9025 2675
Wire Wire Line
	9025 2675 7300 2675
Wire Wire Line
	7300 2675 7300 2825
Text GLabel 9050 3075 2    60   Input ~ 0
+BAT1
Text GLabel 9050 3225 2    60   Input ~ 0
+BAT2
Text GLabel 9050 3375 2    60   Input ~ 0
VBAT
Wire Wire Line
	9050 3075 8925 3075
Wire Wire Line
	8925 3075 8925 2825
Wire Wire Line
	8925 2825 8750 2825
Connection ~ 8750 2825
Wire Wire Line
	9050 3225 8925 3225
Wire Wire Line
	8925 3225 8925 3075
Connection ~ 8925 3075
Wire Wire Line
	9050 3375 8925 3375
Wire Wire Line
	8925 3375 8925 3225
Connection ~ 8925 3225
$Comp
L conn:Conn_01x04 J?
U 1 1 5E69A2EF
P 775 7475
F 0 "J?" H 775 7675 50  0000 C CNN
F 1 "Bus IC2" H 775 7175 50  0000 C CNN
F 2 "Pin_Headers:Pin_Header_Straight_1x04_Pitch2.54mm" H 775 7475 50  0001 C CNN
F 3 "" H 775 7475 50  0001 C CNN
	1    775  7475
	-1   0    0    1   
$EndComp
Connection ~ 2300 6500
Wire Wire Line
	1950 7000 1950 6050
Text Label 1300 7275 2    60   ~ 0
SDA_IC2
Text Label 1300 7375 2    60   ~ 0
SCL_IC2
Text Label 1300 7575 2    60   ~ 0
VDD_IC2
Text Label 1300 7475 2    60   ~ 0
GND_IC2
Wire Wire Line
	10850 6200 10825 6200
Wire Wire Line
	10825 6200 10825 6125
Wire Wire Line
	10825 6125 10400 6125
$Comp
L Device:CP C?
U 1 1 5EC229F4
P 5900 4725
F 0 "C?" H 5925 4825 50  0000 L CNN
F 1 "470UF" H 5925 4625 50  0000 L CNN
F 2 "Capacitors_SMD:CP_Elec_10x7.7" H 5938 4575 50  0001 C CNN
F 3 "" H 5900 4725 50  0001 C CNN
	1    5900 4725
	1    0    0    -1  
$EndComp
Wire Wire Line
	5900 4875 5900 5600
Connection ~ 5900 5600
Wire Wire Line
	5900 5600 6400 5600
Wire Wire Line
	5900 4575 5900 4400
Wire Wire Line
	9375 2850 9550 2850
Connection ~ 9550 2850
$Comp
L Molex2510:ConnM_01x02 J?
U 1 1 5DD531E2
P 10150 3050
F 0 "J?" H 10150 3150 50  0000 C CNN
F 1 "D+/-" H 10150 2850 50  0000 C CNN
F 2 "Connectors_JST:JST_PH_B2B-PH-K_02x2.00mm_Straight" H 10150 3050 50  0001 C CNN
F 3 "" H 10150 3050 50  0001 C CNN
	1    10150 3050
	-1   0    0    -1  
$EndComp
Text GLabel 8750 4775 3    60   Input ~ 0
VBAT
Wire Wire Line
	8750 4775 8750 4600
Connection ~ 8750 4600
Wire Wire Line
	8750 4600 8975 4600
$Comp
L Molex2510:ConnM_01x04 J?
U 1 1 5E7824E5
P 10875 4775
F 0 "J?" H 10875 4975 50  0000 C CNN
F 1 "USB/TTL Ext." H 10825 4475 50  0000 C CNN
F 2 "Connectors_Molex:Molex_KK-6410-04_04x2.54mm_Straight" H 10875 4775 50  0001 C CNN
F 3 "" H 10875 4775 50  0001 C CNN
	1    10875 4775
	1    0    0    -1  
$EndComp
$Comp
L Device:D_Schottky D?
U 1 1 5E7AA113
P 10000 4275
F 0 "D?" H 10000 4375 50  0000 C CNN
F 1 "SSB44" H 10000 4175 50  0000 C CNN
F 2 "Diodes_SMD:D_SMB" H 10000 4275 50  0001 C CNN
F 3 "" H 10000 4275 50  0001 C CNN
	1    10000 4275
	0    1    1    0   
$EndComp
Wire Wire Line
	10675 4875 10000 4875
Wire Wire Line
	10000 4425 10000 4875
Wire Wire Line
	10675 4975 9900 4975
Wire Wire Line
	9900 4500 9900 4975
Connection ~ 9900 4500
Wire Wire Line
	10850 4500 9900 4500
Wire Wire Line
	9900 4500 7800 4500
Wire Wire Line
	9550 3525 9550 3950
Wire Wire Line
	8975 3950 9550 3950
Wire Wire Line
	9550 2850 9825 2850
Wire Wire Line
	9825 3650 9825 3350
Connection ~ 9825 2850
Wire Wire Line
	9825 2850 10550 2850
Wire Wire Line
	9825 3350 10000 3350
Wire Wire Line
	10000 3350 10000 4125
Connection ~ 9825 3350
Wire Wire Line
	9825 3350 9825 2850
Wire Wire Line
	7875 6125 10100 6125
$Comp
L Alimentations:MP2315 U?
U 1 1 5DC35614
P 9075 5450
F 0 "U?" H 9075 5825 50  0000 C CNN
F 1 "MP2315" H 9075 5734 50  0000 C CNN
F 2 "Alimentations:TSOT23-8" H 9075 4800 50  0001 C CNN
F 3 "" H 9075 4700 50  0001 C CNN
	1    9075 5450
	1    0    0    -1  
$EndComp
Wire Wire Line
	8775 5300 7875 5300
Connection ~ 7875 5300
Wire Wire Line
	7875 5300 7875 5400
$Comp
L Device:R R?
U 1 1 5DC5F1E7
P 8250 5400
F 0 "R?" V 8150 5400 50  0000 C CNN
F 1 "100k" V 8250 5400 50  0000 C CNN
F 2 "Resistors_SMD:R_0805" V 8180 5400 50  0001 C CNN
F 3 "" H 8250 5400 50  0001 C CNN
	1    8250 5400
	0    -1   -1   0   
$EndComp
Wire Wire Line
	8775 5400 8400 5400
Wire Wire Line
	8100 5400 8025 5400
Connection ~ 7875 5400
Wire Wire Line
	7875 5400 7875 6125
$Comp
L Device:R R?
U 1 1 5DCB3C6B
P 8700 5825
F 0 "R?" V 8780 5825 50  0000 C CNN
F 1 "75k" V 8700 5825 50  0000 C CNN
F 2 "Resistors_SMD:R_0805" V 8630 5825 50  0001 C CNN
F 3 "" H 8700 5825 50  0001 C CNN
	1    8700 5825
	1    0    0    -1  
$EndComp
Wire Wire Line
	8775 5600 8700 5600
Wire Wire Line
	8700 5600 8700 5675
Wire Wire Line
	8700 5975 8700 6300
Wire Wire Line
	7725 6300 8025 6300
Connection ~ 8700 6300
Wire Wire Line
	8700 6300 9425 6300
Wire Wire Line
	9375 5600 9425 5600
Wire Wire Line
	9425 5600 9425 6300
Connection ~ 9425 6300
Wire Wire Line
	9425 6300 9850 6300
$Comp
L Device:C C?
U 1 1 5DD33B27
P 8375 5800
F 0 "C?" H 8225 5725 50  0000 L CNN
F 1 "100nF" H 8125 5900 50  0000 L CNN
F 2 "Capacitors_SMD:C_0603" H 8413 5650 50  0001 C CNN
F 3 "" H 8375 5800 50  0001 C CNN
	1    8375 5800
	-1   0    0    1   
$EndComp
Wire Wire Line
	8775 5500 8375 5500
Wire Wire Line
	8375 5500 8375 5650
Wire Wire Line
	8375 5950 8375 6300
Connection ~ 8375 6300
Wire Wire Line
	8375 6300 8700 6300
$Comp
L Device:R R?
U 1 1 5DD8AC9D
P 9575 5300
F 0 "R?" V 9655 5300 50  0000 C CNN
F 1 "20" V 9575 5300 50  0000 C CNN
F 2 "Resistors_SMD:R_0805" V 9505 5300 50  0001 C CNN
F 3 "" H 9575 5300 50  0001 C CNN
	1    9575 5300
	0    -1   -1   0   
$EndComp
$Comp
L Device:C C?
U 1 1 5DD8AFDB
P 9925 5300
F 0 "C?" V 9975 5100 50  0000 L CNN
F 1 "100nF" V 10050 5175 50  0000 L CNN
F 2 "Capacitors_SMD:C_0603" H 9963 5150 50  0001 C CNN
F 3 "" H 9925 5300 50  0001 C CNN
	1    9925 5300
	0    -1   -1   0   
$EndComp
Wire Wire Line
	9425 5300 9375 5300
Wire Wire Line
	9775 5300 9725 5300
Wire Wire Line
	9375 5400 10125 5400
Wire Wire Line
	10125 5400 10125 5300
Wire Wire Line
	10125 5300 10075 5300
$Comp
L Device:L_Core_Ferrite_Small L?
U 1 1 5DE1098A
P 10350 5300
F 0 "L?" V 10425 5250 50  0000 L CNN
F 1 "4.7uH" V 10300 5175 50  0000 L CNN
F 2 "Alimentations:L100mH" H 10350 5300 50  0001 C CNN
F 3 "" H 10350 5300 50  0001 C CNN
	1    10350 5300
	0    -1   -1   0   
$EndComp
$Comp
L Device:R R?
U 1 1 5DF1BDA8
P 9575 5500
F 0 "R?" V 9475 5500 50  0000 C CNN
F 1 "20k" V 9575 5500 50  0000 C CNN
F 2 "Resistors_SMD:R_0805" V 9505 5500 50  0001 C CNN
F 3 "" H 9575 5500 50  0001 C CNN
	1    9575 5500
	0    -1   -1   0   
$EndComp
Wire Wire Line
	9425 5500 9375 5500
$Comp
L Device:R R?
U 1 1 5DF4936F
P 10075 5500
F 0 "R?" V 10155 5500 50  0000 C CNN
F 1 "40.2k" V 10075 5500 50  0000 C CNN
F 2 "Resistors_SMD:R_0805" V 10005 5500 50  0001 C CNN
F 3 "" H 10075 5500 50  0001 C CNN
	1    10075 5500
	0    1    1    0   
$EndComp
$Comp
L Device:R R?
U 1 1 5DF49C77
P 9850 5875
F 0 "R?" V 9930 5875 50  0000 C CNN
F 1 "7.5k" V 9850 5875 50  0000 C CNN
F 2 "Resistors_SMD:R_0805" V 9780 5875 50  0001 C CNN
F 3 "" H 9850 5875 50  0001 C CNN
	1    9850 5875
	1    0    0    -1  
$EndComp
Wire Wire Line
	9850 6025 9850 6300
Connection ~ 9850 6300
Wire Wire Line
	9850 6300 10550 6300
Wire Wire Line
	9850 5500 9850 5725
Wire Wire Line
	9725 5500 9850 5500
Wire Wire Line
	10250 5300 10125 5300
Connection ~ 10125 5300
Wire Wire Line
	9925 5500 9850 5500
Connection ~ 9850 5500
Wire Wire Line
	10225 5500 10550 5500
Wire Wire Line
	10550 5500 10550 5300
Wire Wire Line
	10550 5300 10450 5300
$Comp
L Device:C C?
U 1 1 5E1404B5
P 8025 5800
F 0 "C?" H 7875 5725 50  0000 L CNN
F 1 "22UF" H 7775 5900 50  0000 L CNN
F 2 "Capacitors_SMD:C_0805" H 8063 5650 50  0001 C CNN
F 3 "" H 8025 5800 50  0001 C CNN
	1    8025 5800
	-1   0    0    1   
$EndComp
Wire Wire Line
	8025 5650 8025 5400
Connection ~ 8025 5400
Wire Wire Line
	8025 5400 7875 5400
Wire Wire Line
	8025 5950 8025 6300
Connection ~ 8025 6300
Wire Wire Line
	8025 6300 8375 6300
$Comp
L Device:C C?
U 1 1 5E19E248
P 10550 5850
F 0 "C?" H 10400 5750 50  0000 L CNN
F 1 "22UF" H 10325 5950 50  0000 L CNN
F 2 "Capacitors_SMD:C_0805" H 10588 5700 50  0001 C CNN
F 3 "" H 10550 5850 50  0001 C CNN
	1    10550 5850
	-1   0    0    1   
$EndComp
Wire Wire Line
	10550 6000 10550 6300
Connection ~ 10550 6300
Wire Wire Line
	10550 6300 10850 6300
Connection ~ 10550 5500
Wire Wire Line
	7375 4500 7100 4500
Wire Wire Line
	10550 5500 10550 5700
Wire Wire Line
	10550 5300 10550 5075
Wire Wire Line
	10550 5075 9825 5075
Wire Wire Line
	9825 3950 9825 5075
Connection ~ 10550 5300
$Comp
L conn:GS3 J?
U 1 1 5DD9F8FE
P 10625 3975
F 0 "J?" V 10775 3800 50  0000 L CNN
F 1 "GS3" V 10775 4000 50  0000 L CNN
F 2 "Connectors:GS3" V 10713 3901 50  0001 C CNN
F 3 "" H 10625 3975 50  0001 C CNN
	1    10625 3975
	0    1    1    0   
$EndComp
Wire Wire Line
	10350 3050 10450 3050
Wire Wire Line
	10350 3150 10550 3150
$Comp
L conn:GS3 J?
U 1 1 5DE8BA72
P 10250 3975
F 0 "J?" V 10400 3800 50  0000 L CNN
F 1 "GS3" V 10400 4000 50  0000 L CNN
F 2 "Connectors:GS3" V 10338 3901 50  0001 C CNN
F 3 "" H 10250 3975 50  0001 C CNN
	1    10250 3975
	0    1    1    0   
$EndComp
Wire Wire Line
	10625 4125 10625 4675
Wire Wire Line
	10625 4675 10675 4675
Wire Wire Line
	10250 4775 10250 4125
Wire Wire Line
	10250 4775 10675 4775
Wire Wire Line
	10725 3825 10725 3500
Wire Wire Line
	10725 3500 10450 3500
Wire Wire Line
	10450 3500 10450 3050
Connection ~ 10450 3050
Wire Wire Line
	10450 3050 10550 3050
Wire Wire Line
	10350 3825 10350 3150
Connection ~ 10350 3150
Wire Wire Line
	2600 3550 3075 3550
Connection ~ 2600 3550
Text GLabel 3250 3425 2    60   Input ~ 0
RX
Wire Wire Line
	2500 3650 3225 3650
Connection ~ 2500 3650
Text GLabel 3225 3650 2    60   Input ~ 0
TX
Wire Wire Line
	3250 3425 3075 3425
Wire Wire Line
	3075 3425 3075 3550
Text GLabel 10150 3750 1    60   Input ~ 0
RX
Text GLabel 10525 3750 1    60   Input ~ 0
TX
Wire Wire Line
	10525 3825 10525 3750
Wire Wire Line
	10150 3825 10150 3750
Text GLabel 9550 4100 3    60   Input ~ 0
VP
Wire Wire Line
	9550 4100 9550 3950
Connection ~ 9550 3950
Text GLabel 8875 3525 2    60   Input ~ 0
GND
Wire Wire Line
	8875 3525 8750 3525
Connection ~ 8750 3525
Text GLabel 6800 6425 2    60   Input ~ 0
GND
Wire Wire Line
	6800 6425 6700 6425
Connection ~ 6700 6425
Wire Wire Line
	6700 6425 6700 7650
Wire Wire Line
	2400 6725 2400 7450
$Comp
L Device:Jumper_NC_Small JP?
U 1 1 5E50B1EC
P 1650 7450
F 0 "JP?" H 1650 7530 50  0000 C CNN
F 1 "GND_I" H 1660 7390 50  0000 C CNN
F 2 "Alimentations:Jumper2.54" H 1650 7450 50  0001 C CNN
F 3 "" H 1650 7450 50  0001 C CNN
	1    1650 7450
	-1   0    0    -1  
$EndComp
$Comp
L Device:Jumper_NC_Small JP?
U 1 1 5E50BBBC
P 1650 7675
F 0 "JP?" H 1650 7755 50  0000 C CNN
F 1 "VDD_I" H 1660 7615 50  0000 C CNN
F 2 "Alimentations:Jumper2.54" H 1650 7675 50  0001 C CNN
F 3 "" H 1650 7675 50  0001 C CNN
	1    1650 7675
	-1   0    0    -1  
$EndComp
$Comp
L Device:Jumper_NC_Small JP?
U 1 1 5E50C38A
P 1650 7225
F 0 "JP?" H 1650 7305 50  0000 C CNN
F 1 "SCL_I" H 1660 7165 50  0000 C CNN
F 2 "Alimentations:Jumper2.54" H 1650 7225 50  0001 C CNN
F 3 "" H 1650 7225 50  0001 C CNN
	1    1650 7225
	-1   0    0    -1  
$EndComp
$Comp
L Device:Jumper_NC_Small JP?
U 1 1 5E50CAA0
P 1650 7000
F 0 "JP?" H 1650 7080 50  0000 C CNN
F 1 "SDA_I" H 1660 6940 50  0000 C CNN
F 2 "Alimentations:Jumper2.54" H 1650 7000 50  0001 C CNN
F 3 "" H 1650 7000 50  0001 C CNN
	1    1650 7000
	-1   0    0    -1  
$EndComp
Wire Wire Line
	2300 6500 2300 7675
Wire Wire Line
	2150 6275 2150 7225
Wire Wire Line
	1750 7675 2300 7675
Wire Wire Line
	975  7575 1350 7575
Wire Wire Line
	1350 7575 1350 7675
Wire Wire Line
	1350 7675 1550 7675
Wire Wire Line
	975  7475 1450 7475
Wire Wire Line
	1450 7475 1450 7450
Wire Wire Line
	1450 7450 1550 7450
Wire Wire Line
	975  7375 1450 7375
Wire Wire Line
	1450 7375 1450 7225
Wire Wire Line
	1450 7225 1550 7225
Wire Wire Line
	975  7275 1350 7275
Wire Wire Line
	1350 7275 1350 7000
Wire Wire Line
	1350 7000 1550 7000
Wire Wire Line
	1950 7000 1750 7000
Wire Wire Line
	1750 7225 2150 7225
Wire Wire Line
	1750 7450 2400 7450
Connection ~ 2400 7450
Wire Wire Line
	2400 7450 2400 7650
Wire Wire Line
	5500 6875 2725 6875
$EndSCHEMATC
