EESchema Schematic File Version 4
EELAYER 30 0
EELAYER END
$Descr A4 11693 8268
encoding utf-8
Sheet 1 1
Title ""
Date ""
Rev ""
Comp ""
Comment1 ""
Comment2 ""
Comment3 ""
Comment4 ""
$EndDescr
$Comp
L PassiveRecorderS-rescue:LMV324-linear U2
U 1 1 5AFD39AC
P 2525 1350
F 0 "U2" H 2525 1475 50  0000 L CNN
F 1 "MCP6024" H 2525 1150 50  0000 L CNN
F 2 "Housings_SOIC:SOIC-14_3.9x8.7mm_Pitch1.27mm" H 2525 1350 50  0001 C CNN
F 3 "" H 2525 1350 50  0001 C CNN
	1    2525 1350
	1    0    0    -1  
$EndComp
$Comp
L Molex2510:ConnM_01x03 J1
U 1 1 603836F7
P 700 1450
F 0 "J1" H 700 1650 50  0000 C CNN
F 1 "MicroD" H 700 1250 50  0000 C CNN
F 2 "Connectors_Molex:Molex_KK-6410-03_03x2.54mm_Straight" H 700 1450 50  0001 C CNN
F 3 "" H 700 1450 50  0001 C CNN
	1    700  1450
	-1   0    0    -1  
$EndComp
$Comp
L Device:C C1
U 1 1 603836F8
P 1075 1450
F 0 "C1" V 925 1400 50  0000 L CNN
F 1 "100nF" V 1225 1350 50  0000 L CNN
F 2 "Capacitors_SMD:C_0603" H 1113 1300 50  0001 C CNN
F 3 "" H 1075 1450 50  0001 C CNN
	1    1075 1450
	0    1    1    0   
$EndComp
$Comp
L Device:R R3
U 1 1 603836F9
P 2000 1450
F 0 "R3" V 2080 1450 50  0000 C CNN
F 1 "4k7" V 2000 1450 50  0000 C CNN
F 2 "Resistors_SMD:R_0805" V 1930 1450 50  0001 C CNN
F 3 "" H 2000 1450 50  0001 C CNN
	1    2000 1450
	0    1    1    0   
$EndComp
$Comp
L Device:R R2
U 1 1 603836FA
P 1800 1625
F 0 "R2" V 1880 1625 50  0000 C CNN
F 1 "10k" V 1800 1625 50  0000 C CNN
F 2 "Resistors_SMD:R_0805" V 1730 1625 50  0001 C CNN
F 3 "" H 1800 1625 50  0001 C CNN
	1    1800 1625
	-1   0    0    1   
$EndComp
$Comp
L Device:C C3
U 1 1 5AFD43A7
P 1525 1675
F 0 "C3" H 1425 1575 50  0000 L CNN
F 1 "100nF" H 1275 1775 50  0000 L CNN
F 2 "Capacitors_SMD:C_0603" H 1563 1525 50  0001 C CNN
F 3 "" H 1525 1675 50  0001 C CNN
	1    1525 1675
	-1   0    0    1   
$EndComp
$Comp
L Device:CP C2
U 1 1 5AFD4504
P 1300 1675
F 0 "C2" H 1325 1775 50  0000 L CNN
F 1 "220µF" H 1050 1575 50  0000 L CNN
F 2 "Alimentations:CP_Elec_8x6.7" H 1338 1525 50  0001 C CNN
F 3 "" H 1300 1675 50  0001 C CNN
	1    1300 1675
	1    0    0    -1  
$EndComp
$Comp
L Device:R R4
U 1 1 5AFD4A57
P 2625 1000
F 0 "R4" V 2705 1000 50  0000 C CNN
F 1 "100k" V 2625 1000 50  0000 C CNN
F 2 "Resistors_SMD:R_0805" V 2555 1000 50  0001 C CNN
F 3 "" H 2625 1000 50  0001 C CNN
	1    2625 1000
	0    1    1    0   
$EndComp
$Comp
L Device:C C5
U 1 1 5AFD566E
P 3050 1350
F 0 "C5" V 3200 1300 50  0000 L CNN
F 1 "100nF" V 2900 1250 50  0000 L CNN
F 2 "Capacitors_SMD:C_0603" H 3088 1200 50  0001 C CNN
F 3 "" H 3050 1350 50  0001 C CNN
	1    3050 1350
	0    1    1    0   
$EndComp
$Comp
L PassiveRecorderS-rescue:LMV324-linear U2
U 2 1 60383700
P 3900 1350
F 0 "U2" H 3900 1475 50  0000 L CNN
F 1 "MCP6024" H 3825 1150 50  0000 L CNN
F 2 "Housings_SOIC:SOIC-14_3.9x8.7mm_Pitch1.27mm" H 3900 1350 50  0001 C CNN
F 3 "" H 3900 1350 50  0001 C CNN
	2    3900 1350
	1    0    0    -1  
$EndComp
$Comp
L Device:R R5
U 1 1 5AFD5CD9
P 3400 1350
F 0 "R5" V 3480 1350 50  0000 C CNN
F 1 "4k7" V 3400 1350 50  0000 C CNN
F 2 "Resistors_SMD:R_0805" V 3330 1350 50  0001 C CNN
F 3 "" H 3400 1350 50  0001 C CNN
	1    3400 1350
	0    1    1    0   
$EndComp
$Comp
L Device:R R7
U 1 1 60383702
P 3975 1000
F 0 "R7" V 4055 1000 50  0000 C CNN
F 1 "100k" V 3975 1000 50  0000 C CNN
F 2 "Resistors_SMD:R_0805" V 3905 1000 50  0001 C CNN
F 3 "" H 3975 1000 50  0001 C CNN
	1    3975 1000
	0    1    1    0   
$EndComp
$Comp
L Device:C C13
U 1 1 60383703
P 7475 1125
F 0 "C13" H 7375 1025 50  0000 L CNN
F 1 "100nF" H 7225 1225 50  0000 L CNN
F 2 "Capacitors_SMD:C_0603" H 7513 975 50  0001 C CNN
F 3 "" H 7475 1125 50  0001 C CNN
	1    7475 1125
	-1   0    0    1   
$EndComp
$Comp
L Device:CP C14
U 1 1 60383704
P 7775 1125
F 0 "C14" H 7800 1225 50  0000 L CNN
F 1 "470µF" H 7800 1025 50  0000 L CNN
F 2 "Alimentations:CP_Elec_10x7.7" H 7813 975 50  0001 C CNN
F 3 "" H 7775 1125 50  0001 C CNN
	1    7775 1125
	1    0    0    -1  
$EndComp
Text GLabel 7850 700  2    60   Input ~ 0
+3V3C
Text GLabel 7800 1900 2    60   Input ~ 0
GND
Text Notes 3400 650  0    60   ~ 0
R5 53dB (+24dB) 5mV->2.3V
Text Notes 6000 650  0    60   ~ 0
Microphones pre-amp
Text GLabel 5300 3025 2    60   Input ~ 0
+3V3
Text GLabel 750  3050 2    60   Input ~ 0
GND
Text GLabel 2325 5600 0    60   Input ~ 0
+5V_P
$Comp
L PassiveRecorderS-rescue:Conn_01x04-conn J6
U 1 1 5AFEA613
P 800 7525
F 0 "J6" H 800 7725 50  0000 C CNN
F 1 "Ecran_OLED" H 675 7200 50  0000 C CNN
F 2 "Alimentations:Oled0.96" H 800 7525 50  0001 C CNN
F 3 "" H 800 7525 50  0001 C CNN
	1    800  7525
	-1   0    0    1   
$EndComp
$Comp
L Device:Jumper_NC_Small JP1
U 1 1 5AFEACB0
P 1525 7625
F 0 "JP1" H 1525 7705 50  0000 C CNN
F 1 "GND_T" H 1535 7565 50  0000 C CNN
F 2 "Alimentations:Jumper2.54" H 1525 7625 50  0001 C CNN
F 3 "" H 1525 7625 50  0001 C CNN
	1    1525 7625
	-1   0    0    -1  
$EndComp
$Comp
L Device:Jumper_NC_Small JP2
U 1 1 5AFEB242
P 1525 7400
F 0 "JP2" H 1525 7480 50  0000 C CNN
F 1 "VDD_T" H 1535 7340 50  0000 C CNN
F 2 "Alimentations:Jumper2.54" H 1525 7400 50  0001 C CNN
F 3 "" H 1525 7400 50  0001 C CNN
	1    1525 7400
	-1   0    0    -1  
$EndComp
$Comp
L Device:Jumper_NC_Small JP3
U 1 1 5AFEB2BC
P 1525 7175
F 0 "JP3" H 1525 7255 50  0000 C CNN
F 1 "SCL_T" H 1535 7115 50  0000 C CNN
F 2 "Alimentations:Jumper2.54" H 1525 7175 50  0001 C CNN
F 3 "" H 1525 7175 50  0001 C CNN
	1    1525 7175
	-1   0    0    -1  
$EndComp
$Comp
L Device:Jumper_NC_Small JP4
U 1 1 6038370E
P 1525 6950
F 0 "JP4" H 1525 7030 50  0000 C CNN
F 1 "SDA_T" H 1535 6890 50  0000 C CNN
F 2 "Alimentations:Jumper2.54" H 1525 6950 50  0001 C CNN
F 3 "" H 1525 6950 50  0001 C CNN
	1    1525 6950
	-1   0    0    -1  
$EndComp
Text Label 1250 7625 2    60   ~ 0
GND_E
Text Label 1250 7525 2    60   ~ 0
VDD_E
Text Label 1250 7425 2    60   ~ 0
SCL_E
Text Label 1250 7325 2    60   ~ 0
SDA_E
NoConn ~ 2075 4650
NoConn ~ 2075 4750
NoConn ~ 2075 4850
NoConn ~ 2075 4950
NoConn ~ 2075 5050
NoConn ~ 2075 5150
NoConn ~ 2075 5250
NoConn ~ 4275 5150
NoConn ~ 4275 4750
NoConn ~ 4275 4550
NoConn ~ 4275 4450
NoConn ~ 4275 4250
$Comp
L Device:R R36
U 1 1 60383716
P 5975 3850
F 0 "R36" V 6055 3850 50  0000 C CNN
F 1 "100k" V 5975 3850 50  0000 C CNN
F 2 "Resistors_SMD:R_0805" V 5905 3850 50  0001 C CNN
F 3 "" H 5975 3850 50  0001 C CNN
	1    5975 3850
	-1   0    0    1   
$EndComp
$Comp
L Device:R R37
U 1 1 60383717
P 5975 4425
F 0 "R37" V 6055 4425 50  0000 C CNN
F 1 "5.6k" V 5975 4425 50  0000 C CNN
F 2 "Resistors_SMD:R_0805" V 5905 4425 50  0001 C CNN
F 3 "" H 5975 4425 50  0001 C CNN
	1    5975 4425
	-1   0    0    1   
$EndComp
$Comp
L Device:L_Core_Ferrite_Small L2
U 1 1 5B1935FF
P 7650 700
F 0 "L2" V 7600 650 50  0000 L CNN
F 1 "100uH" V 7750 550 50  0000 L CNN
F 2 "Alimentations:L100mH" H 7650 700 50  0001 C CNN
F 3 "" H 7650 700 50  0001 C CNN
	1    7650 700 
	0    -1   -1   0   
$EndComp
Text Notes 7000 7075 0    157  ~ 31
Passive Recorder Stereo V0.5\nTeensy 4.1
Text GLabel 5300 2875 2    60   Input ~ 0
GND
$Comp
L Device:C C28
U 1 1 5B2EEDDB
P 5350 3350
F 0 "C28" H 5200 3250 50  0000 L CNN
F 1 "100nF" H 5125 3450 50  0000 L CNN
F 2 "Capacitors_SMD:C_0603" H 5388 3200 50  0001 C CNN
F 3 "" H 5350 3350 50  0001 C CNN
	1    5350 3350
	-1   0    0    1   
$EndComp
Text GLabel 5300 2725 2    60   Input ~ 0
+5V
Text Label 4275 4050 0    60   ~ 0
Mesure_12V_Externe
Text Notes 4875 5275 0    39   ~ 0
D0 D1 D2 (0=short circuit)\n 1  1  1 Passive Recorder (PR)\n 0  1  1 Active Recorder (AR)\n 1  0  1 Passive Recorder Stereo (PS)\n 0  0  1 Passive Recorder Stereo Synchro (PRS)\n 0  0  0 Passive Recorder Mono  Synchro (PMS)
Text GLabel 5250 3700 2    60   Input ~ 0
SAUDIO-D
Text GLabel 7575 1700 2    60   Input ~ 0
SAUDIO-D
Wire Wire Line
	2150 1450 2175 1450
Wire Wire Line
	1850 1450 1225 1450
Wire Wire Line
	925  1450 900  1450
Wire Wire Line
	1525 1525 1525 1250
Wire Wire Line
	1300 1250 1525 1250
Connection ~ 1800 1250
Wire Wire Line
	1300 1525 1300 1250
Connection ~ 1525 1250
Wire Wire Line
	2425 1900 2425 1650
Wire Wire Line
	925  1900 925  1550
Wire Wire Line
	925  1550 900  1550
Wire Wire Line
	1300 1825 1300 1900
Connection ~ 1300 1900
Wire Wire Line
	1525 1825 1525 1900
Connection ~ 1525 1900
Wire Wire Line
	1800 1775 1800 1900
Connection ~ 1800 1900
Wire Wire Line
	1800 1250 2225 1250
Wire Wire Line
	1800 750  1800 1250
Wire Wire Line
	925  1350 900  1350
Wire Wire Line
	2425 700  2425 1050
Connection ~ 2175 1450
Wire Wire Line
	2825 1350 2850 1350
Wire Wire Line
	2850 1000 2775 1000
Connection ~ 2850 1350
Connection ~ 2425 1900
Wire Wire Line
	3525 1250 3525 750 
Wire Wire Line
	3525 750  1800 750 
Wire Wire Line
	3800 700  3800 1050
Connection ~ 2425 700 
Wire Wire Line
	3800 1900 3800 1650
Wire Wire Line
	4125 1000 4225 1000
Wire Wire Line
	4200 1350 4225 1350
Connection ~ 3800 700 
Wire Wire Line
	7475 700  7475 900 
Connection ~ 7475 700 
Connection ~ 3800 1900
Wire Wire Line
	7475 1275 7475 1350
Connection ~ 7475 1900
Wire Wire Line
	1425 6950 1300 6950
Wire Wire Line
	1300 6950 1300 7325
Wire Wire Line
	1300 7325 1000 7325
Wire Wire Line
	1425 7400 1400 7400
Wire Wire Line
	1400 7400 1400 7525
Wire Wire Line
	1400 7525 1000 7525
Wire Wire Line
	2075 3250 1775 3250
Wire Wire Line
	2075 3350 1825 3350
Wire Wire Line
	7850 700  7750 700 
Wire Wire Line
	1800 1250 1800 1475
Wire Wire Line
	1525 1250 1800 1250
Wire Wire Line
	1300 1900 1525 1900
Wire Wire Line
	1525 1900 1800 1900
Wire Wire Line
	1800 1900 2425 1900
Wire Wire Line
	2175 1450 2225 1450
Wire Wire Line
	2850 1350 2900 1350
Wire Wire Line
	2425 700  3800 700 
Wire Wire Line
	3800 700  4625 700 
Wire Wire Line
	7475 700  7550 700 
Wire Wire Line
	3800 1900 4625 1900
Wire Wire Line
	7475 1900 7800 1900
Wire Wire Line
	3575 1450 3600 1450
Wire Wire Line
	2850 1000 2850 1350
Wire Wire Line
	4225 1000 4225 1350
Wire Wire Line
	2425 1900 3800 1900
Wire Wire Line
	3550 1350 3575 1350
Connection ~ 3575 1350
Wire Wire Line
	3575 1350 3575 1450
Wire Wire Line
	925  1900 1300 1900
$Comp
L Device:R R1
U 1 1 603836FB
P 1300 950
F 0 "R1" V 1380 950 50  0000 C CNN
F 1 "10k" V 1300 950 50  0000 C CNN
F 2 "Resistors_SMD:R_0805" V 1230 950 50  0001 C CNN
F 3 "" H 1300 950 50  0001 C CNN
	1    1300 950 
	1    0    0    -1  
$EndComp
Wire Wire Line
	925  700  1300 700 
Wire Wire Line
	1300 1100 1300 1250
Connection ~ 1300 1250
Wire Wire Line
	3600 1250 3525 1250
$Comp
L Molex2510:ConnM_01x03 J2
U 1 1 5DAC4DE2
P 4400 1450
F 0 "J2" H 4400 1650 50  0000 C CNN
F 1 "MicroG" H 4400 1250 50  0000 C CNN
F 2 "Connectors_Molex:Molex_KK-6410-03_03x2.54mm_Straight" H 4400 1450 50  0001 C CNN
F 3 "" H 4400 1450 50  0001 C CNN
	1    4400 1450
	-1   0    0    -1  
$EndComp
Wire Wire Line
	4600 1550 4625 1550
Wire Wire Line
	4625 1550 4625 1900
Connection ~ 4625 1900
Wire Wire Line
	4625 1900 5575 1900
Wire Wire Line
	4600 1350 4625 1350
Wire Wire Line
	4625 1350 4625 700 
Connection ~ 4625 700 
Wire Wire Line
	4625 700  5575 700 
$Comp
L Device:C C8
U 1 1 5DC20707
P 4775 1450
F 0 "C8" V 4625 1400 50  0000 L CNN
F 1 "100nF" V 4925 1350 50  0000 L CNN
F 2 "Capacitors_SMD:C_0603" H 4813 1300 50  0001 C CNN
F 3 "" H 4775 1450 50  0001 C CNN
	1    4775 1450
	0    1    1    0   
$EndComp
Wire Wire Line
	4600 1450 4625 1450
$Comp
L Device:R R8
U 1 1 5DC4E484
P 5150 1450
F 0 "R8" V 5230 1450 50  0000 C CNN
F 1 "4k7" V 5150 1450 50  0000 C CNN
F 2 "Resistors_SMD:R_0805" V 5080 1450 50  0001 C CNN
F 3 "" H 5150 1450 50  0001 C CNN
	1    5150 1450
	0    1    1    0   
$EndComp
Wire Wire Line
	4925 1450 5000 1450
$Comp
L PassiveRecorderS-rescue:LMV324-linear U2
U 3 1 5DC7C5E3
P 5675 1350
F 0 "U2" H 5675 1475 50  0000 L CNN
F 1 "MCP6024" H 5675 1150 50  0000 L CNN
F 2 "Housings_SOIC:SOIC-14_3.9x8.7mm_Pitch1.27mm" H 5675 1350 50  0001 C CNN
F 3 "" H 5675 1350 50  0001 C CNN
	3    5675 1350
	1    0    0    -1  
$EndComp
Wire Wire Line
	5300 1450 5325 1450
Wire Wire Line
	5375 1250 5250 1250
Wire Wire Line
	5250 1250 5250 750 
Wire Wire Line
	5250 750  3525 750 
Connection ~ 3525 750 
Wire Wire Line
	5575 1650 5575 1900
Connection ~ 5575 1900
Wire Wire Line
	5575 1050 5575 700 
Connection ~ 5575 700 
$Comp
L Device:R R9
U 1 1 5DDD7EF4
P 5775 1000
F 0 "R9" V 5855 1000 50  0000 C CNN
F 1 "100k" V 5775 1000 50  0000 C CNN
F 2 "Resistors_SMD:R_0805" V 5705 1000 50  0001 C CNN
F 3 "" H 5775 1000 50  0001 C CNN
	1    5775 1000
	0    1    1    0   
$EndComp
Wire Wire Line
	5325 1450 5325 1000
Wire Wire Line
	5325 1000 5625 1000
Connection ~ 5325 1450
Wire Wire Line
	5325 1450 5375 1450
Wire Wire Line
	5925 1000 6000 1000
Wire Wire Line
	6000 1000 6000 1350
Wire Wire Line
	6000 1350 5975 1350
$Comp
L Device:C C10
U 1 1 5DE9A98E
P 6200 1350
F 0 "C10" V 6350 1300 50  0000 L CNN
F 1 "100nF" V 6050 1250 50  0000 L CNN
F 2 "Capacitors_SMD:C_0603" H 6238 1200 50  0001 C CNN
F 3 "" H 6200 1350 50  0001 C CNN
	1    6200 1350
	0    1    1    0   
$EndComp
$Comp
L Device:R R10
U 1 1 5DE9ADF5
P 6525 1350
F 0 "R10" V 6605 1350 50  0000 C CNN
F 1 "4k7" V 6525 1350 50  0000 C CNN
F 2 "Resistors_SMD:R_0805" V 6455 1350 50  0001 C CNN
F 3 "" H 6525 1350 50  0001 C CNN
	1    6525 1350
	0    1    1    0   
$EndComp
Wire Wire Line
	5575 1900 6925 1900
Wire Wire Line
	7775 975  7775 900 
Wire Wire Line
	7775 900  7475 900 
Connection ~ 7475 900 
Wire Wire Line
	7475 900  7475 975 
Wire Wire Line
	7775 1275 7775 1350
Wire Wire Line
	7775 1350 7475 1350
Connection ~ 7475 1350
Wire Wire Line
	7475 1350 7475 1900
Text GLabel 7575 1500 2    60   Input ~ 0
SAUDIO-G
Wire Wire Line
	7575 1500 7350 1500
Wire Wire Line
	7350 1500 7350 1350
Wire Wire Line
	7350 1350 7325 1350
Wire Wire Line
	4225 1700 4225 1350
Connection ~ 4225 1350
Wire Wire Line
	5250 750  6600 750 
Wire Wire Line
	6600 750  6600 1250
Wire Wire Line
	6600 1250 6725 1250
Connection ~ 5250 750 
Wire Wire Line
	6050 1350 6000 1350
Connection ~ 6000 1350
$Comp
L Device:R R12
U 1 1 5DF56CED
P 7125 1000
F 0 "R12" V 7205 1000 50  0000 C CNN
F 1 "100k" V 7125 1000 50  0000 C CNN
F 2 "Resistors_SMD:R_0805" V 7055 1000 50  0001 C CNN
F 3 "" H 7125 1000 50  0001 C CNN
	1    7125 1000
	0    1    1    0   
$EndComp
Wire Wire Line
	6925 1650 6925 1900
Connection ~ 6925 1900
Wire Wire Line
	6925 1900 7475 1900
Wire Wire Line
	6675 1350 6700 1350
Wire Wire Line
	6700 1350 6700 1450
Wire Wire Line
	6700 1450 6725 1450
Wire Wire Line
	6700 1350 6700 1000
Connection ~ 6700 1350
Wire Wire Line
	7275 1000 7350 1000
Wire Wire Line
	7350 1000 7350 1350
Connection ~ 7350 1350
Text GLabel 5250 3850 2    60   Input ~ 0
SAUDIO-G
Wire Wire Line
	5975 4000 5975 4050
Connection ~ 5975 4050
Wire Wire Line
	5975 4050 5975 4275
NoConn ~ 2075 3550
NoConn ~ 1175 2425
$Comp
L Device:CP C29
U 1 1 6081AAB4
P 5075 3350
F 0 "C29" H 5100 3450 50  0000 L CNN
F 1 "470µF" H 5075 3250 50  0000 L CNN
F 2 "Alimentations:CP_Elec_10x7.7" H 5113 3200 50  0001 C CNN
F 3 "" H 5075 3350 50  0001 C CNN
	1    5075 3350
	1    0    0    -1  
$EndComp
Wire Wire Line
	5075 3500 5075 3600
Wire Wire Line
	5075 3150 5075 3200
Wire Wire Line
	5075 3150 5350 3150
Wire Wire Line
	5350 3200 5350 3150
Wire Wire Line
	5350 3600 5075 3600
Wire Wire Line
	5350 3500 5350 3600
Text GLabel 900  2475 0    60   Input ~ 0
TOP-G
Text GLabel 1475 2475 2    60   Input ~ 0
TOP-D
$Comp
L Device:R R33
U 1 1 60EB6727
P 1075 2700
F 0 "R33" V 1155 2700 50  0000 C CNN
F 1 "10k" V 1075 2700 50  0000 C CNN
F 2 "Resistors_SMD:R_0805" V 1005 2700 50  0001 C CNN
F 3 "" H 1075 2700 50  0001 C CNN
	1    1075 2700
	-1   0    0    1   
$EndComp
$Comp
L Device:R R34
U 1 1 60EB74B1
P 1250 2700
F 0 "R34" V 1330 2700 50  0000 C CNN
F 1 "10k" V 1250 2700 50  0000 C CNN
F 2 "Resistors_SMD:R_0805" V 1180 2700 50  0001 C CNN
F 3 "" H 1250 2700 50  0001 C CNN
	1    1250 2700
	-1   0    0    1   
$EndComp
$Comp
L Device:R R31
U 1 1 610F958A
P 1075 2275
F 0 "R31" V 1155 2275 50  0000 C CNN
F 1 "10k" V 1075 2275 50  0000 C CNN
F 2 "Resistors_SMD:R_0805" V 1005 2275 50  0001 C CNN
F 3 "" H 1075 2275 50  0001 C CNN
	1    1075 2275
	-1   0    0    1   
$EndComp
$Comp
L Device:R R32
U 1 1 610F9B42
P 1250 2275
F 0 "R32" V 1330 2275 50  0000 C CNN
F 1 "10k" V 1250 2275 50  0000 C CNN
F 2 "Resistors_SMD:R_0805" V 1180 2275 50  0001 C CNN
F 3 "" H 1250 2275 50  0001 C CNN
	1    1250 2275
	-1   0    0    1   
$EndComp
Wire Wire Line
	1250 2125 1250 2075
Wire Wire Line
	1250 2075 1075 2075
Wire Wire Line
	1075 2075 1075 2125
Wire Wire Line
	1250 2550 1250 2475
Connection ~ 1250 2475
Wire Wire Line
	1250 2475 1250 2425
Text GLabel 2875 1750 0    60   Input ~ 0
TOP-D
Text GLabel 6025 1800 0    60   Input ~ 0
TOP-G
Wire Wire Line
	1075 2850 1075 2875
Wire Wire Line
	1075 2875 1250 2875
Wire Wire Line
	1250 2875 1250 2850
Wire Wire Line
	5575 700  6925 700 
Wire Wire Line
	6975 1000 6700 1000
Wire Wire Line
	6925 1050 6925 700 
Connection ~ 6925 700 
Wire Wire Line
	6925 700  7475 700 
Text GLabel 5975 3425 1    60   Input ~ 0
PLUS12V
Wire Wire Line
	5975 3425 5975 3700
$Comp
L Alimentations:2xBatteriesLiPo U10
U 1 1 603972BC
P 10125 800
F 0 "U10" H 10375 700 50  0000 L CNN
F 1 "2xBatteriesLiPo" H 10350 800 50  0000 L CNN
F 2 "Alimentations:2xBatteriesLiPo" H 10025 650 50  0001 L CIN
F 3 "" H 10225 850 50  0001 L CNN
	1    10125 800 
	1    0    0    -1  
$EndComp
$Comp
L Alimentations:DW01A U6
U 1 1 603972C2
P 10625 1700
F 0 "U6" H 10625 2047 60  0000 C CNN
F 1 "R5478N101CD" H 10625 1941 60  0000 C CNN
F 2 "Alimentations:SOT23-6L" H 10625 1700 60  0001 C CNN
F 3 "" H 10625 1700 60  0001 C CNN
	1    10625 1700
	1    0    0    -1  
$EndComp
$Comp
L Alimentations:DMG9926USD U7
U 1 1 603972C8
P 10650 2400
F 0 "U7" H 10362 2322 60  0000 R CNN
F 1 "DMG9926USD" H 10950 2675 60  0000 R CNN
F 2 "Alimentations:SOP-8L_4.9x3.9mm_Pitch1.27mm" H 10700 1950 60  0001 C CNN
F 3 "" H 10882 2402 60  0001 C CNN
	1    10650 2400
	-1   0    0    1   
$EndComp
Text GLabel 9725 650  0    60   Input ~ 0
+BAT1
Text GLabel 9300 750  0    60   Input ~ 0
-BAT1
Text GLabel 9725 850  0    60   Input ~ 0
+BAT2
Text GLabel 9300 950  0    60   Input ~ 0
-BAT2
Wire Wire Line
	9725 650  9875 650 
Wire Wire Line
	9875 750  9300 750 
Wire Wire Line
	9725 850  9875 850 
Wire Wire Line
	9300 950  9875 950 
$Comp
L Device:C C16
U 1 1 603972D6
P 10025 2075
F 0 "C16" H 10050 1975 50  0000 L CNN
F 1 "100nF" H 10050 2175 50  0000 L CNN
F 2 "Capacitors_SMD:C_0603" H 10063 1925 50  0001 C CNN
F 3 "" H 10025 2075 50  0001 C CNN
	1    10025 2075
	-1   0    0    1   
$EndComp
$Comp
L Device:R R16
U 1 1 603972DC
P 11075 1975
F 0 "R16" V 11155 1975 50  0000 C CNN
F 1 "1k" V 11075 1975 50  0000 C CNN
F 2 "Resistors_SMD:R_0805" V 11005 1975 50  0001 C CNN
F 3 "" H 11075 1975 50  0001 C CNN
	1    11075 1975
	-1   0    0    1   
$EndComp
Wire Wire Line
	11075 1750 11075 1825
Wire Wire Line
	10850 2200 10850 2175
Wire Wire Line
	10850 2175 11075 2175
Wire Wire Line
	11075 2175 11075 2125
Wire Wire Line
	10725 2200 10725 1950
Wire Wire Line
	10525 1950 10450 1950
Wire Wire Line
	10450 1950 10450 2200
Wire Wire Line
	10450 2550 10450 2600
Wire Wire Line
	10450 2600 10575 2600
Wire Wire Line
	10575 2600 10575 2550
Wire Wire Line
	10575 2600 10725 2600
Wire Wire Line
	10725 2600 10725 2550
Connection ~ 10575 2600
Wire Wire Line
	10725 2600 10850 2600
Wire Wire Line
	10850 2600 10850 2550
Connection ~ 10725 2600
Wire Wire Line
	10575 2200 10575 2075
Wire Wire Line
	10575 2075 10175 2075
Wire Wire Line
	10175 2075 10175 1750
Wire Wire Line
	10175 1600 10025 1600
Wire Wire Line
	10025 1600 10025 1925
Wire Wire Line
	10025 2225 10025 2275
Wire Wire Line
	10025 2275 10025 2325
Wire Wire Line
	10175 2075 10175 2275
Wire Wire Line
	10175 2275 10025 2275
Connection ~ 10175 2075
Connection ~ 10025 2275
Connection ~ 10025 1600
Text GLabel 10100 1225 2    60   Input ~ 0
+BAT2
Text GLabel 10025 2325 3    60   Input ~ 0
-BAT2
NoConn ~ 11075 1600
$Comp
L Alimentations:DW01A U4
U 1 1 60397309
P 9000 1725
F 0 "U4" H 9000 2072 60  0000 C CNN
F 1 "R5478N101CD" H 9000 1966 60  0000 C CNN
F 2 "Alimentations:SOT23-6L" H 9000 1725 60  0001 C CNN
F 3 "" H 9000 1725 60  0001 C CNN
	1    9000 1725
	1    0    0    -1  
$EndComp
$Comp
L Alimentations:DMG9926USD U5
U 1 1 6039730F
P 9025 2425
F 0 "U5" H 8737 2347 60  0000 R CNN
F 1 "DMG9926USD" H 9325 2700 60  0000 R CNN
F 2 "Alimentations:SOP-8L_4.9x3.9mm_Pitch1.27mm" H 9075 1975 60  0001 C CNN
F 3 "" H 9257 2427 60  0001 C CNN
	1    9025 2425
	-1   0    0    1   
$EndComp
$Comp
L Device:C C15
U 1 1 60397315
P 8400 2100
F 0 "C15" V 8350 1900 50  0000 L CNN
F 1 "100nF" V 8450 1825 50  0000 L CNN
F 2 "Capacitors_SMD:C_0603" H 8438 1950 50  0001 C CNN
F 3 "" H 8400 2100 50  0001 C CNN
	1    8400 2100
	-1   0    0    1   
$EndComp
$Comp
L Device:R R14
U 1 1 6039731B
P 9450 2000
F 0 "R14" V 9530 2000 50  0000 C CNN
F 1 "1k" V 9450 2000 50  0000 C CNN
F 2 "Resistors_SMD:R_0805" V 9380 2000 50  0001 C CNN
F 3 "" H 9450 2000 50  0001 C CNN
	1    9450 2000
	-1   0    0    1   
$EndComp
Wire Wire Line
	9450 1775 9450 1850
Wire Wire Line
	9225 2225 9225 2200
Wire Wire Line
	9225 2200 9450 2200
Wire Wire Line
	9450 2200 9450 2150
Wire Wire Line
	9100 2225 9100 1975
Wire Wire Line
	8900 1975 8825 1975
Wire Wire Line
	8825 1975 8825 2225
Wire Wire Line
	8825 2575 8825 2625
Wire Wire Line
	8825 2625 8950 2625
Wire Wire Line
	8950 2625 8950 2575
Wire Wire Line
	8950 2625 9100 2625
Wire Wire Line
	9100 2625 9100 2575
Connection ~ 8950 2625
Wire Wire Line
	9100 2625 9225 2625
Wire Wire Line
	9225 2625 9225 2575
Connection ~ 9100 2625
Wire Wire Line
	8950 2225 8950 2100
Wire Wire Line
	8950 2100 8550 2100
Wire Wire Line
	8550 2100 8550 1775
Wire Wire Line
	8550 1625 8400 1625
Wire Wire Line
	8400 1625 8400 1950
Wire Wire Line
	8400 2250 8400 2300
Wire Wire Line
	8400 2300 8400 2350
Wire Wire Line
	8550 2100 8550 2300
Wire Wire Line
	8550 2300 8400 2300
Connection ~ 8550 2100
$Comp
L Device:R R13
U 1 1 6039733B
P 8400 1450
F 0 "R13" V 8480 1450 50  0000 C CNN
F 1 "330" V 8400 1450 50  0000 C CNN
F 2 "Resistors_SMD:R_0805" V 8330 1450 50  0001 C CNN
F 3 "" H 8400 1450 50  0001 C CNN
	1    8400 1450
	1    0    0    -1  
$EndComp
Wire Wire Line
	8400 1600 8400 1625
Connection ~ 8400 1625
Text GLabel 8475 1250 2    60   Input ~ 0
+BAT1
Text GLabel 8400 2350 3    60   Input ~ 0
-BAT1
NoConn ~ 9450 1625
Connection ~ 8400 2300
Wire Wire Line
	11075 2175 11075 2750
Wire Wire Line
	9450 2750 9450 2575
Connection ~ 11075 2175
Connection ~ 9450 2200
Text GLabel 9525 2575 2    60   Input ~ 0
GND
$Comp
L Alimentations:TP4056 U?
U 1 1 604907BA
P 9725 3275
AR Path="/603823D4/604907BA" Ref="U?"  Part="1" 
AR Path="/604907BA" Ref="U8"  Part="1" 
F 0 "U8" H 9950 3000 60  0000 C CNN
F 1 "TP4056" H 9600 3000 60  0000 C CNN
F 2 "Alimentations:ESOP-8_150mil" H 9725 3275 60  0001 C CNN
F 3 "" H 9725 3275 60  0001 C CNN
	1    9725 3275
	1    0    0    -1  
$EndComp
$Comp
L Device:R R?
U 1 1 604907C0
P 9050 3525
AR Path="/603823D4/604907C0" Ref="R?"  Part="1" 
AR Path="/604907C0" Ref="R17"  Part="1" 
F 0 "R17" V 9130 3525 50  0000 C CNN
F 1 "4.7k" V 9050 3525 50  0000 C CNN
F 2 "Resistors_SMD:R_0805" V 8980 3525 50  0001 C CNN
F 3 "" H 9050 3525 50  0001 C CNN
	1    9050 3525
	0    -1   -1   0   
$EndComp
$Comp
L Device:R R?
U 1 1 604907C6
P 9050 3675
AR Path="/603823D4/604907C6" Ref="R?"  Part="1" 
AR Path="/604907C6" Ref="R18"  Part="1" 
F 0 "R18" V 8950 3675 50  0000 C CNN
F 1 "4.7k" V 9050 3675 50  0000 C CNN
F 2 "Resistors_SMD:R_0805" V 8980 3675 50  0001 C CNN
F 3 "" H 9050 3675 50  0001 C CNN
	1    9050 3675
	0    -1   -1   0   
$EndComp
$Comp
L Device:R R?
U 1 1 604907CC
P 10350 2975
AR Path="/603823D4/604907CC" Ref="R?"  Part="1" 
AR Path="/604907CC" Ref="R19"  Part="1" 
F 0 "R19" V 10430 2975 50  0000 C CNN
F 1 "0.4" V 10350 2975 50  0000 C CNN
F 2 "Resistors_SMD:R_1210" V 10280 2975 50  0001 C CNN
F 3 "" H 10350 2975 50  0001 C CNN
	1    10350 2975
	0    -1   -1   0   
$EndComp
Wire Wire Line
	9225 3525 9225 3325
Wire Wire Line
	9225 3325 9325 3325
Wire Wire Line
	9200 3525 9225 3525
Wire Wire Line
	9325 3425 9275 3425
Wire Wire Line
	9275 3425 9275 3675
Wire Wire Line
	9275 3675 9200 3675
$Comp
L Device:LED_Small D?
U 1 1 604907D8
P 8875 3300
AR Path="/603823D4/604907D8" Ref="D?"  Part="1" 
AR Path="/604907D8" Ref="D6"  Part="1" 
F 0 "D6" V 8921 3232 50  0000 R CNN
F 1 "LEDR" V 8830 3232 50  0000 R CNN
F 2 "LEDs:LED_0805" V 8875 3300 50  0001 C CNN
F 3 "~" V 8875 3300 50  0001 C CNN
	1    8875 3300
	0    -1   -1   0   
$EndComp
$Comp
L Device:LED_Small D?
U 1 1 604907DE
P 8625 3300
AR Path="/603823D4/604907DE" Ref="D?"  Part="1" 
AR Path="/604907DE" Ref="D5"  Part="1" 
F 0 "D5" V 8671 3232 50  0000 R CNN
F 1 "LEDG" V 8550 3275 50  0000 R CNN
F 2 "LEDs:LED_0805" V 8625 3300 50  0001 C CNN
F 3 "~" V 8625 3300 50  0001 C CNN
	1    8625 3300
	0    -1   -1   0   
$EndComp
Wire Wire Line
	9325 3125 9225 3125
Wire Wire Line
	8875 3125 8875 3200
Wire Wire Line
	8875 3125 8625 3125
Wire Wire Line
	8625 3125 8625 3200
Connection ~ 8875 3125
Wire Wire Line
	9325 3225 9225 3225
Wire Wire Line
	9225 3225 9225 3125
Connection ~ 9225 3125
Wire Wire Line
	9225 3125 8875 3125
Wire Wire Line
	8900 3525 8875 3525
Wire Wire Line
	8875 3525 8875 3400
Wire Wire Line
	8900 3675 8625 3675
Wire Wire Line
	8625 3675 8625 3400
$Comp
L Device:C C?
U 1 1 604907F1
P 8475 3475
AR Path="/603823D4/604907F1" Ref="C?"  Part="1" 
AR Path="/604907F1" Ref="C17"  Part="1" 
F 0 "C17" H 8500 3375 50  0000 L CNN
F 1 "10UF" H 8500 3575 50  0000 L CNN
F 2 "Capacitors_SMD:C_0603" H 8513 3325 50  0001 C CNN
F 3 "" H 8475 3475 50  0001 C CNN
	1    8475 3475
	-1   0    0    1   
$EndComp
$Comp
L Device:R R?
U 1 1 604907F7
P 10300 3550
AR Path="/603823D4/604907F7" Ref="R?"  Part="1" 
AR Path="/604907F7" Ref="R20"  Part="1" 
F 0 "R20" V 10380 3550 50  0000 C CNN
F 1 "1.2k" V 10300 3550 50  0000 C CNN
F 2 "Resistors_SMD:R_0805" V 10230 3550 50  0001 C CNN
F 3 "" H 10300 3550 50  0001 C CNN
	1    10300 3550
	-1   0    0    1   
$EndComp
Wire Wire Line
	10125 3425 10175 3425
Wire Wire Line
	10175 3425 10175 3225
Wire Wire Line
	10175 3225 10125 3225
Wire Wire Line
	10175 3425 10175 3825
Connection ~ 10175 3425
Wire Wire Line
	10125 3325 10300 3325
Wire Wire Line
	10300 3325 10300 3400
Wire Wire Line
	10300 3700 10300 3825
Wire Wire Line
	10300 3825 10175 3825
$Comp
L Device:C C?
U 1 1 60490806
P 10475 3475
AR Path="/603823D4/60490806" Ref="C?"  Part="1" 
AR Path="/60490806" Ref="C18"  Part="1" 
F 0 "C18" H 10325 3375 50  0000 L CNN
F 1 "10UF" H 10275 3575 50  0000 L CNN
F 2 "Capacitors_SMD:C_0603" H 10513 3325 50  0001 C CNN
F 3 "" H 10475 3475 50  0001 C CNN
	1    10475 3475
	-1   0    0    1   
$EndComp
Wire Wire Line
	10125 3125 10475 3125
Wire Wire Line
	10475 3125 10475 3325
Wire Wire Line
	10475 3625 10475 3825
Wire Wire Line
	10475 3825 10300 3825
Connection ~ 10300 3825
Wire Wire Line
	8625 3125 8475 3125
Wire Wire Line
	8475 3125 8475 3325
Connection ~ 8625 3125
Wire Wire Line
	8475 3625 8475 3825
Wire Wire Line
	8475 3825 10175 3825
Connection ~ 10175 3825
Wire Wire Line
	10200 2975 9225 2975
Wire Wire Line
	9225 2975 9225 3125
Text GLabel 10750 3275 2    60   Input ~ 0
+BAT1
Text GLabel 10750 3400 2    60   Input ~ 0
+BAT2
Text GLabel 10750 3125 2    60   Input ~ 0
VBAT
Wire Wire Line
	10750 3275 10675 3275
Wire Wire Line
	10675 3275 10675 3125
Wire Wire Line
	10675 3125 10475 3125
Connection ~ 10475 3125
Wire Wire Line
	10750 3400 10675 3400
Wire Wire Line
	10675 3400 10675 3275
Connection ~ 10675 3275
Text GLabel 10750 3825 2    60   Input ~ 0
GND
Wire Wire Line
	10750 3825 10475 3825
Connection ~ 10475 3825
$Comp
L Device:D_Schottky D?
U 1 1 604C5E51
P 4175 5925
AR Path="/603823D4/604C5E51" Ref="D?"  Part="1" 
AR Path="/604C5E51" Ref="D4"  Part="1" 
F 0 "D4" H 4175 6025 50  0000 C CNN
F 1 "SSB44" H 4175 5825 50  0000 C CNN
F 2 "Diodes_SMD:D_SMB" H 4175 5925 50  0001 C CNN
F 3 "" H 4175 5925 50  0001 C CNN
	1    4175 5925
	0    1    1    0   
$EndComp
$Comp
L Device:C C?
U 1 1 604C5ECD
P 6275 6250
AR Path="/603823D4/604C5ECD" Ref="C?"  Part="1" 
AR Path="/604C5ECD" Ref="C26"  Part="1" 
F 0 "C26" H 6275 6150 50  0000 L CNN
F 1 "22UF" H 6275 6350 50  0000 L CNN
F 2 "Capacitors_SMD:C_0805" H 6313 6100 50  0001 C CNN
F 3 "" H 6275 6250 50  0001 C CNN
	1    6275 6250
	-1   0    0    1   
$EndComp
Wire Wire Line
	925  700  925  1350
Wire Wire Line
	1300 800  1300 700 
Connection ~ 1300 700 
Wire Wire Line
	1300 700  2425 700 
Wire Wire Line
	10100 1225 10025 1225
Wire Wire Line
	10025 1225 10025 1275
Wire Wire Line
	9450 2750 11075 2750
Wire Wire Line
	10025 1575 10025 1600
$Comp
L Device:R R15
U 1 1 603972FD
P 10025 1425
F 0 "R15" V 10105 1425 50  0000 C CNN
F 1 "330" V 10025 1425 50  0000 C CNN
F 2 "Resistors_SMD:R_0805" V 9955 1425 50  0001 C CNN
F 3 "" H 10025 1425 50  0001 C CNN
	1    10025 1425
	1    0    0    -1  
$EndComp
Wire Wire Line
	8475 1250 8400 1250
Wire Wire Line
	8400 1250 8400 1300
Wire Wire Line
	9525 2575 9450 2575
Connection ~ 9450 2575
Wire Wire Line
	9450 2575 9450 2200
Wire Notes Line
	11150 2825 8225 2825
Text Notes 8250 775  0    60   ~ 0
Batteries and\nprotections
Wire Wire Line
	10500 2975 10750 2975
Text GLabel 10750 2975 2    60   Input ~ 0
VBUS
Wire Notes Line
	8225 550  8225 3900
Text Notes 8275 2950 0    60   ~ 0
Charger
Text GLabel 4100 5725 0    60   Input ~ 0
PLUS12V
$Comp
L Device:D_Schottky D?
U 1 1 636CDF2E
P 6450 6375
AR Path="/603823D4/636CDF2E" Ref="D?"  Part="1" 
AR Path="/636CDF2E" Ref="D3"  Part="1" 
F 0 "D3" H 6450 6475 50  0000 C CNN
F 1 "SSB44" H 6450 6275 50  0000 C CNN
F 2 "Diodes_SMD:D_SMB" H 6450 6375 50  0001 C CNN
F 3 "" H 6450 6375 50  0001 C CNN
	1    6450 6375
	0    -1   -1   0   
$EndComp
Text GLabel 6450 6550 3    60   Input ~ 0
VBUS
Wire Notes Line
	7725 6475 11150 6475
Text Notes 5725 5575 0    60   ~ 0
12V power supply
Text GLabel 8000 4900 0    60   Input ~ 0
GND
Text GLabel 8000 4275 0    60   Input ~ 0
+5V
$Comp
L PassiveRecorderS-rescue:SW_DIP_x01-switches SW?
U 1 1 63888771
P 9100 4275
AR Path="/603823D4/63888771" Ref="SW?"  Part="1" 
AR Path="/63888771" Ref="SW1"  Part="1" 
F 0 "SW1" H 9100 4425 50  0000 C CNN
F 1 "Arret/Marche" H 9100 4125 50  0000 C CNN
F 2 "Alimentations:InterAM" H 9100 4275 50  0001 C CNN
F 3 "" H 9100 4275 50  0001 C CNN
	1    9100 4275
	1    0    0    -1  
$EndComp
$Comp
L Device:CP C?
U 1 1 6388877D
P 8525 4525
AR Path="/603823D4/6388877D" Ref="C?"  Part="1" 
AR Path="/6388877D" Ref="C21"  Part="1" 
F 0 "C21" H 8550 4625 50  0000 L CNN
F 1 "220UF" H 8550 4425 50  0000 L CNN
F 2 "Alimentations:CP_Elec_8x6.7" H 8563 4375 50  0001 C CNN
F 3 "" H 8525 4525 50  0001 C CNN
	1    8525 4525
	1    0    0    -1  
$EndComp
$Comp
L Device:C C?
U 1 1 63888783
P 8325 4525
AR Path="/603823D4/63888783" Ref="C?"  Part="1" 
AR Path="/63888783" Ref="C20"  Part="1" 
F 0 "C20" H 8325 4425 50  0000 L CNN
F 1 "100nF" H 8225 4625 50  0000 L CNN
F 2 "Capacitors_SMD:C_0603" H 8363 4375 50  0001 C CNN
F 3 "" H 8325 4525 50  0001 C CNN
	1    8325 4525
	-1   0    0    1   
$EndComp
$Comp
L Device:L_Core_Ferrite_Small L?
U 1 1 63888789
P 8675 4275
AR Path="/603823D4/63888789" Ref="L?"  Part="1" 
AR Path="/63888789" Ref="L1"  Part="1" 
F 0 "L1" V 8625 4225 50  0000 L CNN
F 1 "100uH" V 8775 4125 50  0000 L CNN
F 2 "Alimentations:L100mH" H 8675 4275 50  0001 C CNN
F 3 "" H 8675 4275 50  0001 C CNN
	1    8675 4275
	0    -1   -1   0   
$EndComp
$Comp
L Device:C C?
U 1 1 6388878F
P 8100 4525
AR Path="/603823D4/6388878F" Ref="C?"  Part="1" 
AR Path="/6388878F" Ref="C19"  Part="1" 
F 0 "C19" H 8125 4425 50  0000 L CNN
F 1 "100nF" H 8000 4625 50  0000 L CNN
F 2 "Capacitors_SMD:C_0603" H 8138 4375 50  0001 C CNN
F 3 "" H 8100 4525 50  0001 C CNN
	1    8100 4525
	-1   0    0    1   
$EndComp
$Comp
L PassiveRecorderS-rescue:USB_OTG-conn J?
U 1 1 63888795
P 10800 4375
AR Path="/603823D4/63888795" Ref="J?"  Part="1" 
AR Path="/63888795" Ref="J3"  Part="1" 
F 0 "J3" H 10950 4025 50  0000 L CNN
F 1 "USB_OTG" H 10600 4725 50  0000 L CNN
F 2 "Alimentations:Micro-USB-V" H 10950 4325 50  0001 C CNN
F 3 "" H 10950 4325 50  0001 C CNN
	1    10800 4375
	-1   0    0    -1  
$EndComp
Wire Wire Line
	8525 4275 8525 4375
Connection ~ 8525 4275
Wire Wire Line
	8000 4275 8100 4275
Wire Wire Line
	8325 4375 8325 4275
Connection ~ 8325 4275
Wire Wire Line
	8100 4275 8100 4375
Connection ~ 8100 4275
Wire Wire Line
	8100 4675 8100 4900
Connection ~ 8100 4900
Wire Wire Line
	8325 4675 8325 4900
Connection ~ 8325 4900
Wire Wire Line
	8525 4675 8525 4900
Wire Wire Line
	8800 4275 8775 4275
NoConn ~ 10500 4575
Wire Wire Line
	8525 4275 8575 4275
Wire Wire Line
	8325 4275 8525 4275
Wire Wire Line
	8100 4275 8325 4275
Wire Wire Line
	8100 4900 8000 4900
Wire Wire Line
	8525 4900 8325 4900
$Comp
L Molex2510:ConnM_01x02 J?
U 1 1 6388882E
P 10200 4375
AR Path="/603823D4/6388882E" Ref="J?"  Part="1" 
AR Path="/6388882E" Ref="J7"  Part="1" 
F 0 "J7" H 10200 4475 50  0000 C CNN
F 1 "D+/-" H 10200 4175 50  0000 C CNN
F 2 "Connectors_JST:JST_PH_B2B-PH-K_02x2.00mm_Straight" H 10200 4375 50  0001 C CNN
F 3 "" H 10200 4375 50  0001 C CNN
	1    10200 4375
	-1   0    0    -1  
$EndComp
Wire Wire Line
	10400 4475 10450 4475
Text GLabel 9275 4725 0    60   Input ~ 0
+5V_P
Wire Wire Line
	10400 4375 10450 4375
Wire Wire Line
	8100 4900 8325 4900
Wire Wire Line
	9400 4275 9450 4275
Wire Wire Line
	8525 4900 10800 4900
Wire Wire Line
	10900 4900 10900 4775
Connection ~ 8525 4900
Wire Wire Line
	10800 4775 10800 4900
Connection ~ 10800 4900
Wire Wire Line
	10800 4900 10900 4900
Text GLabel 10325 4025 0    60   Input ~ 0
VBUS
$Comp
L Device:D_Schottky D?
U 1 1 63B70DCA
P 9650 4175
AR Path="/603823D4/63B70DCA" Ref="D?"  Part="1" 
AR Path="/63B70DCA" Ref="D1"  Part="1" 
F 0 "D1" H 9650 4275 50  0000 C CNN
F 1 "SSB44" H 9650 4075 50  0000 C CNN
F 2 "Diodes_SMD:D_SMB" H 9650 4175 50  0001 C CNN
F 3 "" H 9650 4175 50  0001 C CNN
	1    9650 4175
	1    0    0    -1  
$EndComp
Wire Wire Line
	9500 4175 9450 4175
Wire Wire Line
	9450 4175 9450 4275
$Comp
L Device:D_Schottky D?
U 1 1 63E07D44
P 9650 4725
AR Path="/603823D4/63E07D44" Ref="D?"  Part="1" 
AR Path="/63E07D44" Ref="D2"  Part="1" 
F 0 "D2" H 9650 4825 50  0000 C CNN
F 1 "SSB44" H 9650 4625 50  0000 C CNN
F 2 "Diodes_SMD:D_SMB" H 9650 4725 50  0001 C CNN
F 3 "" H 9650 4725 50  0001 C CNN
	1    9650 4725
	1    0    0    -1  
$EndComp
Wire Wire Line
	9500 4725 9450 4725
Connection ~ 9450 4275
Text GLabel 9975 4725 2    60   Input ~ 0
VBAT
Wire Wire Line
	9975 4725 9800 4725
Wire Notes Line
	7725 3900 11150 3900
Wire Notes Line
	11150 550  11150 6475
Text Notes 7750 4025 0    60   ~ 0
On / Off
Wire Wire Line
	10750 3125 10675 3125
Connection ~ 10675 3125
Wire Wire Line
	9800 4175 10400 4175
Wire Wire Line
	10400 4175 10400 4025
Wire Wire Line
	10400 4025 10325 4025
Connection ~ 10400 4175
Wire Wire Line
	10400 4175 10500 4175
Wire Wire Line
	1000 7625 1425 7625
Wire Wire Line
	1425 7175 1350 7175
Wire Wire Line
	1350 7175 1350 7425
Wire Wire Line
	1350 7425 1000 7425
$Comp
L PassiveRecorderS-rescue:GS2-conn J10
U 1 1 5F1BCB22
P 4675 4850
F 0 "J10" V 4575 4925 50  0000 C CNN
F 1 "D0" V 4575 4775 50  0000 C CNN
F 2 "Connectors:GS2" V 4749 4850 50  0001 C CNN
F 3 "" H 4675 4850 50  0001 C CNN
	1    4675 4850
	0    1    1    0   
$EndComp
Wire Wire Line
	1075 2425 1075 2475
Connection ~ 1075 2475
Wire Wire Line
	1075 2475 1075 2550
Wire Wire Line
	3200 1350 3250 1350
$Comp
L Device:R R6
U 1 1 5F3C6CFE
P 3400 1750
F 0 "R6" V 3480 1750 50  0000 C CNN
F 1 "100k" V 3400 1750 50  0000 C CNN
F 2 "Resistors_SMD:R_0805" V 3330 1750 50  0001 C CNN
F 3 "" H 3400 1750 50  0001 C CNN
	1    3400 1750
	0    1    1    0   
$EndComp
Wire Wire Line
	3575 1750 3550 1750
Wire Wire Line
	3575 1450 3575 1750
Connection ~ 3575 1450
$Comp
L Device:C C6
U 1 1 5F49D783
P 3050 1750
F 0 "C6" V 3000 1800 50  0000 L CNN
F 1 "100nF" V 2900 1650 50  0000 L CNN
F 2 "Capacitors_SMD:C_0603" H 3088 1600 50  0001 C CNN
F 3 "" H 3050 1750 50  0001 C CNN
	1    3050 1750
	0    1    1    0   
$EndComp
Wire Wire Line
	3200 1750 3250 1750
Wire Wire Line
	2875 1750 2900 1750
$Comp
L Device:R R11
U 1 1 5F574AE5
P 6525 1800
F 0 "R11" V 6525 2050 50  0000 C CNN
F 1 "100k" V 6525 1800 50  0000 C CNN
F 2 "Resistors_SMD:R_0805" V 6455 1800 50  0001 C CNN
F 3 "" H 6525 1800 50  0001 C CNN
	1    6525 1800
	0    1    1    0   
$EndComp
Wire Wire Line
	6350 1350 6375 1350
$Comp
L Device:C C11
U 1 1 5F604058
P 6200 1800
F 0 "C11" V 6150 1850 50  0000 L CNN
F 1 "100nF" V 6050 1700 50  0000 L CNN
F 2 "Capacitors_SMD:C_0603" H 6238 1650 50  0001 C CNN
F 3 "" H 6200 1800 50  0001 C CNN
	1    6200 1800
	0    1    1    0   
$EndComp
Wire Wire Line
	6375 1800 6350 1800
$Comp
L PassiveRecorderS-rescue:LMV324-linear U2
U 4 1 5DE9B65B
P 7025 1350
F 0 "U2" H 7025 1475 50  0000 L CNN
F 1 "MCP6024" H 7025 1150 50  0000 L CNN
F 2 "Housings_SOIC:SOIC-14_3.9x8.7mm_Pitch1.27mm" H 7025 1350 50  0001 C CNN
F 3 "" H 7025 1350 50  0001 C CNN
	4    7025 1350
	1    0    0    -1  
$EndComp
Wire Wire Line
	7575 1700 4225 1700
Wire Wire Line
	6700 1800 6675 1800
Wire Wire Line
	6050 1800 6025 1800
Wire Wire Line
	900  2475 1075 2475
Wire Wire Line
	1250 2475 1475 2475
NoConn ~ 4275 3350
Wire Wire Line
	6700 1450 6700 1800
Connection ~ 6700 1450
$Comp
L Transistor_FET:DMG2301L Q1
U 1 1 5F9CB33A
P 7325 2525
F 0 "Q1" V 7668 2525 50  0000 C CNN
F 1 "AO3413" V 7577 2525 50  0000 C CNN
F 2 "TO_SOT_Packages_SMD:SOT-23" H 7525 2450 50  0001 L CIN
F 3 "https://www.diodes.com/assets/Datasheets/DMG2301L.pdf" H 7325 2525 50  0001 L CNN
	1    7325 2525
	0    -1   -1   0   
$EndComp
$Comp
L Device:R R35
U 1 1 5F9CBF6F
P 7575 2625
F 0 "R35" V 7655 2625 50  0000 C CNN
F 1 "20k" V 7575 2625 50  0000 C CNN
F 2 "Resistors_SMD:R_0805" V 7505 2625 50  0001 C CNN
F 3 "" H 7575 2625 50  0001 C CNN
	1    7575 2625
	-1   0    0    1   
$EndComp
Text GLabel 7650 2425 2    60   Input ~ 0
+3V3
Text GLabel 7325 3050 3    60   Input ~ 0
CMDAMP
Wire Wire Line
	7525 2425 7575 2425
Wire Wire Line
	7575 2475 7575 2425
Connection ~ 7575 2425
Wire Wire Line
	7575 2425 7650 2425
Wire Wire Line
	7575 2775 7575 2900
Wire Wire Line
	7575 2900 7325 2900
Wire Wire Line
	7325 2900 7325 2725
Text GLabel 6775 2425 0    60   Input ~ 0
+3V3C
Wire Wire Line
	6775 2425 6950 2425
Wire Wire Line
	7325 2900 7325 3050
Connection ~ 7325 2900
NoConn ~ 4275 5050
Wire Notes Line
	550  550  11150 550 
NoConn ~ 4275 4650
NoConn ~ 4275 3550
$Comp
L Device:C C4
U 1 1 61697508
P 2625 850
F 0 "C4" V 2675 925 50  0000 L CNN
F 1 "12pF" V 2575 900 50  0000 L CNN
F 2 "CapacitorSMDUser:CapacitorSMD_0402" H 2663 700 50  0001 C CNN
F 3 "" H 2625 850 50  0001 C CNN
	1    2625 850 
	0    1    1    0   
$EndComp
Wire Wire Line
	2775 850  2850 850 
Wire Wire Line
	2850 850  2850 1000
Connection ~ 2850 1000
Wire Wire Line
	2475 850  2175 850 
Wire Wire Line
	2175 850  2175 1000
Wire Wire Line
	2475 1000 2175 1000
Connection ~ 2175 1000
Wire Wire Line
	2175 1000 2175 1450
Wire Wire Line
	3575 1000 3825 1000
Wire Wire Line
	3575 1000 3575 1350
$Comp
L Device:C C7
U 1 1 61CDB960
P 3975 850
F 0 "C7" V 4025 925 50  0000 L CNN
F 1 "12pF" V 3925 900 50  0000 L CNN
F 2 "CapacitorSMDUser:CapacitorSMD_0402" H 4013 700 50  0001 C CNN
F 3 "" H 3975 850 50  0001 C CNN
	1    3975 850 
	0    1    1    0   
$EndComp
Wire Wire Line
	4125 850  4225 850 
Wire Wire Line
	4225 850  4225 1000
Connection ~ 4225 1000
Wire Wire Line
	3825 850  3575 850 
Wire Wire Line
	3575 850  3575 1000
Connection ~ 3575 1000
$Comp
L Device:C C9
U 1 1 620A3635
P 5775 850
F 0 "C9" V 5825 925 50  0000 L CNN
F 1 "12pF" V 5725 900 50  0000 L CNN
F 2 "CapacitorSMDUser:CapacitorSMD_0402" H 5813 700 50  0001 C CNN
F 3 "" H 5775 850 50  0001 C CNN
	1    5775 850 
	0    1    1    0   
$EndComp
Wire Wire Line
	5925 850  6000 850 
Wire Wire Line
	6000 850  6000 1000
Connection ~ 6000 1000
Wire Wire Line
	5625 850  5325 850 
Wire Wire Line
	5325 850  5325 1000
Connection ~ 5325 1000
$Comp
L Device:C C12
U 1 1 6221F3BF
P 7125 825
F 0 "C12" V 7175 900 50  0000 L CNN
F 1 "12pF" V 7075 875 50  0000 L CNN
F 2 "CapacitorSMDUser:CapacitorSMD_0402" H 7163 675 50  0001 C CNN
F 3 "" H 7125 825 50  0001 C CNN
	1    7125 825 
	0    1    1    0   
$EndComp
Wire Wire Line
	7275 825  7350 825 
Wire Wire Line
	7350 825  7350 1000
Connection ~ 7350 1000
Wire Wire Line
	6975 825  6700 825 
Wire Wire Line
	6700 825  6700 1000
Connection ~ 6700 1000
NoConn ~ 4275 3450
Text GLabel 4625 3750 2    60   Input ~ 0
SDA
Text GLabel 4625 3550 2    60   Input ~ 0
SCL
Wire Wire Line
	9450 4725 9275 4725
Connection ~ 9450 4725
Wire Wire Line
	9450 4275 9450 4725
Text GLabel 2875 2525 0    60   Input ~ 0
D+
Text GLabel 3475 2525 2    60   Input ~ 0
D-
Wire Wire Line
	3475 2525 3325 2525
Wire Wire Line
	3325 2525 3325 2750
Wire Wire Line
	3175 2750 3175 2525
Wire Wire Line
	3175 2525 2875 2525
Text GLabel 9875 4400 0    60   Input ~ 0
D+
Text GLabel 9875 4525 0    60   Input ~ 0
D-
Wire Wire Line
	10450 4375 10450 4225
Wire Wire Line
	10450 4225 10000 4225
Wire Wire Line
	10000 4225 10000 4400
Wire Wire Line
	10000 4400 9875 4400
Connection ~ 10450 4375
Wire Wire Line
	10450 4375 10500 4375
Wire Wire Line
	10450 4475 10450 4625
Wire Wire Line
	10450 4625 10000 4625
Wire Wire Line
	10000 4625 10000 4525
Wire Wire Line
	10000 4525 9875 4525
Connection ~ 10450 4475
Wire Wire Line
	10450 4475 10500 4475
$Comp
L Molex2510:ConnM_01x03 J5
U 1 1 6433790B
P 650 4550
F 0 "J5" H 650 4750 50  0000 C CNN
F 1 "I2C2" H 650 4350 50  0000 C CNN
F 2 "Connectors_Molex:Molex_KK-6410-03_03x2.54mm_Straight" H 650 4550 50  0001 C CNN
F 3 "" H 650 4550 50  0001 C CNN
	1    650  4550
	-1   0    0    -1  
$EndComp
$Comp
L teensy:Teensy4.1Min U1
U 1 1 630C73B9
P 3325 4100
F 0 "U1" H 3675 5400 60  0000 C CNN
F 1 "Teensy4.1Min" H 2725 5400 60  0000 C CNN
F 2 "teensy:Teensy41Min" H 3075 3150 60  0001 C CNN
F 3 "" H 3075 3150 60  0000 C CNN
	1    3325 4100
	1    0    0    -1  
$EndComp
Wire Wire Line
	575  3450 575  3050
Wire Wire Line
	575  2950 1250 2950
Wire Wire Line
	750  3050 575  3050
Connection ~ 575  3050
Wire Wire Line
	575  3050 575  2950
Wire Wire Line
	1825 3350 1825 3550
Wire Wire Line
	1775 3450 1775 3250
Wire Wire Line
	1725 3650 2075 3650
Wire Wire Line
	1825 3550 1725 3550
Wire Wire Line
	1725 3450 1775 3450
Wire Wire Line
	725  3550 575  3550
Wire Wire Line
	725  3450 575  3450
$Comp
L SwitchPCB:FiveSwitchs SW2
U 1 1 60383705
P 675 3800
F 0 "SW2" H 875 4300 60  0000 C CNN
F 1 "FiveSwitchs" H 1250 4300 60  0000 C CNN
F 2 "Alimentations:JoystickCMS" H 1175 3900 60  0001 C CNN
F 3 "" H 1175 3900 60  0001 C CNN
	1    675  3800
	1    0    0    -1  
$EndComp
Wire Wire Line
	625  3800 1725 3800
Wire Wire Line
	1725 3800 1725 3750
Wire Wire Line
	1725 3750 2075 3750
Wire Wire Line
	725  3650 625  3650
Wire Wire Line
	625  3650 625  3800
Wire Wire Line
	575  3550 575  3850
Wire Wire Line
	575  3850 2075 3850
Wire Wire Line
	2075 4050 1950 4050
Wire Notes Line
	550  550  550  2000
Wire Notes Line
	550  2000 8225 2000
Wire Wire Line
	1250 2075 1950 2075
Wire Wire Line
	1950 2075 1950 4050
Connection ~ 1250 2075
Wire Wire Line
	1250 2875 1250 2950
Connection ~ 1250 2875
Connection ~ 1250 2950
Wire Wire Line
	1250 2950 2075 2950
Wire Wire Line
	850  4550 1325 4550
Wire Wire Line
	850  4450 1150 4450
NoConn ~ 2075 3950
NoConn ~ 2075 4150
NoConn ~ 2075 4250
NoConn ~ 2075 3450
Connection ~ 5075 3150
Wire Wire Line
	5300 3025 5075 3025
Wire Wire Line
	5075 3025 5075 3150
Wire Wire Line
	4975 3050 4975 2875
Wire Wire Line
	4975 2875 5300 2875
Wire Wire Line
	4275 2950 4375 2950
Wire Wire Line
	4375 2950 4375 2725
Wire Wire Line
	4925 3850 4925 3700
Wire Wire Line
	4925 3700 5250 3700
Wire Wire Line
	5075 4350 5075 3600
Connection ~ 5075 3600
Text GLabel 5275 4350 2    60   Input ~ 0
GND
Wire Wire Line
	5075 4350 5275 4350
Connection ~ 5075 4350
Wire Wire Line
	5075 4350 5075 4675
Wire Wire Line
	5975 4675 5975 4575
Wire Wire Line
	4975 3950 4975 3850
Wire Wire Line
	4975 3850 5250 3850
Wire Wire Line
	4875 4850 5075 4850
Wire Wire Line
	5075 4850 5075 4675
Connection ~ 5075 4675
Wire Wire Line
	5075 4675 5975 4675
Text Label 875  4450 0    60   ~ 0
SCL2
Text Label 875  4550 0    60   ~ 0
SDA2
Text GLabel 1625 4650 2    60   Input ~ 0
GND
Wire Wire Line
	850  4650 1525 4650
$Comp
L Device:R R21
U 1 1 665920CD
P 1150 4175
F 0 "R21" V 1230 4175 50  0000 C CNN
F 1 "15k" V 1150 4175 50  0000 C CNN
F 2 "Resistors_SMD:R_0805" V 1080 4175 50  0001 C CNN
F 3 "" H 1150 4175 50  0001 C CNN
	1    1150 4175
	-1   0    0    1   
$EndComp
$Comp
L Device:R R22
U 1 1 66592F2A
P 1325 4175
F 0 "R22" V 1405 4175 50  0000 C CNN
F 1 "15k" V 1325 4175 50  0000 C CNN
F 2 "Resistors_SMD:R_0805" V 1255 4175 50  0001 C CNN
F 3 "" H 1325 4175 50  0001 C CNN
	1    1325 4175
	-1   0    0    1   
$EndComp
Wire Wire Line
	1150 4325 1150 4450
Connection ~ 1150 4450
Wire Wire Line
	1150 4450 2075 4450
Wire Wire Line
	1325 4325 1325 4550
Connection ~ 1325 4550
Wire Wire Line
	1325 4550 2075 4550
Wire Wire Line
	1150 4025 1150 3950
Wire Wire Line
	1150 3950 1325 3950
Wire Wire Line
	1325 3950 1325 4025
Wire Wire Line
	1325 3950 1525 3950
Wire Wire Line
	1825 3950 1825 4350
Wire Wire Line
	1825 4350 2075 4350
Connection ~ 1325 3950
Text GLabel 875  3950 0    60   Input ~ 0
+3V3
Wire Wire Line
	1150 3950 875  3950
Connection ~ 1150 3950
Wire Wire Line
	4475 4950 4475 4850
Connection ~ 4475 4350
Wire Wire Line
	4475 4350 5075 4350
Text GLabel 4400 5250 2    60   Input ~ 0
CMDAMP
Wire Wire Line
	4275 5250 4400 5250
Wire Wire Line
	4375 2725 5300 2725
Wire Wire Line
	4275 3050 4975 3050
Wire Wire Line
	4275 3150 5075 3150
Wire Wire Line
	4275 3850 4925 3850
Wire Wire Line
	4275 3950 4975 3950
Wire Wire Line
	4275 4050 5975 4050
Wire Wire Line
	4275 4350 4475 4350
Wire Wire Line
	4275 4850 4475 4850
Wire Wire Line
	4275 4950 4475 4950
NoConn ~ 4275 3250
Wire Wire Line
	3025 5600 3125 5600
Wire Wire Line
	3125 5600 3125 5550
Wire Wire Line
	4500 3650 4275 3650
$Comp
L Alimentations:AHT20 U9
U 1 1 66D77895
P 1375 6400
F 0 "U9" H 1375 6175 50  0000 C CNN
F 1 "AHT20" H 1362 6649 50  0000 C CNN
F 2 "Alimentations:AHT20" H 1362 6648 50  0001 C CNN
F 3 "" H 1375 6675 50  0001 C CNN
	1    1375 6400
	1    0    0    -1  
$EndComp
Wire Wire Line
	1625 7625 2050 7625
Wire Wire Line
	4275 3750 4625 3750
Wire Wire Line
	4625 3550 4500 3550
Wire Wire Line
	4500 3550 4500 3650
Text GLabel 2200 7625 2    60   Input ~ 0
GND
Wire Wire Line
	1675 6400 2050 6400
Wire Wire Line
	2050 6400 2050 7625
Connection ~ 2050 7625
Wire Wire Line
	2050 7625 2200 7625
Text GLabel 2200 7400 2    60   Input ~ 0
+3V3
Wire Wire Line
	1625 7400 1775 7400
Text GLabel 2200 7175 2    60   Input ~ 0
SCL
Wire Wire Line
	2200 7175 1875 7175
Text GLabel 2200 6950 2    60   Input ~ 0
SDA
Wire Wire Line
	1625 6950 1975 6950
Wire Wire Line
	1675 6500 1975 6500
Connection ~ 1975 6950
Wire Wire Line
	1975 6950 2200 6950
Wire Wire Line
	1050 6500 950  6500
Wire Wire Line
	950  6500 950  6700
Wire Wire Line
	950  6700 1875 6700
Wire Wire Line
	1875 6700 1875 7175
Connection ~ 1875 7175
Wire Wire Line
	1875 7175 1625 7175
Wire Wire Line
	1050 6400 875  6400
Wire Wire Line
	875  6400 875  6825
Wire Wire Line
	875  6825 1775 6825
Connection ~ 1775 7400
Wire Wire Line
	1775 7400 2200 7400
Text GLabel 2325 5950 0    60   Input ~ 0
GND
$Comp
L Device:R R24
U 1 1 67169C5C
P 2325 6700
F 0 "R24" V 2405 6700 50  0000 C CNN
F 1 "4.7k" V 2325 6700 50  0000 C CNN
F 2 "Resistors_SMD:R_0805" V 2255 6700 50  0001 C CNN
F 3 "" H 2325 6700 50  0001 C CNN
	1    2325 6700
	0    -1   -1   0   
$EndComp
$Comp
L Device:R R23
U 1 1 67169F9D
P 2325 6500
F 0 "R23" V 2405 6500 50  0000 C CNN
F 1 "4.7k" V 2325 6500 50  0000 C CNN
F 2 "Resistors_SMD:R_0805" V 2255 6500 50  0001 C CNN
F 3 "" H 2325 6500 50  0001 C CNN
	1    2325 6500
	0    -1   -1   0   
$EndComp
Wire Wire Line
	2175 6500 1975 6500
Connection ~ 1975 6500
Wire Wire Line
	1975 6500 1975 6950
Wire Wire Line
	2475 6500 2550 6500
Wire Wire Line
	2550 6500 2550 6700
Wire Wire Line
	2550 6700 2475 6700
Wire Wire Line
	1775 6825 2550 6825
Wire Wire Line
	2550 6825 2550 6700
Connection ~ 1775 6825
Wire Wire Line
	1775 6825 1775 7400
Connection ~ 2550 6700
$Comp
L Device:C C30
U 1 1 67527EEA
P 1525 4200
F 0 "C30" H 1375 4100 50  0000 L CNN
F 1 "100nF" H 1300 4300 50  0000 L CNN
F 2 "Capacitors_SMD:C_0603" H 1563 4050 50  0001 C CNN
F 3 "" H 1525 4200 50  0001 C CNN
	1    1525 4200
	-1   0    0    1   
$EndComp
Wire Wire Line
	1525 4050 1525 3950
Connection ~ 1525 3950
Wire Wire Line
	1525 3950 1825 3950
Wire Wire Line
	1525 4350 1525 4650
Connection ~ 1525 4650
Wire Wire Line
	1525 4650 1625 4650
$Comp
L PassiveRecorderS-rescue:LM1084-3.3-regul U11
U 1 1 67685A3F
P 4450 7125
F 0 "U11" H 4275 6875 50  0000 C CNN
F 1 "HT7130 LDO 2.8V" H 4150 7275 50  0000 L CNN
F 2 "TO_SOT_Packages_SMD:SOT-23" H 4450 7350 50  0001 C CIN
F 3 "" H 4450 7075 50  0001 C CNN
	1    4450 7125
	1    0    0    -1  
$EndComp
Text GLabel 4100 7125 0    60   Input ~ 0
+3V3
Wire Wire Line
	4100 7125 4150 7125
Text GLabel 4100 7625 0    60   Input ~ 0
GND
Wire Wire Line
	4100 7625 4450 7625
Wire Wire Line
	4450 7625 4450 7425
$Comp
L Alimentations:MCP3221 U12
U 1 1 678733C9
P 5475 7225
F 0 "U12" H 5525 7000 50  0000 C CNN
F 1 "MCP3221" H 5462 7474 50  0000 C CNN
F 2 "Alimentations:SOT-23-5" H 5475 7500 50  0001 C CNN
F 3 "" H 5475 7500 50  0001 C CNN
	1    5475 7225
	1    0    0    -1  
$EndComp
Wire Wire Line
	4750 7125 4800 7125
Text GLabel 5925 7325 2    60   Input ~ 0
SDA
Text GLabel 5925 7125 2    60   Input ~ 0
SCL
Wire Wire Line
	5925 7125 5775 7125
Wire Wire Line
	5775 7325 5925 7325
$Comp
L Device:C C27
U 1 1 679DF2CE
P 4800 7425
F 0 "C27" H 4900 7425 50  0000 L CNN
F 1 "100nF" H 4800 7525 50  0000 L CNN
F 2 "Capacitors_SMD:C_0603" H 4838 7275 50  0001 C CNN
F 3 "" H 4800 7425 50  0001 C CNN
	1    4800 7425
	-1   0    0    1   
$EndComp
$Comp
L Device:R R29
U 1 1 679E0123
P 5225 7625
F 0 "R29" V 5305 7625 50  0000 C CNN
F 1 "100k" V 5225 7625 50  0000 C CNN
F 2 "Resistors_SMD:R_0805" V 5155 7625 50  0001 C CNN
F 3 "" H 5225 7625 50  0001 C CNN
	1    5225 7625
	0    -1   -1   0   
$EndComp
Wire Wire Line
	4800 7275 4800 7125
Connection ~ 4800 7125
Wire Wire Line
	4800 7125 5150 7125
Wire Wire Line
	4800 7575 4800 7625
Wire Wire Line
	4800 7625 4450 7625
Connection ~ 4450 7625
Wire Wire Line
	4975 7225 4975 7625
Wire Wire Line
	4975 7625 4800 7625
Connection ~ 4800 7625
Wire Wire Line
	4975 7225 5150 7225
$Comp
L Device:R R30
U 1 1 67B9D886
P 5650 7625
F 0 "R30" V 5730 7625 50  0000 C CNN
F 1 "100k" V 5650 7625 50  0000 C CNN
F 2 "Resistors_SMD:R_0805" V 5580 7625 50  0001 C CNN
F 3 "" H 5650 7625 50  0001 C CNN
	1    5650 7625
	0    -1   -1   0   
$EndComp
Wire Wire Line
	5375 7625 5425 7625
Wire Wire Line
	5425 7625 5425 7475
Wire Wire Line
	5425 7475 5050 7475
Wire Wire Line
	5050 7475 5050 7325
Wire Wire Line
	5050 7325 5150 7325
Connection ~ 5425 7625
Wire Wire Line
	5425 7625 5500 7625
Wire Wire Line
	5075 7625 4975 7625
Connection ~ 4975 7625
Text GLabel 5925 7625 2    60   Input ~ 0
VBAT
Wire Wire Line
	5925 7625 5800 7625
$Comp
L Regulator_Switching:AP6503 U13
U 1 1 67E3EAF2
P 5100 6125
F 0 "U13" H 4800 6150 50  0000 C CNN
F 1 "AP6503" H 5100 6701 50  0000 C CNN
F 2 "" H 5750 5575 50  0001 C CNN
F 3 "https://www.diodes.com/assets/Datasheets/AP6503.pdf" H 5100 6275 50  0001 C CNN
	1    5100 6125
	1    0    0    -1  
$EndComp
Wire Notes Line
	7725 3900 7725 6475
Wire Wire Line
	4800 5925 4750 5925
Wire Wire Line
	5000 6725 5000 6850
Wire Wire Line
	5000 6850 4650 6850
NoConn ~ 5200 6725
$Comp
L Device:C C23
U 1 1 68551F0D
P 4650 6550
F 0 "C23" H 4500 6450 50  0000 L CNN
F 1 "100nF" H 4425 6650 50  0000 L CNN
F 2 "Capacitors_SMD:C_0603" H 4688 6400 50  0001 C CNN
F 3 "" H 4650 6550 50  0001 C CNN
	1    4650 6550
	-1   0    0    1   
$EndComp
Wire Wire Line
	4800 6325 4650 6325
Wire Wire Line
	4650 6325 4650 6400
Wire Wire Line
	4650 6700 4650 6850
Connection ~ 4650 6850
$Comp
L Device:C C?
U 1 1 685F02E5
P 5600 6325
AR Path="/603823D4/685F02E5" Ref="C?"  Part="1" 
AR Path="/685F02E5" Ref="C25"  Part="1" 
F 0 "C25" V 5550 6375 50  0000 L CNN
F 1 "6.8nF" V 5725 6200 50  0000 L CNN
F 2 "Capacitors_SMD:C_0603" H 5638 6175 50  0001 C CNN
F 3 "" H 5600 6325 50  0001 C CNN
	1    5600 6325
	0    -1   -1   0   
$EndComp
$Comp
L Device:R R28
U 1 1 685F0F80
P 5800 6650
F 0 "R28" V 5880 6650 50  0000 C CNN
F 1 "6.8K" V 5800 6650 50  0000 C CNN
F 2 "Resistors_SMD:R_0805" V 5730 6650 50  0001 C CNN
F 3 "" H 5800 6650 50  0001 C CNN
	1    5800 6650
	1    0    0    -1  
$EndComp
Wire Wire Line
	5000 6850 5800 6850
Wire Wire Line
	5800 6850 5800 6800
Connection ~ 5000 6850
Wire Wire Line
	5750 6325 5800 6325
Wire Wire Line
	5800 6325 5800 6500
Wire Wire Line
	5450 6325 5400 6325
$Comp
L Device:C C?
U 1 1 686E0CDA
P 5600 5725
AR Path="/603823D4/686E0CDA" Ref="C?"  Part="1" 
AR Path="/686E0CDA" Ref="C24"  Part="1" 
F 0 "C24" V 5450 5675 50  0000 L CNN
F 1 "1UF" V 5725 5650 50  0000 L CNN
F 2 "Capacitors_SMD:C_0603" H 5638 5575 50  0001 C CNN
F 3 "" H 5600 5725 50  0001 C CNN
	1    5600 5725
	0    -1   -1   0   
$EndComp
$Comp
L Device:L_Core_Ferrite_Small L?
U 1 1 686E1713
P 6000 5875
AR Path="/603823D4/686E1713" Ref="L?"  Part="1" 
AR Path="/686E1713" Ref="L3"  Part="1" 
F 0 "L3" V 6075 5825 50  0000 L CNN
F 1 "10uH" V 5950 5750 50  0000 L CNN
F 2 "Alimentations:L100mH" H 6000 5875 50  0001 C CNN
F 3 "" H 6000 5875 50  0001 C CNN
	1    6000 5875
	-1   0    0    1   
$EndComp
$Comp
L Device:R R27
U 1 1 686E24CD
P 6000 6600
F 0 "R27" V 6080 6600 50  0000 C CNN
F 1 "10" V 6000 6600 50  0000 C CNN
F 2 "Resistors_SMD:R_0805" V 5930 6600 50  0001 C CNN
F 3 "" H 6000 6600 50  0001 C CNN
	1    6000 6600
	1    0    0    -1  
$EndComp
$Comp
L Device:R R26
U 1 1 686E3116
P 6000 6200
F 0 "R26" V 6080 6200 50  0000 C CNN
F 1 "47" V 6000 6200 50  0000 C CNN
F 2 "Resistors_SMD:R_0805" V 5930 6200 50  0001 C CNN
F 3 "" H 6000 6200 50  0001 C CNN
	1    6000 6200
	1    0    0    -1  
$EndComp
Wire Wire Line
	5450 5725 5400 5725
Wire Wire Line
	5750 5725 5800 5725
Wire Wire Line
	5800 5725 5800 5925
Wire Wire Line
	5800 5925 5400 5925
Connection ~ 5800 5725
$Comp
L PassiveRecorderS-rescue:LM1084-3.3-regul U3
U 1 1 687D6CB6
P 2725 5600
F 0 "U3" H 2575 5350 50  0000 C CNN
F 1 "HT7130 LDO 3V" H 2425 5750 50  0000 L CNN
F 2 "TO_SOT_Packages_SMD:SOT-23" H 2725 5825 50  0001 C CIN
F 3 "" H 2725 5550 50  0001 C CNN
	1    2725 5600
	1    0    0    -1  
$EndComp
Wire Wire Line
	2425 5600 2325 5600
Wire Wire Line
	2325 5950 2725 5950
Wire Wire Line
	2725 5950 2725 5900
Wire Wire Line
	6000 6750 6000 6850
Wire Wire Line
	6000 6850 5800 6850
Connection ~ 5800 6850
Wire Wire Line
	6000 5775 6000 5725
Wire Wire Line
	5800 5725 6000 5725
Wire Wire Line
	6000 5975 6000 6000
Wire Wire Line
	6000 6350 6000 6400
Wire Wire Line
	6000 6400 5875 6400
Wire Wire Line
	5875 6400 5875 6125
Wire Wire Line
	5875 6125 5400 6125
Connection ~ 6000 6400
Wire Wire Line
	6000 6400 6000 6450
Wire Wire Line
	6275 6400 6275 6850
Wire Wire Line
	6275 6850 6000 6850
Connection ~ 6000 6850
Wire Wire Line
	4400 5725 4800 5725
Connection ~ 4400 5725
Connection ~ 4400 5925
Wire Wire Line
	4450 5925 4400 5925
Wire Wire Line
	4400 5925 4400 5725
$Comp
L Molex2510:ConnM_01x02 J?
U 1 1 604C5E4B
P 3850 6275
AR Path="/603823D4/604C5E4B" Ref="J?"  Part="1" 
AR Path="/604C5E4B" Ref="J4"  Part="1" 
F 0 "J4" H 3850 6375 50  0000 C CNN
F 1 "Entrée 12V" H 3850 6075 50  0000 C CNN
F 2 "Connectors_Molex:Molex_KK-6410-02_02x2.54mm_Straight" H 3850 6275 50  0001 C CNN
F 3 "" H 3850 6275 50  0001 C CNN
	1    3850 6275
	-1   0    0    -1  
$EndComp
Connection ~ 4400 6850
Wire Wire Line
	4650 6850 4400 6850
Wire Wire Line
	4400 5925 4400 6400
Wire Wire Line
	4400 6850 4400 6700
$Comp
L Device:C C?
U 1 1 6841CBB8
P 4400 6550
AR Path="/603823D4/6841CBB8" Ref="C?"  Part="1" 
AR Path="/6841CBB8" Ref="C22"  Part="1" 
F 0 "C22" H 4425 6475 50  0000 L CNN
F 1 "22UF" H 4425 6650 50  0000 L CNN
F 2 "Capacitors_SMD:C_0603" H 4438 6400 50  0001 C CNN
F 3 "" H 4400 6550 50  0001 C CNN
	1    4400 6550
	-1   0    0    1   
$EndComp
$Comp
L Device:R R25
U 1 1 68382DBA
P 4600 5925
F 0 "R25" V 4680 5925 50  0000 C CNN
F 1 "100k" V 4600 5925 50  0000 C CNN
F 2 "Resistors_SMD:R_0805" V 4530 5925 50  0001 C CNN
F 3 "" H 4600 5925 50  0001 C CNN
	1    4600 5925
	0    -1   -1   0   
$EndComp
Wire Wire Line
	4100 5725 4175 5725
Wire Wire Line
	4175 5775 4175 5725
Connection ~ 4175 5725
Wire Wire Line
	4175 5725 4400 5725
Wire Wire Line
	4175 6075 4175 6275
Wire Wire Line
	4175 6275 4050 6275
Wire Wire Line
	4050 6375 4175 6375
Wire Wire Line
	4175 6375 4175 6775
Wire Wire Line
	4175 6850 4400 6850
Wire Wire Line
	6450 6225 6450 6000
Wire Wire Line
	6275 6000 6450 6000
Wire Wire Line
	6450 6525 6450 6550
Wire Notes Line
	3575 5475 6600 5475
Wire Notes Line
	3575 6900 6600 6900
Wire Notes Line
	3575 7725 6600 7725
Wire Notes Line
	3575 5475 3575 7725
Wire Notes Line
	6600 5475 6600 7725
Text Notes 1775 6300 0    60   ~ 0
temperature and\nhumidity probe
Wire Wire Line
	2175 6700 1875 6700
Connection ~ 1875 6700
Wire Notes Line
	550  6100 2750 6100
Wire Notes Line
	2750 6100 2750 7775
Wire Notes Line
	2750 7775 550  7775
Wire Notes Line
	550  7775 550  6100
Wire Wire Line
	6000 6000 6275 6000
Connection ~ 6000 6000
Wire Wire Line
	6000 6000 6000 6050
Connection ~ 6275 6000
Wire Wire Line
	6275 6000 6275 6100
Text GLabel 4100 6775 0    60   Input ~ 0
GND
Wire Wire Line
	4100 6775 4175 6775
Connection ~ 4175 6775
Wire Wire Line
	4175 6775 4175 6850
Connection ~ 4475 4850
Wire Wire Line
	4475 4850 4475 4350
$Comp
L Device:C C31
U 1 1 6C37D9F0
P 6950 2650
F 0 "C31" H 6975 2575 50  0000 L CNN
F 1 "100nF" H 6975 2750 50  0000 L CNN
F 2 "Capacitors_SMD:C_0603" H 6988 2500 50  0001 C CNN
F 3 "" H 6950 2650 50  0001 C CNN
	1    6950 2650
	-1   0    0    1   
$EndComp
Wire Wire Line
	6950 2425 6950 2500
Connection ~ 6950 2425
Wire Wire Line
	6950 2425 7125 2425
Wire Wire Line
	6950 2800 6950 2900
Wire Wire Line
	6950 2900 6775 2900
Text GLabel 6775 2900 0    60   Input ~ 0
GND
Text Notes 550  4875 0    60   ~ 0
Liaison Synchro
$Comp
L MicroUSB-PCB:GS3 J8
U 1 1 6C6DC55C
P 9775 5550
F 0 "J8" V 9729 5718 50  0000 L CNN
F 1 "GS3" V 9820 5718 50  0000 L CNN
F 2 "Connectors:GS3" V 9863 5476 50  0001 C CNN
F 3 "" H 9775 5550 50  0001 C CNN
	1    9775 5550
	0    1    1    0   
$EndComp
$Comp
L Molex2510:ConnM_01x04 J11
U 1 1 6C6DD907
P 10625 6000
F 0 "J11" H 10753 5991 50  0000 L CNN
F 1 "USB/TTL/5VExt" H 10400 5700 50  0000 L CNN
F 2 "" H 10625 6000 50  0001 C CNN
F 3 "" H 10625 6000 50  0001 C CNN
	1    10625 6000
	1    0    0    -1  
$EndComp
$Comp
L MicroUSB-PCB:GS3 J9
U 1 1 6C72761C
P 9225 5550
F 0 "J9" V 9179 5718 50  0000 L CNN
F 1 "GS3" V 9270 5718 50  0000 L CNN
F 2 "Connectors:GS3" V 9313 5476 50  0001 C CNN
F 3 "" H 9225 5550 50  0001 C CNN
	1    9225 5550
	0    1    1    0   
$EndComp
Wire Wire Line
	10425 5900 9775 5900
Wire Wire Line
	9775 5900 9775 5700
Wire Wire Line
	10425 6000 9225 6000
Wire Wire Line
	9225 6000 9225 5700
Wire Wire Line
	10425 6200 8525 6200
Wire Wire Line
	8525 6200 8525 4900
Text GLabel 9875 5225 1    60   Input ~ 0
D+
Wire Wire Line
	9875 5225 9875 5400
Text GLabel 9325 5250 1    60   Input ~ 0
D-
Wire Wire Line
	9325 5250 9325 5400
Text GLabel 9675 5225 1    60   Input ~ 0
TX
Wire Wire Line
	9675 5225 9675 5400
Text GLabel 9125 5250 1    60   Input ~ 0
RX
Wire Wire Line
	9125 5250 9125 5400
Text GLabel 1800 3025 0    60   Input ~ 0
RX
Text GLabel 1800 3175 0    60   Input ~ 0
TX
Wire Wire Line
	1800 3025 1875 3025
Wire Wire Line
	1875 3025 1875 3050
Wire Wire Line
	1875 3050 2075 3050
Wire Wire Line
	1800 3175 1875 3175
Wire Wire Line
	1875 3175 1875 3150
Wire Wire Line
	1875 3150 2075 3150
$Comp
L Device:D_Schottky D?
U 1 1 6C9CB586
P 8800 5525
AR Path="/603823D4/6C9CB586" Ref="D?"  Part="1" 
AR Path="/6C9CB586" Ref="D7"  Part="1" 
F 0 "D7" H 8800 5625 50  0000 C CNN
F 1 "SSB44" H 8800 5425 50  0000 C CNN
F 2 "Diodes_SMD:D_SMB" H 8800 5525 50  0001 C CNN
F 3 "" H 8800 5525 50  0001 C CNN
	1    8800 5525
	0    1    1    0   
$EndComp
Text GLabel 8800 5250 1    60   Input ~ 0
VBUS
Wire Wire Line
	10425 6100 8800 6100
Wire Wire Line
	8800 6100 8800 5675
Wire Wire Line
	8800 5375 8800 5250
$Comp
L Connector:Conn_01x01_Male J12
U 1 1 6CB0322F
P 6650 3650
F 0 "J12" H 6758 3831 50  0000 C CNN
F 1 "PCB" H 6758 3740 50  0000 C CNN
F 2 "Alimentations:PCB-HPL814" H 6650 3650 50  0001 C CNN
F 3 "~" H 6650 3650 50  0001 C CNN
	1    6650 3650
	1    0    0    -1  
$EndComp
Text GLabel 8275 6100 0    60   Input ~ 0
EXT5V
Wire Wire Line
	8800 6100 8275 6100
Connection ~ 8800 6100
$Comp
L Device:R R38
U 1 1 64BDF738
P 6300 3850
F 0 "R38" V 6380 3850 50  0000 C CNN
F 1 "100k" V 6300 3850 50  0000 C CNN
F 2 "Resistors_SMD:R_0805" V 6230 3850 50  0001 C CNN
F 3 "" H 6300 3850 50  0001 C CNN
	1    6300 3850
	-1   0    0    1   
$EndComp
$Comp
L Device:R R39
U 1 1 64D1564F
P 6300 4425
F 0 "R39" V 6380 4425 50  0000 C CNN
F 1 "100k" V 6300 4425 50  0000 C CNN
F 2 "Resistors_SMD:R_0805" V 6230 4425 50  0001 C CNN
F 3 "" H 6300 4425 50  0001 C CNN
	1    6300 4425
	-1   0    0    1   
$EndComp
Wire Wire Line
	4275 4150 6300 4150
Wire Wire Line
	6300 4150 6300 4275
Wire Wire Line
	6300 4150 6300 4000
Connection ~ 6300 4150
Wire Wire Line
	6300 4575 6300 4675
Wire Wire Line
	6300 4675 5975 4675
Connection ~ 5975 4675
Text GLabel 6300 3425 1    60   Input ~ 0
EXT5V
Wire Wire Line
	6300 3425 6300 3700
Text Label 4275 4150 0    60   ~ 0
Mesure_5V_Externe
$EndSCHEMATC
