(kicad_pcb (version 20221018) (generator pcbnew)

  (general
    (thickness 1.6)
  )

  (paper "A4")
  (layers
    (0 "F.Cu" signal)
    (31 "B.Cu" signal)
    (32 "B.Adhes" user "B.Adhesive")
    (33 "F.Adhes" user "F.Adhesive")
    (34 "B.Paste" user)
    (35 "F.Paste" user)
    (36 "B.SilkS" user "B.Silkscreen")
    (37 "F.SilkS" user "F.Silkscreen")
    (38 "B.Mask" user)
    (39 "F.Mask" user)
    (40 "Dwgs.User" user "User.Drawings")
    (41 "Cmts.User" user "User.Comments")
    (42 "Eco1.User" user "User.Eco1")
    (43 "Eco2.User" user "User.Eco2")
    (44 "Edge.Cuts" user)
    (45 "Margin" user)
    (46 "B.CrtYd" user "B.Courtyard")
    (47 "F.CrtYd" user "F.Courtyard")
    (48 "B.Fab" user)
    (49 "F.Fab" user)
  )

  (setup
    (stackup
      (layer "F.SilkS" (type "Top Silk Screen"))
      (layer "F.Paste" (type "Top Solder Paste"))
      (layer "F.Mask" (type "Top Solder Mask") (thickness 0.01))
      (layer "F.Cu" (type "copper") (thickness 0.035))
      (layer "dielectric 1" (type "core") (thickness 1.51) (material "FR4") (epsilon_r 4.5) (loss_tangent 0.02))
      (layer "B.Cu" (type "copper") (thickness 0.035))
      (layer "B.Mask" (type "Bottom Solder Mask") (thickness 0.01))
      (layer "B.Paste" (type "Bottom Solder Paste"))
      (layer "B.SilkS" (type "Bottom Silk Screen"))
      (copper_finish "None")
      (dielectric_constraints no)
    )
    (pad_to_mask_clearance 0.07)
    (allow_soldermask_bridges_in_footprints yes)
    (aux_axis_origin 100 100)
    (pcbplotparams
      (layerselection 0x00310f0_ffffffff)
      (plot_on_all_layers_selection 0x0000000_00000000)
      (disableapertmacros false)
      (usegerberextensions false)
      (usegerberattributes false)
      (usegerberadvancedattributes false)
      (creategerberjobfile false)
      (dashed_line_dash_ratio 12.000000)
      (dashed_line_gap_ratio 3.000000)
      (svgprecision 4)
      (plotframeref false)
      (viasonmask false)
      (mode 1)
      (useauxorigin true)
      (hpglpennumber 1)
      (hpglpenspeed 20)
      (hpglpendiameter 15.000000)
      (dxfpolygonmode true)
      (dxfimperialunits true)
      (dxfusepcbnewfont true)
      (psnegative false)
      (psa4output false)
      (plotreference true)
      (plotvalue true)
      (plotinvisibletext false)
      (sketchpadsonfab false)
      (subtractmaskfromsilk false)
      (outputformat 1)
      (mirror false)
      (drillshape 0)
      (scaleselection 1)
      (outputdirectory "Gerber/")
    )
  )

  (net 0 "")
  (net 1 "Net-(J2-Pin_1)")
  (net 2 "Net-(J1-Pin_1)")
  (net 3 "GND")

  (footprint "TeensyRecorder:C_0402" (layer "F.Cu")
    (tstamp 00000000-0000-0000-0000-00005bdb2408)
    (at 101.941442 101.699151 180)
    (descr "Capacitor SMD 0402 (1005 Metric), square (rectangular) end terminal, IPC_7351 nominal with elongated pad for handsoldering. (Body size source: IPC-SM-782 page 76, https://www.pcb-3d.com/wordpress/wp-content/uploads/ipc-sm-782a_amendment_1_and_2.pdf), generated with kicad-footprint-generator")
    (tags "capacitor handsolder")
    (property "Sheetfile" "AMM-3738-B-R.kicad_sch")
    (property "Sheetname" "")
    (property "ki_description" "Unpolarized capacitor")
    (property "ki_keywords" "cap capacitor")
    (path "/00000000-0000-0000-0000-00005bdb1574")
    (attr smd)
    (fp_text reference "C1" (at -0.589751 -0.9568 180) (layer "F.SilkS")
        (effects (font (size 0.6 0.6) (thickness 0.1) bold))
      (tstamp 83b8eb42-e31e-467e-b15b-9131b02e885b)
    )
    (fp_text value "100nF" (at -0.581913 0.697203 180) (layer "F.Fab")
        (effects (font (size 0.4 0.4) (thickness 0.1) bold))
      (tstamp 28486175-241a-4070-8a8e-c52466362456)
    )
    (fp_text user "${REFERENCE}" (at 0 0 180) (layer "F.Fab") hide
        (effects (font (size 0.25 0.25) (thickness 0.04)))
      (tstamp 9db58a42-e2dc-45ba-9d1b-7b99723e3453)
    )
    (fp_line (start -0.115835 -0.36) (end 0.115835 -0.36)
      (stroke (width 0.12) (type solid)) (layer "F.SilkS") (tstamp 88820fc8-66aa-4239-b3e7-d0f34604d4af))
    (fp_line (start -0.115835 0.36) (end 0.115835 0.36)
      (stroke (width 0.12) (type solid)) (layer "F.SilkS") (tstamp fda1505f-9715-435b-bdeb-e15cac6e9139))
    (fp_line (start -1.08 -0.46) (end 1.08 -0.46)
      (stroke (width 0.05) (type solid)) (layer "F.CrtYd") (tstamp 7ef01cb1-d730-46f0-a7fc-8d015502f707))
    (fp_line (start -1.08 0.46) (end -1.08 -0.46)
      (stroke (width 0.05) (type solid)) (layer "F.CrtYd") (tstamp 2c12c848-8c9c-41ba-bac9-636edebeeb5d))
    (fp_line (start 1.08 -0.46) (end 1.08 0.46)
      (stroke (width 0.05) (type solid)) (layer "F.CrtYd") (tstamp 0dfe727e-ffe9-46fe-b4af-f01abcd11ced))
    (fp_line (start 1.08 0.46) (end -1.08 0.46)
      (stroke (width 0.05) (type solid)) (layer "F.CrtYd") (tstamp d11a5588-727c-4a13-a8f9-cf7afeccc7ee))
    (fp_line (start -0.5 -0.25) (end 0.5 -0.25)
      (stroke (width 0.1) (type solid)) (layer "F.Fab") (tstamp 7d54b126-a815-46e5-86d4-da4b114fdcf7))
    (fp_line (start -0.5 0.25) (end -0.5 -0.25)
      (stroke (width 0.1) (type solid)) (layer "F.Fab") (tstamp 3db1ac88-011b-49c6-bce0-2913440860ec))
    (fp_line (start 0.5 -0.25) (end 0.5 0.25)
      (stroke (width 0.1) (type solid)) (layer "F.Fab") (tstamp 1143720f-2237-4112-b9f3-975c1118e04d))
    (fp_line (start 0.5 0.25) (end -0.5 0.25)
      (stroke (width 0.1) (type solid)) (layer "F.Fab") (tstamp c6bccae4-e163-4bf0-b7f1-8b57b9f90f64))
    (pad "1" smd roundrect (at -0.5675 0 180) (size 0.735 0.62) (layers "F.Cu" "F.Paste" "F.Mask") (roundrect_rratio 0.25)
      (net 2 "Net-(J1-Pin_1)") (pintype "passive") (tstamp 094cfe6b-bef7-4d95-9e43-98ae795d9527))
    (pad "2" smd roundrect (at 0.5675 0 180) (size 0.735 0.62) (layers "F.Cu" "F.Paste" "F.Mask") (roundrect_rratio 0.25)
      (net 3 "GND") (pintype "passive") (tstamp 05dcc479-e137-4dd9-a0f4-d29666cb55ce))
    (model "${KICAD6_3DMODEL_DIR}/Capacitor_SMD.3dshapes/C_0402_1005Metric.wrl"
      (offset (xyz 0 0 0))
      (scale (xyz 1 1 1))
      (rotate (xyz 0 0 0))
    )
  )

  (footprint "TeensyRecorder:PADx1Micro" (layer "F.Cu")
    (tstamp 00000000-0000-0000-0000-00005bdb240d)
    (at 102.87 99.4)
    (property "Sheetfile" "AMM-3738-B-R.kicad_sch")
    (property "Sheetname" "")
    (property "ki_description" "Generic connector, single row, 01x01, script generated (kicad-library-utils/schlib/autogen/connector/)")
    (property "ki_keywords" "connector")
    (path "/00000000-0000-0000-0000-00005b0450a0")
    (attr smd)
    (fp_text reference "J1" (at 0 -0.5 unlocked) (layer "F.Fab") hide
        (effects (font (size 1 1) (thickness 0.1)))
      (tstamp bedbcbc9-edb0-4375-9f20-4c553282ca63)
    )
    (fp_text value "+" (at -0.635 -2.118 unlocked) (layer "F.SilkS")
        (effects (font (size 1 1) (thickness 0.15)))
      (tstamp 3d9a67ce-babf-47cd-8612-38028f86aee3)
    )
    (fp_text user "${REFERENCE}" (at 0 -0.467 unlocked) (layer "F.Fab") hide
        (effects (font (size 1 1) (thickness 0.15)))
      (tstamp 0e5dafd3-1caf-4fdd-992c-e27a76c5ab13)
    )
    (pad "1" smd roundrect (at -0.07 0.1) (size 1 2.6) (layers "F.Cu" "F.Paste" "F.Mask") (roundrect_rratio 0.25)
      (net 2 "Net-(J1-Pin_1)") (pinfunction "Pin_1") (pintype "passive") (thermal_bridge_angle 45) (tstamp 9d7b2fd6-0962-44b5-a293-9f82781d8251))
  )

  (footprint "TeensyRecorder:PADx1Micro" (layer "F.Cu")
    (tstamp 00000000-0000-0000-0000-00005bdb2412)
    (at 97.065 99.167)
    (property "Sheetfile" "AMM-3738-B-R.kicad_sch")
    (property "Sheetname" "")
    (property "ki_description" "Generic connector, single row, 01x01, script generated (kicad-library-utils/schlib/autogen/connector/)")
    (property "ki_keywords" "connector")
    (path "/00000000-0000-0000-0000-00005b044fb7")
    (attr smd)
    (fp_text reference "J2" (at 0 -0.5 unlocked) (layer "F.Fab") hide
        (effects (font (size 1 1) (thickness 0.1)))
      (tstamp bd027909-a7bb-4103-b748-3951a8031e2b)
    )
    (fp_text value "O" (at 0.725943 -1.696225 unlocked) (layer "F.SilkS")
        (effects (font (size 1 1) (thickness 0.15)))
      (tstamp 4d8cdf1e-7d33-4fa1-83ec-24f6417fc4e2)
    )
    (fp_text user "${REFERENCE}" (at -0.037 -0.488 unlocked) (layer "F.Fab") hide
        (effects (font (size 1 1) (thickness 0.15)))
      (tstamp 7a4f6472-91f4-4332-981c-bba9ce2ec310)
    )
    (pad "1" smd roundrect (at 0.135 0.333) (size 1 2.6) (layers "F.Cu" "F.Paste" "F.Mask") (roundrect_rratio 0.25)
      (net 1 "Net-(J2-Pin_1)") (pinfunction "Pin_1") (pintype "passive") (thermal_bridge_angle 45) (tstamp ce963fc9-879e-4824-bd69-565c05c54577))
  )

  (footprint "TeensyRecorder:PADx1Micro" (layer "F.Cu")
    (tstamp 00000000-0000-0000-0000-00005bdb2417)
    (at 100.18 103.94 180)
    (property "Sheetfile" "AMM-3738-B-R.kicad_sch")
    (property "Sheetname" "")
    (property "ki_description" "Generic connector, single row, 01x01, script generated (kicad-library-utils/schlib/autogen/connector/)")
    (property "ki_keywords" "connector")
    (path "/00000000-0000-0000-0000-00005b0450f1")
    (attr smd)
    (fp_text reference "J3" (at -1.039 0.816 unlocked) (layer "F.Fab") hide
        (effects (font (size 1 1) (thickness 0.1)))
      (tstamp e6025e13-e764-414e-808e-0b411c4555ba)
    )
    (fp_text value "G" (at 1.12 0.816 unlocked) (layer "F.Fab") hide
        (effects (font (size 1 1) (thickness 0.15)))
      (tstamp 7c54498d-565f-4c61-87b9-3d798d2a74ee)
    )
    (fp_text user "${REFERENCE}" (at -1.039 0.816 unlocked) (layer "F.Fab") hide
        (effects (font (size 1 1) (thickness 0.15)))
      (tstamp a2f0eb20-aaed-426c-bfc5-00751e85b15f)
    )
    (pad "1" smd roundrect (at 0.18 1.07 180) (size 3.5 1.2) (layers "F.Cu" "F.Paste" "F.Mask") (roundrect_rratio 0.25)
      (net 3 "GND") (pinfunction "Pin_1") (pintype "passive") (thermal_bridge_angle 45) (tstamp d3afebe1-e8ba-4afa-be1e-da1e1b0b4617))
  )

  (footprint "TeensyRecorder:MIC_AMM-3738-B-R" (layer "F.Cu")
    (tstamp 86d2028e-8e18-495f-b2f3-d266fbaac58b)
    (at 100 100)
    (property "Sheetfile" "AMM-3738-B-R.kicad_sch")
    (property "Sheetname" "")
    (property "ki_description" "Micro étanche")
    (property "ki_keywords" "Teensy")
    (path "/ab1d8593-1ea7-4af9-8ae3-8503887fc0c9")
    (fp_text reference "M1" (at 0.15 -3.6 unlocked) (layer "F.SilkS")
        (effects (font (size 0.8 0.8) (thickness 0.15)))
      (tstamp 7d0c1431-f251-4d85-9e27-b571ff095945)
    )
    (fp_text value "~" (at 0.1 2 unlocked) (layer "F.Fab")
        (effects (font (size 0.8 0.8) (thickness 0.15)))
      (tstamp bc2b0cf0-367a-435f-987f-375392f6d46b)
    )
    (fp_text user "1" (at -1.591 -2.834831 unlocked) (layer "F.SilkS")
        (effects (font (size 0.6 0.6) (thickness 0.15)) (justify left bottom))
      (tstamp 40fd1152-556e-44e7-8645-2e1e8d961ed8)
    )
    (fp_text user "+" (at 0.65 -1.05 unlocked) (layer "F.Fab")
        (effects (font (size 0.5 0.5) (thickness 0.1) bold) (justify left bottom))
      (tstamp 0472512a-10b4-4267-a65b-a278b8289334)
    )
    (fp_text user "Gnd" (at -0.65 1.1 unlocked) (layer "F.Fab")
        (effects (font (size 0.4 0.4) (thickness 0.1) bold) (justify left bottom))
      (tstamp a709bae3-2533-416f-be5e-0b3dd8340cb6)
    )
    (fp_text user "O" (at -1.3 -1 unlocked) (layer "F.Fab")
        (effects (font (size 0.5 0.5) (thickness 0.1) bold) (justify left bottom))
      (tstamp cea9d9e3-881c-4e55-a205-d313988542ba)
    )
    (fp_text user "${REFERENCE}" (at -0.35 3 unlocked) (layer "F.Fab") hide
        (effects (font (size 0.5 0.5) (thickness 0.1) bold))
      (tstamp fa9ba9ac-8e1b-4845-a065-128df384b780)
    )
    (fp_line (start -1.475 1.13) (end -1.475 -2.63)
      (stroke (width 0.12) (type default)) (layer "F.SilkS") (tstamp 1537a3a3-71c7-4720-8df5-edbbd6e90a7d))
    (fp_line (start -1.425 -2.63) (end 1.425 -2.63)
      (stroke (width 0.12) (type default)) (layer "F.SilkS") (tstamp 7a75f707-6a77-46bc-878d-8a2653b204cf))
    (fp_line (start 1.475 -2.63) (end 1.475 1.13)
      (stroke (width 0.12) (type default)) (layer "F.SilkS") (tstamp 7fff344f-2514-4fc1-9b12-59ab53b369f3))
    (fp_line (start 1.475 1.13) (end -1.475 1.13)
      (stroke (width 0.12) (type default)) (layer "F.SilkS") (tstamp a1dead72-dae8-4229-b91c-e08e44bdab39))
    (fp_line (start -1.51 -2.66) (end 1.51 -2.66)
      (stroke (width 0.12) (type default)) (layer "F.CrtYd") (tstamp 3a1d658a-5be6-493e-80cf-18f89ab3d3f2))
    (fp_line (start -1.51 1.16) (end -1.51 -2.66)
      (stroke (width 0.12) (type default)) (layer "F.CrtYd") (tstamp f8056465-34a4-4f99-bc25-a80506a6fc89))
    (fp_line (start 1.51 -2.66) (end 1.51 1.16)
      (stroke (width 0.12) (type default)) (layer "F.CrtYd") (tstamp 14d7ffd2-4f01-40bd-83f6-4f1839948d8d))
    (fp_line (start 1.51 1.16) (end -1.51 1.16)
      (stroke (width 0.12) (type default)) (layer "F.CrtYd") (tstamp 910c4443-4024-4fed-b5f7-cddf4f92c91a))
    (fp_line (start -0.75 0.4) (end -0.686755 0.345267)
      (stroke (width 0.1) (type default)) (layer "F.Fab") (tstamp c3a0c83f-06ca-4755-8881-cc005fd30a8e))
    (fp_line (start 0 -1.75) (end 0 -0.7)
      (stroke (width 0.1) (type default)) (layer "F.Fab") (tstamp efe2a5d2-b3ea-4230-9574-b24ad0c0d856))
    (fp_line (start 0.665407 0.359713) (end 0.75 0.4)
      (stroke (width 0.1) (type default)) (layer "F.Fab") (tstamp 4b17e5cc-f2fc-48c9-9dfa-fb1391fd1d88))
    (pad "" np_thru_hole circle (at 0 0) (size 0.55 0.55) (drill 0.55) (layers "F&B.Cu" "*.Mask") (tstamp 2c76e642-c320-4346-9cd3-e95b1fe8b344))
    (pad "1" smd circle (at 0.965 -2.11) (size 0.72 0.72) (layers "F.Cu" "F.Paste" "F.Mask")
      (net 2 "Net-(J1-Pin_1)") (pinfunction "VDD") (pintype "input") (solder_mask_margin 0.1) (tstamp 651729e8-e780-4501-8925-8ae035745770))
    (pad "2" smd circle (at -0.965 -2.11) (size 0.72 0.72) (layers "F.Cu" "F.Paste" "F.Mask")
      (net 1 "Net-(J2-Pin_1)") (pinfunction "O") (pintype "passive") (solder_mask_margin 0.1) (tstamp 9d744753-c3ba-45f0-93d9-cc15b2354c2e))
    (pad "3" smd circle (at -1.015 0.63) (size 0.56 0.56) (layers "F.Cu" "F.Paste" "F.Mask")
      (net 3 "GND") (pinfunction "GND") (pintype "input") (solder_mask_margin 0.1) (tstamp 89113f11-e0d1-486e-9c85-904a1b608dc5))
    (pad "3" smd circle (at 0 -2.11) (size 0.61 0.61) (layers "F.Cu" "F.Paste" "F.Mask")
      (net 3 "GND") (pinfunction "GND") (pintype "input") (solder_mask_margin 0.1) (tstamp a144bd64-1453-45fb-aed0-20779bc398a7))
    (pad "3" smd custom (at 0 0.45) (size 0.3 0.3) (layers "F.Cu" "F.Paste" "F.Mask")
      (net 3 "GND") (pinfunction "GND") (pintype "input") (solder_mask_margin 0.1) (thermal_bridge_angle 45)
      (options (clearance outline) (anchor circle))
      (primitives
        (gr_circle (center 0 -0.457) (end 0.457 -0.457) (width 0.325) (fill none))
      ) (tstamp 0dde5e71-1897-4fcd-a613-25c2e311f6bc))
    (pad "3" smd circle (at 1.015 0.63) (size 0.56 0.56) (layers "F.Cu" "F.Paste" "F.Mask")
      (net 3 "GND") (pinfunction "GND") (pintype "input") (solder_mask_margin 0.1) (tstamp a4a67e51-b263-4e5f-ac2d-cad3ea12f4bb))
    (model "${JEANDO_FOOT3D}/AMM-3738-B-R-1761375.step"
      (offset (xyz 1.5 2.6 0))
      (scale (xyz 1 1 1))
      (rotate (xyz -90 0 0))
    )
  )

  (gr_circle (center 100 100) (end 102.8 100)
    (stroke (width 0.2) (type default)) (fill none) (layer "B.SilkS") (tstamp ef6f3357-effd-4f5d-a502-035f3de08cb6))
  (gr_circle (center 100 100) (end 104.5 100)
    (stroke (width 0.2) (type default)) (fill none) (layer "Edge.Cuts") (tstamp 957102b7-eec7-488d-9fbf-80cc9911be66))
  (gr_text "V0.3" (at 101.473 104.013) (layer "B.SilkS") (tstamp 5281c38c-3982-4f75-ad37-6ad268f5f7f6)
    (effects (font (size 0.8 0.8) (thickness 0.15)) (justify left bottom mirror))
  )
  (gr_text "AMM" (at 101.219 96.901) (layer "B.SilkS") (tstamp c12db75e-811f-4c2f-be3d-78b5c16c9ba5)
    (effects (font (size 0.8 0.8) (thickness 0.2) bold) (justify left bottom mirror))
  )
  (gr_text "G" (at 97.536 102.235) (layer "F.SilkS") (tstamp 45024785-f50d-4831-bd0d-561c4f37423e)
    (effects (font (size 1 1) (thickness 0.15)))
  )

  (segment (start 99.035 97.89) (end 97.436 97.89) (width 0.4064) (layer "F.Cu") (net 1) (tstamp 26535869-8e00-4686-9931-f1ea7d139ab9))
  (segment (start 97.436 97.89) (end 97.282 98.044) (width 0.4064) (layer "F.Cu") (net 1) (tstamp 2b8ed380-031f-4f30-92f7-566846a7c2b8))
  (segment (start 100.965 97.89) (end 102.589 97.89) (width 0.4064) (layer "F.Cu") (net 2) (tstamp 55a82eba-238e-409f-9e20-45e5999f8a4f))
  (segment (start 102.508942 101.699151) (end 102.8 101.408093) (width 0.4064) (layer "F.Cu") (net 2) (tstamp 7d72a89d-73d8-48a1-ad82-9b7a2df614c4))
  (segment (start 102.8 101.408093) (end 102.8 99.5) (width 0.4064) (layer "F.Cu") (net 2) (tstamp 98355ee2-fb51-485b-91c5-b2ef7bddb829))
  (segment (start 102.589 97.89) (end 102.8 98.101) (width 0.4064) (layer "F.Cu") (net 2) (tstamp ac4ee8ce-6466-49af-9a47-e80c78c30c6d))
  (segment (start 102.8 98.101) (end 102.8 99.5) (width 0.4064) (layer "F.Cu") (net 2) (tstamp f0a0ed54-2a99-4201-b1d7-4cb6a1fe1d40))
  (segment (start 99.367077 98.860277) (end 99.676632 98.860277) (width 0.3048) (layer "F.Cu") (net 3) (tstamp 00dfd33f-6097-48ef-97a2-9f847777470b))
  (segment (start 100 98.860277) (end 100 99.445952) (width 0.3048) (layer "F.Cu") (net 3) (tstamp 022cc555-91a5-4408-beda-e16ba16574f3))
  (segment (start 101.373942 101.699151) (end 100.381788 101.699151) (width 0.3048) (layer "F.Cu") (net 3) (tstamp 0d4ddbcc-aacf-4349-87c0-26084ef320da))
  (segment (start 100.381788 101.699151) (end 100.055438 101.699151) (width 0.3048) (layer "F.Cu") (net 3) (tstamp 105b48ce-40ba-4dfd-a4b1-8cb3e3772f45))
  (segment (start 100.381788 101.699151) (end 100.335636 101.699151) (width 0.3048) (layer "F.Cu") (net 3) (tstamp 188a5156-8c99-47f3-82b7-761d91df685c))
  (segment (start 100 98.860277) (end 100.791152 98.860277) (width 0.3048) (layer "F.Cu") (net 3) (tstamp 18aa9d1a-0117-4c22-99e7-715748d99916))
  (segment (start 99.996389 98.54052) (end 100.319443 98.863572) (width 0.3048) (layer "F.Cu") (net 3) (tstamp 2a694158-b355-4a1e-af59-32220eb7c02c))
  (segment (start 98.985 99.242354) (end 99.367077 98.860277) (width 0.3048) (layer "F.Cu") (net 3) (tstamp 2eb230b9-f494-423b-95c3-23495e861df1))
  (segment (start 99.676632 98.860277) (end 99.996389 98.54052) (width 0.3048) (layer "F.Cu") (net 3) (tstamp 37b078dd-5ef3-4b22-b32a-1f7b9ee857dc))
  (segment (start 99.676632 98.860277) (end 100 98.860277) (width 0.3048) (layer "F.Cu") (net 3) (tstamp 3d41ecab-f1ab-41f0-a812-94c8f5fb2d60))
  (segment (start 100 99.445952) (end 100.001648 99.4476) (width 0.3048) (layer "F.Cu") (net 3) (tstamp 545084d0-6891-4627-ba9d-d581936587ad))
  (segment (start 100.335636 101.699151) (end 100.00599 102.028797) (width 0.3048) (layer "F.Cu") (net 3) (tstamp 54fa5e1f-51e5-442b-a00d-ecb2c142c873))
  (segment (start 101.015 100.63) (end 100.495757 101.149243) (width 0.3048) (layer "F.Cu") (net 3) (tstamp 57bedf09-80d5-4720-a30d-7900ff8545b5))
  (segment (start 100 97.89) (end 100 98.860277) (width 0.3048) (layer "F.Cu") (net 3) (tstamp 595ee9e2-2eca-4806-83eb-bfa6d105840e))
  (segment (start 98.985 100.63) (end 99.504243 101.149243) (width 0.3048) (layer "F.Cu") (net 3) (tstamp 689e4c9f-9626-4bd0-b1e8-fac303bc0f0f))
  (segment (start 100.055438 101.699151) (end 100 101.643713) (width 0.3048) (layer "F.Cu") (net 3) (tstamp 7b197b41-49c1-4b0a-a30f-aa21dc051f75))
  (segment (start 100.495757 101.149243) (end 100 101.149243) (width 0.3048) (layer "F.Cu") (net 3) (tstamp 969cc736-d6bf-4052-ae64-63c1127df5e2))
  (segment (start 100 102.87) (end 100 101.643713) (width 0.3048) (layer "F.Cu") (net 3) (tstamp 9df22d12-1782-446c-8b2c-93079b31a04a))
  (segment (start 101.015 99.084125) (end 101.015 100.63) (width 0.3048) (layer "F.Cu") (net 3) (tstamp b4207eb4-5af2-43c8-b429-e625fd89a74d))
  (segment (start 100 101.643713) (end 100 101.149243) (width 0.3048) (layer "F.Cu") (net 3) (tstamp c653db5c-6ff5-40b1-aa7a-1538a86b09d0))
  (segment (start 98.985 100.63) (end 98.985 99.242354) (width 0.3048) (layer "F.Cu") (net 3) (tstamp c8a732be-636b-4810-8d91-56e3aa307295))
  (segment (start 100.791152 98.860277) (end 101.015 99.084125) (width 0.3048) (layer "F.Cu") (net 3) (tstamp d064978e-62e2-4bb2-96e5-9b15d534b146))
  (segment (start 99.504243 101.149243) (end 100 101.149243) (width 0.3048) (layer "F.Cu") (net 3) (tstamp efc5bc37-43f0-4f88-b734-2afaaa4d0ce8))
  (segment (start 100 101.149243) (end 100 100.5524) (width 0.3048) (layer "F.Cu") (net 3) (tstamp f7d77bd3-9731-4e70-8896-e99e85d4c082))

)
