(kicad_sch (version 20230121) (generator eeschema)

  (uuid d04e161f-a78c-4c6c-ba3f-d86340a568d7)

  (paper "A4")

  (lib_symbols
    (symbol "Connector_Generic:Conn_01x01" (pin_names (offset 1.016) hide) (in_bom yes) (on_board yes)
      (property "Reference" "J" (at 0 2.54 0)
        (effects (font (size 1.27 1.27)))
      )
      (property "Value" "Conn_01x01" (at 0 -2.54 0)
        (effects (font (size 1.27 1.27)))
      )
      (property "Footprint" "" (at 0 0 0)
        (effects (font (size 1.27 1.27)) hide)
      )
      (property "Datasheet" "~" (at 0 0 0)
        (effects (font (size 1.27 1.27)) hide)
      )
      (property "ki_keywords" "connector" (at 0 0 0)
        (effects (font (size 1.27 1.27)) hide)
      )
      (property "ki_description" "Generic connector, single row, 01x01, script generated (kicad-library-utils/schlib/autogen/connector/)" (at 0 0 0)
        (effects (font (size 1.27 1.27)) hide)
      )
      (property "ki_fp_filters" "Connector*:*_1x??_*" (at 0 0 0)
        (effects (font (size 1.27 1.27)) hide)
      )
      (symbol "Conn_01x01_1_1"
        (rectangle (start -1.27 0.127) (end 0 -0.127)
          (stroke (width 0.1524) (type default))
          (fill (type none))
        )
        (rectangle (start -1.27 1.27) (end 1.27 -1.27)
          (stroke (width 0.254) (type default))
          (fill (type background))
        )
        (pin passive line (at -5.08 0 0) (length 3.81)
          (name "Pin_1" (effects (font (size 1.27 1.27))))
          (number "1" (effects (font (size 1.27 1.27))))
        )
      )
    )
    (symbol "Device:C" (pin_numbers hide) (pin_names (offset 0.254)) (in_bom yes) (on_board yes)
      (property "Reference" "C" (at 0.635 2.54 0)
        (effects (font (size 1.27 1.27)) (justify left))
      )
      (property "Value" "C" (at 0.635 -2.54 0)
        (effects (font (size 1.27 1.27)) (justify left))
      )
      (property "Footprint" "" (at 0.9652 -3.81 0)
        (effects (font (size 1.27 1.27)) hide)
      )
      (property "Datasheet" "~" (at 0 0 0)
        (effects (font (size 1.27 1.27)) hide)
      )
      (property "ki_keywords" "cap capacitor" (at 0 0 0)
        (effects (font (size 1.27 1.27)) hide)
      )
      (property "ki_description" "Unpolarized capacitor" (at 0 0 0)
        (effects (font (size 1.27 1.27)) hide)
      )
      (property "ki_fp_filters" "C_*" (at 0 0 0)
        (effects (font (size 1.27 1.27)) hide)
      )
      (symbol "C_0_1"
        (polyline
          (pts
            (xy -2.032 -0.762)
            (xy 2.032 -0.762)
          )
          (stroke (width 0.508) (type default))
          (fill (type none))
        )
        (polyline
          (pts
            (xy -2.032 0.762)
            (xy 2.032 0.762)
          )
          (stroke (width 0.508) (type default))
          (fill (type none))
        )
      )
      (symbol "C_1_1"
        (pin passive line (at 0 3.81 270) (length 2.794)
          (name "~" (effects (font (size 1.27 1.27))))
          (number "1" (effects (font (size 1.27 1.27))))
        )
        (pin passive line (at 0 -3.81 90) (length 2.794)
          (name "~" (effects (font (size 1.27 1.27))))
          (number "2" (effects (font (size 1.27 1.27))))
        )
      )
    )
    (symbol "Micro-AAM:AMM-3738-B-R-1761375" (in_bom yes) (on_board yes)
      (property "Reference" "M" (at 3.81 -0.3175 0)
        (effects (font (size 1.27 1.27)) (justify left))
      )
      (property "Value" "~" (at 0 0 0)
        (effects (font (size 1.27 1.27)))
      )
      (property "Footprint" "TeensyRecorder:AMM-3738-B-R-1761375" (at 0 3.81 0)
        (effects (font (size 0.5 0.5)) hide)
      )
      (property "Datasheet" "" (at 0 0 0)
        (effects (font (size 1.27 1.27)) hide)
      )
      (property "ki_keywords" "Teensy" (at 0 0 0)
        (effects (font (size 1.27 1.27)) hide)
      )
      (property "ki_description" "Micro étanche" (at 0 0 0)
        (effects (font (size 1.27 1.27)) hide)
      )
      (symbol "AMM-3738-B-R-1761375_0_1"
        (polyline
          (pts
            (xy 3.175 3.175)
            (xy 3.175 -3.81)
          )
          (stroke (width 0) (type default))
          (fill (type none))
        )
        (circle (center 0 0) (radius 3.175)
          (stroke (width 0) (type default))
          (fill (type none))
        )
      )
      (symbol "AMM-3738-B-R-1761375_1_1"
        (pin input line (at 0 5.715 270) (length 2.54)
          (name "VDD" (effects (font (size 0.6 0.6))))
          (number "1" (effects (font (size 1 1))))
        )
        (pin passive line (at -5.715 0 0) (length 2.54)
          (name "O" (effects (font (size 0.6 0.6))))
          (number "2" (effects (font (size 1 1))))
        )
        (pin input line (at 0 -5.715 90) (length 2.54)
          (name "GND" (effects (font (size 0.6 0.6))))
          (number "3" (effects (font (size 1 1))))
        )
        (pin input line (at 0 -5.715 90) (length 2.54) hide
          (name "GND" (effects (font (size 0.6 0.6))))
          (number "5" (effects (font (size 1 1))))
        )
      )
    )
    (symbol "power:GND" (power) (pin_names (offset 0)) (in_bom yes) (on_board yes)
      (property "Reference" "#PWR" (at 0 -6.35 0)
        (effects (font (size 1.27 1.27)) hide)
      )
      (property "Value" "GND" (at 0 -3.81 0)
        (effects (font (size 1.27 1.27)))
      )
      (property "Footprint" "" (at 0 0 0)
        (effects (font (size 1.27 1.27)) hide)
      )
      (property "Datasheet" "" (at 0 0 0)
        (effects (font (size 1.27 1.27)) hide)
      )
      (property "ki_keywords" "global power" (at 0 0 0)
        (effects (font (size 1.27 1.27)) hide)
      )
      (property "ki_description" "Power symbol creates a global label with name \"GND\" , ground" (at 0 0 0)
        (effects (font (size 1.27 1.27)) hide)
      )
      (symbol "GND_0_1"
        (polyline
          (pts
            (xy 0 0)
            (xy 0 -1.27)
            (xy 1.27 -1.27)
            (xy 0 -2.54)
            (xy -1.27 -1.27)
            (xy 0 -1.27)
          )
          (stroke (width 0) (type default))
          (fill (type none))
        )
      )
      (symbol "GND_1_1"
        (pin power_in line (at 0 0 270) (length 0) hide
          (name "GND" (effects (font (size 1.27 1.27))))
          (number "1" (effects (font (size 1.27 1.27))))
        )
      )
    )
  )

  (junction (at 143.51 98.425) (diameter 0) (color 0 0 0 0)
    (uuid 0eb72376-ad01-48be-a295-d176eb07f70a)
  )
  (junction (at 143.51 78.105) (diameter 0) (color 0 0 0 0)
    (uuid 5ce4e252-f678-422c-a791-ce13765743df)
  )

  (wire (pts (xy 143.51 97.155) (xy 143.51 98.425))
    (stroke (width 0) (type default))
    (uuid 0e6fd34c-0960-4362-b25b-9de19d67c6e1)
  )
  (wire (pts (xy 128.905 78.105) (xy 143.51 78.105))
    (stroke (width 0) (type default))
    (uuid 21801152-9eac-4986-9c0e-b0b5db240f64)
  )
  (wire (pts (xy 143.51 98.425) (xy 143.51 102.235))
    (stroke (width 0) (type default))
    (uuid 56446a41-2fc8-4399-9303-a0b4837c3454)
  )
  (wire (pts (xy 143.51 78.105) (xy 151.13 78.105))
    (stroke (width 0) (type default))
    (uuid 59a36f50-c12d-4706-8445-eede276b5816)
  )
  (wire (pts (xy 128.905 98.425) (xy 128.905 93.98))
    (stroke (width 0) (type default))
    (uuid 6486fc0f-9597-4e54-961d-0825af18552d)
  )
  (wire (pts (xy 134.62 88.265) (xy 151.13 88.265))
    (stroke (width 0) (type default))
    (uuid 6bdba536-6831-433d-99e7-ea7f819923ce)
  )
  (wire (pts (xy 143.51 89.535) (xy 143.51 78.105))
    (stroke (width 0) (type default))
    (uuid 9a84ef0a-89b7-4a2b-bbdf-b441ebda41ec)
  )
  (wire (pts (xy 128.905 78.105) (xy 128.905 82.55))
    (stroke (width 0) (type default))
    (uuid ba818dbd-9d38-4207-b8a4-65545fe202a8)
  )
  (wire (pts (xy 143.51 98.425) (xy 151.13 98.425))
    (stroke (width 0) (type default))
    (uuid cbc684d0-8b0c-4314-9aa5-403ce5f019b0)
  )
  (wire (pts (xy 128.905 98.425) (xy 143.51 98.425))
    (stroke (width 0) (type default))
    (uuid e5e77064-8439-425c-8e31-1c9340096c55)
  )

  (symbol (lib_id "Connector_Generic:Conn_01x01") (at 156.21 88.265 0) (unit 1)
    (in_bom yes) (on_board yes) (dnp no)
    (uuid 00000000-0000-0000-0000-00005b044fb7)
    (property "Reference" "J2" (at 156.21 85.725 0)
      (effects (font (size 1.27 1.27)) hide)
    )
    (property "Value" "O" (at 156.21 90.805 0)
      (effects (font (size 1.27 1.27)))
    )
    (property "Footprint" "TeensyRecorder:PADx1Micro" (at 156.21 88.265 0)
      (effects (font (size 1.27 1.27)) hide)
    )
    (property "Datasheet" "~" (at 156.21 88.265 0)
      (effects (font (size 1.27 1.27)) hide)
    )
    (pin "1" (uuid b2ba357e-b00d-4600-bec1-94f7da4f5268))
    (instances
      (project "AMM-3738-B-R"
        (path "/d04e161f-a78c-4c6c-ba3f-d86340a568d7"
          (reference "J2") (unit 1)
        )
      )
    )
  )

  (symbol (lib_id "Connector_Generic:Conn_01x01") (at 156.21 78.105 0) (unit 1)
    (in_bom yes) (on_board yes) (dnp no)
    (uuid 00000000-0000-0000-0000-00005b0450a0)
    (property "Reference" "J1" (at 156.21 75.565 0)
      (effects (font (size 1.27 1.27)) hide)
    )
    (property "Value" "+" (at 156.21 80.645 0)
      (effects (font (size 1.27 1.27)))
    )
    (property "Footprint" "TeensyRecorder:PADx1Micro" (at 156.21 78.105 0)
      (effects (font (size 1.27 1.27)) hide)
    )
    (property "Datasheet" "~" (at 156.21 78.105 0)
      (effects (font (size 1.27 1.27)) hide)
    )
    (pin "1" (uuid 618e8a53-d2eb-46fb-803d-91730056790f))
    (instances
      (project "AMM-3738-B-R"
        (path "/d04e161f-a78c-4c6c-ba3f-d86340a568d7"
          (reference "J1") (unit 1)
        )
      )
    )
  )

  (symbol (lib_id "Connector_Generic:Conn_01x01") (at 156.21 98.425 0) (unit 1)
    (in_bom yes) (on_board yes) (dnp no)
    (uuid 00000000-0000-0000-0000-00005b0450f1)
    (property "Reference" "J3" (at 156.21 95.885 0)
      (effects (font (size 1.27 1.27)) hide)
    )
    (property "Value" "G" (at 156.21 100.965 0)
      (effects (font (size 1.27 1.27)))
    )
    (property "Footprint" "TeensyRecorder:PADx1Micro" (at 156.21 98.425 0)
      (effects (font (size 1.27 1.27)) hide)
    )
    (property "Datasheet" "~" (at 156.21 98.425 0)
      (effects (font (size 1.27 1.27)) hide)
    )
    (pin "1" (uuid 467eded0-ebf2-4445-b304-38cf7bd43dee))
    (instances
      (project "AMM-3738-B-R"
        (path "/d04e161f-a78c-4c6c-ba3f-d86340a568d7"
          (reference "J3") (unit 1)
        )
      )
    )
  )

  (symbol (lib_id "Device:C") (at 143.51 93.345 0) (unit 1)
    (in_bom yes) (on_board yes) (dnp no)
    (uuid 00000000-0000-0000-0000-00005bdb1574)
    (property "Reference" "C1" (at 144.145 90.805 0)
      (effects (font (size 1.27 1.27)) (justify left))
    )
    (property "Value" "100nF" (at 144.145 95.885 0)
      (effects (font (size 1.27 1.27)) (justify left))
    )
    (property "Footprint" "TeensyRecorder:C_0402" (at 144.4752 97.155 0)
      (effects (font (size 1.27 1.27)) hide)
    )
    (property "Datasheet" "" (at 143.51 93.345 0)
      (effects (font (size 1.27 1.27)) hide)
    )
    (pin "1" (uuid 7ec59471-69cb-40b1-80fd-10c1611b9c67))
    (pin "2" (uuid f55faeb5-f424-4347-b6cf-316bf5eae4fb))
    (instances
      (project "AMM-3738-B-R"
        (path "/d04e161f-a78c-4c6c-ba3f-d86340a568d7"
          (reference "C1") (unit 1)
        )
      )
    )
  )

  (symbol (lib_id "power:GND") (at 143.51 102.235 0) (unit 1)
    (in_bom yes) (on_board yes) (dnp no) (fields_autoplaced)
    (uuid 6b8f0460-d1f7-47b7-b7a1-13b077cfbcc1)
    (property "Reference" "#PWR01" (at 143.51 108.585 0)
      (effects (font (size 1.27 1.27)) hide)
    )
    (property "Value" "GND" (at 143.51 106.3681 0)
      (effects (font (size 1.27 1.27)))
    )
    (property "Footprint" "" (at 143.51 102.235 0)
      (effects (font (size 1.27 1.27)) hide)
    )
    (property "Datasheet" "" (at 143.51 102.235 0)
      (effects (font (size 1.27 1.27)) hide)
    )
    (pin "1" (uuid 3be44cbf-ecc2-4daa-ac35-d3e196029e88))
    (instances
      (project "AMM-3738-B-R"
        (path "/d04e161f-a78c-4c6c-ba3f-d86340a568d7"
          (reference "#PWR01") (unit 1)
        )
      )
    )
  )

  (symbol (lib_id "Micro-AAM:AMM-3738-B-R-1761375") (at 128.905 88.265 0) (mirror y) (unit 1)
    (in_bom yes) (on_board yes) (dnp no)
    (uuid ab1d8593-1ea7-4af9-8ae3-8503887fc0c9)
    (property "Reference" "M1" (at 125.095 88.5825 0)
      (effects (font (size 1.27 1.27)) (justify left))
    )
    (property "Value" "~" (at 128.905 88.265 0)
      (effects (font (size 1.27 1.27)))
    )
    (property "Footprint" "TeensyRecorder:MIC_AMM-3738-B-R" (at 128.905 84.455 0)
      (effects (font (size 0.5 0.5)) hide)
    )
    (property "Datasheet" "" (at 128.905 88.265 0)
      (effects (font (size 1.27 1.27)) hide)
    )
    (pin "1" (uuid e1bee832-65a0-400c-80fe-d97c52b7bac3))
    (pin "2" (uuid 0f7d7288-15a9-404c-8ff5-80209a872d1e))
    (pin "3" (uuid be4b01ce-417f-423f-b7c1-c84b75273f04))
    (pin "5" (uuid 3c9257d2-0bc5-4637-a491-fcdb3941d454))
    (instances
      (project "AMM-3738-B-R"
        (path "/d04e161f-a78c-4c6c-ba3f-d86340a568d7"
          (reference "M1") (unit 1)
        )
      )
    )
  )

  (sheet_instances
    (path "/" (page "1"))
  )
)
