digraph "CModificatorInt"
{
 // LATEX_PDF_SIZE
  edge [fontname="Helvetica",fontsize="10",labelfontname="Helvetica",labelfontsize="10"];
  node [fontname="Helvetica",fontsize="10",shape=record];
  Node0 [label="CModificatorInt",height=0.2,width=0.4,color="black", fillcolor="grey75", style="filled", fontcolor="black",tooltip=" "];
  Node1 -> Node0 [dir="back",color="midnightblue",fontsize="10",style="solid",fontname="Helvetica"];
  Node1 [label="CGenericModifier",height=0.2,width=0.4,color="black", fillcolor="white", style="filled",URL="$class_c_generic_modifier.html",tooltip=" "];
  Node0 -> Node2 [dir="back",color="midnightblue",fontsize="10",style="solid",fontname="Helvetica"];
  Node2 [label="CDrawBarModifier",height=0.2,width=0.4,color="black", fillcolor="white", style="filled",URL="$class_c_draw_bar_modifier.html",tooltip=" "];
}
