G04 #@! TF.GenerationSoftware,KiCad,Pcbnew,7.0.7*
G04 #@! TF.CreationDate,2024-05-21T11:00:36+02:00*
G04 #@! TF.ProjectId,SchemaMicroICS-Rond,53636865-6d61-44d6-9963-726f4943532d,rev?*
G04 #@! TF.SameCoordinates,Original*
G04 #@! TF.FileFunction,Legend,Top*
G04 #@! TF.FilePolarity,Positive*
%FSLAX46Y46*%
G04 Gerber Fmt 4.6, Leading zero omitted, Abs format (unit mm)*
G04 Created by KiCad (PCBNEW 7.0.7) date 2024-05-21 11:00:36*
%MOMM*%
%LPD*%
G01*
G04 APERTURE LIST*
%ADD10C,0.150000*%
G04 APERTURE END LIST*
D10*
X97731904Y-102372438D02*
X97636666Y-102324819D01*
X97636666Y-102324819D02*
X97493809Y-102324819D01*
X97493809Y-102324819D02*
X97350952Y-102372438D01*
X97350952Y-102372438D02*
X97255714Y-102467676D01*
X97255714Y-102467676D02*
X97208095Y-102562914D01*
X97208095Y-102562914D02*
X97160476Y-102753390D01*
X97160476Y-102753390D02*
X97160476Y-102896247D01*
X97160476Y-102896247D02*
X97208095Y-103086723D01*
X97208095Y-103086723D02*
X97255714Y-103181961D01*
X97255714Y-103181961D02*
X97350952Y-103277200D01*
X97350952Y-103277200D02*
X97493809Y-103324819D01*
X97493809Y-103324819D02*
X97589047Y-103324819D01*
X97589047Y-103324819D02*
X97731904Y-103277200D01*
X97731904Y-103277200D02*
X97779523Y-103229580D01*
X97779523Y-103229580D02*
X97779523Y-102896247D01*
X97779523Y-102896247D02*
X97589047Y-102896247D01*
X102219048Y-97473866D02*
X102980953Y-97473866D01*
X102600000Y-97854819D02*
X102600000Y-97092914D01*
X97304762Y-96854819D02*
X97495238Y-96854819D01*
X97495238Y-96854819D02*
X97590476Y-96902438D01*
X97590476Y-96902438D02*
X97685714Y-96997676D01*
X97685714Y-96997676D02*
X97733333Y-97188152D01*
X97733333Y-97188152D02*
X97733333Y-97521485D01*
X97733333Y-97521485D02*
X97685714Y-97711961D01*
X97685714Y-97711961D02*
X97590476Y-97807200D01*
X97590476Y-97807200D02*
X97495238Y-97854819D01*
X97495238Y-97854819D02*
X97304762Y-97854819D01*
X97304762Y-97854819D02*
X97209524Y-97807200D01*
X97209524Y-97807200D02*
X97114286Y-97711961D01*
X97114286Y-97711961D02*
X97066667Y-97521485D01*
X97066667Y-97521485D02*
X97066667Y-97188152D01*
X97066667Y-97188152D02*
X97114286Y-96997676D01*
X97114286Y-96997676D02*
X97209524Y-96902438D01*
X97209524Y-96902438D02*
X97304762Y-96854819D01*
X98100000Y-96980000D02*
X98100000Y-101780000D01*
X98100000Y-96980000D02*
X101900000Y-96980000D01*
X98100000Y-101780000D02*
X101900000Y-101780000D01*
X101900000Y-96980000D02*
X101900000Y-101780000D01*
M02*
